<svg width="304" height="228" viewBox="0 0 304 228" fill="none" xmlns="http://www.w3.org/2000/svg">
<g clip-path="url(#clip0_2331_128967)">
<rect width="304" height="228" rx="12" fill="white"/>
<path d="M125.679 82.7186C123.949 82.7186 122.199 82.0586 120.839 80.0086C118.129 75.8986 123.609 71.3686 126.239 69.1886L126.669 68.8286L136.299 61.5486C140.579 58.5586 145.239 56.4186 150.199 55.1786L161.119 52.4386C164.529 51.5886 168.029 51.1686 171.519 51.2086C181.629 51.2886 191.399 47.5386 199.019 40.6086L202.939 37.0486C203.249 36.7686 203.719 36.7886 203.999 37.0986C204.279 37.4086 204.259 37.8786 203.949 38.1586L200.029 41.7186C192.119 48.9086 181.999 52.7986 171.509 52.7086C168.139 52.6786 164.769 53.0786 161.489 53.8986L150.569 56.6386C145.789 57.8386 141.289 59.8986 137.189 62.7686L127.209 70.3486C124.739 72.3986 120.139 76.2086 122.109 79.1886C124.029 82.0886 126.899 81.5086 130.609 79.7586C131.099 79.4686 143.979 71.8486 146.939 70.5586C149.959 69.2386 154.359 68.8686 154.539 68.8586C154.949 68.8286 155.309 69.1286 155.349 69.5486C155.389 69.9686 155.079 70.3186 154.659 70.3586C154.619 70.3586 150.319 70.7186 147.529 71.9386C144.659 73.1886 131.439 81.0086 131.299 81.0886C129.949 81.7286 127.819 82.7386 125.679 82.7386V82.7186Z" fill="#888888"/>
<path d="M170.297 82.8172H153.017C149.157 82.8172 146.027 79.6773 146.027 75.8273C146.027 71.9773 149.167 68.8372 153.017 68.8372H168.767C169.177 68.8372 169.517 69.1772 169.517 69.5872C169.517 69.9972 169.177 70.3372 168.767 70.3372H153.017C149.987 70.3372 147.527 72.7973 147.527 75.8273C147.527 78.8573 149.987 81.3172 153.017 81.3172H170.297C174.407 81.3172 178.437 80.2073 181.947 78.1173L190.177 73.2273C190.177 73.2273 190.237 73.1873 190.277 73.1773L220.287 60.8772C220.667 60.7172 221.107 60.9073 221.267 61.2873C221.427 61.6673 221.237 62.1072 220.857 62.2672L190.907 74.5373L182.727 79.3973C178.977 81.6273 174.687 82.8072 170.307 82.8072L170.297 82.8172Z" fill="#888888"/>
<path d="M144.451 115.999C140.921 115.999 138.051 113.129 138.051 109.599C138.051 106.069 140.921 103.199 144.451 103.199C147.981 103.199 150.851 106.069 150.851 109.599C150.851 113.129 147.981 115.999 144.451 115.999ZM144.451 104.689C141.751 104.689 139.551 106.889 139.551 109.589C139.551 112.289 141.751 114.489 144.451 114.489C147.151 114.489 149.351 112.289 149.351 109.589C149.351 106.889 147.151 104.689 144.451 104.689Z" fill="#888888"/>
<path d="M167.228 115.408H160.468C159.048 115.408 157.898 114.258 157.898 112.838V106.078C157.898 104.658 159.048 103.508 160.468 103.508H167.228C168.648 103.508 169.798 104.658 169.798 106.078V112.838C169.798 114.258 168.648 115.408 167.228 115.408ZM160.468 105.018C159.878 105.018 159.398 105.498 159.398 106.088V112.848C159.398 113.438 159.878 113.918 160.468 113.918H167.228C167.818 113.918 168.298 113.438 168.298 112.848V106.088C168.298 105.498 167.818 105.018 167.228 105.018H160.468Z" fill="#888888"/>
<path d="M113.159 130.749C110.879 130.749 108.119 124.539 107.589 123.299C105.479 118.359 104.259 112.889 104.239 108.299C104.199 99.159 105.609 87.259 112.569 82.499C116.509 79.809 121.739 79.719 128.109 82.229L129.299 82.699C136.159 85.419 143.949 88.529 152.929 88.459C161.789 88.419 169.709 85.239 176.699 82.429C177.849 81.969 178.979 81.509 180.089 81.079C185.989 78.789 190.919 78.949 194.739 81.549C202.349 86.729 203.549 100.219 203.589 107.789C203.619 113.519 202.549 119.219 200.589 123.829C199.319 126.819 197.169 130.309 195.289 130.319V129.569V130.319L113.179 130.729L113.159 130.749ZM119.699 81.919C117.289 81.919 115.189 82.529 113.409 83.739C106.989 88.129 105.699 99.509 105.739 108.299C105.789 118.309 111.569 129.019 113.169 129.259L195.269 128.849H195.279C195.799 128.849 197.549 127.159 199.209 123.269C200.299 120.699 202.129 115.279 202.089 107.819C202.049 100.539 200.939 87.599 193.899 82.809C190.509 80.499 186.049 80.399 180.639 82.499C179.539 82.929 178.409 83.379 177.269 83.839C170.159 86.699 162.089 89.929 152.939 89.969C143.629 90.029 135.729 86.879 128.749 84.109L127.559 83.639C124.659 82.499 122.039 81.919 119.699 81.919Z" fill="#888888"/>
<path d="M124.096 185.876C124 186.008 123.784 186.368 123.676 186.62C123.184 187.76 122.296 189.392 121.264 190.592C119.92 192.14 118.108 193.628 116.248 194.504L115 193.208C116.944 192.488 118.792 191.024 119.92 189.776C120.712 188.876 121.444 187.688 121.72 186.836C121.216 186.836 118.156 186.836 117.64 186.836C117.148 186.836 116.488 186.896 116.224 186.92V185.204C116.548 185.252 117.292 185.288 117.64 185.288C118.276 185.288 121.348 185.288 121.876 185.288C122.404 185.288 122.872 185.228 123.124 185.144L124.096 185.876ZM121.42 189.596C122.656 190.604 124.36 192.392 125.14 193.352L123.772 194.54C122.884 193.304 121.576 191.876 120.292 190.712L121.42 189.596ZM132.196 188.384C133.672 189.236 135.892 190.772 137.008 191.66L135.856 193.028C134.812 192.044 132.532 190.364 131.128 189.476L132.196 188.384ZM137.848 186.344C137.704 186.572 137.548 186.908 137.44 187.208C137.08 188.312 136.348 189.848 135.268 191.18C134.14 192.584 132.604 193.928 130.312 194.792L128.92 193.592C131.428 192.812 132.856 191.552 133.888 190.352C134.692 189.404 135.436 188.024 135.664 187.088H131.608L132.16 185.732H135.58C135.952 185.732 136.348 185.672 136.624 185.588L137.848 186.344ZM133.876 184.496C133.588 184.916 133.276 185.468 133.132 185.72C132.328 187.172 130.792 189.008 129.064 190.196L127.78 189.2C129.88 187.904 130.984 186.26 131.596 185.216C131.776 184.928 132.028 184.376 132.136 183.956L133.876 184.496ZM142.912 184.88C143.74 185.444 145.3 186.692 146.008 187.424L144.784 188.672C144.16 188 142.648 186.692 141.772 186.092L142.912 184.88ZM141.4 192.872C143.284 192.608 144.832 191.996 145.996 191.312C148.048 190.088 149.608 188.264 150.376 186.644L151.3 188.324C150.4 189.956 148.804 191.612 146.872 192.776C145.648 193.508 144.1 194.168 142.42 194.456L141.4 192.872ZM162.328 184.148C162.628 184.592 163.048 185.348 163.276 185.792L162.316 186.2C162.064 185.72 161.692 185 161.368 184.544L162.328 184.148ZM163.744 183.608C164.056 184.052 164.5 184.82 164.716 185.24L163.756 185.648C163.504 185.144 163.12 184.448 162.796 183.992L163.744 183.608ZM157.828 188.672C159.304 189.524 161.536 191.06 162.64 191.948L161.5 193.304C160.444 192.32 158.176 190.652 156.772 189.764L157.828 188.672ZM163.48 186.632C163.348 186.86 163.192 187.196 163.084 187.496C162.712 188.6 161.98 190.136 160.912 191.468C159.784 192.872 158.236 194.216 155.944 195.08L154.552 193.88C157.06 193.1 158.5 191.84 159.52 190.64C160.336 189.68 161.08 188.312 161.308 187.376H157.24L157.804 186.02H161.212C161.584 186.02 161.992 185.96 162.256 185.876L163.48 186.632ZM159.508 184.784C159.22 185.204 158.92 185.756 158.776 186.008C157.96 187.46 156.424 189.296 154.708 190.484L153.412 189.488C155.512 188.192 156.628 186.536 157.228 185.504C157.408 185.204 157.672 184.652 157.78 184.244L159.508 184.784ZM167.032 188.444C167.476 188.48 168.34 188.528 168.964 188.528C170.38 188.528 174.34 188.528 175.408 188.528C175.972 188.528 176.5 188.468 176.824 188.444V190.34C176.536 190.328 175.924 190.268 175.42 190.268C174.328 190.268 170.38 190.268 168.964 190.268C168.292 190.268 167.488 190.304 167.032 190.34V188.444ZM187.072 185.072C187.408 185.576 187.9 186.344 188.164 186.896L187.132 187.352C186.772 186.596 186.508 186.116 186.064 185.504L187.072 185.072ZM188.644 184.424C189.004 184.904 189.508 185.648 189.772 186.188L188.764 186.692C188.38 185.924 188.092 185.48 187.648 184.892L188.644 184.424ZM182.296 193.028C182.296 192.116 182.296 187.148 182.296 186.128C182.296 185.696 182.248 185.108 182.164 184.688H184.048C184 185.108 183.94 185.636 183.94 186.128C183.94 187.46 183.94 192.14 183.94 193.028C183.94 193.376 184 194.216 184.048 194.696H182.176C182.248 194.228 182.296 193.508 182.296 193.028ZM183.58 187.784C185.188 188.228 187.768 189.176 188.956 189.764L188.272 191.42C186.916 190.712 184.888 189.944 183.58 189.512V187.784Z" fill="#888888"/>
<rect x="94.5" y="174.5" width="116" height="29" rx="14.5" stroke="#888888"/>
<path d="M83.0203 152.28C83.3203 152.724 83.7403 153.48 83.9683 153.924L83.0083 154.344C82.7563 153.852 82.3963 153.144 82.0723 152.676L83.0203 152.28ZM84.4363 151.74C84.7483 152.196 85.1923 152.952 85.4083 153.372L84.4483 153.792C84.2083 153.288 83.8123 152.592 83.4883 152.136L84.4363 151.74ZM77.8363 152.808C77.7883 153.168 77.7523 153.708 77.7523 154.056C77.7523 154.788 77.7523 159.204 77.7523 160.104C77.7523 160.632 77.9923 160.764 78.5323 160.86C78.8923 160.92 79.3843 160.932 79.9123 160.932C81.1723 160.932 83.1043 160.788 84.1003 160.524V162.276C82.9603 162.444 81.1483 162.516 79.8283 162.516C79.0483 162.516 78.3163 162.468 77.8003 162.384C76.7683 162.192 76.1563 161.628 76.1563 160.584C76.1563 159.204 76.1563 154.8 76.1563 154.056C76.1563 153.78 76.1203 153.168 76.0723 152.808H77.8363ZM77.0443 156.492C78.5923 156.156 80.6443 155.508 81.9043 154.992C82.3243 154.812 82.7323 154.62 83.2123 154.344L83.8483 155.856C83.3923 156.048 82.8523 156.276 82.4563 156.432C81.0403 156.972 78.6883 157.68 77.0563 158.064L77.0443 156.492ZM88.2163 156.444C88.6603 156.48 89.5243 156.528 90.1483 156.528C91.5643 156.528 95.5243 156.528 96.5923 156.528C97.1563 156.528 97.6843 156.468 98.0083 156.444V158.34C97.7203 158.328 97.1083 158.268 96.6043 158.268C95.5123 158.268 91.5643 158.268 90.1483 158.268C89.4763 158.268 88.6723 158.304 88.2163 158.34V156.444ZM108.703 152.028C109.015 152.484 109.459 153.252 109.651 153.672L108.691 154.08C108.439 153.588 108.079 152.904 107.755 152.412L108.703 152.028ZM110.215 151.608C110.527 152.052 110.971 152.82 111.187 153.24L110.227 153.648C109.975 153.144 109.579 152.448 109.267 151.992L110.215 151.608ZM109.243 154.164C109.147 154.296 108.931 154.656 108.823 154.908C108.331 156.048 107.443 157.68 106.411 158.88C105.067 160.428 103.255 161.916 101.395 162.804L100.147 161.508C102.091 160.776 103.939 159.324 105.067 158.064C105.859 157.164 106.591 155.976 106.867 155.124C106.363 155.124 103.303 155.124 102.787 155.124C102.295 155.124 101.635 155.184 101.371 155.208V153.492C101.695 153.54 102.439 153.588 102.787 153.588C103.423 153.588 106.495 153.588 107.023 153.588C107.551 153.588 108.019 153.516 108.271 153.432L109.243 154.164ZM106.567 157.884C107.803 158.892 109.507 160.68 110.287 161.64L108.919 162.828C108.031 161.592 106.723 160.164 105.439 159L106.567 157.884ZM118.993 160.692V158.136H116.581V156.888H118.993V154.332H120.313V156.888H122.737V158.136H120.313V160.692H118.993ZM134.706 152.208C134.634 152.724 134.622 152.964 134.622 153.312C134.622 153.624 134.622 154.584 134.622 155.04H132.942C132.942 154.512 132.942 153.624 132.942 153.312C132.942 152.964 132.93 152.724 132.858 152.208H134.706ZM138.738 154.74C138.654 155.004 138.558 155.46 138.51 155.688C138.294 156.84 137.982 158.004 137.382 159.096C136.434 160.86 134.622 162.132 132.486 162.696L131.238 161.256C131.79 161.16 132.438 160.98 132.942 160.776C133.926 160.404 134.982 159.696 135.666 158.736C136.266 157.848 136.578 156.708 136.722 155.64H130.77C130.77 156.06 130.77 157.032 130.77 157.404C130.77 157.668 130.782 158.052 130.818 158.292H129.162C129.198 157.992 129.21 157.608 129.21 157.284C129.21 156.888 129.21 155.652 129.21 155.196C129.21 154.932 129.21 154.452 129.162 154.176C129.57 154.212 129.93 154.224 130.386 154.224H136.71C137.202 154.224 137.49 154.176 137.706 154.104L138.738 154.74ZM143.142 161.532C143.274 161.232 143.298 161.028 143.298 160.752C143.298 159.84 143.298 155.58 143.298 154.236C143.298 153.792 143.226 153.216 143.154 152.88H145.038C144.978 153.336 144.93 153.78 144.93 154.236C144.93 155.568 144.93 159.564 144.93 160.476C146.886 159.924 149.562 158.388 151.098 156.504L151.95 157.872C150.306 159.828 147.81 161.268 144.978 162.192C144.822 162.24 144.558 162.324 144.27 162.516L143.142 161.532ZM158.898 156.384C160.374 157.236 162.594 158.772 163.71 159.66L162.558 161.028C161.514 160.044 159.234 158.364 157.83 157.476L158.898 156.384ZM164.55 154.344C164.406 154.572 164.25 154.908 164.142 155.208C163.782 156.312 163.05 157.848 161.97 159.18C160.842 160.584 159.306 161.928 157.014 162.792L155.622 161.592C158.13 160.812 159.558 159.552 160.59 158.352C161.394 157.404 162.138 156.024 162.366 155.088H158.31L158.862 153.732H162.282C162.654 153.732 163.05 153.672 163.326 153.588L164.55 154.344ZM160.578 152.496C160.29 152.916 159.978 153.468 159.834 153.72C159.03 155.172 157.494 157.008 155.766 158.196L154.482 157.2C156.582 155.904 157.686 154.26 158.298 153.216C158.478 152.928 158.73 152.376 158.838 151.956L160.578 152.496ZM169.614 152.88C170.442 153.444 172.002 154.692 172.71 155.424L171.486 156.672C170.862 156 169.35 154.692 168.474 154.092L169.614 152.88ZM168.102 160.872C169.986 160.608 171.534 159.996 172.698 159.312C174.75 158.088 176.31 156.264 177.078 154.644L178.002 156.324C177.102 157.956 175.506 159.612 173.574 160.776C172.35 161.508 170.802 162.168 169.122 162.456L168.102 160.872ZM189.987 154.02C189.867 154.248 189.783 154.596 189.723 154.848C189.447 156.024 188.919 157.884 187.911 159.228C186.831 160.656 185.235 161.856 183.087 162.54L181.779 161.1C184.167 160.548 185.511 159.504 186.483 158.292C187.287 157.284 187.731 155.928 187.899 154.896C187.167 154.896 183.207 154.896 182.307 154.896C181.755 154.896 181.191 154.932 180.879 154.944V153.252C181.239 153.3 181.911 153.348 182.307 153.348C183.207 153.348 187.191 153.348 187.863 153.348C188.091 153.348 188.475 153.336 188.799 153.264L189.987 154.02ZM200.355 154.536C200.307 154.836 200.295 155.22 200.295 155.544C200.343 157.116 200.415 160.008 200.439 161.916C200.451 162.54 199.971 162.972 199.263 162.972C198.687 162.972 197.943 162.948 197.403 162.912L197.319 161.544C197.799 161.604 198.375 161.64 198.687 161.64C198.915 161.64 199.011 161.52 199.011 161.268C199.011 159.924 198.963 157.116 198.891 155.544C198.891 155.244 198.855 154.872 198.795 154.536H200.355ZM194.571 156.192C194.859 156.24 195.339 156.264 195.663 156.264C196.335 156.264 201.255 156.264 201.723 156.264C202.035 156.264 202.503 156.228 202.707 156.192V157.656C202.431 157.644 202.047 157.632 201.795 157.632C201.423 157.632 196.215 157.632 195.699 157.632C195.351 157.632 194.907 157.656 194.571 157.68V156.192ZM194.055 160.86C195.987 159.972 197.895 158.352 198.543 157.176L199.323 157.188L199.347 158.352C198.723 159.48 196.779 161.172 195.099 162.048L194.055 160.86ZM206.331 156.444C206.775 156.48 207.639 156.528 208.263 156.528C209.679 156.528 213.639 156.528 214.707 156.528C215.271 156.528 215.799 156.468 216.123 156.444V158.34C215.835 158.328 215.223 158.268 214.719 158.268C213.627 158.268 209.679 158.268 208.263 158.268C207.591 158.268 206.787 158.304 206.331 158.34V156.444ZM224.484 152.952C224.328 153.312 224.16 153.756 223.98 154.296C223.536 155.64 222.288 159.504 221.772 160.752L220.008 160.812C220.656 159.276 221.904 155.34 222.3 153.948C222.468 153.348 222.528 152.964 222.576 152.568L224.484 152.952ZM226.632 156.828C227.496 158.124 228.72 160.488 229.272 161.82L227.652 162.54C227.112 161.088 225.996 158.604 225.144 157.452L226.632 156.828ZM219.888 160.272C221.556 160.212 225.48 159.768 227.16 159.54L227.508 161.076C225.732 161.304 221.604 161.736 219.984 161.904C219.684 161.94 219.228 162 218.856 162.048L218.568 160.284C218.976 160.296 219.504 160.284 219.888 160.272Z" fill="#888888"/>
</g>
<defs>
<clipPath id="clip0_2331_128967">
<rect width="304" height="228" fill="white"/>
</clipPath>
</defs>
</svg>
