<svg width="39" height="25" viewBox="0 0 39 25" fill="none" xmlns="http://www.w3.org/2000/svg">
<g clip-path="url(#clip0_1951_48250)">
<path d="M37.6567 24.6758H2.24324C1.53586 24.6758 0.957031 24.097 0.957031 23.3896V1.96199C0.957031 1.25461 1.53586 0.675781 2.24324 0.675781H37.6567C38.3641 0.675781 38.9429 1.25461 38.9429 1.96199V23.3896C38.9429 24.097 38.3641 24.6758 37.6567 24.6758Z" fill="#007DC3"/>
<path d="M5.98354 9.16988L5.33105 7.55864L4.67857 9.16973H5.98354V9.16988ZM20.4274 8.54145C20.2781 8.60739 20.1148 8.63507 19.9522 8.62206H18.7841V7.71987H19.9682C20.1222 7.70913 20.2765 7.73393 20.4194 7.79232C20.5513 7.85962 20.6305 7.99892 20.6208 8.14684C20.6296 8.30293 20.5523 8.45115 20.4194 8.53358L20.4274 8.54145ZM28.7329 9.16988L28.0642 7.55879L27.4117 9.16988H28.7329ZM13.2498 10.8938H12.267V7.7601L10.8814 10.8938H10.0758L8.67409 7.75208V10.8938H6.69244L6.32188 9.99963H4.33206L3.96151 10.8938H2.95465L4.6704 6.86592H6.09622L7.70731 10.6601V6.89012H9.27015L10.5269 9.61289L11.6788 6.89012H13.2899L13.2498 10.8938ZM17.1648 10.8938H13.9425V6.86592H17.1648V7.67147H14.9253V8.39655H17.1084V9.2021H14.9253V10.0076H17.1648V10.8938ZM21.6841 7.96958C21.7026 8.43875 21.4305 8.87102 20.9994 9.05705C21.1858 9.12451 21.35 9.24142 21.4746 9.39539C21.608 9.61516 21.6648 9.87303 21.6357 10.1285V10.934H20.6771V10.4266C20.7245 10.1485 20.67 9.86245 20.524 9.62105C20.3872 9.47601 20.1695 9.45196 19.8232 9.45196H18.7839V10.91H17.8253V6.88196H20.0245C20.4215 6.84309 20.8216 6.90979 21.1845 7.07525C21.5097 7.24692 21.7026 7.59464 21.6759 7.96141L21.6841 7.96958ZM23.2066 10.8856H22.2238V6.85791H23.2066V10.8856ZM34.5409 10.8856H33.1876L31.367 7.8808V10.8856H29.4176L29.047 9.99146H27.0572L26.7027 10.8856H25.5748C24.6496 11.016 23.794 10.3717 23.6637 9.44651C23.6387 9.26895 23.642 9.08851 23.6736 8.912C23.6289 8.34301 23.8146 7.77991 24.1892 7.34916C24.5913 7.00114 25.1179 6.83235 25.6473 6.88196H26.5737V7.7359H25.6715C25.401 7.70459 25.1305 7.79292 24.9304 7.9776C24.7313 8.23759 24.6339 8.56126 24.6564 8.88796C24.6168 9.23492 24.7119 9.58385 24.9223 9.86275C25.1063 10.0169 25.3437 10.0922 25.5828 10.0722H26.0098L27.3632 6.92249H28.7972L30.4082 10.7087V6.92234H31.8663L33.566 9.67732V6.89012H34.5488L34.5409 10.8856ZM2.90625 11.6913H4.51734L4.8879 10.7972H5.69344L6.064 11.6913H9.28634V11.0066L9.57628 11.6913H11.2438L11.5257 10.9985V11.6913H19.5331V10.2171H19.6861C19.7908 10.2171 19.823 10.2171 19.823 10.4104V11.6752H23.9636V11.3368C24.4382 11.5738 24.9639 11.6901 25.4942 11.6752H27.2826L27.6531 10.781H28.4587L28.8212 11.6752H32.1727V10.8374L32.6801 11.6832H35.3627V6.09259H32.7606V6.75309L32.39 6.09259H29.6351V6.75309L29.2967 6.09259H25.6072C25.0517 6.06295 24.4975 6.17381 23.9961 6.41475V6.09259H21.4827V6.41475C21.1734 6.18092 20.7901 6.06658 20.4032 6.09259H11.0829L10.4546 7.53459L9.81812 6.09259H6.8939V6.75309L6.56357 6.09259H4.06632L2.90625 8.74291V11.6913Z" fill="white"/>
<path d="M36.9885 14.6398H35.2324C35.0992 14.6241 34.9642 14.6495 34.8457 14.7123C34.7487 14.7758 34.6934 14.8865 34.7006 15.0022C34.6999 15.1361 34.784 15.2557 34.9101 15.3003C35.0306 15.3342 35.1554 15.3505 35.2806 15.3487H35.8043C36.1946 15.3129 36.584 15.4283 36.8917 15.6709C36.9249 15.7026 36.9545 15.7377 36.9804 15.7755L36.9885 14.6398ZM36.9885 17.2821C36.6659 17.6596 36.1771 17.8528 35.6836 17.7977H33.8308V16.9277H35.6756C35.812 16.9453 35.9501 16.9107 36.0623 16.8311C36.1388 16.7639 36.183 16.6671 36.1831 16.5652C36.1863 16.4627 36.1417 16.3643 36.0623 16.2993C35.9647 16.2347 35.8487 16.2037 35.732 16.2107C34.8298 16.2107 33.7099 16.2107 33.7099 14.9701C33.7027 14.3118 34.2304 13.7721 34.8889 13.7647C34.9527 13.7639 35.0164 13.7683 35.0795 13.7779H36.9887V12.9723H35.1761C34.751 12.9507 34.3301 13.0664 33.9758 13.3026V12.9723H31.3899C30.9823 12.9505 30.5793 13.0668 30.2461 13.3026V12.9723H25.5657V13.3026C25.1738 13.078 24.7284 12.9638 24.2768 12.9723H21.1834V13.3026C20.7894 13.0628 20.3301 12.953 19.8703 12.9885H16.3741L15.5685 13.8424L14.8274 12.9885H9.67969V18.5792H14.7468L15.5523 17.7092L16.3579 18.5792H19.4836V17.2661H19.7897C20.2306 17.3015 20.674 17.2494 21.0947 17.113V18.6195H23.6725V17.113H23.8014C23.9625 17.113 23.9787 17.113 23.9787 17.2741V18.5711H31.7927C32.2546 18.5868 32.7102 18.4602 33.0977 18.2085V18.5711H35.5789C36.0618 18.5878 36.5428 18.4998 36.9887 18.3133V17.2821H36.9885ZM33.1621 15.671C33.3633 15.8896 33.4678 16.18 33.4521 16.4766C33.4521 17.3385 32.9123 17.7413 31.9537 17.7413H30.0767V16.9277H31.9537C32.0926 16.9442 32.2327 16.9099 32.3484 16.8311C32.4204 16.7614 32.4611 16.6655 32.4612 16.5652C32.4621 16.4631 32.4178 16.3659 32.3404 16.2993C32.2398 16.2347 32.1214 16.2036 32.0021 16.2107C31.1079 16.2107 29.9882 16.2107 29.9882 14.9701C29.9882 14.3901 30.3507 13.7779 31.3576 13.7779H33.2748V14.6318H31.5025C31.3806 14.62 31.2579 14.6424 31.148 14.6962C31.0481 14.7573 30.9919 14.8699 31.0029 14.9862C30.9996 15.1208 31.0846 15.2418 31.2124 15.2843C31.3328 15.3188 31.4577 15.3351 31.5829 15.3327H32.1066C32.4968 15.2985 32.8855 15.4136 33.194 15.6548L33.1621 15.671ZM24.5505 15.4051C24.4022 15.4743 24.238 15.5021 24.0753 15.4857H22.883V14.6158H24.0591C24.2158 14.6016 24.3736 14.6265 24.5183 14.6882C24.6516 14.7582 24.7307 14.9006 24.7198 15.0508C24.7285 15.2068 24.6513 15.3551 24.5183 15.4375L24.5505 15.4051ZM25.0983 15.9368C25.2821 16.0047 25.4436 16.1217 25.5655 16.2751C25.7002 16.4944 25.7569 16.7526 25.7266 17.0082V17.8138H24.768V17.3143C24.8146 17.0362 24.7603 16.7505 24.615 16.5088C24.4781 16.3637 24.2686 16.3315 23.9141 16.3315H22.8829V17.7977H21.9243V13.7698H24.1316C24.5257 13.7351 24.9223 13.8016 25.2835 13.9631C25.6071 14.1363 25.7994 14.483 25.7749 14.8493C25.7891 15.3091 25.5208 15.7309 25.0982 15.9127L25.0983 15.9368ZM26.3147 13.786H29.537V14.5916H27.2573V15.3167H29.4484V16.1222H27.2573V16.9277H29.537V17.7333H26.3147V13.786ZM19.8702 15.6388H18.6054V14.6158H19.8702C20.2165 14.6158 20.4582 14.7526 20.4582 15.1072C20.4582 15.4617 20.2245 15.6388 19.8621 15.6388H19.8702ZM17.6628 17.4352L16.1967 15.8241L17.6628 14.213V17.4352ZM13.8686 16.96H11.5003V16.1544H13.6028V15.3489H11.5003V14.6238H13.9169L14.9561 15.7919L13.8686 16.96ZM21.4813 15.099C21.4813 16.2107 20.6757 16.4444 19.8137 16.4444H18.6054V17.7897H16.7446L15.5685 16.4686L14.344 17.7977H10.5497V13.7698H14.4003L15.5844 15.083L16.8009 13.7698H19.8702C20.6355 13.7698 21.4813 13.9793 21.4813 15.091" fill="white"/>
</g>
<defs>
<clipPath id="clip0_1951_48250">
<rect width="37.9859" height="24" fill="white" transform="translate(0.957031 0.675781)"/>
</clipPath>
</defs>
</svg>
