<svg width="38" height="25" viewBox="0 0 38 25" fill="none" xmlns="http://www.w3.org/2000/svg">
<g clip-path="url(#clip0_1951_48258)">
<path d="M34.1733 0.675432L2.66854 0.675432C2.42964 0.673025 2.19104 0.693331 1.95597 0.736076C1.72213 0.772709 1.49641 0.849657 1.28888 0.963493C1.0655 1.06422 0.864471 1.20855 0.697602 1.388C0.531157 1.55686 0.392943 1.75139 0.288252 1.96412C0.183301 2.17546 0.10683 2.39978 0.0608357 2.63121C0.0305135 2.85863 0.0153524 3.08604 0.000191323 3.32862L0.000191323 22.0222C-0.00221549 22.2611 0.0180906 22.4997 0.0608357 22.7348C0.0974683 22.9687 0.174416 23.1944 0.288252 23.4019C0.496462 23.8319 0.843679 24.1792 1.27372 24.3874C1.48506 24.4923 1.70938 24.5688 1.94081 24.6148C2.17579 24.6582 2.41445 24.6785 2.65338 24.6754L34.8555 24.6754C35.0945 24.6778 35.333 24.6575 35.5681 24.6148C35.802 24.5782 36.0277 24.5012 36.2352 24.3874C36.6652 24.1792 37.0125 23.8319 37.2207 23.4019C37.3256 23.1906 37.4021 22.9662 37.4481 22.7348C37.4915 22.4998 37.5118 22.2612 37.5087 22.0222V3.34378C37.5111 3.10487 37.4908 2.86628 37.4481 2.63121C37.4115 2.39737 37.3345 2.17165 37.2207 1.96412C37.0125 1.53408 36.6652 1.18686 36.2352 0.978654C36.0239 0.873703 35.7996 0.797232 35.5681 0.751238C35.3331 0.707848 35.0945 0.687536 34.8555 0.690593H34.5372C34.4163 0.677977 34.2948 0.672914 34.1733 0.675432Z" fill="#231F20"/>
<path d="M34.1742 1.47852L34.8565 1.47852C35.0544 1.47916 35.2521 1.49436 35.4478 1.524C35.6067 1.54915 35.7604 1.60038 35.9026 1.67561C36.0393 1.74401 36.1625 1.83645 36.2665 1.94851C36.374 2.05647 36.4658 2.17895 36.5394 2.31238C36.6168 2.45364 36.6682 2.60772 36.691 2.76721C36.7206 2.96292 36.7358 3.16055 36.7365 3.35849V22.0218C36.7358 22.2197 36.7206 22.4174 36.691 22.6131C36.6658 22.772 36.6146 22.9257 36.5394 23.0679C36.3921 23.3365 36.1712 23.5574 35.9026 23.7047C35.7657 23.7799 35.617 23.8311 35.4629 23.8563C35.2722 23.8848 35.0797 23.9 34.8868 23.9018L2.68466 23.9018C2.48674 23.9006 2.28916 23.8854 2.09338 23.8563C1.93446 23.8311 1.78078 23.7799 1.63855 23.7047C1.50187 23.6363 1.37861 23.5438 1.27468 23.4318C1.16718 23.3238 1.07533 23.2013 1.00178 23.0679C0.924318 22.9266 0.872959 22.7726 0.850171 22.6131C0.82053 22.4174 0.805328 22.2197 0.804687 22.0218L0.804687 3.35849C0.805328 3.16055 0.82053 2.96292 0.850171 2.76721C0.875327 2.60829 0.926553 2.45461 1.00178 2.31238C1.07018 2.17569 1.16262 2.05244 1.27468 1.94851C1.38264 1.84101 1.50512 1.74916 1.63855 1.67561C1.77981 1.59815 1.93389 1.54679 2.09338 1.524C2.28909 1.49436 2.48672 1.47916 2.68466 1.47852L34.1742 1.47852Z" fill="white"/>
<path d="M9.86905 8.78703C10.2136 8.37801 10.3825 7.84942 10.339 7.31641C9.809 7.36795 9.31973 7.62346 8.97454 8.02898C8.68648 8.36252 8.41358 8.92348 8.48939 9.45412C9.00486 9.48444 9.5355 9.18122 9.86905 8.78703Z" fill="#231F20"/>
<path d="M10.34 9.52947C9.58193 9.48398 8.93 9.95398 8.56614 9.95398C8.20227 9.95398 7.64131 9.54463 7.05003 9.55979C6.65945 9.57155 6.27849 9.68375 5.94388 9.88558C5.60928 10.0874 5.33233 10.372 5.13973 10.712C4.32103 12.122 4.92747 14.1991 5.71585 15.3513C6.09488 15.9123 6.56487 16.5491 7.17132 16.5187C7.74744 16.5036 7.97485 16.1397 8.67226 16.1397C9.36967 16.1397 9.58193 16.5187 10.1884 16.5036C10.8251 16.4884 11.2193 15.9426 11.5984 15.3665C11.867 14.9617 12.0811 14.5233 12.2351 14.0626C12.22 14.0475 11.0071 13.5926 11.0071 12.1978C10.9919 11.0304 11.9622 10.4695 12.0077 10.4391C11.4771 9.65076 10.628 9.55979 10.34 9.52947Z" fill="#231F20"/>
<path d="M17.9065 7.95312C19.559 7.95312 20.7113 9.09021 20.7113 10.7428C20.7113 12.3953 19.5439 13.5476 17.8762 13.5476H16.0417V16.4585H14.7227V7.95312L17.9065 7.95312ZM16.0417 12.4408H17.5578C18.71 12.4408 19.3619 11.8192 19.3619 10.7428C19.3619 9.66633 18.71 9.05988 17.5578 9.05988H16.0417V12.4408Z" fill="#231F20"/>
<path d="M21.0312 14.6996C21.0312 13.608 21.8651 12.9864 23.3964 12.8954L25.0338 12.7893V12.3193C25.0338 11.6371 24.5789 11.258 23.7754 11.258C23.1083 11.258 22.6232 11.6067 22.5322 12.1222H21.3345C21.3648 11.0155 22.4109 10.2119 23.8057 10.2119C25.3218 10.2119 26.2921 11.0003 26.2921 12.2283V16.4583H25.0793V15.4425H25.0489C24.7002 16.1096 23.9422 16.5341 23.1083 16.5341C21.8954 16.5189 21.0312 15.7912 21.0312 14.6996ZM25.0338 14.1538V13.6838L23.5632 13.7748C22.7445 13.8203 22.3048 14.1386 22.3048 14.6693C22.3048 15.1999 22.7596 15.5183 23.457 15.5183C24.3667 15.5183 25.0338 14.9422 25.0338 14.1538Z" fill="#231F20"/>
<path d="M27.4268 18.7323V17.7165C27.5573 17.7353 27.689 17.7455 27.8209 17.7468C28.3971 17.7468 28.7306 17.5042 28.9277 16.8675L29.049 16.4885L26.8203 10.3027H28.2L29.7616 15.3211H29.7919L31.3535 10.3027L32.7028 10.3027L30.3832 16.8068C29.8525 18.2926 29.2461 18.7929 27.9574 18.7929C27.7796 18.7819 27.6025 18.7617 27.4268 18.7323Z" fill="#231F20"/>
</g>
<defs>
<clipPath id="clip0_1951_48258">
<rect width="37.5085" height="24" fill="white" transform="translate(0 0.675781)"/>
</clipPath>
</defs>
</svg>
