<svg width="44" height="45" viewBox="0 0 44 45" fill="none" xmlns="http://www.w3.org/2000/svg">
<rect y="0.675781" width="44" height="44" />
<path d="M29.6662 19.3747C29.6793 19.533 29.6793 19.6983 29.6793 19.8567C29.7188 25.7165 25.2174 30.4883 19.6251 30.5296C19.5791 30.5296 19.5397 30.5296 19.4937 30.5296C17.5486 30.5296 15.6428 29.9512 14 28.8495C14.2826 28.8839 14.5717 28.9046 14.8543 28.9046C16.4643 28.9046 18.0348 28.34 19.3031 27.2933C17.772 27.2658 16.4248 26.2191 15.9583 24.6905C16.4971 24.8007 17.0491 24.78 17.5748 24.6285C15.9057 24.2774 14.7031 22.7349 14.7031 20.9515V20.9033C15.2026 21.1925 15.7611 21.3578 16.3263 21.3715C14.7491 20.2698 14.2629 18.0801 15.2157 16.3656C17.036 18.7067 19.7171 20.1321 22.5954 20.2836C22.1485 18.2661 23.3445 16.2416 25.2765 15.7734C26.5185 15.4704 27.8262 15.8836 28.7002 16.8614C29.5019 16.6961 30.2708 16.3862 30.9739 15.9524C30.7045 16.82 30.1459 17.5568 29.3968 18.0251C30.1065 17.9355 30.7965 17.7359 31.4536 17.4329C30.9739 18.1834 30.3693 18.8445 29.6728 19.3747H29.6662Z" fill="#B2BBC4"/>
</svg>
