<svg width="44" height="44" viewBox="0 0 44 44" fill="none" xmlns="http://www.w3.org/2000/svg">
<path d="M0.46875 0H43.0021V44H0.46875V0Z" fill="#F7F9FB"/>
<path fill-rule="evenodd" clip-rule="evenodd" d="M17.1855 13.2929C17.563 12.9024 18.175 12.9024 18.5525 13.2929L26.7692 21.7929C27.1467 22.1834 27.1467 22.8166 26.7692 23.2071L18.5525 31.7071C18.175 32.0976 17.563 32.0976 17.1855 31.7071C16.808 31.3166 16.808 30.6834 17.1855 30.2929L24.7186 22.5L17.1855 14.7071C16.808 14.3166 16.808 13.6834 17.1855 13.2929Z" fill="#B2BBC4"/>
</svg>
