<svg width="44" height="44" viewBox="0 0 44 44" fill="none" xmlns="http://www.w3.org/2000/svg">
<path d="M17.7414 24.1407L10.1914 18.5507L17.7414 12.9707L25.3614 18.5507L17.7414 24.1407Z" stroke="#B2BBC4" stroke-linecap="round" stroke-linejoin="round"/>
<path d="M17.7414 24.1408L10.1914 18.5508V25.4508L17.7414 31.0308V24.1408Z" stroke="#B2BBC4" stroke-linecap="round" stroke-linejoin="round"/>
<path d="M17.8711 24.1408L25.4211 18.5508V25.4508L17.8711 31.0308V24.1408Z" stroke="#B2BBC4" stroke-linecap="round" stroke-linejoin="round"/>
<path d="M14.6523 16.041L21.2623 21.071" stroke="#B2BBC4" stroke-linecap="round" stroke-linejoin="round"/>
<path d="M35.1498 21.8398H28.3398" stroke="#B2BBC4" stroke-linecap="round" stroke-linejoin="round"/>
<path d="M34.0586 19.3594L36.3586 21.6494L34.0586 24.0494" stroke="#B2BBC4" stroke-linecap="round" stroke-linejoin="round"/>
</svg>
