<svg width="44" height="44" viewBox="0 0 44 44" fill="none" xmlns="http://www.w3.org/2000/svg">
<path d="M22.0261 30.2706C21.5461 30.2706 21.0761 30.1106 20.6861 29.7806L14.4961 24.6106C14.0161 24.2106 13.7461 23.6306 13.7461 23.0106V12.9706C13.7461 11.8206 14.6861 10.8906 15.8261 10.8906H28.2961C29.4461 10.8906 30.3761 11.8306 30.3761 12.9706V23.0106C30.3761 23.6306 30.0961 24.2206 29.6161 24.6206L23.3361 29.8006C22.9561 30.1206 22.4761 30.2806 22.0061 30.2806L22.0261 30.2706ZM15.8361 11.8906C15.2361 11.8906 14.7561 12.3806 14.7561 12.9706V23.0106C14.7561 23.3306 14.8961 23.6406 15.1461 23.8406L21.3361 29.0106C21.7361 29.3406 22.3161 29.3506 22.7161 29.0106L28.9961 23.8306C29.2461 23.6206 29.3861 23.3206 29.3861 22.9906V12.9706C29.3861 12.3706 28.8961 11.8906 28.3061 11.8906H15.8361Z" fill="#B2BBC4"/>
<path d="M28.2098 34.6602C28.0698 34.6602 27.9398 34.6002 27.8398 34.5002L23.2998 29.5102C23.1098 29.3102 23.1298 28.9902 23.3298 28.8002C23.5298 28.6102 23.8498 28.6302 24.0398 28.8302L27.9798 33.1602L28.8298 30.2402C28.8898 30.0402 29.0598 29.9002 29.2698 29.8802L31.7198 29.6802L27.8698 25.4502C27.6798 25.2502 27.6998 24.9302 27.8998 24.7402C28.0998 24.5502 28.4198 24.5702 28.6098 24.7702L33.1498 29.7502C33.2798 29.8902 33.3198 30.0902 33.2498 30.2702C33.1798 30.4502 33.0198 30.5702 32.8298 30.5902L29.7198 30.8502L28.7198 34.2902C28.6698 34.4602 28.5298 34.6002 28.3498 34.6402C28.3098 34.6402 28.2698 34.6502 28.2398 34.6502L28.2098 34.6602Z" fill="#B2BBC4"/>
<path d="M15.798 34.6602C15.798 34.6602 15.718 34.6602 15.688 34.6502C15.508 34.6102 15.368 34.4802 15.318 34.3002L14.318 30.8602L11.208 30.6002C11.018 30.5802 10.858 30.4602 10.788 30.2802C10.718 30.1002 10.758 29.9002 10.888 29.7602L15.428 24.7702C15.618 24.5702 15.928 24.5502 16.138 24.7402C16.338 24.9302 16.358 25.2402 16.168 25.4502L12.318 29.6802L14.768 29.8802C14.978 29.9002 15.148 30.0402 15.208 30.2402L16.058 33.1602L19.998 28.8302C20.188 28.6302 20.498 28.6102 20.708 28.8002C20.908 28.9902 20.928 29.3002 20.738 29.5102L16.198 34.5002C16.098 34.6102 15.968 34.6602 15.828 34.6602H15.798Z" fill="#B2BBC4"/>
<path d="M21.317 22.2409C21.187 22.2409 21.057 22.1909 20.967 22.0909L18.357 19.4809C18.157 19.2809 18.157 18.9709 18.357 18.7709C18.557 18.5709 18.867 18.5709 19.067 18.7709L21.317 21.0209L25.267 17.0709C25.467 16.8709 25.777 16.8709 25.977 17.0709C26.177 17.2709 26.177 17.5809 25.977 17.7809L21.677 22.0809C21.587 22.1709 21.457 22.2309 21.327 22.2309L21.317 22.2409Z" fill="#B2BBC4"/>
</svg>
