<svg width="304" height="176" viewBox="0 0 304 176" fill="none" xmlns="http://www.w3.org/2000/svg">
<path d="M16.75 32.75C25.59 32.75 32.75 25.59 32.75 16.75C32.75 7.91 25.59 0.75 16.75 0.75C7.91 0.75 0.75 7.91 0.75 16.75C0.75 25.59 7.91 32.75 16.75 32.75Z" fill="white"/>
<path d="M16.75 33.5C7.51 33.5 0 25.99 0 16.75C0 7.51 7.51 0 16.75 0C25.99 0 33.5 7.51 33.5 16.75C33.5 25.99 25.99 33.5 16.75 33.5ZM16.75 1.5C8.34 1.5 1.5 8.34 1.5 16.75C1.5 25.16 8.34 32 16.75 32C25.16 32 32 25.16 32 16.75C32 8.34 25.16 1.5 16.75 1.5Z" fill="#888888"/>
<path d="M12.5314 21.3698C16.0114 17.9498 18.1214 15.7798 18.1214 13.8698C18.1214 12.5398 17.4114 11.6598 16.0014 11.6598C15.0114 11.6598 14.2014 12.2898 13.5414 13.0498L12.4414 11.9598C13.5114 10.7998 14.6214 10.0898 16.2514 10.0898C18.5414 10.0898 20.0214 11.5498 20.0214 13.7598C20.0214 15.9698 18.0014 18.2298 15.4014 20.9498C16.0314 20.8798 16.8314 20.8298 17.4414 20.8298H20.6214V22.4998H12.5514V21.3598H12.5314V21.3698Z" fill="#888888"/>
<path d="M40.1498 140.341L59.8998 131.091C62.8398 132.581 66.5798 136.031 69.7798 135.611C71.8398 135.341 74.9098 134.681 76.6698 133.631L85.1098 119.411L68.9598 97.7207C68.9598 97.7207 62.3898 104.661 60.7198 106.841C59.0498 109.021 57.3798 110.821 57.3798 110.821L31.5898 114.541L40.1398 140.351L40.1498 140.341Z" fill="white"/>
<path d="M182.223 95.48L239.803 69.75V105.62L182.223 131.35" fill="white"/>
<path d="M182.221 132.101C181.931 132.101 181.661 131.931 181.531 131.661C181.361 131.281 181.531 130.841 181.911 130.671L239.041 105.131V70.9005L182.521 96.1606C182.141 96.3306 181.701 96.1605 181.531 95.7805C181.361 95.4005 181.531 94.9605 181.911 94.7905L239.491 69.0605C239.721 68.9605 239.991 68.9806 240.201 69.1206C240.411 69.2606 240.541 69.5005 240.541 69.7505V105.621C240.541 105.921 240.371 106.181 240.101 106.301L182.521 132.031C182.421 132.071 182.321 132.101 182.211 132.101H182.221Z" fill="#808080"/>
<path d="M182.94 95.4805H71.2695V131.35H182.94V95.4805Z" fill="white"/>
<path d="M182.94 132.1H71.2695C70.8595 132.1 70.5195 131.76 70.5195 131.35V95.4805C70.5195 95.0705 70.8595 94.7305 71.2695 94.7305H182.94C183.35 94.7305 183.69 95.0705 183.69 95.4805V131.35C183.69 131.76 183.35 132.1 182.94 132.1ZM72.0195 130.6H182.19V96.2305H72.0195V130.6Z" fill="#808080"/>
<path d="M71.4688 95.49L128.129 69.75H239.799L182.769 95.54L71.4688 95.49Z" fill="white"/>
<path d="M182.768 96.2898L71.4683 96.2498C71.1183 96.2498 70.8083 95.9998 70.7383 95.6598C70.6683 95.3098 70.8383 94.9598 71.1583 94.8198L127.818 69.0798C127.918 69.0398 128.018 69.0098 128.128 69.0098H239.798C240.148 69.0098 240.458 69.2598 240.528 69.5998C240.598 69.9498 240.428 70.2998 240.108 70.4398L183.078 96.2298C182.978 96.2698 182.878 96.2998 182.768 96.2998V96.2898ZM74.9283 94.7498L182.608 94.7898L236.318 70.4998H128.288L74.9283 94.7498Z" fill="#808080"/>
<path d="M40.1507 141.09C39.8707 141.09 39.6007 140.93 39.4707 140.66C39.2907 140.28 39.4607 139.84 39.8307 139.66L59.5807 130.41C59.7907 130.31 60.0307 130.32 60.2407 130.42C61.1307 130.87 62.0507 131.47 63.0407 132.11C65.2207 133.52 67.6907 135.12 69.6807 134.86C71.8307 134.58 74.7006 133.93 76.2807 132.98C76.6306 132.77 77.1007 132.88 77.3106 133.24C77.5206 133.59 77.4107 134.06 77.0507 134.27C74.8107 135.62 70.9907 136.21 69.8707 136.36C67.3207 136.69 64.6107 134.93 62.2107 133.38C61.3907 132.84 60.6007 132.34 59.8707 131.94L40.4607 141.03C40.3607 141.08 40.2507 141.1 40.1407 141.1L40.1507 141.09Z" fill="#808080"/>
<path d="M31.75 114.7L58.24 110.29C58.24 110.29 60.81 106.65 62.29 104.92C64.49 102.33 66.92 100.62 68.98 97.7001C71.08 94.7301 72.68 93.6502 78.85 92.1402C81.93 91.7302 83.49 90.4302 84.81 90.8202C87.08 91.5002 85.19 95.1502 83.46 96.7902C81.78 98.3802 77.51 99.1402 77.51 99.1402C76.84 100.85 75.19 105.56 73.31 108.39C71.63 110.91 70.98 114.09 68.97 115.53" fill="white"/>
<path d="M68.949 116.3C68.719 116.3 68.489 116.19 68.339 115.99C68.099 115.65 68.179 115.18 68.509 114.94C69.599 114.16 70.279 112.69 70.999 111.13C71.489 110.08 71.989 109 72.659 107.99C74.219 105.65 75.659 101.85 76.439 99.8099C76.579 99.4499 76.699 99.1399 76.789 98.8899C76.889 98.6499 77.099 98.4699 77.359 98.4299C78.489 98.2299 81.679 97.4499 82.919 96.2699C84.239 95.0199 85.269 92.9599 85.049 92.0199C85.009 91.8399 84.919 91.6699 84.569 91.5599C84.099 91.4199 83.449 91.6499 82.539 91.9699C81.609 92.2999 80.449 92.6999 78.919 92.8999C72.949 94.3699 71.549 95.3399 69.569 98.1499C68.319 99.9199 66.929 101.27 65.579 102.58C64.669 103.47 63.719 104.38 62.839 105.42C61.399 107.1 58.859 110.7 58.839 110.74C58.719 110.9 58.549 111.01 58.349 111.05L31.859 115.46C31.449 115.53 31.069 115.25 30.999 114.84C30.929 114.43 31.209 114.05 31.619 113.98L57.799 109.62C58.419 108.75 60.439 105.94 61.709 104.45C62.639 103.36 63.609 102.42 64.549 101.51C65.909 100.19 67.189 98.9499 68.359 97.2899C70.529 94.2199 72.229 93.0099 78.659 91.4399C80.109 91.2399 81.149 90.8799 82.059 90.5599C83.139 90.1799 84.079 89.8499 85.009 90.1299C85.799 90.3699 86.339 90.9199 86.519 91.6799C86.959 93.5099 85.289 96.1099 83.959 97.3599C82.439 98.7999 79.209 99.5799 78.049 99.8299C77.989 99.9899 77.919 100.16 77.849 100.35C77.059 102.45 75.579 106.35 73.919 108.83C73.309 109.74 72.829 110.77 72.369 111.77C71.559 113.51 70.799 115.16 69.389 116.17C69.259 116.26 69.109 116.31 68.949 116.31V116.3Z" fill="#808080"/>
<path d="M196.431 130.931L196.791 131.481C194.661 132.831 192.381 134.401 189.001 134.081C188.701 134.051 188.431 134.021 188.211 134.001L188.331 134.361C186.401 135.031 183.331 135.081 181.301 134.971C178.081 134.781 172.551 133.261 169.951 131.241L149.181 135.731L147.691 124.041L145.781 108.971L170.511 109.461C170.511 109.461 181.951 101.971 188.561 103.291L196.011 104.581C200.471 105.711 205.461 105.011 206.981 107.931C208.501 110.841 204.181 111.811 200.891 111.911C198.461 111.991 197.381 112.131 195.131 111.911L190.301 113.611L190.201 115.171L194.741 117.411C196.221 118.381 200.171 120.551 202.011 121.261C203.851 121.991 206.561 120.901 206.561 120.901C206.561 120.901 207.701 120.431 210.321 119.251C212.671 118.201 214.161 116.421 214.081 118.201C213.951 121.971 212.701 122.961 211.001 124.361C209.321 125.771 208.681 126.471 206.671 127.021L201.231 130.141C199.841 131.051 198.131 131.101 196.431 130.911V130.931Z" fill="white"/>
<path d="M189.859 129.272C192.559 129.782 191.749 130.112 194.449 130.622C195.089 130.742 195.759 130.862 196.429 130.942C198.129 131.132 199.839 131.082 201.229 130.172L206.669 127.052L206.889 126.932" fill="white"/>
<path d="M197.89 131.771C197.33 131.771 196.8 131.731 196.34 131.671C195.74 131.601 195.12 131.501 194.31 131.351C192.88 131.081 192.36 130.851 191.85 130.631C191.41 130.431 190.99 130.251 189.72 130.011C189.31 129.931 189.04 129.541 189.12 129.131C189.2 128.721 189.59 128.451 190 128.531C191.44 128.801 191.96 129.031 192.46 129.251C192.9 129.451 193.32 129.631 194.59 129.871C195.37 130.021 195.96 130.111 196.51 130.181C198.46 130.401 199.79 130.201 200.82 129.531L206.51 126.261C206.87 126.051 207.33 126.181 207.53 126.541C207.74 126.901 207.61 127.361 207.25 127.561L201.59 130.811C200.43 131.571 199.07 131.771 197.87 131.771H197.89Z" fill="#808080"/>
<path d="M184.082 133.261C186.912 133.981 186.012 133.831 188.222 134.011C188.442 134.031 188.702 134.061 189.012 134.091C192.392 134.401 194.672 132.841 196.802 131.491C196.832 131.481 196.852 131.451 196.882 131.441" fill="white"/>
<path d="M189.871 134.882C189.571 134.882 189.251 134.872 188.931 134.842L187.381 134.702C186.331 134.622 186.291 134.612 185.061 134.292L183.891 133.992C183.491 133.892 183.251 133.482 183.351 133.082C183.451 132.682 183.861 132.432 184.261 132.542L185.441 132.842C186.194 133.035 186.881 133.158 187.501 133.212L189.071 133.352C192.051 133.622 194.111 132.312 196.111 131.032L196.381 130.862C196.381 130.862 196.521 130.782 196.551 130.762C196.931 130.582 197.371 130.752 197.551 131.122C197.731 131.492 197.561 131.942 197.191 132.122L196.931 132.292C195.021 133.512 192.871 134.882 189.881 134.882H189.871Z" fill="#808080"/>
<path d="M196.771 125.24C199.521 126.12 202.581 127.3 204.821 127.33C205.371 127.33 206.011 127.22 206.671 127.04C208.681 126.49 209.331 125.78 211.001 124.38C212.701 122.97 213.951 121.98 214.081 118.22C214.151 116.44 212.661 118.22 210.321 119.27C207.701 120.45 206.561 120.92 206.561 120.92C206.561 120.92 203.851 122.01 202.011 121.28C200.171 120.57 196.221 118.4 194.741 117.43L190.201 115.19L190.301 113.63L195.131 111.93C197.381 112.15 198.471 112.01 200.891 111.93C204.191 111.82 208.501 110.86 206.981 107.95C205.461 105.04 200.481 105.73 196.011 104.6L188.561 103.31C181.951 101.99 170.511 109.48 170.511 109.48L145.781 108.99" fill="white"/>
<path d="M204.85 128.081H204.81C202.88 128.051 200.46 127.251 198.12 126.471C197.59 126.291 197.06 126.121 196.54 125.951C196.15 125.821 195.93 125.401 196.05 125.011C196.18 124.621 196.6 124.401 196.99 124.521C197.51 124.691 198.05 124.861 198.58 125.041C200.81 125.781 203.12 126.551 204.82 126.581C205.26 126.581 205.81 126.491 206.46 126.311C208.07 125.871 208.7 125.331 209.95 124.271L210.51 123.801C212.18 122.421 213.16 121.611 213.31 118.411C213.12 118.521 212.9 118.661 212.71 118.781C212.14 119.141 211.43 119.581 210.61 119.951C208.01 121.121 206.87 121.591 206.83 121.611C206.7 121.661 203.81 122.801 201.72 121.971C199.82 121.231 195.82 119.041 194.31 118.051L189.85 115.851C189.58 115.721 189.42 115.431 189.43 115.131L189.53 113.571C189.55 113.271 189.75 113.011 190.03 112.911L194.86 111.211C194.96 111.171 195.07 111.161 195.18 111.171C196.87 111.341 197.87 111.291 199.37 111.231C199.81 111.211 200.29 111.191 200.84 111.171C203.64 111.081 205.87 110.411 206.4 109.511C206.52 109.301 206.64 108.951 206.3 108.281C205.45 106.651 203.03 106.361 200.22 106.031C198.78 105.861 197.29 105.681 195.82 105.311L188.42 104.031C182.17 102.791 171.02 110.021 170.91 110.091C170.78 110.171 170.64 110.211 170.48 110.211L145.75 109.721C145.34 109.721 145.01 109.371 145.02 108.951C145.02 108.541 145.36 108.201 145.78 108.221L170.29 108.711C171.9 107.681 182.28 101.271 188.7 102.551L196.13 103.841C197.56 104.201 199 104.371 200.4 104.531C203.5 104.901 206.42 105.241 207.64 107.581C208.28 108.801 208.03 109.711 207.71 110.261C206.54 112.261 202.56 112.601 200.91 112.661C200.37 112.681 199.89 112.701 199.45 112.721C197.98 112.781 196.91 112.831 195.21 112.671L191.01 114.151L190.98 114.721L195.07 116.741C196.57 117.721 200.48 119.871 202.28 120.561C203.56 121.071 205.6 120.471 206.28 120.201C206.28 120.201 207.44 119.731 210.01 118.561C210.73 118.231 211.37 117.841 211.93 117.491C212.9 116.881 213.6 116.441 214.27 116.831C214.88 117.181 214.85 117.971 214.84 118.231C214.7 122.281 213.24 123.491 211.55 124.891L210.94 125.401C209.61 126.531 208.81 127.221 206.87 127.751C206.09 127.971 205.43 128.071 204.85 128.071V128.081Z" fill="#808080"/>
<path d="M149.181 136.481C148.831 136.481 148.521 136.241 148.451 135.891C148.361 135.491 148.621 135.091 149.021 135.001L169.791 130.511C170.011 130.461 170.231 130.511 170.411 130.651C172.811 132.511 178.101 134.031 181.351 134.221C183.481 134.341 186.371 134.261 188.091 133.661C188.471 133.491 188.931 133.641 189.111 134.021C189.281 134.401 189.141 134.841 188.771 135.011C188.741 135.021 188.651 135.061 188.621 135.071C186.161 135.931 182.371 135.791 181.271 135.731C178.291 135.551 172.761 134.181 169.781 132.061L149.341 136.481C149.291 136.491 149.231 136.501 149.181 136.501V136.481Z" fill="#808080"/>
<path d="M229.578 85.7C249.46 85.7 265.578 69.4255 265.578 49.35C265.578 29.2744 249.46 13 229.578 13C209.696 13 193.578 29.2744 193.578 49.35C193.578 69.4255 209.696 85.7 229.578 85.7Z" fill="white"/>
<path d="M229.578 86.7098C209.178 86.7098 192.578 69.9498 192.578 49.3598C192.578 28.7698 209.178 12.0098 229.578 12.0098C249.978 12.0098 266.578 28.7698 266.578 49.3598C266.578 69.9498 249.978 86.7098 229.578 86.7098ZM229.578 13.9998C210.278 13.9998 194.578 29.8598 194.578 49.3498C194.578 68.8398 210.278 84.6998 229.578 84.6998C248.878 84.6998 264.578 68.8398 264.578 49.3498C264.578 29.8598 248.878 13.9998 229.578 13.9998Z" fill="#0066CB"/>
<path d="M241.586 27.4707H217.566V41.6307H241.586V27.4707Z" fill="#0066CB"/>
<path d="M229.547 37.9105C231.353 37.9105 232.817 36.4331 232.817 34.6105C232.817 32.788 231.353 31.3105 229.547 31.3105C227.741 31.3105 226.277 32.788 226.277 34.6105C226.277 36.4331 227.741 37.9105 229.547 37.9105Z" fill="white"/>
<path d="M212.359 46.8105V52.8705C212.359 53.5905 212.309 54.1305 212.209 54.4905C212.109 54.8905 211.939 55.2405 211.699 55.5205C211.229 56.0705 210.609 56.3505 209.839 56.3505C209.259 56.3505 208.709 56.2005 208.199 55.8905L208.879 54.6805C209.219 54.9105 209.539 55.0305 209.839 55.0305C210.259 55.0305 210.539 54.8705 210.699 54.5505C210.869 54.2305 210.949 53.6705 210.949 52.8805V46.8205H212.359V46.8105Z" fill="#0066CB"/>
<path d="M220.358 50.2696H221.718V56.1796H220.358V55.5596C219.798 56.0896 219.198 56.3496 218.558 56.3496C217.748 56.3496 217.078 56.0496 216.548 55.4596C216.028 54.8596 215.758 54.1096 215.758 53.1996C215.758 52.2896 216.018 51.5796 216.548 50.9896C217.078 50.3996 217.728 50.0996 218.518 50.0996C219.198 50.0996 219.808 50.3796 220.348 50.9496V50.2596L220.358 50.2696ZM217.148 53.2096C217.148 53.7796 217.298 54.2396 217.598 54.5896C217.908 54.9496 218.298 55.1296 218.768 55.1296C219.268 55.1296 219.678 54.9596 219.978 54.6096C220.288 54.2496 220.438 53.7896 220.438 53.2396C220.438 52.6896 220.288 52.2296 219.978 51.8696C219.668 51.5196 219.268 51.3396 218.778 51.3396C218.318 51.3396 217.928 51.5196 217.608 51.8696C217.298 52.2296 217.148 52.6796 217.148 53.1996V53.2096Z" fill="#0066CB"/>
<path d="M226.491 59.3896H225.141V50.2696H226.491V50.9096C227.021 50.3696 227.631 50.0996 228.301 50.0996C229.101 50.0996 229.771 50.3996 230.291 50.9996C230.821 51.5896 231.081 52.3396 231.081 53.2496C231.081 54.1596 230.821 54.8696 230.291 55.4596C229.771 56.0496 229.111 56.3396 228.321 56.3396C227.641 56.3396 227.021 56.0596 226.481 55.5096V59.3896H226.491ZM229.701 53.2596C229.701 52.6896 229.551 52.2296 229.241 51.8796C228.931 51.5196 228.541 51.3396 228.071 51.3396C227.571 51.3396 227.171 51.5096 226.861 51.8596C226.551 52.2096 226.401 52.6696 226.401 53.2296C226.401 53.7896 226.551 54.2396 226.861 54.5996C227.161 54.9496 227.561 55.1296 228.061 55.1296C228.531 55.1296 228.911 54.9496 229.221 54.5996C229.531 54.2396 229.691 53.7996 229.691 53.2696L229.701 53.2596Z" fill="#0066CB"/>
<path d="M238.561 50.2696H239.921V56.1796H238.561V55.5596C238.001 56.0896 237.401 56.3496 236.761 56.3496C235.951 56.3496 235.281 56.0496 234.751 55.4596C234.231 54.8596 233.961 54.1096 233.961 53.1996C233.961 52.2896 234.221 51.5796 234.751 50.9896C235.281 50.3996 235.931 50.0996 236.721 50.0996C237.401 50.0996 238.011 50.3796 238.551 50.9496V50.2596L238.561 50.2696ZM235.351 53.2096C235.351 53.7796 235.501 54.2396 235.801 54.5896C236.111 54.9496 236.501 55.1296 236.971 55.1296C237.471 55.1296 237.881 54.9596 238.181 54.6096C238.491 54.2496 238.641 53.7896 238.641 53.2396C238.641 52.6896 238.491 52.2296 238.181 51.8696C237.871 51.5196 237.471 51.3396 236.981 51.3396C236.521 51.3396 236.131 51.5196 235.811 51.8696C235.501 52.2296 235.351 52.6796 235.351 53.1996V53.2096Z" fill="#0066CB"/>
<path d="M243.338 50.2713H244.698V50.8213C245.168 50.3513 245.708 50.1113 246.298 50.1113C246.978 50.1113 247.508 50.3313 247.888 50.7613C248.218 51.1313 248.378 51.7313 248.378 52.5613V56.1813H247.018V52.8813C247.018 52.3013 246.938 51.9013 246.778 51.6713C246.618 51.4413 246.338 51.3313 245.928 51.3313C245.478 51.3313 245.158 51.4813 244.968 51.7813C244.788 52.0813 244.688 52.5913 244.688 53.3313V56.1813H243.328V50.2713H243.338Z" fill="#0066CB"/>
<path d="M211.449 65.1815H212.799V65.7315C213.059 65.4515 213.279 65.2715 213.469 65.1715C213.669 65.0715 213.909 65.0215 214.209 65.0215C214.869 65.0215 215.389 65.3115 215.779 65.8915C216.199 65.3115 216.779 65.0215 217.499 65.0215C218.819 65.0215 219.479 65.8315 219.479 67.4415V71.0915H218.119V67.8115C218.119 67.2415 218.049 66.8415 217.919 66.6115C217.779 66.3715 217.549 66.2515 217.229 66.2515C216.859 66.2515 216.589 66.3915 216.419 66.6715C216.249 66.9515 216.159 67.4115 216.159 68.0315V71.0815H214.799V67.8215C214.799 66.7715 214.499 66.2415 213.899 66.2415C213.519 66.2415 213.239 66.3815 213.069 66.6715C212.899 66.9615 212.809 67.4115 212.809 68.0315V71.0815H211.459V65.1715L211.449 65.1815Z" fill="#0066CB"/>
<path d="M227.221 65.1798H228.581V71.0898H227.221V70.4698C226.661 70.9998 226.061 71.2598 225.421 71.2598C224.611 71.2598 223.941 70.9598 223.411 70.3698C222.891 69.7698 222.621 69.0198 222.621 68.1098C222.621 67.1998 222.881 66.4898 223.411 65.8998C223.941 65.3098 224.591 65.0098 225.381 65.0098C226.061 65.0098 226.671 65.2898 227.211 65.8598V65.1698L227.221 65.1798ZM224.011 68.1198C224.011 68.6898 224.161 69.1498 224.461 69.4998C224.771 69.8598 225.161 70.0398 225.631 70.0398C226.131 70.0398 226.541 69.8698 226.841 69.5198C227.151 69.1598 227.301 68.6998 227.301 68.1498C227.301 67.5998 227.151 67.1398 226.841 66.7798C226.531 66.4298 226.131 66.2498 225.641 66.2498C225.181 66.2498 224.791 66.4298 224.471 66.7798C224.161 67.1398 224.011 67.5898 224.011 68.1098V68.1198Z" fill="#0066CB"/>
<path d="M236.32 60.8398H237.68V71.0898H236.32V70.4698C235.79 70.9998 235.18 71.2598 234.51 71.2598C233.71 71.2598 233.04 70.9598 232.52 70.3698C232 69.7698 231.73 69.0198 231.73 68.1098C231.73 67.1998 231.99 66.4898 232.52 65.8998C233.04 65.3098 233.7 65.0098 234.48 65.0098C235.16 65.0098 235.78 65.2898 236.32 65.8598V60.8398ZM233.11 68.1098C233.11 68.6798 233.26 69.1398 233.56 69.4898C233.87 69.8498 234.26 70.0298 234.73 70.0298C235.23 70.0298 235.64 69.8598 235.94 69.5098C236.25 69.1498 236.4 68.6898 236.4 68.1398C236.4 67.5898 236.25 67.1298 235.94 66.7698C235.63 66.4198 235.23 66.2398 234.74 66.2398C234.28 66.2398 233.89 66.4198 233.57 66.7698C233.26 67.1298 233.11 67.5798 233.11 68.0998V68.1098Z" fill="#0066CB"/>
<path d="M246.43 68.45H242.24C242.28 68.94 242.43 69.32 242.71 69.61C242.99 69.89 243.34 70.03 243.77 70.03C244.11 70.03 244.38 69.95 244.6 69.79C244.82 69.63 245.06 69.33 245.34 68.89L246.48 69.53C246.3 69.83 246.12 70.09 245.92 70.31C245.72 70.53 245.51 70.7 245.29 70.84C245.07 70.98 244.82 71.08 244.56 71.15C244.3 71.21 244.02 71.25 243.71 71.25C242.84 71.25 242.14 70.97 241.61 70.4C241.08 69.83 240.82 69.07 240.82 68.13C240.82 67.19 241.08 66.44 241.59 65.86C242.11 65.29 242.79 65 243.64 65C244.49 65 245.18 65.28 245.68 65.83C246.18 66.38 246.42 67.14 246.42 68.12V68.44L246.43 68.45ZM245.04 67.33C244.85 66.6 244.4 66.24 243.68 66.24C243.52 66.24 243.36 66.27 243.22 66.32C243.08 66.37 242.94 66.44 242.83 66.54C242.71 66.63 242.61 66.75 242.53 66.88C242.45 67.01 242.38 67.17 242.34 67.34H245.06L245.04 67.33Z" fill="#0066CB"/>
</svg>
