<?xml version="1.0" encoding="UTF-8"?>
<svg xmlns="http://www.w3.org/2000/svg" width="164" height="193" viewBox="0 0 164 193" fill="none">
  <g clip-path="url(#clip0_5447_102096)">
    <path d="M133.679 161.41H30.3191C26.5791 161.41 23.5391 158.37 23.5391 154.63V139.14C23.5391 137.97 24.0291 136.85 24.8891 136.06C25.7491 135.27 26.9091 134.88 28.0691 134.97C33.1291 135.39 42.0791 135.9 55.9791 135.9C69.8791 135.9 131.309 135.36 135.929 134.97C137.089 134.87 138.249 135.27 139.109 136.06C139.969 136.85 140.459 137.97 140.459 139.14V154.63C140.459 158.37 137.419 161.41 133.679 161.41ZM27.7191 136.47C27.0491 136.47 26.4191 136.72 25.9091 137.18C25.3491 137.69 25.0391 138.39 25.0391 139.15V154.64C25.0391 157.55 27.4091 159.92 30.3191 159.92H133.679C136.589 159.92 138.959 157.55 138.959 154.64V139.15C138.959 138.39 138.649 137.69 138.089 137.18C137.529 136.67 136.809 136.42 136.049 136.48C131.399 136.87 69.9791 137.42 55.9691 137.42C41.9591 137.42 33.0291 136.91 27.9391 136.48C27.8591 136.48 27.7891 136.48 27.7091 136.48L27.7191 136.47Z" fill="#808080"></path>
    <path d="M140.5 136.11C140.09 136.11 139.75 135.77 139.75 135.36V134.08C139.75 133.3 139.43 132.58 138.86 132.05C138.28 131.52 137.53 131.26 136.75 131.33C131.99 131.73 70.07 132.29 55.98 132.29C41.89 132.29 32.47 131.77 27.25 131.33C26.47 131.26 25.72 131.52 25.14 132.05C24.56 132.58 24.25 133.3 24.25 134.08V135.36C24.25 135.77 23.91 136.11 23.5 136.11C23.09 136.11 22.75 135.77 22.75 135.36V134.08C22.75 132.89 23.25 131.75 24.13 130.94C25.01 130.13 26.19 129.73 27.38 129.83C32.57 130.27 41.74 130.78 55.98 130.78C70.22 130.78 131.89 130.22 136.63 129.83C137.82 129.73 139 130.14 139.88 130.94C140.76 131.74 141.26 132.89 141.26 134.08V135.36C141.26 135.77 140.92 136.11 140.51 136.11H140.5Z" fill="#808080"></path>
    <path d="M116.108 140.299V141.209H108.238V140.299H111.568V139.539H112.658V140.299H116.108ZM115.818 146.829C115.818 147.329 115.718 147.609 115.368 147.779C115.038 147.939 114.558 147.949 113.908 147.949C113.878 147.739 113.798 147.459 113.698 147.229H111.378V147.639H110.438V145.219H113.878V146.969C114.188 146.969 114.468 146.969 114.558 146.969C114.698 146.969 114.728 146.929 114.728 146.829V144.819H109.628V147.979H108.588V143.929H115.808V146.849L115.818 146.829ZM114.628 141.549V143.529H109.708V141.549H114.628ZM113.538 142.259H110.728V142.809H113.538V142.259ZM112.938 145.909H111.378V146.499H112.938V145.909Z" fill="#8B8D90"></path>
    <path d="M120.492 139.958L121.712 139.818C121.802 140.298 121.942 140.778 122.092 141.228C122.742 141.128 123.372 140.988 123.942 140.818L124.082 141.948C123.622 142.088 123.042 142.188 122.482 142.268C122.742 142.848 123.062 143.408 123.282 143.738C123.432 143.958 123.602 144.158 123.772 144.338L123.212 145.148C122.712 145.048 121.572 144.928 120.822 144.868L120.912 143.918C121.352 143.958 121.952 144.008 122.222 144.028C121.952 143.598 121.632 142.998 121.372 142.398C120.302 142.478 119.072 142.488 117.532 142.358L117.512 141.208C118.862 141.368 120.012 141.398 120.972 141.338C120.902 141.128 120.842 140.938 120.792 140.788C120.722 140.578 120.622 140.258 120.502 139.958H120.492ZM118.862 145.498C118.862 146.258 119.542 146.578 120.772 146.578C121.752 146.578 122.542 146.488 123.182 146.358L123.122 147.488C122.612 147.588 121.802 147.708 120.702 147.708C118.862 147.708 117.702 146.988 117.702 145.688C117.702 145.138 117.872 144.628 118.182 144.018L119.312 144.278C119.022 144.698 118.872 145.098 118.872 145.488L118.862 145.498Z" fill="#8B8D90"></path>
    <path d="M108.06 155.418C109.8 153.758 110.94 152.628 110.94 151.668C110.94 151.008 110.58 150.618 109.94 150.618C109.45 150.618 109.06 150.938 108.72 151.308L108 150.588C108.61 149.928 109.21 149.568 110.12 149.568C111.38 149.568 112.22 150.368 112.22 151.598C112.22 152.728 111.18 153.898 109.99 155.148C110.32 155.108 110.76 155.078 111.08 155.078H112.54V156.198H108.07V155.438L108.06 155.418Z" fill="#8B8D90"></path>
    <path d="M113.422 153.109C113.422 150.629 114.652 149.559 116.002 149.559C116.812 149.559 117.402 149.899 117.802 150.319L117.102 151.109C116.872 150.849 116.462 150.629 116.072 150.629C115.302 150.629 114.672 151.199 114.622 152.869C114.992 152.409 115.562 152.139 115.992 152.139C117.112 152.139 117.912 152.779 117.912 154.139C117.912 155.499 116.962 156.299 115.812 156.299C114.552 156.299 113.422 155.329 113.422 153.099V153.109ZM114.662 153.789C114.792 154.889 115.242 155.299 115.792 155.299C116.292 155.299 116.702 154.909 116.702 154.139C116.702 153.409 116.322 153.079 115.752 153.079C115.412 153.079 115.002 153.269 114.672 153.789H114.662Z" fill="#8B8D90"></path>
    <path d="M118.668 153.66C118.668 151.99 119.878 151.01 121.238 151.01C121.858 151.01 122.338 151.25 122.708 151.57L122.078 152.43C121.828 152.21 121.588 152.1 121.308 152.1C120.538 152.1 120.008 152.72 120.008 153.67C120.008 154.62 120.538 155.24 121.258 155.24C121.618 155.24 121.958 155.07 122.238 154.83L122.768 155.7C122.278 156.12 121.668 156.31 121.108 156.31C119.708 156.31 118.648 155.34 118.648 153.66H118.668Z" fill="#8B8D90"></path>
    <path d="M123.73 151.14H124.81L124.91 151.81H124.94C125.36 151.37 125.83 151.01 126.49 151.01C127.21 151.01 127.63 151.33 127.88 151.89C128.34 151.4 128.83 151.01 129.48 151.01C130.55 151.01 131.05 151.77 131.05 153.04V156.18H129.73V153.2C129.73 152.42 129.5 152.15 129.03 152.15C128.74 152.15 128.42 152.34 128.06 152.72V156.19H126.75V153.21C126.75 152.43 126.52 152.16 126.04 152.16C125.75 152.16 125.43 152.35 125.08 152.73V156.2H123.76V151.16L123.73 151.14Z" fill="#8B8D90"></path>
    <path d="M73.4281 176.559H68.1881V173.059H70.1981V172.529H67.7881V172.269H66.8781V172.739C67.1481 173.099 67.8481 174.159 67.9981 174.419L67.3981 175.339C67.2881 175.039 67.0881 174.609 66.8781 174.189V178.449H65.7781V174.769C65.5181 175.519 65.2081 176.209 64.8681 176.689C64.7581 176.369 64.5081 175.909 64.3281 175.629C64.9081 174.839 65.4481 173.459 65.7081 172.269H64.5681V171.169H65.7781V169.119H66.8781V171.169H67.8881V171.549H69.1281V170.879H68.0781V169.939H69.1281V169.129H70.2381V169.939H71.3181V169.129H72.4281V169.939H73.5481V170.879H72.4281V171.549H73.7781V172.529H71.2881V173.059H73.4281V176.559ZM70.4281 177.219C69.8681 177.689 68.9681 178.199 68.2781 178.489C68.0881 178.259 67.7381 177.919 67.4881 177.719C68.1781 177.449 69.0181 176.949 69.4581 176.559L70.4281 177.219ZM69.2181 174.419H70.1981V173.879H69.2181V174.419ZM70.1981 175.739V175.179H69.2181V175.739H70.1981ZM70.2381 171.549H71.3181V170.879H70.2381V171.549ZM72.0181 176.619C72.6081 176.939 73.4581 177.429 73.8881 177.769L72.9881 178.479C72.5981 178.139 71.7881 177.609 71.1781 177.249L72.0181 176.619ZM72.3481 173.879H71.2881V174.419H72.3481V173.879ZM72.3481 175.179H71.2881V175.739H72.3481V175.179Z" fill="#8B8D90"></path>
    <path d="M74.918 176.399H76.508V171.909H75.168V170.999C75.908 170.859 76.418 170.669 76.888 170.379H77.978V176.399H79.368V177.589H74.918V176.399Z" fill="#8B8D90"></path>
    <path d="M80.8086 176.399H82.3986V171.909H81.0586V170.999C81.7986 170.859 82.3086 170.669 82.7786 170.379H83.8686V176.399H85.2586V177.589H80.8086V176.399Z" fill="#8B8D90"></path>
    <path d="M89.7089 171.619H86.3789V170.389H91.2989V171.289C89.6189 173.339 89.3489 174.789 89.2289 177.599H87.7389C87.8689 175.109 88.3289 173.539 89.7089 171.619Z" fill="#8B8D90"></path>
    <path d="M92.2109 174.799C92.2109 172.939 93.5509 171.859 95.0709 171.859C95.7609 171.859 96.2909 172.129 96.7009 172.479L96.0009 173.429C95.7209 173.189 95.4609 173.059 95.1509 173.059C94.2909 173.059 93.7109 173.749 93.7109 174.799C93.7109 175.849 94.3009 176.539 95.1009 176.539C95.5009 176.539 95.8809 176.349 96.1909 176.089L96.7809 177.059C96.2409 177.529 95.5609 177.739 94.9409 177.739C93.3909 177.739 92.2109 176.659 92.2109 174.799Z" fill="#8B8D90"></path>
    <path d="M97.8281 171.999H99.0281L99.1381 172.749H99.1681C99.6381 172.259 100.158 171.859 100.888 171.859C101.688 171.859 102.158 172.219 102.428 172.839C102.938 172.299 103.478 171.859 104.208 171.859C105.398 171.859 105.948 172.699 105.948 174.109V177.599H104.478V174.289C104.478 173.419 104.228 173.119 103.698 173.119C103.378 173.119 103.018 173.329 102.618 173.749V177.599H101.158V174.289C101.158 173.419 100.898 173.119 100.368 173.119C100.048 173.119 99.6881 173.329 99.2981 173.749V177.599H97.8281V171.999Z" fill="#8B8D90"></path>
    <path d="M66.0794 181L67.0294 181.42C66.0294 182.5 65.2394 183.88 65.2394 185.8C65.2394 187.72 66.0294 189.1 67.0294 190.18L66.0794 190.6C64.9994 189.54 64.1094 187.94 64.1094 185.8C64.1094 183.66 64.9994 182.06 66.0794 181Z" fill="#8B8D90"></path>
    <path d="M68.5875 187.129C68.4975 188.069 68.2975 189.059 68.0175 189.689C67.8275 189.569 67.4175 189.379 67.1875 189.299C67.4675 188.709 67.5975 187.819 67.6775 186.979L68.5875 187.129ZM75.3275 189.329C75.4775 189.359 75.6375 189.369 75.7975 189.369C75.9875 189.369 76.5775 189.359 76.8275 189.359C76.6975 189.599 76.5675 190.089 76.5375 190.369H75.7075C74.8475 190.369 74.0975 190.119 73.5675 189.109C73.4375 189.579 73.2375 190.039 72.9475 190.449C72.8075 190.269 72.5275 190.039 72.2875 189.879V190.459H71.2875V185.939C71.2175 186.019 71.1375 186.089 71.0675 186.159C70.9975 186.039 70.8575 185.819 70.7175 185.629C70.8375 185.949 70.9375 186.269 70.9775 186.519L70.1175 186.869C70.0975 186.719 70.0575 186.539 69.9975 186.349L69.6075 186.389V190.469H68.6175V186.459L67.4775 186.539L67.2775 185.489H67.8975C68.0675 185.259 68.2375 185.009 68.3975 184.749C68.1275 184.319 67.7075 183.819 67.3375 183.429L67.8475 182.579C67.9175 182.639 67.9875 182.709 68.0675 182.779C68.2975 182.249 68.5175 181.629 68.6475 181.139L69.6675 181.469C69.3575 182.139 68.9975 182.899 68.6975 183.459C68.7975 183.579 68.8875 183.689 68.9675 183.799C69.2475 183.299 69.5075 182.809 69.6975 182.369L70.5775 182.769C70.9875 182.309 71.3775 181.709 71.6275 181.139L72.5975 181.449C72.2175 182.249 71.6175 183.169 71.0875 183.739C70.9575 183.579 70.6775 183.269 70.4675 183.079C70.1475 183.599 69.7975 184.159 69.4375 184.689L70.1775 184.409C70.3075 184.659 70.4375 184.929 70.5575 185.209C71.1175 184.679 71.6375 183.919 71.9575 183.129L72.8875 183.419C72.7275 183.819 72.5175 184.219 72.2875 184.609V189.589C72.8475 188.679 72.9275 187.609 72.9275 186.799V185.609H73.8175V186.819C73.8175 187.009 73.8175 187.199 73.8075 187.399C73.9375 187.959 74.1175 188.369 74.3175 188.659V184.629H72.8575V183.579H73.5575C73.5075 183.019 73.2675 182.169 72.9875 181.519L73.9075 181.219C74.2175 181.859 74.4775 182.699 74.5375 183.259L73.5875 183.579H76.6075V184.629H75.3275V186.069H76.5075V187.079H75.3275V189.329ZM69.7075 185.459C69.6075 185.219 69.5075 184.969 69.3975 184.749C69.2275 184.999 69.0475 185.249 68.8875 185.469H69.7075V185.459ZM70.4575 186.969C70.6775 187.579 70.8975 188.369 70.9975 188.899L70.1475 189.159C70.0775 188.639 69.8575 187.819 69.6575 187.199L70.4575 186.969ZM76.5075 181.349C76.2875 182.119 76.0275 182.969 75.8075 183.519L74.8675 183.299C75.0675 182.719 75.2875 181.799 75.3775 181.129L76.5075 181.349Z" fill="#8B8D90"></path>
    <path d="M77.5575 188.888L78.3375 187.998C78.5975 188.298 79.0475 188.528 79.4775 188.528C80.3275 188.528 81.0275 187.908 81.0875 186.048C80.6775 186.558 80.0475 186.858 79.5675 186.858C78.3275 186.858 77.4375 186.138 77.4375 184.628C77.4375 183.118 78.4975 182.238 79.7675 182.238C81.1675 182.238 82.4275 183.308 82.4275 185.788C82.4275 188.538 81.0575 189.728 79.5675 189.728C78.6575 189.728 77.9875 189.338 77.5575 188.888ZM79.8475 185.808C80.2375 185.808 80.7075 185.578 81.0475 185.018C80.8975 183.808 80.3975 183.348 79.7875 183.348C79.2375 183.348 78.7875 183.768 78.7875 184.628C78.7875 185.438 79.1975 185.808 79.8475 185.808Z" fill="#8B8D90"></path>
    <path d="M86.7597 183.619H83.4297V182.389H88.3497V183.289C86.6697 185.339 86.3997 186.789 86.2797 189.599H84.7897C84.9197 187.109 85.3797 185.539 86.7597 183.619Z" fill="#8B8D90"></path>
    <path d="M89.2578 186.799C89.2578 184.939 90.5978 183.859 92.1178 183.859C92.8078 183.859 93.3378 184.129 93.7478 184.479L93.0478 185.429C92.7678 185.189 92.5078 185.059 92.1978 185.059C91.3378 185.059 90.7578 185.749 90.7578 186.799C90.7578 187.849 91.3478 188.539 92.1478 188.539C92.5478 188.539 92.9278 188.349 93.2378 188.089L93.8278 189.059C93.2878 189.529 92.6078 189.739 91.9878 189.739C90.4378 189.739 89.2578 188.659 89.2578 186.799Z" fill="#8B8D90"></path>
    <path d="M94.8789 183.999H96.0789L96.1889 184.749H96.2189C96.6889 184.259 97.2089 183.859 97.9389 183.859C98.7389 183.859 99.2089 184.219 99.4789 184.839C99.9889 184.299 100.529 183.859 101.259 183.859C102.449 183.859 102.999 184.699 102.999 186.109V189.599H101.529V186.289C101.529 185.419 101.279 185.119 100.749 185.119C100.429 185.119 100.069 185.329 99.6689 185.749V189.599H98.2089V186.289C98.2089 185.419 97.9489 185.119 97.4189 185.119C97.0989 185.119 96.7389 185.329 96.3489 185.749V189.599H94.8789V183.999Z" fill="#8B8D90"></path>
    <path d="M104.688 190.588L103.738 190.168C104.738 189.088 105.528 187.708 105.528 185.788C105.528 183.868 104.738 182.488 103.738 181.408L104.688 180.988C105.768 182.048 106.658 183.648 106.658 185.788C106.658 187.928 105.768 189.528 104.688 190.588Z" fill="#8B8D90"></path>
    <path d="M58.7184 64.5893C57.7484 66.9593 55.4584 67.9093 52.7184 68.2793C52.6484 68.0193 52.4584 67.6293 52.3184 67.4093C53.4684 67.2893 54.5384 67.0493 55.4384 66.6493C55.1384 66.3793 54.6584 66.0493 54.2584 65.8093C53.9084 65.9893 53.5184 66.1493 53.1184 66.2893C53.0084 66.0693 52.7384 65.7093 52.5384 65.5493C54.0784 65.0893 55.1584 64.3993 55.7984 63.6993C54.7284 64.3993 53.4184 64.8693 52.0884 65.1293C51.9984 64.8893 51.8184 64.5193 51.6484 64.3093C52.5884 64.1593 53.5184 63.8893 54.3384 63.5193C54.0384 63.2993 53.6384 63.0293 53.2684 62.8293C52.9784 62.9793 52.6784 63.1193 52.3484 63.2493C52.2084 63.0293 51.9184 62.7093 51.7084 62.5493C53.1284 62.0993 54.1084 61.4293 54.6584 60.7793L55.6884 60.9993C55.5684 61.1393 55.4384 61.2693 55.3084 61.4093H56.9084L57.0684 61.3693L57.6784 61.7193C57.2884 62.4593 56.7084 63.0593 56.0284 63.5493L56.9884 63.7693C56.8384 63.9493 56.6684 64.1293 56.4884 64.2993H57.9184L58.0784 64.2593L58.7184 64.5893ZM54.3584 62.1893C54.2584 62.2593 54.1684 62.3293 54.0584 62.3993C54.4584 62.6093 54.8984 62.8693 55.1584 63.0993C55.5884 62.8393 55.9584 62.5293 56.2584 62.1993H54.3484L54.3584 62.1893ZM55.5084 65.0893C55.3684 65.1893 55.2384 65.2693 55.0884 65.3593C55.5184 65.5993 55.9984 65.9093 56.2884 66.1793C56.7384 65.8793 57.1084 65.5193 57.3884 65.0893H55.5084Z" fill="#8B8D90"></path>
    <path d="M62.9192 67.1589C61.7992 67.4289 60.5792 67.7189 59.6692 67.9289L59.4492 67.0389C59.9892 66.9389 60.7192 66.7989 61.4892 66.6389L61.2992 66.5889C61.4092 66.1389 61.5392 65.4589 61.5792 64.9589L62.5092 65.1589C62.3692 65.6189 62.2392 66.1189 62.1092 66.5089L62.8492 66.3589L62.9292 67.1589H62.9192ZM62.7992 62.0489H59.5892V61.1789H62.7992V62.0489ZM62.6192 64.8489H59.7992V62.6089H62.6192V64.8489ZM60.1592 66.6489C60.1592 66.2689 60.0492 65.6689 59.8992 65.2289L60.6592 65.0389C60.8292 65.4889 60.9492 66.0589 60.9692 66.4389L60.1592 66.6589V66.6489ZM61.7692 63.3589H60.5892V64.1089H61.7692V63.3589ZM64.6992 67.2289C64.2692 67.6389 63.5392 68.0589 62.9192 68.2889C62.7792 68.1189 62.4992 67.8489 62.2992 67.6789C62.8992 67.4689 63.5892 67.0589 63.9192 66.7289L64.6992 67.2289ZM64.2192 62.4689C64.2492 62.2889 64.2792 62.1089 64.2992 61.9289H62.9792V61.1289H66.8292V61.9289H65.3292C65.2692 62.1089 65.2192 62.2989 65.1592 62.4689H66.6492V66.6889H63.1592V62.4689H64.2092H64.2192ZM65.7492 63.1689H64.0392V63.6689H65.7492V63.1689ZM65.7492 64.3189H64.0392V64.8189H65.7492V64.3189ZM65.7492 65.4889H64.0392V65.9989H65.7492V65.4889ZM65.7492 66.7889C66.1692 67.0689 66.7692 67.4889 67.0892 67.7789L66.3292 68.2789C66.0592 67.9889 65.4692 67.5389 65.0292 67.2289L65.7492 66.7789V66.7889Z" fill="#8B8D90"></path>
    <path d="M74.6981 67.1798C74.6981 67.6698 74.5981 67.9598 74.2881 68.1098C73.9781 68.2598 73.5481 68.2898 72.8881 68.2898C72.8481 68.0298 72.6981 67.5898 72.5481 67.3398C73.0081 67.3698 73.4481 67.3598 73.5981 67.3598C73.7381 67.3598 73.7781 67.2998 73.7781 67.1698V61.9998H70.9181C70.9181 61.9998 70.9981 62.0998 71.0281 62.1398L70.4481 62.8298C70.2281 62.4898 69.8081 61.9798 69.4081 61.6298C69.1581 62.0498 68.8381 62.5298 68.4081 62.9998H69.0681V62.3398H69.8481V62.9998H70.7081V65.7498H68.8081V66.9098C69.1081 66.8498 69.4081 66.7698 69.7081 66.6998C69.6081 66.5098 69.4981 66.3198 69.3981 66.1398L70.1481 65.8298C70.5281 66.3998 70.9281 67.1698 71.0581 67.6898L70.2481 68.0498C70.1981 67.8698 70.1281 67.6598 70.0381 67.4298C69.2281 67.6598 68.3881 67.8898 67.7181 68.0598L67.4781 67.1998C67.6181 67.1798 67.7781 67.1398 67.9481 67.0998V63.4498C67.8081 63.2598 67.5281 62.9798 67.3281 62.8498C68.0681 62.2698 68.5581 61.4898 68.8281 60.8398H69.6881C70.0781 61.1398 70.5481 61.5698 70.8581 61.9298V61.1498H74.6981V67.1998V67.1798ZM68.8081 63.6698V64.0498H69.8681V63.6698H68.8081ZM69.8681 65.0698V64.6698H68.8081V65.0698H69.8681ZM73.4381 63.2098H70.9281V62.4598H73.4381V63.2098ZM71.8481 66.3598V66.9798H71.0881V63.6898H73.2781V66.3598H71.8481ZM71.8481 64.4598V65.5898H72.5381V64.4598H71.8481Z" fill="#8B8D90"></path>
    <path d="M77.1473 62.8398C77.1473 63.3598 77.1473 63.9598 77.1973 64.5298C77.3073 65.6798 77.5473 66.4698 78.0573 66.4698C78.4373 66.4698 78.7573 65.5298 78.9073 64.8898L79.7073 65.8698C79.1773 67.2598 78.6773 67.7498 78.0373 67.7498C77.1573 67.7498 76.3973 66.9598 76.1773 64.8198C76.0973 64.0798 76.0873 63.1498 76.0873 62.6598C76.0873 62.4398 76.0673 62.0898 76.0273 61.8398L77.2573 61.8598C77.1973 62.1498 77.1573 62.6098 77.1573 62.8398H77.1473ZM82.6973 66.1898L81.6473 66.5998C81.5173 65.3098 81.0973 63.3698 80.2273 62.3798L81.2473 62.0498C82.0073 62.9698 82.6173 64.9698 82.7073 66.1898H82.6973Z" fill="#8B8D90"></path>
    <path d="M86.8572 63.0396C87.6772 62.5296 88.5972 61.7296 89.1072 61.0996L89.9672 61.9196C89.3572 62.5196 88.5872 63.1396 87.8172 63.6596V66.8896C87.8172 67.2396 87.8372 67.7396 87.8872 67.9396H86.6272C86.6572 67.7496 86.6872 67.2396 86.6872 66.8896V64.3296C85.8672 64.7596 84.8472 65.1896 83.8672 65.4796L83.3672 64.4696C84.7972 64.0996 85.9772 63.5796 86.8572 63.0396Z" fill="#8B8D90"></path>
    <path d="M96.2177 62.4293C95.9777 63.0593 95.6177 63.8693 95.1477 64.5993C95.8477 65.1793 96.5277 65.7893 97.0677 66.3693L96.2477 67.2793C95.6877 66.6193 95.1077 66.0593 94.4677 65.5093C93.7677 66.3593 92.8477 67.2493 91.4977 67.9793L90.5977 67.1693C91.8977 66.5393 92.8477 65.7593 93.6377 64.8093C93.0577 64.3493 92.2977 63.7893 91.4777 63.2893L92.1577 62.4693C92.7977 62.8593 93.6377 63.4393 94.2877 63.9193C94.6977 63.2793 94.9677 62.6493 95.1777 62.0193C95.2477 61.8093 95.3377 61.4893 95.3677 61.2793L96.5577 61.6993C96.4577 61.8793 96.2977 62.2393 96.2177 62.4193V62.4293Z" fill="#8B8D90"></path>
    <path d="M99.2978 63.9289H103.588C103.968 63.9289 104.318 63.8989 104.528 63.8789V65.1389C104.338 65.1389 103.928 65.0989 103.588 65.0989H99.2978C98.8378 65.0989 98.3078 65.1189 98.0078 65.1389V63.8789C98.2978 63.8989 98.8778 63.9289 99.2978 63.9289Z" fill="#8B8D90"></path>
    <path d="M107.908 64.2388L107.328 65.1388C106.868 64.8188 106.038 64.2788 105.508 63.9988L106.088 63.1188C106.628 63.4088 107.508 63.9588 107.918 64.2488L107.908 64.2388ZM108.548 66.0588C109.908 65.2988 111.028 64.2088 111.658 63.0588L112.278 64.1488C111.538 65.2588 110.408 66.2688 109.108 67.0288C108.288 67.4888 107.138 67.8888 106.438 68.0088L105.838 66.9588C106.738 66.8088 107.688 66.5388 108.558 66.0588H108.548ZM109.128 62.4288L108.538 63.3088C108.088 62.9988 107.258 62.4588 106.728 62.1688L107.308 61.2888C107.838 61.5788 108.718 62.1388 109.128 62.4288ZM111.508 62.6788L110.808 62.9788C110.578 62.4788 110.388 62.1288 110.108 61.7188L110.778 61.4388C110.998 61.7788 111.318 62.3088 111.508 62.6788ZM112.628 62.2488L111.948 62.5488C111.688 62.0488 111.488 61.7288 111.198 61.3288L111.878 61.0488C112.128 61.3688 112.438 61.8888 112.628 62.2388V62.2488Z" fill="#8B8D90"></path>
    <path d="M43.9397 80.1579L44.4797 79.4079C44.8197 79.7379 45.2297 80.0079 45.7797 80.0079C46.3997 80.0079 46.8297 79.6479 46.8297 78.9979C46.8297 78.3479 46.4297 77.9979 45.8297 77.9979C45.4797 77.9979 45.2897 78.0879 44.9397 78.3079L44.3997 77.9679L44.5597 75.0879H47.7297V76.0679H45.5797L45.4697 77.3179C45.7097 77.2179 45.9097 77.1579 46.1797 77.1579C47.1697 77.1579 47.9997 77.7179 47.9997 78.9479C47.9997 80.1779 47.0197 80.9579 45.9297 80.9579C44.9897 80.9579 44.3697 80.5879 43.9297 80.1479L43.9397 80.1579Z" fill="#8B8D90"></path>
    <path d="M48.7891 77.9485C48.7891 75.9985 49.5791 74.9785 50.7991 74.9785C52.0191 74.9785 52.7991 75.9985 52.7991 77.9485C52.7991 79.8985 52.0191 80.9685 50.7991 80.9685C49.5791 80.9685 48.7891 79.9085 48.7891 77.9485ZM51.6791 77.9485C51.6791 76.3485 51.2991 75.8985 50.7891 75.8985C50.2791 75.8985 49.8891 76.3485 49.8891 77.9485C49.8891 79.5485 50.2691 80.0485 50.7891 80.0485C51.3091 80.0485 51.6791 79.5485 51.6791 77.9485Z" fill="#8B8D90"></path>
    <path d="M53.5078 78.6176C53.5078 77.1276 54.5778 76.2676 55.7978 76.2676C56.3478 76.2676 56.7778 76.4876 57.0978 76.7676L56.5378 77.5276C56.3178 77.3376 56.1078 77.2276 55.8578 77.2276C55.1678 77.2276 54.7078 77.7776 54.7078 78.6176C54.7078 79.4576 55.1778 80.0076 55.8178 80.0076C56.1378 80.0076 56.4378 79.8576 56.6878 79.6476L57.1578 80.4276C56.7278 80.8076 56.1778 80.9676 55.6878 80.9676C54.4478 80.9676 53.5078 80.1076 53.5078 78.6176Z" fill="#8B8D90"></path>
    <path d="M57.9983 76.3776H58.9583L59.0483 76.9776H59.0683C59.4483 76.5876 59.8583 76.2676 60.4483 76.2676C61.0883 76.2676 61.4683 76.5576 61.6783 77.0476C62.0883 76.6176 62.5183 76.2676 63.0983 76.2676C64.0483 76.2676 64.4883 76.9376 64.4883 78.0676V80.8576H63.3083V78.2076C63.3083 77.5076 63.1083 77.2676 62.6883 77.2676C62.4283 77.2676 62.1483 77.4376 61.8283 77.7676V80.8476H60.6583V78.1976C60.6583 77.4976 60.4483 77.2576 60.0283 77.2576C59.7683 77.2576 59.4883 77.4276 59.1683 77.7576V80.8376H57.9883V76.3576L57.9983 76.3776Z" fill="#8B8D90"></path>
    <path d="M79.6797 86.6074H29.6797C29.3997 86.6074 29.1797 86.3874 29.1797 86.1074C29.1797 85.8274 29.3997 85.6074 29.6797 85.6074H79.6797C79.9597 85.6074 80.1797 85.8274 80.1797 86.1074C80.1797 86.3874 79.9597 86.6074 79.6797 86.6074Z" fill="#8B8D90"></path>
    <path d="M29.1289 90.308C28.8489 90.308 28.6289 90.088 28.6289 89.808V82.418C28.6289 82.138 28.8489 81.918 29.1289 81.918C29.4089 81.918 29.6289 82.138 29.6289 82.418V89.808C29.6289 90.088 29.4089 90.308 29.1289 90.308Z" fill="#8B8D90"></path>
    <path d="M79.8203 90.308C79.5403 90.308 79.3203 90.088 79.3203 89.808V82.418C79.3203 82.138 79.5403 81.918 79.8203 81.918C80.1003 81.918 80.3203 82.138 80.3203 82.418V89.808C80.3203 90.088 80.1003 90.308 79.8203 90.308Z" fill="#8B8D90"></path>
    <path d="M98.9905 80.1579L99.5305 79.4079C99.8705 79.7379 100.28 80.0079 100.83 80.0079C101.45 80.0079 101.88 79.6479 101.88 78.9979C101.88 78.3479 101.48 77.9979 100.88 77.9979C100.53 77.9979 100.34 78.0879 99.9905 78.3079L99.4505 77.9679L99.6105 75.0879H102.78V76.0679H100.63L100.52 77.3179C100.76 77.2179 100.96 77.1579 101.23 77.1579C102.22 77.1579 103.05 77.7179 103.05 78.9479C103.05 80.1779 102.07 80.9579 100.98 80.9579C100.04 80.9579 99.4205 80.5879 98.9805 80.1479L98.9905 80.1579Z" fill="#8B8D90"></path>
    <path d="M103.852 77.9485C103.852 75.9985 104.642 74.9785 105.862 74.9785C107.082 74.9785 107.862 75.9985 107.862 77.9485C107.862 79.8985 107.082 80.9685 105.862 80.9685C104.642 80.9685 103.852 79.9085 103.852 77.9485ZM106.742 77.9485C106.742 76.3485 106.362 75.8985 105.852 75.8985C105.342 75.8985 104.952 76.3485 104.952 77.9485C104.952 79.5485 105.332 80.0485 105.852 80.0485C106.372 80.0485 106.742 79.5485 106.742 77.9485Z" fill="#8B8D90"></path>
    <path d="M108.559 78.6176C108.559 77.1276 109.629 76.2676 110.849 76.2676C111.399 76.2676 111.829 76.4876 112.149 76.7676L111.589 77.5276C111.369 77.3376 111.159 77.2276 110.909 77.2276C110.219 77.2276 109.759 77.7776 109.759 78.6176C109.759 79.4576 110.229 80.0076 110.869 80.0076C111.189 80.0076 111.489 79.8576 111.739 79.6476L112.209 80.4276C111.779 80.8076 111.229 80.9676 110.739 80.9676C109.499 80.9676 108.559 80.1076 108.559 78.6176Z" fill="#8B8D90"></path>
    <path d="M113.061 76.3776H114.021L114.111 76.9776H114.131C114.511 76.5876 114.921 76.2676 115.511 76.2676C116.151 76.2676 116.531 76.5576 116.741 77.0476C117.151 76.6176 117.581 76.2676 118.161 76.2676C119.111 76.2676 119.551 76.9376 119.551 78.0676V80.8576H118.371V78.2076C118.371 77.5076 118.171 77.2676 117.751 77.2676C117.491 77.2676 117.211 77.4376 116.891 77.7676V80.8476H115.721V78.1976C115.721 77.4976 115.511 77.2576 115.091 77.2576C114.831 77.2576 114.551 77.4276 114.231 77.7576V80.8376H113.051V76.3576L113.061 76.3776Z" fill="#8B8D90"></path>
    <path d="M134.738 86.6074H84.7383C84.4583 86.6074 84.2383 86.3874 84.2383 86.1074C84.2383 85.8274 84.4583 85.6074 84.7383 85.6074H134.738C135.018 85.6074 135.238 85.8274 135.238 86.1074C135.238 86.3874 135.018 86.6074 134.738 86.6074Z" fill="#8B8D90"></path>
    <path d="M84.1797 90.308C83.8997 90.308 83.6797 90.088 83.6797 89.808V82.418C83.6797 82.138 83.8997 81.918 84.1797 81.918C84.4597 81.918 84.6797 82.138 84.6797 82.418V89.808C84.6797 90.088 84.4597 90.308 84.1797 90.308Z" fill="#8B8D90"></path>
    <path d="M134.871 90.308C134.591 90.308 134.371 90.088 134.371 89.808V82.418C134.371 82.138 134.591 81.918 134.871 81.918C135.151 81.918 135.371 82.138 135.371 82.418V89.808C135.371 90.088 135.151 90.308 134.871 90.308Z" fill="#8B8D90"></path>
    <path d="M72.7605 119.33C75.0505 120.94 76.8105 123.39 78.0505 125.97C79.6205 129.24 80.3505 132.71 80.2405 134.92C80.0005 140.12 80.0305 143.72 77.7805 145.64C75.3805 147.69 73.5405 147.74 72.0605 147.09C70.5805 146.44 69.9505 145.29 70.5205 144.34C71.6205 142.51 73.5105 144.48 74.7505 143.42C76.3305 142.07 76.3505 140.69 76.4405 138.97C76.5805 136.48 75.9905 134.96 75.2805 133.9" fill="white"></path>
    <path d="M73.7578 148.199C73.0778 148.199 72.4078 148.049 71.7478 147.759C70.6678 147.279 69.9178 146.549 69.6578 145.709C69.4678 145.109 69.5378 144.479 69.8678 143.939C70.7478 142.479 72.0778 142.729 72.9678 142.889C73.6678 143.019 74.0078 143.049 74.2578 142.839C75.5378 141.749 75.5878 140.689 75.6778 139.099V138.919C75.8278 136.319 75.1878 132.099 74.6578 131.309C74.4278 130.969 74.5178 130.499 74.8678 130.269C75.2078 130.039 75.6778 130.129 75.9078 130.479C76.7878 131.789 77.3178 136.649 77.1878 139.009V139.189C77.0878 140.879 76.9978 142.469 75.2378 143.989C74.4178 144.699 73.4578 144.519 72.6978 144.379C71.7478 144.209 71.4678 144.219 71.1578 144.729C71.0478 144.909 71.0278 145.079 71.0878 145.269C71.2178 145.679 71.6878 146.099 72.3578 146.399C73.3078 146.819 74.8478 147.139 77.2878 145.069C79.1178 143.509 79.2378 140.559 79.4378 136.079L79.4878 134.889C79.6078 132.579 78.7778 129.209 77.3778 126.299C76.4478 124.369 74.8178 121.709 72.3278 119.949C67.4378 116.509 50.8478 119.219 50.6878 119.249C50.6378 119.249 50.5778 119.259 50.5278 119.249L45.2578 118.969C44.9378 118.949 44.6678 118.739 44.5778 118.429C44.5578 118.359 44.0878 116.699 44.2078 115.109C44.2878 114.029 43.7578 113.449 43.7378 113.429C43.6578 113.349 43.5978 113.239 43.5578 113.129C43.5378 113.049 42.9778 111.259 42.6278 109.429C42.4778 108.639 41.9278 107.949 41.4478 107.489L40.3378 110.539C40.2278 110.829 39.9578 111.029 39.6478 111.029C39.6478 111.029 38.3978 111.059 37.2578 111.059C36.6078 111.059 36.3478 111.439 36.3178 111.489C36.2978 111.519 36.2678 111.559 36.2478 111.579L33.5278 114.829C33.6178 115.309 33.8578 116.369 34.5278 117.639C35.1878 118.899 36.1578 118.489 36.2578 118.439C36.4878 118.329 36.7578 118.349 36.9778 118.489C37.1978 118.629 37.3278 118.869 37.3278 119.119C37.3278 119.169 37.3278 123.989 37.5478 127.089C37.5778 127.499 37.2678 127.859 36.8578 127.889C36.4478 127.919 36.0878 127.609 36.0578 127.199C35.8878 124.869 35.8478 121.609 35.8378 120.039C34.9778 120.079 33.9278 119.699 33.2078 118.339C32.1278 116.299 31.9978 114.719 31.9878 114.659C31.9678 114.459 32.0378 114.269 32.1578 114.119L35.0578 110.659C35.3378 110.219 36.0778 109.559 37.2478 109.559C37.9178 109.559 38.6278 109.549 39.0878 109.539L40.3778 105.979C40.4578 105.769 40.6278 105.599 40.8478 105.529C41.0678 105.459 41.2978 105.489 41.4978 105.609C41.5878 105.669 43.6978 107.049 44.0878 109.149C44.3578 110.609 44.7878 112.089 44.9278 112.539C45.2078 112.899 45.7878 113.819 45.6778 115.219C45.6178 116.049 45.7578 116.949 45.8678 117.489L50.4978 117.729C51.9378 117.499 67.9178 114.999 73.1678 118.699C75.3478 120.239 77.2578 122.629 78.7078 125.619C80.2078 128.739 81.0978 132.399 80.9678 134.929L80.9178 136.109C80.7178 140.809 80.5678 144.199 78.2478 146.179C76.6778 147.519 75.1878 148.179 73.7478 148.179L73.7578 148.199Z" fill="#B3B3B3"></path>
    <path d="M31.9793 130.71C31.9093 130.71 31.8393 130.7 31.7593 130.68C31.3593 130.56 31.1393 130.14 31.2593 129.75C32.0293 127.17 33.1193 127.13 34.8193 127.28L35.1193 127.3C36.5093 126.56 41.3693 124.34 41.5793 124.24C41.9593 124.07 42.3993 124.24 42.5693 124.61C42.7393 124.99 42.5693 125.43 42.1993 125.6C40.6393 126.31 36.4293 128.26 35.6493 128.71C35.5193 128.79 35.3693 128.82 35.2193 128.81L34.6793 128.76C33.2593 128.63 33.1493 128.62 32.6893 130.16C32.5893 130.49 32.2893 130.69 31.9693 130.69L31.9793 130.71Z" fill="#B3B3B3"></path>
    <path d="M129.319 119.33C131.609 120.94 133.369 123.39 134.609 125.97C136.179 129.24 136.909 132.71 136.799 134.92C136.559 140.12 136.589 143.72 134.339 145.64C131.939 147.69 130.099 147.74 128.619 147.09C127.139 146.44 126.509 145.29 127.079 144.34C128.179 142.51 130.069 144.48 131.309 143.42C132.889 142.07 132.909 140.69 132.999 138.97C133.139 136.48 132.549 134.96 131.839 133.9" fill="white"></path>
    <path d="M130.328 148.199C129.648 148.199 128.978 148.049 128.318 147.759C127.238 147.279 126.488 146.549 126.228 145.709C126.038 145.109 126.108 144.479 126.438 143.939C127.318 142.479 128.648 142.729 129.538 142.889C130.238 143.019 130.578 143.049 130.828 142.839C132.108 141.749 132.158 140.689 132.248 139.099V138.919C132.398 136.319 131.758 132.099 131.228 131.309C130.998 130.969 131.088 130.499 131.438 130.269C131.778 130.039 132.248 130.129 132.478 130.479C133.358 131.789 133.888 136.649 133.758 139.009V139.189C133.658 140.879 133.568 142.469 131.808 143.989C130.978 144.699 130.028 144.519 129.268 144.379C128.318 144.209 128.038 144.219 127.728 144.729C127.618 144.909 127.598 145.079 127.658 145.269C127.788 145.679 128.258 146.099 128.928 146.399C129.878 146.819 131.418 147.139 133.858 145.069C135.688 143.509 135.808 140.559 136.008 136.079L136.058 134.889C136.178 132.579 135.348 129.209 133.948 126.299C133.018 124.369 131.388 121.709 128.898 119.949C124.008 116.509 107.418 119.219 107.258 119.249C107.208 119.249 107.148 119.259 107.098 119.249L101.828 118.969C101.508 118.949 101.238 118.739 101.148 118.429C101.128 118.359 100.658 116.699 100.778 115.109C100.858 114.029 100.328 113.449 100.308 113.429C100.228 113.349 100.168 113.239 100.128 113.129C100.108 113.049 99.5481 111.259 99.1981 109.429C99.0481 108.629 98.4981 107.949 98.0181 107.489L96.9081 110.539C96.7981 110.829 96.5281 111.029 96.2181 111.029C96.2181 111.029 94.9681 111.059 93.8281 111.059C93.1781 111.059 92.9181 111.439 92.8881 111.489C92.8681 111.519 92.8381 111.559 92.8181 111.579L90.0981 114.829C90.1881 115.309 90.4281 116.369 91.0981 117.639C91.7181 118.809 92.5881 118.549 92.8381 118.439C93.0681 118.339 93.3381 118.359 93.5581 118.499C93.7681 118.639 93.8981 118.869 93.8981 119.119C93.8981 119.169 93.8981 123.989 94.1181 127.089C94.1481 127.499 93.8381 127.859 93.4281 127.889C93.0181 127.919 92.6581 127.609 92.6281 127.199C92.4581 124.869 92.4181 121.609 92.4081 120.039C91.5481 120.079 90.4981 119.699 89.7781 118.339C88.6981 116.299 88.5681 114.719 88.5581 114.659C88.5381 114.459 88.6081 114.269 88.7281 114.119L91.6281 110.659C91.9081 110.219 92.6481 109.559 93.8181 109.559C94.4881 109.559 95.1981 109.549 95.6581 109.539L96.9481 105.979C97.0281 105.769 97.1981 105.599 97.4181 105.529C97.6381 105.459 97.8681 105.489 98.0681 105.609C98.1581 105.669 100.268 107.049 100.658 109.149C100.928 110.609 101.358 112.089 101.498 112.539C101.778 112.899 102.358 113.819 102.248 115.219C102.188 116.049 102.328 116.949 102.438 117.489L107.068 117.729C108.508 117.499 124.488 114.999 129.738 118.699C131.918 120.239 133.828 122.629 135.278 125.619C136.778 128.739 137.668 132.399 137.538 134.929L137.488 136.109C137.288 140.809 137.138 144.199 134.818 146.179C133.248 147.519 131.758 148.179 130.318 148.179L130.328 148.199Z" fill="#B3B3B3"></path>
    <path d="M88.5496 130.71C88.4796 130.71 88.4096 130.7 88.3296 130.68C87.9296 130.56 87.7096 130.14 87.8296 129.75C88.5996 127.17 89.6896 127.13 91.3896 127.28L91.6896 127.3C93.0796 126.56 97.9396 124.34 98.1496 124.24C98.5296 124.07 98.9696 124.24 99.1396 124.61C99.3096 124.99 99.1396 125.43 98.7696 125.6C97.2096 126.31 92.9996 128.26 92.2196 128.71C92.0896 128.79 91.9396 128.82 91.7896 128.81L91.2496 128.76C89.8296 128.63 89.7196 128.62 89.2596 130.16C89.1596 130.49 88.8596 130.69 88.5396 130.69L88.5496 130.71Z" fill="#B3B3B3"></path>
  </g>
  <defs>
    <clipPath id="clip0_5447_102096">
      <rect width="164" height="193" fill="white"></rect>
    </clipPath>
  </defs>
</svg>
