<?xml version="1.0" encoding="UTF-8"?>
<svg xmlns="http://www.w3.org/2000/svg" width="166" height="124" viewBox="0 0 166 124" fill="none">
  <g clip-path="url(#clip0_5447_93390)">
    <path d="M118.393 36.1094H19.9727C19.6927 36.1094 19.4727 35.8894 19.4727 35.6094C19.4727 35.3294 19.6927 35.1094 19.9727 35.1094H118.393C118.673 35.1094 118.893 35.3294 118.893 35.6094C118.893 35.8894 118.673 36.1094 118.393 36.1094Z" fill="#808080"></path>
    <path d="M113.84 86.7649C112.57 86.7649 111.1 86.7149 109.62 86.5249C108.02 86.3149 106.36 86.3549 104.76 86.3949H104.3C102.81 86.4249 101.78 85.6249 101.42 84.1049L101.32 83.6749C101.15 82.9749 100.98 82.2549 100.75 81.5749C100.45 80.6749 100.09 79.7749 99.7396 78.9049C99.2396 77.6449 98.7196 76.3349 98.3396 74.9949C97.8696 73.3249 97.3896 71.1049 97.9196 68.7949C98.1896 67.6149 98.9496 67.0149 100.18 66.9849C100.46 66.9849 100.69 67.0249 100.93 67.0649C101.05 67.0849 101.17 67.1049 101.29 67.1149C103.12 67.2949 105.02 67.3849 106.94 67.3749C108.51 67.3449 109.92 67.6049 111.24 68.1149L111.53 68.2249C111.97 68.3949 112.43 68.5749 112.83 68.6149C113.47 68.6749 114.1 68.7949 114.7 68.9049C115.22 69.0049 115.74 69.0949 116.26 69.1549L116.83 69.2249C117.69 69.3349 118.49 69.4349 119.31 69.3949C119.86 69.3749 120.42 69.3349 120.97 69.3049C122.34 69.2249 123.76 69.1349 125.18 69.2049C126.68 69.2749 128 68.8149 129.11 67.8449C130.05 67.0249 130.5 66.2949 130.63 65.4049C130.74 64.6449 130.95 63.8349 131.32 62.7949C131.5 62.2949 131.68 61.7849 131.86 61.2849C132.34 59.9649 132.84 58.5949 133.24 57.2349C133.66 55.8349 134.1 54.1549 134.17 52.3949C134.23 50.8849 134.57 49.3949 134.91 48.0049C135.25 46.5949 135.98 45.3249 137.07 44.2249C138.97 42.3049 141.59 42.2249 143.57 44.0149C145.58 45.8349 145.74 48.2549 145.74 50.5749C145.74 51.4949 145.62 52.4149 145.5 53.3049C145.44 53.7749 145.38 54.2549 145.33 54.7249L145.28 55.3249C145.21 56.0649 145.14 56.8149 145.06 57.5549L145.02 57.8649C144.9 58.8649 144.78 59.8949 144.73 60.9049C144.68 61.8849 144.7 62.6349 144.81 63.3149C144.89 63.8649 144.84 64.3949 144.79 64.9149C144.77 65.1349 144.75 65.3449 144.73 65.5649C144.62 67.7349 144.33 69.4849 143.82 71.0849C143.05 73.4849 142.84 75.4949 143.16 77.4149L143.18 77.5549C143.31 78.3549 143.45 79.1849 143.52 80.0249C143.53 80.1649 143.53 80.3149 143.53 80.4649C143.53 80.8949 143.54 81.1749 143.73 81.3849C143.91 81.5949 143.89 81.9049 143.68 82.0949C143.62 82.1449 143.56 82.1749 143.49 82.1949C143.52 82.2249 143.55 82.2549 143.57 82.2849C143.73 82.5149 143.68 82.8249 143.45 82.9849C143.23 83.1349 143.09 83.3849 142.93 83.6649C142.85 83.8149 142.76 83.9549 142.66 84.0949C141.5 85.7549 139.93 86.4449 137.99 86.1249C137.37 86.0249 136.72 85.8949 135.99 85.7149C135.31 85.5549 134.75 85.4649 134.17 85.5649L133.78 85.6349C132.93 85.7849 132.06 85.9349 131.18 85.9949C130.68 86.0349 130.18 86.0749 129.69 86.1249C128.96 86.1949 128.23 86.2649 127.49 86.3049C126.86 86.3349 126.23 86.3649 125.6 86.3849C124.76 86.4149 123.92 86.4449 123.08 86.5049C122.44 86.5449 121.81 86.5449 121.17 86.5449C120.49 86.5449 119.78 86.5449 119.1 86.6049C117.96 86.7049 116.8 86.7249 115.67 86.7449H115.02C114.65 86.7649 114.25 86.7649 113.83 86.7649H113.84ZM106.66 85.3649C107.68 85.3649 108.72 85.4049 109.74 85.5349C111.65 85.7849 113.56 85.7849 115 85.7549H115.65C116.76 85.7249 117.9 85.7049 119.01 85.6149C119.74 85.5549 120.47 85.5549 121.17 85.5549C121.78 85.5549 122.39 85.5549 123.01 85.5149C123.86 85.4549 124.71 85.4249 125.56 85.3949C126.18 85.3749 126.81 85.3449 127.43 85.3149C128.15 85.2749 128.87 85.2049 129.58 85.1449C130.08 85.0949 130.59 85.0549 131.09 85.0149C131.92 84.9549 132.77 84.8049 133.59 84.6649L133.98 84.5949C134.77 84.4649 135.51 84.5949 136.2 84.7649C136.91 84.9349 137.54 85.0649 138.13 85.1649C139.67 85.4149 140.88 84.8849 141.82 83.5449C141.9 83.4349 141.97 83.3049 142.04 83.1849C142.23 82.8549 142.46 82.4749 142.85 82.1949C142.9 82.1649 142.95 82.1349 143 82.1249C142.98 82.1149 142.97 82.0949 142.95 82.0749C142.5 81.5649 142.5 80.9649 142.51 80.4849C142.51 80.3649 142.51 80.2349 142.51 80.1249C142.45 79.3249 142.31 78.5249 142.18 77.7449L142.16 77.6049C141.81 75.5149 142.03 73.3549 142.85 70.8049C143.34 69.2949 143.61 67.6249 143.72 65.5449C143.73 65.3149 143.76 65.0749 143.78 64.8449C143.83 64.3749 143.87 63.9249 143.81 63.5049C143.66 62.5349 143.68 61.5949 143.72 60.8849C143.77 59.8449 143.9 58.7949 144.01 57.7849L144.05 57.4749C144.13 56.7449 144.2 56.0049 144.27 55.2749L144.32 54.6749C144.36 54.1849 144.43 53.7049 144.49 53.2149C144.61 52.3149 144.72 51.4649 144.72 50.6049C144.72 48.4149 144.59 46.3349 142.88 44.7849C141.27 43.3249 139.31 43.3949 137.76 44.9549C136.8 45.9249 136.16 47.0349 135.86 48.2749C135.53 49.6249 135.21 51.0549 135.15 52.4749C135.07 54.3449 134.61 56.0949 134.18 57.5549C133.77 58.9449 133.26 60.3249 132.78 61.6649C132.6 62.1649 132.42 62.6649 132.24 63.1649C131.89 64.1449 131.7 64.8849 131.6 65.5849C131.4 67.0349 130.51 67.9749 129.75 68.6349C128.44 69.7849 126.88 70.3249 125.11 70.2449C123.75 70.1849 122.36 70.2649 121.01 70.3449C120.45 70.3749 119.89 70.4149 119.33 70.4349C118.43 70.4749 117.54 70.3649 116.68 70.2549L116.12 70.1849C115.57 70.1249 115.03 70.0249 114.49 69.9249C113.9 69.8149 113.3 69.7049 112.7 69.6449C112.16 69.5949 111.64 69.3849 111.13 69.1849L110.85 69.0749C109.65 68.6149 108.39 68.3849 106.92 68.4049C104.96 68.4049 103.02 68.3249 101.16 68.1449C101.02 68.1349 100.88 68.1049 100.74 68.0849C100.55 68.0549 100.36 68.0149 100.18 68.0249C99.4096 68.0349 99.0496 68.3249 98.8796 69.0549C98.4096 71.1349 98.8196 73.1049 99.2896 74.7549C99.6596 76.0549 100.17 77.3349 100.66 78.5749C101.01 79.4549 101.37 80.3749 101.69 81.2949C101.94 82.0249 102.11 82.7649 102.28 83.4849L102.38 83.9049C102.64 84.9749 103.26 85.4549 104.27 85.4349H104.73C105.36 85.4149 106.01 85.3949 106.66 85.3949V85.3649Z" fill="#808080"></path>
    <path d="M108.41 88.7889C107.61 88.7889 106.85 88.7289 106.1 88.5989C103.82 88.2189 101.57 87.2989 99.2398 85.7989C96.7098 84.1689 94.6698 82.0189 92.9998 80.1389C92.2598 79.3089 91.4898 78.7089 90.6398 78.3189C89.6798 77.8789 88.7698 77.5889 87.9498 77.4589C86.8098 77.2889 85.5898 77.1089 84.3998 77.0889H84.2598C82.8898 77.0589 81.4798 77.0289 80.0998 77.1589C79.1498 77.2489 78.1998 77.3189 77.2498 77.3989C76.5998 77.4489 75.9598 77.4989 75.3098 77.5589C74.4398 77.6289 73.3998 77.7089 72.3398 77.7389C70.7698 77.7789 69.1698 77.9789 67.6298 78.1789L66.8698 78.2789C65.8598 78.3989 64.8698 78.5689 63.8698 78.7289C63.1798 78.8389 62.4898 78.9589 61.7998 79.0589C60.4098 79.2589 59.0098 79.4589 57.6098 79.6289C55.6098 79.8789 53.5698 79.8889 51.6098 79.9089H51.2998C50.0598 79.9289 48.8398 79.6589 47.6798 79.3989L46.6798 79.1789C45.9898 79.0289 45.2698 78.8689 44.6298 78.8989C43.7798 78.9289 42.9498 79.0989 42.0698 79.2689C41.5498 79.3689 41.0398 79.4689 40.5198 79.5489C39.3798 79.7089 38.2198 79.8089 37.0998 79.8989L35.8898 79.9989C34.5598 80.1189 33.2298 80.2089 31.8998 80.2989C31.6398 80.3189 31.3898 80.3189 31.1298 80.3189C30.7498 80.3189 30.3898 80.3189 30.0398 80.3789C28.2998 80.6389 26.5498 80.5589 24.8598 80.4689C23.0898 80.3789 21.7498 80.3789 20.4898 80.4489H20.3798C19.1898 80.5289 17.9598 80.6089 16.7898 79.8189C16.4898 79.6189 16.0498 79.3089 16.2898 78.5589C16.6698 77.3789 17.0198 75.9689 16.7998 74.4289L16.6598 73.4389C16.5398 72.5789 16.4198 71.6989 16.2498 70.8489C15.9498 69.3589 15.6598 67.8589 15.3898 66.3689C15.3498 66.1789 15.3498 65.9789 15.3598 65.7689C15.3598 65.3989 15.3598 65.2389 15.2098 65.1089C14.9998 64.9189 14.9898 64.6089 15.1698 64.3989C15.3598 64.1889 15.6698 64.1789 15.8798 64.3589C16.3698 64.7989 16.3598 65.3689 16.3598 65.7789C16.3598 65.9189 16.3598 66.0489 16.3798 66.1789C16.6598 67.6689 16.9398 69.1589 17.2398 70.6489C17.4198 71.5289 17.5398 72.4289 17.6598 73.2989L17.7998 74.2789C18.0498 76.0289 17.6598 77.5689 17.2498 78.8589C17.2198 78.8889 17.3098 78.9489 17.3598 78.9889C18.2398 79.5889 19.1998 79.5289 20.3198 79.4589H20.4298C21.7198 79.3689 23.0998 79.3789 24.8998 79.4589C26.5498 79.5389 28.2498 79.6289 29.8898 79.3789C30.3098 79.3189 30.7198 79.3089 31.1198 79.3089C31.3598 79.3089 31.5898 79.3089 31.8298 79.2889C33.1498 79.1989 34.4798 79.1089 35.7998 78.9889L37.0198 78.8889C38.1198 78.7989 39.2598 78.7089 40.3698 78.5489C40.8698 78.4789 41.3698 78.3789 41.8698 78.2789C42.7498 78.1089 43.6598 77.9289 44.5898 77.8889C45.3498 77.8589 46.1398 78.0289 46.8898 78.1889L47.8898 78.4089C49.0498 78.6689 50.1498 78.9189 51.2898 78.8989H51.5998C53.5398 78.8789 55.5398 78.8689 57.4898 78.6289C58.8798 78.4589 60.2698 78.2589 61.6598 78.0589C62.3498 77.9589 63.0298 77.8489 63.7098 77.7289C64.7198 77.5589 65.7298 77.3989 66.7498 77.2689L67.5098 77.1689C69.0798 76.9689 70.6898 76.7689 72.3198 76.7189C73.3598 76.6889 74.3798 76.6089 75.2298 76.5389C75.8798 76.4789 76.5298 76.4289 77.1798 76.3789C78.1198 76.3089 79.0698 76.2289 80.0098 76.1389C81.4498 76.0089 82.8898 76.0389 84.2798 76.0689H84.4198C85.6698 76.0989 86.9198 76.2789 88.0998 76.4589C89.0098 76.5989 90.0098 76.9089 91.0598 77.3989C92.0398 77.8489 92.9198 78.5289 93.7498 79.4689C95.3698 81.2989 97.3498 83.3789 99.7798 84.9489C101.99 86.3789 104.11 87.2489 106.26 87.6089C107.47 87.8089 108.75 87.8389 110.18 87.6789C111.94 87.4889 113.52 87.3789 115 87.3389C116.49 87.2989 117.97 87.2989 119.46 87.2889C120.47 87.2889 121.48 87.2889 122.49 87.2689C124.54 87.2389 126.26 87.1989 127.98 87.0789L129.21 86.9989C130.5 86.9089 131.78 86.8189 133.06 86.7089C134.87 86.5589 136.66 86.2789 138.4 85.8989C138.9 85.7889 139.4 85.7489 139.89 85.7889C141.25 85.8889 142.06 85.3489 142.52 84.0589L142.61 83.8089C142.8 83.3089 142.91 82.9889 142.77 82.6089C142.61 82.1589 142.8 81.6389 143.07 81.3689C143.21 81.2289 143.26 81.0689 143.26 80.7889V80.3389C143.26 79.4189 143.27 78.4589 143.17 77.5289C143.07 76.6689 143.23 75.8489 143.39 75.0589C143.43 74.8289 143.48 74.6089 143.52 74.3789C143.8 72.7089 144.07 71.0389 144.31 69.3589C144.36 69.0089 144.42 68.6589 144.47 68.2989C144.61 67.4189 144.76 66.4989 144.8 65.5989C144.83 64.8889 144.92 64.1789 145.01 63.4989C145.05 63.1889 145.09 62.8789 145.12 62.5689C145.23 61.5689 145.32 60.5689 145.42 59.5689C145.52 58.4389 145.63 57.3089 145.76 56.1889L145.84 55.5189C146.03 53.9289 146.22 52.2889 146.13 50.6989C145.98 47.9189 145.18 45.7489 143.69 44.0689C142.95 43.2289 142.01 42.8289 140.75 42.8389C138.65 42.8489 136.83 42.9689 135.18 43.2089C135.03 43.2289 134.89 43.2489 134.74 43.2589C134.58 43.2789 134.42 43.2889 134.26 43.3189C133.42 43.4589 132.77 43.0989 132.21 42.7889C132.06 42.7089 131.91 42.6189 131.75 42.5489C130.92 42.1589 130.11 41.8189 129.22 42.0689L129.19 42.0189C128.76 42.6189 128.2 43.0089 127.65 43.3789C127.31 43.6089 127 43.8289 126.72 44.0789C125.71 45.0289 125 46.2489 124.47 47.9289C124.09 49.1489 123.66 50.5389 123.39 51.9289C123.12 53.3189 122.84 54.7489 122.73 56.1689C122.56 58.2189 122.33 60.2089 121.31 62.0689C121.06 62.5189 120.8 62.9589 120.54 63.3989L120.2 63.9789C120.06 64.2189 119.75 64.2989 119.52 64.1589C119.28 64.0189 119.2 63.7189 119.34 63.4789L119.69 62.8889C119.94 62.4589 120.2 62.0289 120.44 61.5889C121.37 59.8989 121.58 58.0289 121.74 56.0889C121.86 54.6189 122.14 53.1589 122.42 51.7489C122.7 50.2989 123.14 48.8889 123.53 47.6389C124.1 45.7889 124.9 44.4289 126.05 43.3589C126.38 43.0489 126.75 42.7989 127.1 42.5589C127.6 42.2189 128.07 41.8989 128.4 41.4289C128.56 41.1989 128.8 41.1489 128.93 41.1189C130.2 40.7689 131.28 41.2089 132.21 41.6489C132.38 41.7289 132.55 41.8289 132.72 41.9189C133.21 42.1889 133.63 42.4189 134.13 42.3389C134.31 42.3089 134.48 42.2889 134.66 42.2689C134.79 42.2589 134.93 42.2389 135.06 42.2189C136.75 41.9789 138.62 41.8489 140.77 41.8389C142.26 41.8389 143.53 42.3589 144.46 43.4089C146.1 45.2589 146.98 47.6289 147.15 50.6489C147.24 52.3389 147.04 54.0189 146.85 55.6489L146.77 56.3189C146.64 57.4389 146.54 58.5589 146.43 59.6789C146.34 60.6889 146.24 61.6889 146.13 62.6989C146.09 63.0189 146.05 63.3289 146.01 63.6489C145.93 64.3089 145.84 64.9989 145.81 65.6689C145.77 66.6289 145.62 67.5689 145.47 68.4789C145.41 68.8289 145.36 69.1689 145.31 69.5189C145.07 71.1989 144.8 72.8789 144.51 74.5589C144.47 74.7889 144.42 75.0289 144.38 75.2589C144.23 76.0089 144.09 76.7189 144.17 77.4189C144.28 78.4089 144.28 79.3889 144.27 80.3489V80.7989C144.27 81.1389 144.21 81.6489 143.78 82.0889C143.74 82.1289 143.7 82.2389 143.71 82.2889C143.98 83.0189 143.75 83.6389 143.55 84.1789L143.46 84.4089C142.85 86.1289 141.63 86.9289 139.82 86.8089C139.43 86.7789 139.02 86.8089 138.62 86.8989C136.84 87.2889 135 87.5689 133.15 87.7289C131.86 87.8389 130.57 87.9289 129.28 88.0189L128.05 88.0989C126.31 88.2189 124.57 88.2689 122.5 88.2889C121.49 88.2989 120.47 88.3089 119.46 88.3089C117.98 88.3089 116.5 88.3089 115.02 88.3589C113.56 88.3989 112.01 88.5089 110.28 88.6989C109.63 88.7689 109 88.8089 108.4 88.8089L108.41 88.7889ZM128.94 41.6589L129.11 42.1289C129.11 42.1289 129.17 42.1089 129.22 42.0389L128.95 41.6489L128.94 41.6589Z" fill="#808080"></path>
    <path d="M149.691 87.6494C149.411 87.6494 149.191 87.4294 149.191 87.1494V42.1094C149.191 41.8294 149.411 41.6094 149.691 41.6094C149.971 41.6094 150.191 41.8294 150.191 42.1094V87.1494C150.191 87.4294 149.971 87.6494 149.691 87.6494Z" fill="#808080"></path>
    <path d="M143.112 94.5391H102.582C102.302 94.5391 102.082 94.3191 102.082 94.0391C102.082 93.7591 102.302 93.5391 102.582 93.5391H143.112C143.392 93.5391 143.612 93.7591 143.612 94.0391C143.612 94.3191 143.392 94.5391 143.112 94.5391Z" fill="#808080"></path>
    <path d="M60.4328 64.0111C57.5828 64.0111 54.6228 63.9711 51.6528 63.8311C51.1028 63.8011 50.5728 63.7511 50.0628 63.6611C48.2828 63.3611 46.4828 62.7511 44.7028 61.8611C44.4528 61.7411 44.3528 61.4411 44.4828 61.1911C44.6028 60.9411 44.9028 60.8411 45.1528 60.9711C46.8428 61.8211 48.5528 62.3911 50.2228 62.6811C50.6828 62.7611 51.1828 62.8111 51.6928 62.8311C55.7428 63.0211 59.7928 63.0211 63.5628 62.9911C65.0028 62.9811 66.6428 62.9711 68.2028 62.6911C68.6928 62.6011 69.1528 62.4511 69.5228 62.2511C70.8328 61.5511 72.2528 61.2111 73.7628 61.2211C74.3428 61.2211 74.9028 61.3411 75.4628 61.5511C76.2328 61.8411 77.0528 61.9411 77.9128 62.0411L78.2828 62.0911C80.8528 62.4111 83.4928 62.4011 86.0528 62.3911H87.4828C87.7628 62.3911 87.9928 62.4711 88.1928 62.5411C88.4528 62.6311 88.5928 62.9211 88.5028 63.1811C88.4128 63.4411 88.1228 63.5811 87.8728 63.4811C87.7128 63.4211 87.6028 63.3811 87.4928 63.3811H86.0628C83.4728 63.4011 80.8028 63.4111 78.1628 63.0811L77.7928 63.0411C76.9028 62.9311 75.9928 62.8211 75.1028 62.4911C74.6428 62.3211 74.1928 62.2311 73.7328 62.2211C72.3928 62.2011 71.1528 62.5011 69.9828 63.1311C69.5228 63.3811 68.9628 63.5711 68.3628 63.6711C66.7228 63.9611 65.0428 63.9811 63.5628 63.9911C62.5328 63.9911 61.4828 64.0011 60.4128 64.0011L60.4328 64.0111Z" fill="#808080"></path>
    <path d="M44.8013 60.6972C44.8013 60.6972 44.7513 60.6972 44.7313 60.6972C44.4613 60.6572 44.2713 60.3972 44.3113 60.1272C44.3313 60.0072 44.3413 59.8872 44.3513 59.7672C44.3813 59.4572 44.4113 59.1272 44.5313 58.8072C44.5813 58.6572 44.5313 58.5172 44.4513 58.2572C44.3713 58.0372 44.2813 57.7872 44.2913 57.4872C44.2913 57.1072 44.3513 56.7472 44.4013 56.3972C44.4613 56.0172 44.5113 55.6572 44.5013 55.3072C44.4913 54.8472 44.4613 54.3872 44.4313 53.9172C44.3813 53.0172 44.3213 52.0872 44.3613 51.1572C44.3813 50.6772 44.3613 50.1972 44.3613 49.7172C44.3613 49.3472 44.3413 48.9772 44.3513 48.5972C44.3713 47.1072 44.3113 45.4972 44.1813 43.6772C44.1313 43.0672 44.2313 42.4972 44.3213 41.9372C44.4113 41.3972 44.5013 40.8872 44.4513 40.3772C44.4213 40.0372 44.5413 39.8172 44.6513 39.6972C44.9013 39.4072 45.2713 39.3572 45.5313 39.3472L46.3513 39.3072C47.4713 39.2472 48.6313 39.1872 49.7813 39.1672C51.1713 39.1472 52.5713 39.1572 53.9613 39.1572C55.1413 39.1572 56.3213 39.1572 57.5013 39.1572C57.6813 39.1572 57.8613 39.1572 58.0413 39.1772C58.1913 39.1772 58.3513 39.1972 58.4913 39.1972C58.9013 39.1972 59.3013 39.1572 59.7013 39.1172C60.1313 39.0772 60.5613 39.0372 61.0013 39.0372H61.7613C63.2513 39.0372 64.8013 39.0372 66.3213 38.9672C68.1313 38.8772 69.9913 38.8772 72.0113 38.9572C73.0513 38.9972 74.1013 39.1672 75.1013 39.3372C75.6613 39.4272 76.2213 39.5272 76.7713 39.5972C78.0613 39.7572 79.3113 39.9172 80.5313 39.9672C81.4913 40.0072 82.4513 40.0272 83.4113 40.0472C84.7213 40.0772 86.0313 40.1072 87.3513 40.1772L88.0913 40.2172C89.6713 40.3072 91.3013 40.3972 92.9013 40.3972C93.0113 40.3972 93.1213 40.4072 93.2313 40.4172C93.2913 40.4172 93.3513 40.4272 93.4113 40.4372C93.6713 40.4372 93.9413 40.4572 94.2013 40.4672C95.1113 40.5072 96.0613 40.5372 96.9413 40.4272C97.4813 40.3572 98.0213 40.2972 98.5713 40.2372L99.5313 40.1272C101.161 39.9372 102.891 39.8272 104.671 39.8072H105.301C106.791 39.7772 108.331 39.7572 109.871 39.8872L110.281 39.9172C111.861 40.0472 113.491 40.1872 115.101 40.3772C116.481 40.5472 117.861 40.7972 119.191 41.0472C119.651 41.1272 120.111 41.2172 120.571 41.2972C120.661 41.3172 120.761 41.3072 120.871 41.3072C121.241 41.3072 121.801 41.2972 122.191 41.8372C122.351 42.0572 122.301 42.3772 122.071 42.5372C121.841 42.6972 121.531 42.6472 121.371 42.4172C121.301 42.3172 121.221 42.2972 120.881 42.3072C120.711 42.3072 120.551 42.3072 120.391 42.2772C119.931 42.1972 119.461 42.1072 119.001 42.0272C117.681 41.7872 116.321 41.5372 114.971 41.3672C113.381 41.1772 111.761 41.0372 110.191 40.9072L109.781 40.8772C108.291 40.7572 106.781 40.7772 105.311 40.7972H104.671C102.931 40.8272 101.231 40.9272 99.6413 41.1172L98.6713 41.2272C98.1313 41.2872 97.6013 41.3472 97.0613 41.4172C96.0913 41.5472 95.1013 41.5072 94.1513 41.4672C93.8913 41.4572 93.6313 41.4472 93.3713 41.4372C93.2913 41.4372 93.2013 41.4272 93.1013 41.4172C93.0313 41.4172 92.9613 41.3972 92.8913 41.3972C91.2613 41.3972 89.6213 41.3072 88.0213 41.2172L87.2813 41.1772C85.9813 41.1072 84.6813 41.0772 83.3813 41.0472C82.4113 41.0272 81.4513 41.0072 80.4813 40.9672C79.2113 40.9172 77.9513 40.7572 76.7213 40.5972C76.0613 40.5172 75.4913 40.4172 74.9213 40.3272C73.9413 40.1672 72.9313 39.9972 71.9513 39.9572C69.9713 39.8772 68.1413 39.8872 66.3513 39.9672C64.8113 40.0472 63.2513 40.0372 61.7413 40.0372H60.9913C60.5913 40.0372 60.1913 40.0772 59.7913 40.1172C59.3613 40.1572 58.9313 40.1972 58.4913 40.1972C58.2913 40.1972 58.1513 40.1872 57.9813 40.1772C57.8213 40.1672 57.6613 40.1572 57.5113 40.1572C56.3313 40.1572 55.1413 40.1572 53.9613 40.1572C52.5713 40.1572 51.1813 40.1572 49.7913 40.1672C48.6713 40.1772 47.5213 40.2472 46.4113 40.3072L45.5813 40.3472C45.5313 40.3472 45.4813 40.3472 45.4513 40.3572C45.5013 40.9772 45.4013 41.5572 45.3113 42.1072C45.2213 42.6272 45.1413 43.1172 45.1813 43.6072C45.3213 45.4572 45.3813 47.0972 45.3613 48.6172C45.3613 48.9772 45.3613 49.3372 45.3713 49.6972C45.3813 50.1972 45.4013 50.7072 45.3713 51.2072C45.3313 52.0872 45.3813 52.9872 45.4413 53.8672C45.4713 54.3372 45.5013 54.8072 45.5113 55.2772C45.5213 55.7272 45.4613 56.1372 45.4013 56.5472C45.3513 56.8772 45.3013 57.1972 45.3013 57.5072C45.3013 57.6272 45.3513 57.7672 45.4113 57.9272C45.5213 58.2372 45.6713 58.6572 45.4913 59.1472C45.4213 59.3572 45.3913 59.6072 45.3613 59.8672C45.3513 60.0072 45.3313 60.1372 45.3113 60.2672C45.2713 60.5172 45.0613 60.6972 44.8213 60.6972H44.8013Z" fill="#808080"></path>
    <path d="M45.1519 60.9613C44.9819 60.9613 44.8019 60.8913 44.6219 60.7313C44.0319 60.9213 43.4919 60.8413 43.0119 60.7813C42.8719 60.7613 42.7419 60.7413 42.6119 60.7313C41.7719 60.6513 40.9319 60.4913 40.1219 60.3313C39.6319 60.2413 39.1419 60.1413 38.6519 60.0713C37.8519 59.9413 37.0619 60.0413 36.2219 60.1413C35.8619 60.1813 35.5119 60.2313 35.1519 60.2513C34.4619 60.3013 33.7619 60.3113 33.0819 60.3113C32.7819 60.3113 32.4819 60.3113 32.1819 60.3213C31.9319 60.3213 31.6819 60.1113 31.6719 59.8313C31.6719 59.5513 31.8819 59.3313 32.1619 59.3213C32.4619 59.3213 32.7719 59.3213 33.0719 59.3113C33.7319 59.3113 34.4119 59.3013 35.0719 59.2513C35.4119 59.2213 35.7519 59.1813 36.0919 59.1413C36.9619 59.0313 37.8619 58.9213 38.8019 59.0713C39.3019 59.1513 39.8019 59.2413 40.3019 59.3413C41.0919 59.4913 41.9019 59.6513 42.6919 59.7213C42.8419 59.7313 42.9919 59.7513 43.1419 59.7813C43.5619 59.8413 43.9619 59.9013 44.3019 59.7713C44.6919 59.6313 44.9719 59.7213 45.1519 59.8713C45.5519 59.6513 45.9819 59.6413 46.3319 59.6313C46.5019 59.6313 46.6719 59.6313 46.8319 59.5913C47.5219 59.4513 48.1719 59.1713 48.8519 58.8913C49.1519 58.7613 49.4519 58.6313 49.7619 58.5213C51.4819 57.8713 53.3819 57.5413 55.7519 57.5013C58.1819 57.4613 60.1619 57.5513 61.9619 57.7913L62.0919 57.8113C63.1419 57.9513 64.2219 58.0913 65.2919 58.2913L65.9019 58.4013C66.4919 58.5113 67.0619 58.6213 67.6319 58.6713C68.5119 58.7513 69.3319 58.4913 70.2019 58.2213C70.5119 58.1213 70.8219 58.0313 71.1419 57.9413C71.4119 57.8713 71.6819 58.0313 71.7519 58.3013C71.8219 58.5713 71.6619 58.8413 71.3919 58.9113C71.0919 58.9913 70.7919 59.0813 70.5019 59.1713C69.5719 59.4613 68.6219 59.7613 67.5419 59.6713C66.9119 59.6213 66.3019 59.5013 65.7119 59.3813L65.1119 59.2713C64.0619 59.0813 62.9919 58.9413 61.9519 58.8013L61.8219 58.7813C60.0719 58.5513 58.1419 58.4613 55.7619 58.5013C53.5119 58.5413 51.7119 58.8413 50.1119 59.4513C49.8219 59.5613 49.5219 59.6913 49.2319 59.8113C48.5319 60.1113 47.8119 60.4113 47.0219 60.5713C46.8019 60.6113 46.5819 60.6213 46.3519 60.6313C45.9619 60.6413 45.7119 60.6613 45.5119 60.8313C45.4119 60.9113 45.2719 60.9713 45.1219 60.9713L45.1519 60.9613Z" fill="#808080"></path>
    <path d="M19.2415 62.0213C19.0715 62.0213 18.9115 61.9313 18.8315 61.7613C18.7615 61.6013 18.6715 61.4013 18.7215 61.1013C18.7915 60.7113 18.8115 60.3113 18.7815 59.9313L18.7415 59.2713C18.6915 58.6113 18.6415 57.9313 18.6815 57.2413C18.7415 55.8913 18.7215 54.5013 18.6915 53.1713V52.7413C18.6515 50.7413 18.6215 48.1113 18.7415 45.4713V45.1313C18.7715 44.6113 18.7915 44.0813 18.9015 43.5613C19.0115 43.0213 19.0015 42.4913 18.8515 41.9513C18.7015 41.3913 18.4815 40.5413 19.1815 39.8213C19.6515 39.3413 20.2815 39.0413 21.0615 38.9313C21.8915 38.8213 22.4815 39.2613 22.9515 39.6213L23.0715 39.7113C23.2915 39.8713 23.4815 40.0013 23.6515 40.0313C24.5415 40.1513 25.3515 40.1313 26.1215 39.9813C26.4115 39.9213 26.6815 39.8413 26.9715 39.7613C27.4915 39.6113 28.0215 39.4513 28.6015 39.4313C29.8415 39.4113 31.0715 39.4113 32.3115 39.4113C34.2015 39.4113 36.1715 39.4113 38.0915 39.3213C39.3215 39.2613 40.5715 39.2713 41.7715 39.2913C42.4315 39.2913 43.0915 39.3013 43.7515 39.3013C44.1515 39.3013 44.7015 39.3413 45.2115 39.7113C45.4315 39.8713 45.4815 40.1813 45.3215 40.4113C45.1615 40.6413 44.8515 40.6813 44.6215 40.5213C44.4115 40.3613 44.1315 40.3013 43.7515 40.3013C43.0815 40.3013 42.4215 40.3013 41.7515 40.2913C40.5615 40.2813 39.3315 40.2613 38.1315 40.3213C36.1815 40.4213 34.2115 40.4213 32.3015 40.4113C31.0715 40.4113 29.8415 40.4113 28.6115 40.4313C28.1615 40.4313 27.7215 40.5713 27.2415 40.7113C26.9315 40.8013 26.6215 40.8913 26.3015 40.9613C25.4215 41.1313 24.5015 41.1513 23.5015 41.0213C23.0615 40.9613 22.7215 40.7013 22.4615 40.5213L22.3315 40.4213C21.8715 40.0813 21.5815 39.8713 21.1715 39.9213C20.6115 40.0013 20.1915 40.1913 19.8715 40.5113C19.6015 40.7813 19.6315 41.0813 19.7915 41.6913C19.9715 42.3913 19.9915 43.0613 19.8515 43.7613C19.7615 44.2013 19.7415 44.6913 19.7215 45.1713V45.5213C19.5915 48.1313 19.6215 50.7413 19.6515 52.7213V53.1513C19.6815 54.5013 19.7115 55.9013 19.6515 57.2913C19.6215 57.9213 19.6615 58.5413 19.7115 59.2013L19.7515 59.8713C19.7815 60.3313 19.7515 60.8013 19.6715 61.2713C19.7815 61.5213 19.6915 61.8613 19.4415 61.9713C19.3615 62.0013 19.2815 62.0213 19.2115 62.0213H19.2415Z" fill="#808080"></path>
    <path d="M146.463 39.4154C146.403 39.4154 146.353 39.4054 146.293 39.3854C146.253 39.3654 146.203 39.3454 146.163 39.3254C145.343 39.2254 144.553 39.1454 143.763 39.0654C142.933 38.9754 142.113 38.8954 141.283 38.8254C139.813 38.6954 138.393 38.5754 136.983 38.4054L133.233 37.9654C132.783 37.9154 132.333 37.8754 131.883 37.8254C131.373 37.7754 130.863 37.7354 130.353 37.6654C129.543 37.5654 128.723 37.4754 127.913 37.3954C126.923 37.2954 125.943 37.1854 124.953 37.0554C124.803 37.0354 124.643 37.0254 124.483 37.0254C124.033 37.0054 123.533 36.9854 123.053 36.7054C122.813 36.5654 122.733 36.2654 122.863 36.0254C123.003 35.7854 123.303 35.7054 123.543 35.8354C123.823 35.9954 124.143 36.0054 124.533 36.0254C124.723 36.0254 124.903 36.0454 125.083 36.0654C126.063 36.1954 127.043 36.2954 128.013 36.3954C128.833 36.4854 129.653 36.5654 130.473 36.6654C130.973 36.7254 131.473 36.7754 131.973 36.8154C132.433 36.8554 132.893 36.8954 133.343 36.9554L137.093 37.3954C138.493 37.5554 139.903 37.6854 141.313 37.8054C142.203 37.8854 143.033 37.9654 143.863 38.0554C144.643 38.1354 145.423 38.2154 146.213 38.2854C146.373 38.2954 146.503 38.3654 146.603 38.4054C146.863 38.5054 147.013 38.8154 146.913 39.0654C146.833 39.2654 146.663 39.3954 146.463 39.3954V39.4154Z" fill="#808080"></path>
    <path d="M92.6402 60.5168C92.5402 60.5168 92.4502 60.4868 92.3602 60.4368C92.1002 60.2568 91.7602 60.2468 91.3802 60.2268C91.1502 60.2268 90.9302 60.2068 90.7102 60.1668C90.2202 60.0768 89.7202 60.0068 89.2302 59.9268C88.1402 59.7568 87.0002 59.5868 85.8902 59.3068C85.1502 59.1268 84.3402 59.1668 83.4902 59.2068L82.9102 59.2368C81.8002 59.2768 80.6602 59.3968 79.5602 59.5068C78.9202 59.5668 78.2902 59.6368 77.6502 59.6868C76.1002 59.8168 74.7002 59.4768 73.4202 59.0968C72.7702 58.9068 72.1302 58.8668 71.5102 58.9868C71.2402 59.0368 70.9802 58.8568 70.9302 58.5868C70.8802 58.3168 71.0602 58.0568 71.3302 58.0068C72.1102 57.8568 72.9102 57.9068 73.7102 58.1468C74.9002 58.4968 76.1902 58.8168 77.5802 58.7068C78.2102 58.6568 78.8402 58.5968 79.4702 58.5268C80.5802 58.4168 81.7302 58.2968 82.8802 58.2568L83.4502 58.2268C84.3302 58.1768 85.2502 58.1368 86.1402 58.3568C87.2102 58.6168 88.3202 58.7968 89.3902 58.9568C89.8902 59.0368 90.3902 59.1168 90.8902 59.1968C91.0702 59.2268 91.2502 59.2368 91.4302 59.2468C91.9002 59.2668 92.4302 59.2868 92.9302 59.6268C93.1602 59.7768 93.2202 60.0868 93.0702 60.3168C92.9702 60.4568 92.8202 60.5368 92.6502 60.5368L92.6402 60.5168Z" fill="#808080"></path>
    <path d="M111.402 62.5117C111.402 62.5117 111.332 62.5117 111.292 62.5017C111.022 62.4317 110.852 62.1917 110.922 61.9317C111.022 61.5117 111.112 61.1817 111.092 60.8517C111.022 59.5317 111.422 58.3317 111.812 57.3317C112.462 55.6817 112.952 53.9417 113.292 52.0217C113.602 50.3017 113.722 48.4817 113.672 46.6117C113.672 46.3817 113.682 46.1417 113.722 45.9017C113.912 44.7017 114.502 43.6517 115.592 42.6017C115.712 42.4817 115.842 42.3717 115.962 42.2617C116.362 41.9017 116.732 41.5617 116.982 41.1317C117.122 40.8917 117.422 40.8117 117.662 40.9517C117.902 41.0917 117.982 41.3917 117.842 41.6317C117.512 42.1917 117.062 42.6017 116.622 43.0017C116.502 43.1117 116.382 43.2117 116.272 43.3217C115.332 44.2217 114.852 45.0617 114.692 46.0517C114.662 46.2317 114.652 46.4017 114.652 46.5717C114.712 48.5117 114.582 50.4017 114.262 52.1917C113.902 54.1817 113.402 55.9817 112.722 57.6917C112.362 58.5917 112.012 59.6617 112.072 60.7917C112.092 61.2717 111.992 61.6917 111.892 62.1017C111.832 62.3317 111.622 62.5117 111.382 62.5117H111.402Z" fill="#808080"></path>
    <path d="M115.02 63.2822C114.95 63.2822 114.87 63.2622 114.8 63.2322C114.55 63.1122 114.45 62.8122 114.56 62.5622C114.56 62.5422 114.56 62.4622 114.55 62.4122C114.54 62.3322 114.53 62.2522 114.53 62.1722V61.8522C114.51 60.9922 114.49 60.1122 114.85 59.2222C114.96 58.9422 115.08 58.6722 115.2 58.3922C115.44 57.8422 115.67 57.3222 115.83 56.7622C116.21 55.3922 116.44 53.9522 116.66 52.5622C116.74 52.0522 116.82 51.5522 116.91 51.0422C116.97 50.6922 117.01 50.3422 117.04 49.9922C117.09 49.5322 117.14 49.0522 117.24 48.5722C117.46 47.5622 117.99 46.7322 118.51 45.9122L118.64 45.7022C119.11 44.9622 119.64 44.2522 120.15 43.5722C120.44 43.1822 120.73 42.8022 121 42.4122C121.65 41.5022 122.3 41.4922 123.15 41.5822C124.4 41.7022 125.68 41.6622 126.94 41.4522C127.07 41.4322 127.2 41.3822 127.33 41.3322C127.72 41.1922 128.26 40.9922 128.85 41.3122C129.09 41.4422 129.18 41.7422 129.05 41.9922C128.92 42.2322 128.62 42.3222 128.37 42.1922C128.19 42.0922 128.03 42.1322 127.67 42.2722C127.48 42.3422 127.29 42.4122 127.1 42.4422C125.76 42.6722 124.39 42.7222 123.05 42.5822C122.37 42.5122 122.16 42.5222 121.81 43.0022C121.53 43.4022 121.23 43.7922 120.94 44.1822C120.44 44.8522 119.92 45.5422 119.47 46.2522L119.34 46.4622C118.85 47.2322 118.38 47.9622 118.2 48.7922C118.11 49.2122 118.07 49.6422 118.02 50.1022C117.98 50.4822 117.94 50.8522 117.88 51.2222C117.79 51.7222 117.71 52.2222 117.63 52.7222C117.4 54.1422 117.17 55.6122 116.78 57.0322C116.61 57.6522 116.35 58.2322 116.1 58.7922C115.98 59.0522 115.87 59.3222 115.76 59.5922C115.48 60.2922 115.49 61.0422 115.51 61.8322V62.1622C115.51 62.1622 115.52 62.2522 115.53 62.2922C115.55 62.4622 115.59 62.7222 115.45 63.0022C115.36 63.1822 115.18 63.2822 115 63.2822H115.02Z" fill="#808080"></path>
    <path d="M72.7719 77.5548C72.5419 77.5548 72.3319 77.3948 72.2819 77.1548L71.7319 74.3948C71.4719 73.0948 71.2519 71.7148 71.6419 70.3648C72.0319 69.0148 72.0819 67.6548 72.1019 66.3848C72.1019 65.7748 72.0719 65.1448 72.0319 64.5348C71.9819 63.7548 71.9219 62.9448 71.9719 62.1248C72.0219 61.3648 71.8919 60.7848 71.5719 60.2548C71.1019 59.4848 70.8019 58.5448 70.6319 57.3148C70.4619 56.1448 70.4419 54.9548 70.4119 53.8048C70.4119 53.4448 70.3919 53.0848 70.3819 52.7248C70.3319 51.1148 70.3919 49.4948 70.4519 47.9148C70.4919 46.9948 70.5219 46.0748 70.5419 45.1548C70.5719 43.0748 70.5219 41.2548 70.3719 39.5648C70.3519 39.2848 70.5519 39.0448 70.8219 39.0248C71.0919 39.0048 71.3419 39.2048 71.3619 39.4748C71.5119 41.1948 71.5719 43.0548 71.5419 45.1648C71.5319 46.0948 71.4919 47.0248 71.4519 47.9448C71.3919 49.4948 71.3219 51.1048 71.3819 52.6748C71.3919 53.0348 71.4019 53.4048 71.4119 53.7648C71.4319 54.8848 71.4619 56.0448 71.6219 57.1548C71.7719 58.2448 72.0319 59.0648 72.4319 59.7148C72.8619 60.4248 73.0319 61.2048 72.9719 62.1648C72.9219 62.9148 72.9719 63.6548 73.0319 64.4448C73.0719 65.0748 73.1219 65.7248 73.1119 66.3748C73.0919 67.6648 73.0319 69.1548 72.6119 70.6248C72.2819 71.7648 72.4819 72.9548 72.7219 74.1848L73.2719 76.9448C73.3219 77.2148 73.1519 77.4748 72.8819 77.5348C72.8519 77.5348 72.8119 77.5348 72.7819 77.5348L72.7719 77.5548Z" fill="#808080"></path>
    <path d="M95.3992 60.4595C95.3392 60.4595 95.2692 60.4495 95.2092 60.4195C94.9492 60.3195 94.8292 60.0195 94.9392 59.7695C95.0492 59.5095 95.2092 59.3195 95.3592 59.1495C95.4692 59.0195 95.5692 58.9095 95.6092 58.7995C96.1492 57.3895 96.4092 56.0095 96.4092 54.5695C96.4092 53.0195 96.3692 51.4695 96.3292 49.9195C96.2792 47.7795 96.2192 45.5695 96.2592 43.3995C96.2692 42.8595 96.3192 42.3095 96.3692 41.7695C96.3892 41.5295 96.4192 41.2795 96.4392 41.0395C96.4592 40.7595 96.6992 40.5595 96.9792 40.5795C97.2592 40.5995 97.4592 40.8395 97.4392 41.1195C97.4192 41.3695 97.3992 41.6195 97.3692 41.8695C97.3192 42.3895 97.2692 42.9095 97.2592 43.4195C97.2192 45.5795 97.2692 47.7695 97.3292 49.8995C97.3692 51.4595 97.4092 53.0095 97.4092 54.5695C97.4092 56.1395 97.1292 57.6395 96.5492 59.1595C96.4392 59.4295 96.2692 59.6295 96.1192 59.8095C96.0092 59.9395 95.9192 60.0495 95.8692 60.1495C95.7892 60.3395 95.5992 60.4595 95.4092 60.4595H95.3992Z" fill="#808080"></path>
    <path d="M92.6623 64.6357C92.5023 64.6357 92.3323 64.5957 92.1623 64.5057C91.2623 64.0257 90.2823 63.7857 89.2323 63.5357L88.8423 63.4457C88.7423 63.4157 88.6423 63.3857 88.5323 63.3457L88.4323 63.3057C88.1723 63.2157 88.0323 62.9357 88.1123 62.6757C88.2023 62.4157 88.4823 62.2757 88.7423 62.3557L88.8623 62.3957C88.9323 62.4157 88.9923 62.4457 89.0623 62.4657L89.4423 62.5557C90.4923 62.8057 91.5823 63.0657 92.6023 63.6057C92.8423 63.3457 93.1623 63.1357 93.5423 62.9857C95.5323 62.1957 97.2223 61.8157 98.8623 61.7857C100.312 61.7557 101.752 61.7657 103.202 61.7857H104.162C104.962 61.7957 105.762 61.8057 106.562 61.8257C106.722 61.8257 106.882 61.8457 107.042 61.8657C107.542 61.9157 107.852 61.9357 108.132 61.7157C108.342 61.5357 108.662 61.5757 108.832 61.7857C109.002 61.9957 108.972 62.3157 108.762 62.4857C108.152 62.9857 107.482 62.9157 106.932 62.8557C106.792 62.8457 106.662 62.8257 106.522 62.8257C105.732 62.8057 104.942 62.7957 104.152 62.7957H103.192C101.752 62.7757 100.322 62.7657 98.8823 62.7957C97.3623 62.8257 95.7823 63.1857 93.9123 63.9257C93.6523 64.0257 93.4423 64.1657 93.3023 64.3257C93.1223 64.5257 92.8923 64.6357 92.6423 64.6357H92.6623Z" fill="#808080"></path>
    <path d="M10.5623 80.5052C10.5023 80.5052 10.4423 80.4952 10.3823 80.4752C10.1223 80.3752 9.99231 80.0852 10.0923 79.8252C10.1223 79.7352 10.1223 79.6052 10.1223 79.4552V79.3252V65.3452V65.1852C10.1223 65.0852 10.1323 64.9852 10.1223 64.9552C10.0023 64.7052 10.1023 64.4052 10.3423 64.2852C10.5823 64.1652 10.8923 64.2652 11.0123 64.5052C11.1423 64.7752 11.1323 65.0352 11.1323 65.2252V65.3452V79.4352C11.1323 79.6452 11.1323 79.9052 11.0423 80.1752C10.9623 80.3752 10.7723 80.4952 10.5723 80.4952L10.5623 80.5052Z" fill="#808080"></path>
    <path d="M16.6616 79.4686C16.6616 79.4686 16.5816 79.4686 16.5416 79.4586C15.7016 79.2586 15.3616 78.4786 15.2316 78.1786C14.3716 76.1686 13.9316 74.1486 13.9416 72.1586C13.9416 71.1186 14.0216 70.0686 14.0916 69.0486C14.1316 68.4786 14.1716 67.9186 14.2016 67.3486V67.1586C14.2416 66.4186 14.2816 65.5886 14.7316 64.9186C14.9416 64.6086 15.0416 64.2686 15.1516 63.8986C15.2116 63.7086 15.2716 63.5086 15.3416 63.3186C15.8016 62.1286 16.4116 61.4286 18.0016 61.6586C18.1216 61.6786 18.2216 61.6886 18.2616 61.6886C18.4916 61.4786 18.7916 61.3286 19.0816 61.1786C19.2816 61.0786 19.4816 60.9686 19.6616 60.8386C21.1316 59.7686 22.9316 59.2186 25.1516 59.1486C26.2516 59.1186 27.3616 59.1786 28.4416 59.2386C29.5316 59.2986 30.6716 59.3686 31.7716 59.3286C31.9116 59.3286 32.0416 59.3586 32.1216 59.3786C32.3916 59.4286 32.6016 59.7086 32.5516 59.9786C32.5016 60.2486 32.2716 60.4286 32.0016 60.3786L31.8716 60.3486C30.6516 60.3786 29.5016 60.3086 28.3816 60.2386C27.3316 60.1786 26.2416 60.1186 25.1816 60.1486C23.1416 60.2086 21.5716 60.6886 20.2516 61.6486C20.0316 61.8086 19.7916 61.9386 19.5516 62.0586C19.3016 62.1886 19.0616 62.3186 18.8716 62.4786C18.5416 62.7586 18.1516 62.6986 17.9216 62.6586C16.9516 62.5186 16.6616 62.6986 16.2916 63.6786C16.2316 63.8486 16.1816 64.0186 16.1216 64.1886C16.0016 64.5886 15.8616 65.0486 15.5716 65.4786C15.2816 65.9186 15.2416 66.5686 15.2216 67.2086V67.4086C15.1816 67.9786 15.1416 68.5586 15.1016 69.1286C15.0316 70.1286 14.9516 71.1586 14.9516 72.1686C14.9516 74.0186 15.3516 75.9086 16.1616 77.7886C16.3516 78.2286 16.5316 78.4286 16.7816 78.4886C17.0516 78.5486 17.2116 78.8186 17.1516 79.0886C17.1016 79.3186 16.8916 79.4686 16.6616 79.4686Z" fill="#808080"></path>
    <path d="M22.2009 65.0676C21.3609 65.0676 20.5309 65.0076 19.7109 64.8776L19.4309 64.8376C18.2209 64.6476 16.9709 64.4576 15.7709 64.0476C15.5109 63.9576 15.3709 63.6776 15.4609 63.4076C15.5509 63.1476 15.8309 63.0076 16.1009 63.0976C17.2209 63.4776 18.3709 63.6576 19.5909 63.8476L19.8709 63.8876C21.2209 64.0976 22.6009 64.1276 23.9709 63.9676C24.8009 63.8776 25.6409 63.8676 26.4509 63.8576C27.4109 63.8476 28.3209 63.8376 29.2309 63.6976C29.4509 63.6676 29.6609 63.6976 29.8409 63.7276C29.9009 63.7276 29.9609 63.7476 30.0209 63.7476C30.2909 63.7676 30.5009 64.0176 30.4709 64.2876C30.4509 64.5676 30.2009 64.7676 29.9309 64.7376C29.8509 64.7376 29.7709 64.7176 29.6809 64.7076C29.5609 64.6876 29.4509 64.6676 29.3709 64.6776C28.3909 64.8276 27.4009 64.8376 26.4509 64.8476C25.6709 64.8476 24.8609 64.8676 24.0709 64.9576C23.4509 65.0276 22.8209 65.0676 22.2009 65.0676Z" fill="#808080"></path>
    <path d="M91.469 78.5524C91.469 78.5524 91.399 78.5524 91.359 78.5424C91.089 78.4824 90.919 78.2124 90.979 77.9424C91.009 77.8324 91.009 77.7524 90.979 77.6624C90.709 76.3524 90.399 74.7924 90.229 73.2024C90.069 71.7424 89.929 70.0224 90.059 68.2724C90.129 67.2524 90.209 66.1024 90.899 65.0724C91.079 64.8024 91.299 64.6124 91.499 64.4424C91.689 64.2824 91.849 64.1424 91.939 63.9724C92.059 63.7224 92.369 63.6224 92.609 63.7524C92.859 63.8724 92.949 64.1824 92.829 64.4224C92.649 64.7724 92.389 65.0024 92.149 65.2024C91.989 65.3424 91.839 65.4724 91.729 65.6224C91.189 66.4324 91.119 67.3624 91.059 68.3424C90.939 70.0124 91.079 71.6824 91.229 73.0924C91.399 74.6424 91.689 76.1724 91.959 77.4524C92.009 77.6824 91.999 77.9024 91.949 78.1624C91.899 78.3924 91.689 78.5524 91.459 78.5524H91.469Z" fill="#808080"></path>
    <path d="M88.1014 77.3808C88.1014 77.3808 88.0814 77.3808 88.0714 77.3808C87.7914 77.3608 87.5814 77.1308 87.6014 76.8508C87.6014 76.8008 87.5614 76.7508 87.4314 76.6008C86.8314 75.9308 86.3914 75.1908 86.0014 74.4908C85.5614 73.7108 85.3615 72.8108 85.3715 71.7208C85.3715 70.6208 85.5714 69.5208 85.7514 68.4508L85.8814 67.6808C86.0314 66.7508 86.1914 65.7908 86.5414 64.8708C87.1814 63.2308 88.3214 61.8908 90.0414 60.7708C91.1414 60.0508 92.3314 59.6608 93.4914 59.6208L93.9214 59.6008C94.7714 59.5708 95.6414 59.5408 96.5614 59.7208C97.1914 59.8508 97.8314 59.9108 98.5114 59.9808C99.0114 60.0308 99.5215 60.0808 100.011 60.1508C100.611 60.2408 101.201 60.3408 101.801 60.4408C103.231 60.6808 104.711 60.9308 106.181 61.0508C106.351 61.0608 106.511 61.0708 106.681 61.0808C107.251 61.1108 107.841 61.1408 108.391 61.3708C108.691 61.4908 108.991 61.5508 109.321 61.6108C109.551 61.6508 109.771 61.6908 110.001 61.7508C110.251 61.8208 110.521 61.7908 110.831 61.7508C111.181 61.7108 111.581 61.6608 112.021 61.7608C113.641 62.1408 115.281 62.4808 116.911 62.8108C117.481 62.9308 118.041 63.0308 118.611 63.1408C119.501 63.3108 120.431 63.4808 121.331 63.6908C122.671 64.0108 123.911 64.4808 125.011 65.1108C125.681 65.4908 126.321 65.9208 126.941 66.3308C127.201 66.5008 127.461 66.6808 127.731 66.8508C127.901 66.9608 128.081 67.0408 128.261 67.1308C128.691 67.3408 129.181 67.5708 129.531 68.0608C129.691 68.2808 129.641 68.6008 129.411 68.7608C129.181 68.9208 128.871 68.8708 128.711 68.6408C128.511 68.3608 128.191 68.2108 127.821 68.0308C127.601 67.9208 127.381 67.8208 127.171 67.6808C126.901 67.5108 126.641 67.3308 126.371 67.1508C125.761 66.7408 125.141 66.3308 124.501 65.9708C123.481 65.3908 122.331 64.9508 121.081 64.6608C120.191 64.4508 119.301 64.2908 118.401 64.1208C117.821 64.0108 117.251 63.9108 116.681 63.7908C115.041 63.4508 113.401 63.1108 111.771 62.7308C111.511 62.6708 111.241 62.7008 110.931 62.7308C110.571 62.7708 110.161 62.8208 109.721 62.7008C109.521 62.6508 109.321 62.6108 109.131 62.5708C108.771 62.5008 108.391 62.4408 108.001 62.2708C107.611 62.1108 107.131 62.0808 106.621 62.0608C106.441 62.0608 106.261 62.0408 106.081 62.0308C104.581 61.9008 103.071 61.6508 101.621 61.4108C101.031 61.3108 100.441 61.2108 99.8514 61.1208C99.3714 61.0508 98.8914 61.0008 98.4014 60.9608C97.7214 60.9008 97.0214 60.8308 96.3414 60.6908C95.5514 60.5308 94.7715 60.5508 93.9415 60.5908L93.5014 60.6108C92.5314 60.6408 91.5214 60.9808 90.5714 61.6008C89.0314 62.6008 88.0114 63.7908 87.4614 65.2208C87.1414 66.0408 87.0014 66.9108 86.8514 67.8308L86.7214 68.6208C86.5414 69.6408 86.3614 70.7008 86.3514 71.7308C86.3514 72.6308 86.5114 73.3808 86.8614 74.0008C87.2214 74.6508 87.6315 75.3308 88.1615 75.9308C88.3515 76.1508 88.6114 76.4408 88.5914 76.9108C88.5714 77.1808 88.3514 77.3808 88.0914 77.3808H88.1014Z" fill="#808080"></path>
    <path d="M30.0199 64.6916C29.7599 64.6916 29.5399 64.4816 29.5199 64.2216C29.5099 63.9416 29.7199 63.7116 29.9899 63.6916C30.5299 63.6616 31.0699 63.6616 31.6099 63.6616C32.2599 63.6616 32.9399 63.6616 33.5999 63.6016C34.7099 63.5116 35.8199 63.4416 36.9399 63.3816L38.0899 63.3216C39.5799 63.2316 41.1199 62.9816 42.2999 61.7616C42.7699 61.2716 43.3899 61.1716 43.9899 61.4816C44.2399 61.6116 44.3299 61.9116 44.2099 62.1516C44.0799 62.4016 43.7799 62.4916 43.5399 62.3716C43.3299 62.2616 43.1899 62.2916 43.0199 62.4616C41.5999 63.9316 39.7599 64.2316 38.1499 64.3216L36.9999 64.3916C35.8999 64.4516 34.7899 64.5116 33.6899 64.6116C32.9899 64.6716 32.2899 64.6716 31.6199 64.6716C31.0999 64.6716 30.5799 64.6716 30.0499 64.7016C30.0499 64.7016 30.0299 64.7016 30.0199 64.7016V64.6916Z" fill="#808080"></path>
    <path d="M25.9625 74.2649C25.5525 74.2649 25.1425 74.2649 24.7225 74.2349L24.2825 74.2149C22.4725 74.1249 20.5925 74.0349 18.7825 73.4949C18.7825 73.4949 18.7225 73.5149 18.6825 73.5249C18.5825 73.5449 18.4525 73.5849 18.3025 73.5749C18.0225 73.5749 17.8125 73.3349 17.8125 73.0649C17.8125 72.7849 18.0425 72.5549 18.3225 72.5749C18.3225 72.5749 18.4025 72.5649 18.4425 72.5549C18.5925 72.5149 18.8125 72.4649 19.0625 72.5449C20.7625 73.0549 22.5725 73.1449 24.3225 73.2249L24.7625 73.2449C26.2225 73.3149 27.7125 73.2349 29.1625 73.1549L29.4925 73.1349C29.7025 73.1249 29.9125 73.1349 30.1325 73.1349C30.3925 73.1449 30.6325 73.1549 30.8625 73.1249C31.7625 72.9949 32.6625 72.9349 33.5425 72.8749C34.3425 72.8249 35.1625 72.7649 35.9625 72.6549C37.1425 72.4949 38.3225 72.3049 39.5025 72.1049C39.9825 72.0249 40.4525 71.8649 40.9425 71.6849C41.4425 71.5149 41.9525 71.3349 42.5025 71.2349C42.7725 71.1849 43.0325 71.3649 43.0825 71.6449C43.1325 71.9149 42.9525 72.1749 42.6725 72.2249C42.2025 72.3049 41.7525 72.4649 41.2725 72.6349C40.7625 72.8149 40.2325 72.9949 39.6625 73.0949C38.4725 73.2949 37.2825 73.4849 36.0925 73.6449C35.2625 73.7549 34.4225 73.8149 33.6125 73.8749C32.7525 73.9349 31.8625 73.9949 31.0125 74.1249C30.7025 74.1749 30.3925 74.1549 30.1025 74.1449C29.9225 74.1449 29.7425 74.1349 29.5625 74.1449L29.2325 74.1649C28.1625 74.2249 27.0625 74.2849 25.9625 74.2849V74.2649Z" fill="#808080"></path>
    <path d="M58.4099 45.451C58.3099 45.451 58.1999 45.451 58.0899 45.421C57.8199 45.381 57.6299 45.121 57.6799 44.851C57.7199 44.581 57.9799 44.391 58.2499 44.441C58.5899 44.491 58.8899 44.381 59.2499 44.061C59.8399 43.551 60.5599 43.261 61.3899 43.221C64.0399 43.071 66.7099 43.141 69.2199 43.221C69.5899 43.231 70.1199 43.251 70.4699 43.721C70.6299 43.941 70.5799 44.261 70.3599 44.421C70.1399 44.581 69.8199 44.531 69.6599 44.311C69.6099 44.241 69.4999 44.231 69.2499 44.221C66.6999 44.141 64.0499 44.071 61.4399 44.221C60.8399 44.251 60.3199 44.461 59.8999 44.821C59.4099 45.251 58.9199 45.461 58.3999 45.461L58.4099 45.451Z" fill="#808080"></path>
    <path d="M43.0194 45.2519C42.5294 45.2519 42.0594 45.1619 41.6094 45.0719C41.3294 45.0119 41.0494 44.9619 40.7594 44.9319C40.0494 44.8619 39.3394 44.8819 38.5894 44.9119C38.0994 44.9319 37.6094 44.9519 37.1194 44.9419C36.6394 44.9319 36.1694 44.9819 35.6694 45.0419C35.3894 45.0719 35.1194 45.1019 34.8394 45.1219L34.3794 45.1619C33.4494 45.2419 32.4894 45.3219 31.5294 45.0219C30.6694 44.7519 29.9294 44.6519 29.1994 44.7019C28.9294 44.7219 28.6694 44.7619 28.4094 44.7919C28.1894 44.8219 27.9694 44.8519 27.7494 44.8719C25.6594 45.0719 23.4894 44.8119 21.1094 44.0519C20.8494 43.9719 20.6994 43.6919 20.7794 43.4219C20.8594 43.1619 21.1394 43.0119 21.4094 43.0919C23.6494 43.8019 25.6894 44.0519 27.6494 43.8619C27.8594 43.8419 28.0694 43.8119 28.2694 43.7819C28.5594 43.7419 28.8394 43.7019 29.1294 43.6819C29.9794 43.6219 30.8694 43.7419 31.8394 44.0519C32.6094 44.2919 33.4294 44.2219 34.3094 44.1519L34.7794 44.1119C35.0394 44.0919 35.3094 44.0619 35.5694 44.0319C36.0794 43.9719 36.6094 43.9219 37.1494 43.9219C37.6194 43.9319 38.0894 43.9219 38.5594 43.8919C39.3094 43.8619 40.0894 43.8319 40.8694 43.9119C41.1794 43.9419 41.4894 44.0019 41.7994 44.0719C42.2794 44.1619 42.7294 44.2519 43.1794 44.2319C43.4294 44.2219 43.6794 44.2419 43.8594 44.1919C44.1194 44.1119 44.3994 44.2619 44.4794 44.5219C44.5594 44.7819 44.4094 45.0619 44.1494 45.1419C43.8094 45.2419 43.5194 45.2119 43.2294 45.2219C43.1594 45.2219 43.0894 45.2219 43.0194 45.2219V45.2519Z" fill="#808080"></path>
    <path d="M92.9513 54.118C92.8413 54.118 92.7314 54.118 92.6114 54.118C91.2614 54.058 90.0413 53.828 88.8913 53.408C87.2013 52.788 85.5014 52.158 83.7214 52.308C83.0214 52.368 82.3914 52.448 81.8014 52.548C80.4114 52.788 79.0114 52.788 77.6514 52.798H76.6914C75.4514 52.818 74.2314 52.648 73.0514 52.488C72.7314 52.448 72.4113 52.398 72.0913 52.358C71.8213 52.328 71.6214 52.078 71.6614 51.798C71.6914 51.528 71.9414 51.328 72.2214 51.368C72.5514 51.408 72.8713 51.448 73.2013 51.498C74.3513 51.658 75.5313 51.818 76.7013 51.798H77.6713C78.9813 51.798 80.3414 51.788 81.6514 51.558C82.2714 51.448 82.9314 51.368 83.6514 51.308C85.6514 51.138 87.4613 51.808 89.2113 52.448C90.3013 52.848 91.4213 53.068 92.6713 53.118C93.4713 53.148 94.3514 53.048 95.4114 52.788C95.6814 52.718 95.9514 52.888 96.0114 53.158C96.0814 53.428 95.9114 53.698 95.6413 53.758C94.6213 54.008 93.7613 54.118 92.9613 54.118H92.9513Z" fill="#808080"></path>
    <path d="M58.5407 73.2704C58.5407 73.2704 58.5107 73.2704 58.4907 73.2704C56.6007 73.1004 54.5707 72.8904 52.5007 72.5504C51.6407 72.4104 50.7807 72.3104 49.9107 72.2104C49.3107 72.1404 48.7007 72.0704 48.1007 71.9804C47.9407 71.9604 47.7807 71.9304 47.6307 71.9004C47.3507 71.8404 47.0907 71.7904 46.8407 71.8004C46.5707 71.8004 46.3307 71.6004 46.3207 71.3204C46.3107 71.0404 46.5207 70.8104 46.8007 70.8004C47.1607 70.7804 47.5007 70.8504 47.8307 70.9104C47.9707 70.9404 48.1007 70.9704 48.2407 70.9804C48.8407 71.0604 49.4307 71.1304 50.0307 71.2004C50.9107 71.3004 51.7907 71.4104 52.6607 71.5504C54.6907 71.8804 56.7107 72.0904 58.5807 72.2604C58.8507 72.2904 59.0607 72.5304 59.0307 72.8004C59.0107 73.0604 58.7907 73.2504 58.5307 73.2504L58.5407 73.2704Z" fill="#808080"></path>
    <path d="M94.9919 45.6909C94.9219 45.6909 94.8519 45.6909 94.8019 45.6809C91.8119 45.6809 88.5019 45.7109 85.2219 45.3209C84.2519 45.2109 83.1319 45.0509 82.1019 44.6309C80.9719 44.1709 79.8519 43.9409 78.6619 43.9609C77.0719 43.9609 75.4819 43.9909 73.8919 44.0009L71.9219 44.0209C71.6819 44.0409 71.4219 43.8009 71.4219 43.5209C71.4219 43.2409 71.6419 43.0209 71.9219 43.0209L73.8919 43.0009C75.4819 42.9809 77.0719 42.9709 78.6719 42.9609C79.9819 42.9609 81.2319 43.2009 82.4919 43.7109C83.4019 44.0809 84.4019 44.2209 85.3519 44.3309C88.5719 44.7109 91.8519 44.6909 94.7419 44.6709C94.7919 44.6709 94.8719 44.6709 94.9319 44.6809C94.9519 44.6809 94.9619 44.6809 94.9619 44.6909C95.1719 44.5509 95.4519 44.5909 95.6119 44.7809C95.7919 44.9909 95.7719 45.3009 95.5619 45.4909C95.3719 45.6509 95.1719 45.6909 95.0119 45.6909H94.9919Z" fill="#808080"></path>
    <path d="M48.1203 52.9721C47.8703 52.9721 47.6603 52.7921 47.6303 52.5421C47.5903 52.2721 47.7803 52.0121 48.0603 51.9821C48.9803 51.8521 49.9003 51.8021 50.8003 51.7521C51.3103 51.7221 51.8203 51.6921 52.3203 51.6521C52.8003 51.6121 53.2803 51.5921 53.7603 51.5721H53.8703C55.5303 51.4921 57.2503 51.5321 58.9703 51.6921C59.9203 51.7821 60.8703 51.7821 61.8903 51.6921C62.1903 51.6721 62.4803 51.6121 62.7703 51.5621C63.2703 51.4721 63.7903 51.3821 64.3403 51.4121C64.9403 51.4421 65.5503 51.4921 66.1503 51.5421C67.3703 51.6421 68.6303 51.7421 69.8603 51.6621C70.1503 51.6521 70.3703 51.8521 70.3903 52.1321C70.4103 52.4121 70.2003 52.6421 69.9203 52.6621C68.6203 52.7521 67.3203 52.6421 66.0603 52.5421C65.4703 52.4921 64.8703 52.4421 64.2803 52.4121C63.8403 52.3921 63.4003 52.4721 62.9303 52.5521C62.6103 52.6121 62.2803 52.6621 61.9503 52.6921C60.8703 52.7821 59.8603 52.7821 58.8503 52.6921C57.1803 52.5321 55.5103 52.4921 53.8903 52.5721H53.7803C53.3103 52.6021 52.8403 52.6221 52.3703 52.6621C51.8503 52.7021 51.3403 52.7321 50.8203 52.7621C49.9503 52.8121 49.0403 52.8621 48.1703 52.9821C48.1503 52.9821 48.1203 52.9821 48.1003 52.9821L48.1203 52.9721Z" fill="#808080"></path>
    <path d="M58.6614 73.2674C58.4014 73.2674 58.1814 73.0574 58.1614 72.7974C58.1414 72.5174 58.3614 72.2874 58.6314 72.2674C59.9714 72.1974 61.2214 72.0774 62.4614 71.9274C63.3314 71.8174 64.2114 71.6474 65.0614 71.4774C65.4914 71.3874 65.9214 71.3074 66.3514 71.2274C67.2014 71.0774 68.0514 70.9174 68.9014 70.7574L70.0314 70.5474C70.3114 70.4974 70.5614 70.6774 70.6114 70.9474C70.6614 71.2174 70.4814 71.4774 70.2114 71.5274L69.0814 71.7374C68.2314 71.8974 67.3814 72.0474 66.5214 72.2074C66.0914 72.2874 65.6714 72.3674 65.2414 72.4474C64.3714 72.6174 63.4714 72.7974 62.5714 72.9074C61.3014 73.0674 60.0314 73.1774 58.6714 73.2474C58.6714 73.2474 58.6514 73.2474 58.6414 73.2474L58.6614 73.2674Z" fill="#808080"></path>
    <path d="M41.8399 53.5977C41.1399 53.5977 40.4399 53.5377 39.7599 53.4877C38.8299 53.4177 37.9499 53.3477 37.0499 53.4077C34.8699 53.5577 32.6399 53.5877 30.4399 53.5077C27.6799 53.4077 25.5499 53.3777 23.5399 53.4177H22.9899C22.4099 53.4277 21.8199 53.4377 21.2499 53.4877C20.9699 53.5177 20.7299 53.3077 20.7099 53.0377C20.6799 52.7677 20.8899 52.5177 21.1599 52.4877C21.7699 52.4277 22.3899 52.4277 22.9899 52.4177H23.5299C25.5599 52.3777 27.7099 52.3977 30.4899 52.4977C32.6599 52.5777 34.8499 52.5377 36.9999 52.3977C37.9699 52.3377 38.9299 52.4077 39.8499 52.4777C40.7099 52.5477 41.5199 52.6077 42.3399 52.5777C42.6099 52.5777 42.8499 52.7777 42.8599 53.0577C42.8699 53.3377 42.6599 53.5677 42.3799 53.5777C42.1999 53.5777 42.0199 53.5877 41.8499 53.5877L41.8399 53.5977Z" fill="#808080"></path>
    <path d="M58.049 45.3648C58.049 45.3648 57.9991 45.3648 57.9691 45.3648C57.3891 45.2748 56.9291 45.0048 56.4891 44.7548C56.2591 44.6248 56.029 44.4848 55.7891 44.3848C55.199 44.1448 54.5891 44.0548 53.9891 43.9748C52.7291 43.7948 51.4191 43.8148 50.1491 43.8348C49.4191 43.8448 48.699 43.8548 47.9691 43.8348C47.9691 43.8348 47.8691 43.8648 47.8091 43.8848C47.6291 43.9448 47.359 44.0448 47.039 43.9448C46.779 43.8648 46.629 43.5848 46.709 43.3148C46.789 43.0548 47.0691 42.9048 47.3291 42.9848C47.3391 42.9848 47.419 42.9548 47.459 42.9348C47.589 42.8848 47.7691 42.8248 47.9891 42.8248C48.6991 42.8448 49.409 42.8348 50.119 42.8248C51.419 42.8048 52.769 42.7848 54.109 42.9748C54.729 43.0648 55.4391 43.1648 56.1491 43.4548C56.4391 43.5748 56.7091 43.7248 56.9691 43.8848C57.3491 44.1048 57.709 44.3148 58.099 44.3748C58.369 44.4148 58.559 44.6748 58.519 44.9448C58.479 45.1948 58.269 45.3648 58.029 45.3648H58.049Z" fill="#808080"></path>
    <path d="M20.2121 61.4987C20.1021 61.4987 19.9921 61.4587 19.9021 61.3887C19.3721 60.9687 19.4521 60.4087 19.5021 60.0787C19.5121 59.9987 19.5321 59.9187 19.5321 59.8387C19.5321 59.1487 19.5321 58.4487 19.5321 57.7587C19.5321 56.2887 19.5421 54.8187 19.5121 53.3487C19.5021 52.8387 19.5521 52.3387 19.5921 51.8587C19.6521 51.1987 19.7121 50.5787 19.6321 49.9787C19.6021 49.7587 19.5621 49.5387 19.5321 49.3187C19.4121 48.5987 19.2921 47.8487 19.3321 47.0587V46.8187C19.3921 46.0487 19.4321 45.2787 19.4421 44.5087C19.4421 43.3987 19.5021 42.5387 19.6221 41.7387C19.6521 41.5687 19.6821 41.3887 19.7221 41.2187C19.8121 40.7887 19.9021 40.3787 19.7921 40.0087C19.7121 39.7487 19.8621 39.4687 20.1221 39.3887C20.3821 39.3087 20.6621 39.4587 20.7421 39.7187C20.9321 40.3387 20.8121 40.9187 20.7021 41.4387C20.6721 41.5887 20.6321 41.7487 20.6121 41.8987C20.5021 42.6487 20.4421 43.4687 20.4421 44.5287C20.4421 45.3187 20.3921 46.1087 20.3521 46.8887V47.1287C20.3021 47.8087 20.4121 48.4687 20.5221 49.1687C20.5621 49.3987 20.5921 49.6287 20.6321 49.8487C20.7321 50.5687 20.6621 51.2787 20.6021 51.9687C20.5521 52.4387 20.5121 52.8887 20.5221 53.3387C20.5521 54.8187 20.5521 56.2987 20.5421 57.7687C20.5421 58.4587 20.5421 59.1487 20.5421 59.8487C20.5421 59.9787 20.5221 60.1087 20.5021 60.2487C20.4521 60.5587 20.4721 60.5787 20.5321 60.6287C20.7521 60.7987 20.7821 61.1187 20.6121 61.3287C20.5121 61.4487 20.3721 61.5187 20.2221 61.5187L20.2121 61.4987Z" fill="#808080"></path>
    <path d="M84.3604 71.797H84.3504C83.9204 71.797 83.5004 71.787 83.0704 71.777C82.4904 71.777 81.9204 71.767 81.3404 71.747C79.8504 71.697 78.3504 71.687 76.8504 71.687H75.0304L74.8804 71.677C74.7804 71.677 74.6804 71.677 74.5704 71.677C74.1404 71.657 73.8304 71.357 73.7904 70.917C73.7704 70.637 73.9704 70.397 74.2404 70.377C74.4604 70.357 74.6604 70.487 74.7504 70.687C74.7904 70.687 74.8204 70.687 74.8604 70.687H75.0304L76.8404 70.697C78.3404 70.697 79.8504 70.717 81.3504 70.757C81.9204 70.777 82.4904 70.777 83.0604 70.787C83.4904 70.787 83.9204 70.787 84.3504 70.807C84.6304 70.807 84.8404 71.047 84.8404 71.317C84.8404 71.587 84.6104 71.807 84.3404 71.807L84.3604 71.797ZM74.8004 70.827L74.3004 70.867L74.8004 70.827Z" fill="#808080"></path>
    <path d="M124.581 65.8516C124.491 65.8516 124.391 65.8216 124.311 65.7716C124.081 65.6216 124.011 65.3116 124.161 65.0816C124.201 65.0117 124.211 64.9016 124.211 64.7216C124.211 64.1416 124.181 63.6117 124.141 63.0816C124.091 62.3917 124.051 61.6916 124.081 60.9716C124.121 60.0716 124.331 59.1916 125.621 58.8116C125.891 58.7316 125.981 58.6316 126.071 58.2916C126.121 58.1116 126.131 57.9216 126.151 57.7416C126.161 57.5917 126.181 57.4416 126.201 57.3016C126.421 55.9016 126.541 54.6616 126.561 53.5116C126.581 52.4716 126.841 51.5016 127.331 50.6316C127.511 50.3116 127.711 49.9916 127.911 49.6716C128.321 49.0116 128.711 48.3916 128.981 47.7016C129.191 47.1616 129.681 46.8616 130.271 46.9116C131.851 47.0316 133.051 47.2216 134.161 47.5216C134.431 47.5916 134.581 47.8716 134.511 48.1316C134.441 48.4016 134.161 48.5516 133.901 48.4816C132.851 48.2016 131.711 48.0216 130.191 47.9016C130.011 47.8916 129.951 47.9416 129.911 48.0616C129.611 48.8416 129.181 49.5316 128.761 50.2016C128.571 50.5116 128.381 50.8116 128.201 51.1216C127.791 51.8416 127.571 52.6516 127.561 53.5316C127.541 54.7316 127.421 56.0216 127.181 57.4716C127.161 57.5916 127.151 57.7216 127.141 57.8416C127.121 58.0816 127.091 58.3216 127.031 58.5516C126.911 59.0116 126.671 59.5616 125.891 59.7816C125.321 59.9516 125.111 60.1616 125.071 61.0216C125.041 61.6816 125.091 62.3316 125.131 63.0216C125.171 63.5716 125.201 64.1316 125.201 64.6816C125.201 64.9816 125.201 65.3017 125.001 65.6217C124.901 65.7717 124.741 65.8516 124.581 65.8516Z" fill="#808080"></path>
    <path d="M58.3408 78.6682H58.0508C57.7708 78.6682 57.5508 78.4482 57.5508 78.1682C57.5508 77.9582 57.6808 77.7782 57.8608 77.7082L57.8808 77.3982C58.1108 73.0982 58.3508 68.6482 58.1708 64.2782C58.1608 63.9982 58.3708 63.7682 58.6508 63.7582C58.9308 63.7482 59.1608 63.9582 59.1708 64.2382C59.3508 68.6582 59.1108 73.1282 58.8808 77.4582L58.8408 78.2082C58.8308 78.4782 58.6108 78.6782 58.3408 78.6782V78.6682Z" fill="#808080"></path>
    <path d="M32.2316 60.2691C31.9516 60.2691 31.7316 60.0491 31.7316 59.7691C31.7316 59.6591 31.7316 59.5491 31.7316 59.4391C31.7216 59.1691 31.7116 58.8791 31.7516 58.5891C31.9916 57.1091 32.0616 55.9991 31.9616 54.9791C31.7716 52.9691 31.8316 50.9391 32.1316 48.9691C32.3016 47.8491 32.3916 46.7091 32.4816 45.5991C32.5116 45.199 32.5416 44.7991 32.5816 44.3991L32.6016 44.2291C32.6916 43.1791 32.7916 42.0891 32.7316 41.0391C32.7016 40.8791 32.6516 40.6091 32.8316 40.3691C32.9116 40.2591 33.0716 40.1191 33.3516 40.0891C33.6216 40.0591 33.8616 40.2491 33.9016 40.5191C33.9216 40.6891 33.8516 40.8491 33.7316 40.9591C33.7316 40.9691 33.7316 40.9791 33.7316 40.9891C33.7916 42.1191 33.6916 43.2391 33.5916 44.3191L33.5716 44.4891C33.5316 44.8891 33.5016 45.2791 33.4716 45.6791C33.3816 46.8091 33.2916 47.969 33.1116 49.1191C32.8216 51.0091 32.7716 52.9491 32.9516 54.8791C33.0516 55.9891 32.9916 57.1791 32.7316 58.7491C32.7016 58.9391 32.7116 59.1691 32.7216 59.3991C32.7216 59.5191 32.7316 59.6491 32.7316 59.7691C32.7316 60.0491 32.5116 60.2691 32.2316 60.2691Z" fill="#808080"></path>
    <path d="M92.8209 76.5167C92.7409 76.5167 92.6609 76.4967 92.5909 76.4567C92.3409 76.3267 92.2509 76.0267 92.3809 75.7867C92.4209 75.7067 92.4309 75.6667 92.4109 75.5767C92.2109 74.6767 92.0609 73.9167 91.9709 73.1367C91.7409 71.1667 92.0909 69.3067 93.0009 67.6267C93.1309 67.3867 93.4409 67.2967 93.6809 67.4267C93.9209 67.5567 94.0109 67.8667 93.8809 68.1067C93.0709 69.6067 92.7609 71.2567 92.9609 73.0267C93.0409 73.7667 93.1909 74.4968 93.3909 75.3668C93.4609 75.6868 93.4209 75.9668 93.2709 76.2568C93.1809 76.4268 93.0109 76.5267 92.8309 76.5267L92.8209 76.5167Z" fill="#808080"></path>
    <path d="M105.022 54.0757C105.022 54.0757 104.982 54.0757 104.962 54.0757C104.692 54.0457 104.492 53.7957 104.532 53.5157L104.552 53.3457C104.562 53.2557 104.582 53.1757 104.582 53.0857C104.582 51.8657 104.632 50.8557 104.712 49.9157C104.742 49.5457 104.792 49.1757 104.842 48.8157C104.912 48.3157 104.972 47.8457 104.992 47.3657C105.022 46.6357 105.122 45.9057 105.212 45.2057C105.272 44.7357 105.342 44.2557 105.382 43.7857C105.412 43.4957 105.452 43.2057 105.492 42.9257C105.572 42.4257 105.642 41.9457 105.612 41.4757C105.592 41.1957 105.802 40.9657 106.082 40.9457C106.382 40.9357 106.592 41.1357 106.612 41.4157C106.652 41.9957 106.562 42.5457 106.482 43.0857C106.442 43.3557 106.402 43.6157 106.372 43.8857C106.332 44.3757 106.262 44.8657 106.192 45.3557C106.102 46.0357 106.002 46.7357 105.982 47.4257C105.962 47.9557 105.892 48.4657 105.822 48.9757C105.772 49.3257 105.722 49.6757 105.692 50.0257C105.612 50.9357 105.572 51.9157 105.562 53.1157C105.562 53.2557 105.542 53.3857 105.522 53.5257L105.502 53.6657C105.472 53.9157 105.252 54.1057 105.002 54.1057L105.022 54.0757Z" fill="#808080"></path>
    <path d="M119.011 71.9825C119.011 71.9825 118.991 71.9825 118.981 71.9825C118.871 71.9825 118.781 71.9325 118.701 71.8725C116.951 71.9525 115.101 71.7725 112.901 71.3025C112.561 71.2325 112.221 71.1225 112.041 70.8025C111.861 70.4925 111.941 70.1425 112.041 69.8425C112.101 69.6725 112.151 69.4925 112.201 69.3225L112.281 69.0625C112.361 68.8025 112.641 68.6525 112.901 68.7325C113.161 68.8125 113.311 69.0925 113.231 69.3625L113.151 69.6125C113.091 69.8025 113.041 69.9825 112.981 70.1725C112.961 70.2225 112.951 70.2625 112.941 70.2925C112.981 70.3025 113.031 70.3125 113.101 70.3325C115.301 70.8025 117.131 70.9725 118.851 70.8625C119.031 70.8525 119.211 70.9125 119.331 71.0325C119.431 71.1325 119.511 71.3725 119.501 71.5125C119.481 71.7725 119.261 71.9825 119.001 71.9825H119.011Z" fill="#808080"></path>
    <path d="M102.271 46.1177C101.371 46.1177 100.491 46.0377 99.8207 45.9677C99.3707 45.9177 98.9207 45.8477 98.4707 45.7677L97.8907 45.6677C97.6207 45.6277 97.4307 45.3677 97.4807 45.0977C97.5207 44.8277 97.7807 44.6377 98.0507 44.6877L98.6407 44.7877C99.0707 44.8577 99.4907 44.9377 99.9207 44.9777C100.581 45.0477 101.461 45.1277 102.321 45.1177C103.151 45.1177 103.971 44.9877 104.761 44.8577C105.051 44.8077 105.361 44.7577 105.701 44.8977C105.961 44.9977 106.081 45.2877 105.981 45.5477C105.881 45.8077 105.591 45.9277 105.331 45.8277C105.251 45.7977 105.141 45.8077 104.961 45.8377C104.131 45.9677 103.231 46.1177 102.321 46.1177H102.261H102.271Z" fill="#808080"></path>
    <path d="M111.54 55.1718C109.92 55.1718 108.37 54.7718 106.87 54.3718C106.09 54.1718 105.28 54.0618 104.27 54.0318C102.87 53.9918 101.44 54.0018 100.06 54.0118C99.4898 54.0118 98.9098 54.0118 98.3398 54.0118C98.0598 54.0118 97.8398 53.7918 97.8398 53.5118C97.8398 53.2318 98.0598 53.0118 98.3398 53.0118C98.9098 53.0118 99.4898 53.0118 100.06 53.0118C101.45 53.0118 102.89 52.9918 104.3 53.0418C105.38 53.0718 106.26 53.1818 107.05 53.3918C108.91 53.8718 110.6 54.3218 112.39 54.1318C112.66 54.1018 112.91 54.3018 112.94 54.5718C112.97 54.8418 112.77 55.0918 112.5 55.1218C112.18 55.1518 111.86 55.1718 111.54 55.1718Z" fill="#808080"></path>
    <path d="M58.6691 57.8813C58.5491 57.8813 58.4391 57.8412 58.3391 57.7612C57.9691 57.4513 57.9691 57.0312 57.9791 56.7812V56.3613C57.9791 56.1513 57.9891 55.9513 57.9791 55.7413C57.9391 55.0713 57.8991 54.3913 57.8491 53.7213C57.7591 52.3913 57.6691 51.0113 57.6291 49.6613C57.5991 48.7813 57.6191 47.8912 57.6291 47.0112C57.6391 46.2612 57.6591 45.5013 57.6391 44.7513C57.6191 43.8413 57.6491 42.9113 57.6891 42.0213C57.7191 41.2713 57.7391 40.5312 57.7391 39.7812C57.7391 39.5012 57.9591 39.2812 58.2391 39.2812C58.5191 39.2812 58.7391 39.5012 58.7391 39.7812C58.7391 40.5412 58.7191 41.3013 58.6891 42.0613C58.6591 42.9413 58.6291 43.8513 58.6491 44.7413C58.6691 45.5113 58.6491 46.2713 58.6391 47.0413C58.6191 47.9113 58.6091 48.7713 58.6391 49.6413C58.6791 50.9813 58.7691 52.3512 58.8591 53.6712C58.8991 54.3512 58.9491 55.0213 58.9891 55.7013C58.9991 55.9313 58.9991 56.1613 58.9891 56.3913V56.7113C58.9891 56.8813 58.9891 56.9812 58.9891 57.0112C59.1991 57.1912 59.2291 57.5013 59.0491 57.7113C58.9491 57.8313 58.8091 57.8913 58.6691 57.8913V57.8813Z" fill="#808080"></path>
    <path d="M83.74 57.572C83.47 57.572 83.24 57.352 83.24 57.082C83.24 56.292 83.24 55.492 83.24 54.702C83.24 52.922 83.2601 51.072 83.1201 49.272C83.0901 48.932 83.08 48.582 83.07 48.242C83.05 47.742 83.0401 47.262 82.9701 46.792C82.8701 46.052 82.8601 45.332 82.9401 44.592C82.9701 44.322 83.21 44.122 83.49 44.142C83.76 44.172 83.9701 44.412 83.9401 44.692C83.8701 45.362 83.8801 46.002 83.9701 46.662C84.0401 47.182 84.06 47.702 84.07 48.202C84.08 48.532 84.0901 48.862 84.1201 49.192C84.2701 51.032 84.26 52.902 84.24 54.712C84.24 55.502 84.24 56.292 84.24 57.082C84.24 57.362 84.0201 57.582 83.7501 57.592L83.74 57.572Z" fill="#808080"></path>
    <path d="M102.69 60.8755C102.53 60.8755 102.37 60.7955 102.27 60.6455C102.12 60.4155 102.18 60.1055 102.41 59.9555L102.59 59.8255C103.86 58.9755 104.44 57.9255 104.42 56.5155C104.41 55.7155 104.42 54.6655 104.59 53.6055C104.63 53.3355 104.89 53.1455 105.16 53.1955C105.43 53.2355 105.62 53.4955 105.57 53.7655C105.41 54.7455 105.4 55.7355 105.42 56.4955C105.45 58.2555 104.7 59.6155 103.14 60.6555C103.04 60.7355 103 60.7655 102.96 60.7855C102.88 60.8455 102.78 60.8655 102.69 60.8655V60.8755Z" fill="#808080"></path>
    <path d="M99.3792 67.9986C99.1492 67.9986 98.9392 67.8286 98.8892 67.5886C98.8792 67.5786 98.7792 67.5486 98.7092 67.5286L98.5492 67.4786C98.2792 67.3886 98.0092 67.2886 97.7392 67.1886C97.4192 67.0686 97.0992 66.9586 96.7792 66.8486C95.7492 66.5186 94.8692 65.9286 94.0192 65.3686C93.6192 65.1086 93.2292 64.8386 92.8192 64.6086C92.5792 64.4686 92.4992 64.1686 92.6392 63.9286C92.7792 63.6886 93.0792 63.6086 93.3192 63.7486C93.7492 63.9986 94.1592 64.2686 94.5792 64.5486C95.4092 65.0986 96.1892 65.6186 97.0892 65.9086C97.4292 66.0186 97.7592 66.1386 98.0892 66.2586C98.3492 66.3486 98.6092 66.4486 98.8692 66.5386L98.9892 66.5686C99.2392 66.6386 99.7592 66.7886 99.8792 67.3986C99.9292 67.6686 99.7592 67.9286 99.4792 67.9886C99.4492 67.9886 99.4192 67.9886 99.3792 67.9886V67.9986Z" fill="#808080"></path>
    <path d="M111.77 46.2322C111.71 46.2322 111.64 46.2222 111.58 46.1922C109.95 45.5322 108.2 45.3322 106.38 45.6022C106.18 45.6422 105.81 45.7022 105.52 45.4022C105.33 45.2022 105.33 44.8922 105.53 44.6922C105.7 44.5322 105.95 44.5122 106.14 44.6222C106.18 44.6222 106.23 44.6122 106.23 44.6022C108.23 44.3122 110.15 44.5222 111.95 45.2522C112.21 45.3522 112.33 45.6522 112.23 45.9022C112.15 46.0922 111.96 46.2122 111.77 46.2122V46.2322Z" fill="#808080"></path>
    <path d="M131.822 58.9789C131.622 58.9789 131.432 58.8589 131.362 58.6689C131.202 58.6689 131.072 58.6689 130.952 58.6689C130.552 58.6789 130.132 58.6989 129.692 58.5989C128.782 58.3889 127.822 58.2589 126.762 58.1789C126.482 58.1589 126.282 57.9189 126.302 57.6489C126.322 57.3689 126.552 57.1689 126.832 57.1889C127.942 57.2689 128.952 57.4089 129.912 57.6289C130.232 57.6989 130.562 57.6889 130.922 57.6789C131.082 57.6789 131.242 57.6689 131.402 57.6789C132.112 57.6789 132.282 58.1489 132.322 58.4289C132.362 58.6989 132.162 58.9589 131.892 58.9889C131.872 58.9889 131.852 58.9889 131.822 58.9889V58.9789Z" fill="#808080"></path>
    <path d="M98.0896 78.4791C97.9396 78.4791 97.7896 78.4091 97.6896 78.2791C97.6496 78.2191 97.6196 78.1691 97.5996 78.1191C97.4396 78.0791 97.2696 78.0491 97.1096 78.0091C96.6096 77.8991 96.1096 77.7991 95.6196 77.6491C95.3596 77.5691 95.0896 77.5191 94.8196 77.4691C94.0096 77.3091 93.0996 77.1191 92.3796 76.3791C92.1796 76.4291 91.9596 76.3491 91.8396 76.1691C91.6896 75.9391 91.7496 75.6291 91.9896 75.4791C92.1196 75.3891 92.5896 75.1591 93.0996 75.6891C93.5996 76.2091 94.2896 76.3491 95.0196 76.4991C95.3196 76.5591 95.6096 76.6191 95.8996 76.6991C96.3696 76.8391 96.8396 76.9391 97.3196 77.0391C97.5496 77.0891 97.7796 77.1391 98.0196 77.1891C98.2896 77.2491 98.4696 77.4391 98.5296 77.7491C98.6396 77.9591 98.5896 78.2291 98.3896 78.3791C98.2996 78.4491 98.1896 78.4791 98.0896 78.4791Z" fill="#808080"></path>
    <path d="M130.041 47.8149C129.771 47.8149 129.551 47.6049 129.541 47.3349C129.521 46.9349 129.681 46.5949 129.801 46.3249C129.881 46.1449 129.951 45.9949 129.961 45.8549C130.111 44.2449 131.241 43.4549 132.071 43.0049C132.311 42.8749 132.621 42.9649 132.751 43.2049C132.881 43.4449 132.791 43.7549 132.551 43.8849C131.521 44.4349 131.041 45.0549 130.961 45.9449C130.931 46.2449 130.821 46.5049 130.711 46.7349C130.621 46.9449 130.531 47.1249 130.541 47.2949C130.551 47.5749 130.341 47.8049 130.061 47.8149C130.061 47.8149 130.051 47.8149 130.041 47.8149Z" fill="#808080"></path>
    <path d="M129.431 48.3096C129.431 48.3096 129.371 48.3096 129.341 48.3096C128.621 48.1796 128.021 47.9996 127.421 47.4996C127.061 47.1996 126.311 46.7596 125.371 47.1196C125.111 47.2196 124.821 47.0896 124.721 46.8296C124.621 46.5696 124.751 46.2796 125.011 46.1796C126.041 45.7896 127.151 45.9896 128.051 46.7296C128.481 47.0896 128.931 47.2196 129.501 47.3196C129.771 47.3696 129.951 47.6296 129.911 47.8996C129.871 48.1396 129.661 48.3096 129.421 48.3096H129.431Z" fill="#808080"></path>
    <path d="M123.602 46.7191C123.472 46.7191 123.342 46.6691 123.242 46.5691C122.812 46.1291 122.322 46.1691 121.542 46.2691C121.382 46.2891 121.232 46.3091 121.072 46.3291C120.922 46.3391 120.772 46.3491 120.622 46.3591C120.412 46.3691 120.192 46.3791 119.982 46.4091C119.702 46.4491 119.452 46.2591 119.412 45.9891C119.372 45.7191 119.562 45.4591 119.832 45.4191C120.072 45.3891 120.312 45.3691 120.552 45.3591C120.692 45.3591 120.832 45.3391 120.962 45.3291C121.102 45.3191 121.242 45.2991 121.392 45.2791C122.172 45.1791 123.142 45.0391 123.942 45.8791C124.132 46.0791 124.122 46.3991 123.932 46.5891C123.832 46.6791 123.712 46.7291 123.582 46.7291L123.602 46.7191Z" fill="#808080"></path>
    <path d="M126.55 58.0576C126.55 58.0576 126.51 58.0576 126.49 58.0576C125.38 57.9176 124.43 57.4376 123.51 56.9676L123.02 56.7276C122.92 56.6776 122.62 56.4976 122.68 56.0776C122.66 55.8876 122.76 55.6976 122.93 55.5976C123.17 55.4576 123.48 55.5476 123.61 55.7876C123.63 55.8276 123.65 55.8776 123.66 55.9376L123.96 56.0876C124.84 56.5376 125.68 56.9576 126.62 57.0776C126.89 57.1076 127.09 57.3676 127.05 57.6376C127.02 57.8876 126.8 58.0776 126.55 58.0776V58.0576Z" fill="#808080"></path>
    <path d="M94.2325 80.3186C93.9925 80.3186 93.7825 80.1486 93.7425 79.9086C93.5925 79.0886 93.3825 78.4586 93.0725 77.9186C92.8425 77.5086 92.6425 77.0586 92.7625 76.5186C92.8225 76.2486 93.0925 76.0786 93.3625 76.1486C93.6325 76.2086 93.8025 76.4786 93.7325 76.7486C93.6825 76.9486 93.7725 77.1486 93.9325 77.4286C94.3025 78.0686 94.5525 78.7986 94.7225 79.7386C94.7725 80.0086 94.5925 80.2686 94.3225 80.3186C94.2925 80.3186 94.2625 80.3186 94.2325 80.3186Z" fill="#808080"></path>
    <path d="M121.271 56.2916C121.221 56.2916 121.161 56.2916 121.111 56.2616C120.231 55.9616 119.191 55.6616 118.121 55.7316C117.851 55.7516 117.611 55.5416 117.591 55.2716C117.571 54.9916 117.781 54.7616 118.051 54.7416C119.301 54.6516 120.471 54.9816 121.441 55.3216C121.701 55.4116 121.841 55.6916 121.751 55.9616C121.681 56.1716 121.481 56.3016 121.281 56.3016L121.271 56.2916Z" fill="#808080"></path>
    <path d="M83.3123 44.9379C83.2523 44.9379 83.1923 44.9279 83.1323 44.9079C82.8723 44.8079 82.7423 44.5179 82.8423 44.2579C82.8623 44.2079 82.8623 44.1079 82.8623 44.0079C82.8623 43.9079 82.8623 43.8079 82.8723 43.7079L82.9323 43.1579C82.9923 42.5279 83.0623 41.8779 83.2523 41.2279C83.3323 40.9679 83.6123 40.8079 83.8723 40.8879C84.1323 40.9679 84.2923 41.2479 84.2123 41.5079C84.0423 42.0579 83.9923 42.6379 83.9223 43.2479L83.8623 43.8079C83.8623 43.8679 83.8623 43.9279 83.8623 43.9979C83.8623 44.1679 83.8623 44.3779 83.7723 44.6079C83.6923 44.8079 83.5023 44.9279 83.3023 44.9279L83.3123 44.9379Z" fill="#808080"></path>
    <path d="M44.6796 78.7877C44.3996 78.7877 44.1796 78.5577 44.1896 78.2777C44.1896 77.9377 44.2096 77.5977 44.2196 77.2577C44.2396 76.5277 44.2696 75.7777 44.2396 75.0577C44.1796 73.5777 44.1196 72.0077 44.1296 70.4377C44.1296 70.0577 43.7596 65.1977 43.6296 64.6077C43.5096 64.0577 43.5496 63.5577 43.5996 63.0777C43.6196 62.8377 43.6496 62.5977 43.6396 62.3577C43.6396 62.1177 43.7396 61.9277 43.9496 61.7877C44.3196 61.4277 44.4696 60.9077 44.5796 60.4077C44.6396 60.1377 44.8996 59.9677 45.1696 60.0277C45.4396 60.0877 45.6096 60.3477 45.5496 60.6177C45.4196 61.2377 45.1996 61.9477 44.6296 62.5077C44.6296 62.7277 44.6096 62.9477 44.5796 63.1777C44.5396 63.5977 44.4996 64.0077 44.5896 64.3977C44.7596 65.1577 45.1196 70.2077 45.1196 70.4477C45.1196 71.9977 45.1696 73.5577 45.2296 75.0177C45.2596 75.7777 45.2296 76.5477 45.2096 77.2977C45.1996 77.6277 45.1896 77.9677 45.1796 78.2977C45.1796 78.5677 44.9496 78.7877 44.6796 78.7877Z" fill="#808080"></path>
    <path d="M44.0318 62.6069C43.9318 62.6069 43.8318 62.5769 43.7518 62.5269C43.5618 62.4069 43.1318 62.0469 43.3718 61.2869C43.4018 61.1869 43.4218 61.0869 43.4418 60.9869C43.4918 60.7369 43.5518 60.4569 43.7118 60.1869C43.8518 59.9469 44.1618 59.8769 44.4018 60.0169C44.6418 60.1569 44.7118 60.4669 44.5718 60.7069C44.5018 60.8269 44.4618 60.9969 44.4218 61.1869C44.3918 61.3169 44.3718 61.4569 44.3318 61.5769C44.3018 61.6769 44.3118 61.7169 44.3118 61.7169C44.5418 61.8669 44.6118 62.1469 44.4618 62.3869C44.3718 62.5369 44.2118 62.6069 44.0418 62.6069H44.0318Z" fill="#808080"></path>
    <path d="M119.01 71.8586C119.01 71.8586 118.95 71.8586 118.93 71.8586C118.66 71.8086 118.47 71.5586 118.52 71.2786C118.54 71.1486 118.57 71.0086 118.6 70.8786C118.66 70.5886 118.72 70.3186 118.7 70.0686C118.67 69.7986 118.87 69.5486 119.15 69.5186C119.43 69.4886 119.67 69.6886 119.7 69.9686C119.74 70.3786 119.66 70.7586 119.58 71.0986C119.55 71.2186 119.53 71.3286 119.51 71.4486C119.47 71.6886 119.26 71.8686 119.02 71.8686L119.01 71.8586Z" fill="#808080"></path>
    <path d="M102.479 95.6403C102.209 95.6403 101.979 95.4203 101.979 95.1503L101.949 92.7603C101.949 92.4803 102.169 92.2603 102.439 92.2503C102.719 92.2403 102.939 92.4703 102.949 92.7403L102.979 95.1303C102.979 95.4103 102.759 95.6303 102.489 95.6403H102.479Z" fill="#808080"></path>
    <path d="M19.8513 37.2087C19.5813 37.2087 19.3513 36.9887 19.3513 36.7087C19.3513 36.4687 19.3513 36.2287 19.3613 35.9887C19.3813 35.4387 19.3913 34.9187 19.3013 34.4087C19.2513 34.1387 19.4313 33.8787 19.7013 33.8287C19.9713 33.7787 20.2313 33.9587 20.2813 34.2287C20.3913 34.8387 20.3813 35.4387 20.3613 36.0187C20.3613 36.2487 20.3513 36.4787 20.3513 36.7087C20.3513 36.9887 20.1313 37.2087 19.8513 37.2087Z" fill="#808080"></path>
    <path d="M143.289 95.7078C143.009 95.7078 142.789 95.4878 142.789 95.2078V92.7578C142.789 92.4778 143.009 92.2578 143.289 92.2578C143.569 92.2578 143.789 92.4778 143.789 92.7578V95.2078C143.789 95.4878 143.569 95.7078 143.289 95.7078Z" fill="#808080"></path>
    <path d="M150.079 87.7409C149.909 87.7409 149.729 87.7409 149.559 87.7409C149.239 87.7409 148.929 87.7209 148.609 87.7409C148.339 87.7609 148.089 87.5509 148.079 87.2809C148.059 87.0009 148.269 86.7709 148.539 86.7509C148.889 86.7309 149.239 86.7309 149.589 86.7509C150.049 86.7609 150.469 86.7709 150.889 86.7009C151.159 86.6609 151.419 86.8409 151.459 87.1109C151.499 87.3809 151.319 87.6409 151.049 87.6809C150.719 87.7309 150.399 87.7509 150.079 87.7509V87.7409Z" fill="#808080"></path>
    <path d="M118.582 37.205C118.302 37.205 118.082 36.985 118.082 36.705V34.375C118.082 34.095 118.302 33.875 118.582 33.875C118.862 33.875 119.082 34.095 119.082 34.375V36.705C119.082 36.985 118.862 37.205 118.582 37.205Z" fill="#808080"></path>
    <path d="M11.7909 65.1217C11.7909 65.1217 11.7309 65.1217 11.7009 65.1217C11.3109 65.0517 10.9109 65.0616 10.4809 65.0716C10.1509 65.0716 9.81091 65.0916 9.48091 65.0716C9.20091 65.0516 9.00091 64.8116 9.02091 64.5316C9.04091 64.2616 9.27091 64.0516 9.56091 64.0716C9.86091 64.0916 10.1609 64.0816 10.4509 64.0716C10.9109 64.0616 11.3809 64.0416 11.8709 64.1316C12.1409 64.1816 12.3209 64.4416 12.2709 64.7116C12.2309 64.9516 12.0209 65.1217 11.7809 65.1217H11.7909Z" fill="#808080"></path>
    <path d="M150.912 42.4922H148.582C148.302 42.4922 148.082 42.2722 148.082 41.9922C148.082 41.7122 148.302 41.4922 148.582 41.4922H150.912C151.192 41.4922 151.412 41.7122 151.412 41.9922C151.412 42.2722 151.192 42.4922 150.912 42.4922Z" fill="#808080"></path>
    <path d="M122.56 38.0109C122.56 38.0109 122.46 38.0109 122.41 37.9909C122.15 37.9109 122 37.6309 122.08 37.3609C122.34 36.5509 122.76 35.8609 123.32 35.0809C123.46 34.8909 123.66 34.8509 123.74 34.8309C124 34.7409 124.29 34.8909 124.37 35.1509C124.46 35.4109 124.32 35.6909 124.06 35.7809C124.06 35.7809 124.05 35.7809 124.04 35.7809C123.58 36.4309 123.23 37.0109 123.03 37.6609C122.96 37.8709 122.77 38.0109 122.55 38.0109H122.56Z" fill="#808080"></path>
    <path d="M11.7295 80.625H9.51953C9.23953 80.625 9.01953 80.405 9.01953 80.125C9.01953 79.845 9.23953 79.625 9.51953 79.625H11.7295C12.0095 79.625 12.2295 79.845 12.2295 80.125C12.2295 80.405 12.0095 80.625 11.7295 80.625Z" fill="#808080"></path>
    <path d="M145.932 40.5267C145.852 40.5267 145.762 40.5067 145.682 40.4567C145.442 40.3167 145.362 40.0167 145.502 39.7767L146.672 37.7567C146.812 37.5167 147.112 37.4367 147.352 37.5767C147.592 37.7167 147.672 38.0167 147.532 38.2567L146.362 40.2767C146.272 40.4367 146.102 40.5267 145.932 40.5267Z" fill="#808080"></path>
    <path d="M7.64094 54.4453V55.6253H5.31094V57.8653H7.64094V59.0453H1.71094V57.8653H4.27094V55.6253H1.71094V54.4453H7.64094Z" fill="#878787"></path>
    <path d="M3.14094 62.4753V59.9453H3.95094L7.48094 62.1553V63.5753H4.05094V64.2753H3.15094V63.5753H1.71094V62.4753H3.14094ZM4.04094 62.4753H5.19094C5.53094 62.4753 6.08094 62.4953 6.42094 62.5153V62.4853C6.11094 62.3453 5.81094 62.1853 5.49094 62.0153L4.03094 61.0953V62.4753H4.04094Z" fill="#878787"></path>
    <path d="M4.62156 64.8438C6.57156 64.8438 7.59156 65.6338 7.59156 66.8538C7.59156 68.0738 6.57156 68.8538 4.62156 68.8538C2.67156 68.8538 1.60156 68.0738 1.60156 66.8538C1.60156 65.6338 2.66156 64.8438 4.62156 64.8438ZM4.62156 67.7337C6.22156 67.7337 6.67156 67.3537 6.67156 66.8438C6.67156 66.3338 6.22156 65.9437 4.62156 65.9437C3.02156 65.9437 2.52156 66.3238 2.52156 66.8438C2.52156 67.3637 3.02156 67.7337 4.62156 67.7337Z" fill="#878787"></path>
    <path d="M3.95156 69.5547C5.44156 69.5547 6.30156 70.6247 6.30156 71.8447C6.30156 72.3947 6.08156 72.8247 5.80156 73.1447L5.04156 72.5847C5.23156 72.3647 5.34156 72.1547 5.34156 71.9047C5.34156 71.2147 4.79156 70.7547 3.95156 70.7547C3.11156 70.7547 2.56156 71.2247 2.56156 71.8647C2.56156 72.1847 2.71156 72.4847 2.92156 72.7347L2.14156 73.2047C1.76156 72.7747 1.60156 72.2247 1.60156 71.7347C1.60156 70.4947 2.46156 69.5547 3.95156 69.5547Z" fill="#878787"></path>
    <path d="M6.19094 74.0491V75.0091L5.59094 75.0991V75.1191C5.98094 75.4991 6.30094 75.9091 6.30094 76.4991C6.30094 77.1391 6.01094 77.5191 5.52094 77.7291C5.95094 78.1391 6.30094 78.5691 6.30094 79.1491C6.30094 80.0991 5.63094 80.5391 4.50094 80.5391H1.71094V79.3591H4.36094C5.06094 79.3591 5.30094 79.1591 5.30094 78.7391C5.30094 78.4791 5.13094 78.1991 4.80094 77.8791H1.71094V76.7091H4.36094C5.06094 76.7091 5.30094 76.4991 5.30094 76.0791C5.30094 75.8191 5.13094 75.5391 4.80094 75.2191H1.71094V74.0391H6.19094V74.0491Z" fill="#878787"></path>
    <path d="M162.634 47.6641V49.2941H159.424V52.3741H162.634V53.9941H154.484V52.3741H158.004V49.2941H154.484V47.6641H162.634Z" fill="#878787"></path>
    <path d="M156.503 55.5078C157.483 55.5078 158.113 56.1578 158.503 56.9078H158.542C158.992 56.2878 159.573 55.8278 160.413 55.8278C161.723 55.8278 162.562 56.8678 162.562 58.2778C162.562 59.6878 161.702 60.6478 160.402 60.6478C159.622 60.6478 158.982 60.1178 158.622 59.6078H158.562C158.142 60.3478 157.563 60.9678 156.493 60.9678C155.263 60.9678 154.312 59.8778 154.312 58.2278C154.312 56.6778 155.213 55.5078 156.493 55.5078H156.503ZM156.562 59.4578C157.352 59.4578 157.643 58.6978 158.073 57.6578C157.733 57.2278 157.242 56.9078 156.682 56.9078C155.942 56.9078 155.473 57.5078 155.473 58.2678C155.473 58.9578 155.862 59.4578 156.562 59.4578ZM160.303 59.3278C160.963 59.3278 161.423 58.9278 161.423 58.2478C161.423 57.6978 161.073 57.2578 160.423 57.2578C159.693 57.2578 159.353 57.8978 159.023 58.7378C159.423 59.1078 159.853 59.3178 160.303 59.3178V59.3278Z" fill="#878787"></path>
    <path d="M158.484 61.9531C161.164 61.9531 162.564 63.0431 162.564 64.7131C162.564 66.3831 161.154 67.4631 158.484 67.4631C155.814 67.4631 154.324 66.3831 154.324 64.7131C154.324 63.0431 155.784 61.9531 158.484 61.9531ZM158.484 65.9331C160.684 65.9331 161.304 65.4131 161.304 64.7131C161.304 64.0131 160.684 63.4831 158.484 63.4831C156.284 63.4831 155.594 64.0131 155.594 64.7131C155.594 65.4131 156.274 65.9331 158.484 65.9331Z" fill="#878787"></path>
    <path d="M157.554 68.4375C159.604 68.4375 160.784 69.9075 160.784 71.5875C160.784 72.3475 160.484 72.9275 160.104 73.3775L159.064 72.6075C159.324 72.2975 159.474 72.0175 159.474 71.6675C159.474 70.7175 158.714 70.0875 157.564 70.0875C156.414 70.0875 155.654 70.7375 155.654 71.6175C155.654 72.0575 155.864 72.4775 156.144 72.8175L155.074 73.4675C154.554 72.8775 154.324 72.1275 154.324 71.4475C154.324 69.7375 155.514 68.4475 157.554 68.4475V68.4375Z" fill="#878787"></path>
    <path d="M160.643 74.6159V75.9359L159.813 76.0559V76.0859C160.353 76.6059 160.793 77.1759 160.793 77.9759C160.793 78.8559 160.393 79.3759 159.713 79.6659C160.303 80.2259 160.793 80.8259 160.793 81.6259C160.793 82.9359 159.873 83.5359 158.313 83.5359H154.473V81.9159H158.113C159.073 81.9159 159.403 81.6459 159.403 81.0559C159.403 80.7059 159.173 80.3059 158.713 79.8659H154.473V78.2559H158.113C159.073 78.2559 159.403 77.9659 159.403 77.3859C159.403 77.0359 159.173 76.6359 158.713 76.2059H154.473V74.5859H160.633L160.643 74.6159Z" fill="#878787"></path>
    <path d="M50.332 23.0078H51.832L52.422 26.6278C52.532 27.4078 52.652 28.1878 52.762 28.9878H52.802C52.952 28.1878 53.112 27.3978 53.272 26.6278L54.132 23.0078H55.402L56.252 26.6278C56.412 27.3878 56.562 28.1878 56.722 28.9878H56.772C56.882 28.1878 56.992 27.3978 57.102 26.6278L57.692 23.0078H59.092L57.722 30.4178H55.882L55.052 26.7578C54.932 26.1778 54.822 25.6078 54.732 25.0378H54.692C54.592 25.6078 54.492 26.1778 54.372 26.7578L53.562 30.4178H51.752L50.332 23.0078Z" fill="#878787"></path>
    <path d="M59.7223 29.5703C61.6523 27.7303 62.9223 26.4703 62.9223 25.4003C62.9223 24.6703 62.5223 24.2303 61.8123 24.2303C61.2723 24.2303 60.8323 24.5903 60.4523 25.0003L59.6523 24.2003C60.3323 23.4703 60.9923 23.0703 62.0023 23.0703C63.4023 23.0703 64.3323 23.9603 64.3323 25.3203C64.3323 26.5803 63.1723 27.8803 61.8523 29.2603C62.2223 29.2203 62.7123 29.1803 63.0623 29.1803H64.6823V30.4203H59.7223V29.5703Z" fill="#878787"></path>
    <path d="M65.4414 29.5303L66.1314 28.6003C66.5714 29.0303 67.1114 29.3603 67.7814 29.3603C68.5314 29.3603 69.0414 29.0003 69.0414 28.3803C69.0414 27.6803 68.6114 27.2503 67.0014 27.2503V26.1903C68.3614 26.1903 68.8014 25.7403 68.8014 25.1203C68.8014 24.5603 68.4414 24.2303 67.8114 24.2303C67.2814 24.2303 66.8514 24.4803 66.4114 24.8903L65.6614 23.9903C66.3014 23.4303 67.0114 23.0703 67.8814 23.0703C69.3114 23.0703 70.2814 23.7703 70.2814 25.0103C70.2814 25.7903 69.8214 26.3303 69.0514 26.6403V26.6903C69.8814 26.9103 70.5214 27.5203 70.5214 28.4703C70.5214 29.7903 69.3314 30.5603 67.9214 30.5603C66.7514 30.5603 65.9614 30.1203 65.4414 29.5303Z" fill="#878787"></path>
    <path d="M71.332 29.5509L72.012 28.6109C72.432 29.0209 72.952 29.3609 73.642 29.3609C74.412 29.3609 74.952 28.9109 74.952 28.1009C74.952 27.2909 74.452 26.8509 73.702 26.8509C73.262 26.8509 73.022 26.9609 72.592 27.2409L71.922 26.8109L72.122 23.2109H76.082V24.4409H73.392L73.252 26.0109C73.552 25.8809 73.802 25.8109 74.142 25.8109C75.382 25.8109 76.422 26.5109 76.422 28.0509C76.422 29.5909 75.202 30.5609 73.832 30.5609C72.662 30.5609 71.882 30.1009 71.332 29.5509Z" fill="#878787"></path>
    <path d="M77.4023 27.6197C77.4023 25.7597 78.7423 24.6797 80.2623 24.6797C80.9523 24.6797 81.4823 24.9497 81.8923 25.2997L81.1923 26.2497C80.9123 26.0097 80.6523 25.8797 80.3423 25.8797C79.4823 25.8797 78.9023 26.5697 78.9023 27.6197C78.9023 28.6697 79.4923 29.3597 80.2923 29.3597C80.6923 29.3597 81.0723 29.1697 81.3823 28.9097L81.9723 29.8797C81.4323 30.3497 80.7523 30.5597 80.1323 30.5597C78.5823 30.5597 77.4023 29.4797 77.4023 27.6197Z" fill="#878787"></path>
    <path d="M83.0234 24.8197H84.2234L84.3334 25.5697H84.3634C84.8334 25.0797 85.3534 24.6797 86.0834 24.6797C86.8834 24.6797 87.3534 25.0397 87.6234 25.6597C88.1334 25.1197 88.6734 24.6797 89.4034 24.6797C90.5934 24.6797 91.1434 25.5197 91.1434 26.9297V30.4197H89.6734V27.1097C89.6734 26.2397 89.4234 25.9397 88.8934 25.9397C88.5734 25.9397 88.2134 26.1497 87.8134 26.5697V30.4197H86.3534V27.1097C86.3534 26.2397 86.0934 25.9397 85.5634 25.9397C85.2434 25.9397 84.8834 26.1497 84.4934 26.5697V30.4197H83.0234V24.8197Z" fill="#878787"></path>
    <path d="M122.441 24.7812H124.061C125.871 24.7812 126.991 25.7212 126.991 27.7212C126.991 29.7212 125.871 30.7013 124.131 30.7013H122.441V24.7812ZM123.991 29.7512C125.091 29.7512 125.781 29.1612 125.781 27.7212C125.781 26.2812 125.091 25.7312 123.991 25.7312H123.621V29.7512H123.991Z" fill="#878787"></path>
    <path d="M128.082 29.7497H129.352V26.1597H128.282V25.4297C128.872 25.3197 129.282 25.1697 129.662 24.9297H130.532V29.7397H131.642V30.6897H128.082V29.7397V29.7497Z" fill="#878787"></path>
    <path d="M135.203 25.9175H132.543V24.9375H136.473V25.6575C135.133 27.2975 134.913 28.4575 134.813 30.7075H133.623C133.723 28.7175 134.093 27.4575 135.193 25.9275L135.203 25.9175Z" fill="#878787"></path>
    <path d="M137.061 30.0075L137.601 29.2575C137.941 29.5875 138.351 29.8575 138.901 29.8575C139.521 29.8575 139.951 29.4975 139.951 28.8475C139.951 28.1975 139.551 27.8475 138.951 27.8475C138.601 27.8475 138.411 27.9375 138.061 28.1575L137.521 27.8175L137.681 24.9375H140.851V25.9175H138.701L138.591 27.1775C138.831 27.0775 139.031 27.0175 139.301 27.0175C140.291 27.0175 141.121 27.5775 141.121 28.8075C141.121 30.0375 140.141 30.8175 139.051 30.8175C138.111 30.8175 137.491 30.4475 137.051 30.0075H137.061Z" fill="#878787"></path>
    <path d="M141.91 28.475C141.91 26.985 142.98 26.125 144.2 26.125C144.75 26.125 145.18 26.345 145.5 26.625L144.94 27.385C144.72 27.195 144.51 27.085 144.26 27.085C143.57 27.085 143.11 27.635 143.11 28.475C143.11 29.315 143.58 29.865 144.22 29.865C144.54 29.865 144.84 29.715 145.09 29.505L145.56 30.285C145.13 30.665 144.58 30.825 144.09 30.825C142.85 30.825 141.91 29.965 141.91 28.475Z" fill="#878787"></path>
    <path d="M146.412 26.235H147.372L147.462 26.835H147.482C147.862 26.445 148.272 26.125 148.862 26.125C149.502 26.125 149.882 26.415 150.092 26.905C150.502 26.475 150.932 26.125 151.512 26.125C152.462 26.125 152.902 26.795 152.902 27.925V30.715H151.722V28.065C151.722 27.365 151.522 27.125 151.102 27.125C150.842 27.125 150.562 27.295 150.242 27.625V30.705H149.072V28.055C149.072 27.355 148.862 27.115 148.442 27.115C148.182 27.115 147.902 27.285 147.582 27.615V30.695H146.402V26.215L146.412 26.235Z" fill="#878787"></path>
    <path d="M105.062 103.797H107.293C109.783 103.797 111.323 105.097 111.323 107.847C111.323 110.597 109.782 111.947 107.382 111.947H105.062V103.797ZM107.193 110.637C108.713 110.637 109.653 109.827 109.653 107.847C109.653 105.867 108.703 105.107 107.193 105.107H106.683V110.637H107.193Z" fill="#878787"></path>
    <path d="M112.432 109.927C112.432 108.947 113.082 108.317 113.832 107.927V107.887C113.212 107.437 112.752 106.857 112.752 106.017C112.752 104.707 113.802 103.867 115.202 103.867C116.602 103.867 117.572 104.727 117.572 106.027C117.572 106.807 117.042 107.447 116.522 107.807V107.867C117.262 108.287 117.882 108.867 117.882 109.937C117.882 111.167 116.792 112.117 115.142 112.117C113.592 112.117 112.422 111.217 112.422 109.937L112.432 109.927ZM116.382 109.867C116.382 109.077 115.622 108.787 114.582 108.357C114.152 108.697 113.832 109.177 113.832 109.747C113.832 110.487 114.432 110.957 115.192 110.957C115.882 110.957 116.382 110.567 116.382 109.867ZM116.252 106.127C116.252 105.467 115.852 105.007 115.172 105.007C114.622 105.007 114.182 105.357 114.182 106.007C114.182 106.737 114.822 107.077 115.672 107.407C116.042 107.007 116.252 106.577 116.252 106.127Z" fill="#878787"></path>
    <path d="M118.883 107.947C118.883 105.267 119.973 103.867 121.643 103.867C123.313 103.867 124.393 105.277 124.393 107.947C124.393 110.617 123.313 112.107 121.643 112.107C119.973 112.107 118.883 110.647 118.883 107.947ZM122.863 107.947C122.863 105.747 122.343 105.127 121.643 105.127C120.943 105.127 120.413 105.747 120.413 107.947C120.413 110.147 120.943 110.837 121.643 110.837C122.343 110.837 122.863 110.157 122.863 107.947Z" fill="#878787"></path>
    <path d="M125.363 108.871C125.363 106.821 126.833 105.641 128.513 105.641C129.273 105.641 129.853 105.941 130.303 106.321L129.533 107.371C129.223 107.111 128.943 106.961 128.593 106.961C127.643 106.961 127.013 107.721 127.013 108.871C127.013 110.021 127.663 110.781 128.543 110.781C128.983 110.781 129.403 110.571 129.743 110.291L130.393 111.361C129.803 111.881 129.053 112.111 128.373 112.111C126.663 112.111 125.373 110.921 125.373 108.881L125.363 108.871Z" fill="#878787"></path>
    <path d="M131.542 105.791H132.862L132.982 106.621H133.012C133.532 106.081 134.102 105.641 134.902 105.641C135.782 105.641 136.302 106.041 136.592 106.721C137.152 106.131 137.742 105.641 138.552 105.641C139.862 105.641 140.462 106.561 140.462 108.121V111.961H138.842V108.321C138.842 107.361 138.562 107.031 137.982 107.031C137.632 107.031 137.232 107.261 136.792 107.721V111.961H135.182V108.321C135.182 107.361 134.892 107.031 134.312 107.031C133.962 107.031 133.562 107.261 133.132 107.721V111.961H131.512V105.801L131.542 105.791Z" fill="#878787"></path>
  </g>
  <defs>
    <clipPath id="clip0_5447_93390">
      <rect width="165" height="124" fill="white" transform="translate(0.5)"></rect>
    </clipPath>
  </defs>
</svg>
