<?xml version="1.0" encoding="UTF-8"?>
<svg xmlns="http://www.w3.org/2000/svg" width="166" height="124" viewBox="0 0 166 124" fill="none">
  <g clip-path="url(#clip0_5447_94679)">
    <path d="M44.1585 87.8449C44.0385 87.8449 43.9185 87.8149 43.8085 87.7549C43.5985 87.6349 43.3685 87.5549 43.1085 87.4649C42.7485 87.3449 42.3385 87.2049 41.9685 86.9249C41.2685 86.4149 40.4785 85.8349 39.5485 85.5549C38.2085 85.1549 36.8585 84.5049 35.4085 83.5649C33.1985 82.1349 31.1585 80.9449 29.1585 79.9349C27.8185 79.2549 26.1685 78.2249 25.3285 76.2849C25.0285 75.5949 24.7285 74.8949 24.5885 74.1049C24.4185 73.0849 24.3385 71.9649 24.3385 70.6049C24.3385 70.0149 24.2785 69.4349 24.1685 68.8849C24.0885 68.5049 23.9885 68.1249 23.8885 67.7449C23.7685 67.2749 23.6385 66.8049 23.5585 66.3349C23.0785 63.6249 22.8485 61.5549 22.8385 59.5949C22.8085 55.5049 22.8085 51.4149 22.8185 47.3249C22.8185 45.3049 22.8185 43.2849 22.8185 41.2649C22.8185 40.9249 22.8685 40.5649 22.9585 40.1449C23.1385 39.4049 23.7085 39.0349 24.5485 39.1149L24.7985 39.1449C25.1885 39.1849 25.5785 39.2249 25.9785 39.2349C26.8885 39.2449 27.7585 39.1149 28.6985 38.9849C29.0285 38.9349 29.3585 38.8949 29.6885 38.8449C31.8985 38.5749 33.7885 38.1449 35.4685 37.5449L35.7385 37.4449C36.6785 37.1049 37.6385 36.7649 38.7085 36.7749C40.4085 36.8049 42.2585 36.6749 44.5285 36.3649C45.2185 36.2749 45.8885 36.0749 46.5885 35.8649C47.1485 35.6949 47.7285 35.5249 48.3185 35.4049C48.6485 35.3349 49.3085 35.2049 49.5485 36.0049C49.5485 36.0249 49.6085 36.0949 49.6485 36.1349C49.6885 36.1849 49.7285 36.2249 49.7585 36.2749L49.8885 36.4449C50.4285 37.1649 50.9785 37.9149 51.1785 38.9349C51.2385 39.2649 51.2885 39.6049 51.3385 39.9449C51.3885 40.3149 51.4385 40.6849 51.5185 41.0449C51.6485 41.6649 51.7385 42.3049 51.8185 42.9149C51.8685 43.2449 51.9085 43.5749 51.9585 43.9049C52.1285 44.9849 52.1185 46.0649 52.1085 47.1149C52.0985 48.0449 52.0885 49.0049 52.2085 49.9249C52.2485 50.2449 52.2685 50.5749 52.2885 50.9049C52.3185 51.3949 52.3485 51.8549 52.4485 52.2849L52.4985 52.4749C52.9685 54.4049 53.4185 56.2249 54.4785 57.8549C55.2885 59.0949 56.4385 59.9349 57.9885 60.4049C58.5385 60.5749 59.1185 60.6349 59.7285 60.6949C60.1385 60.7349 60.5385 60.7749 60.9385 60.8549C62.4785 61.1349 64.0285 61.3749 65.5785 61.6249L65.9885 61.6849C66.9885 61.8449 67.9485 62.2249 68.8385 62.8349C69.6085 63.3549 70.0885 64.1449 70.2385 65.1049C70.3585 65.9049 70.3585 66.7049 70.3585 67.4749C70.3585 67.7249 70.3585 67.9749 70.3585 68.2349C70.3585 68.5549 70.2885 68.8549 70.1185 69.1849C69.9885 69.4249 69.6885 69.5249 69.4485 69.3949C69.1985 69.2649 69.1085 68.9649 69.2385 68.7249C69.3285 68.5449 69.3685 68.4049 69.3685 68.2549C69.3685 67.9949 69.3685 67.7449 69.3685 67.4849C69.3685 66.7149 69.3685 65.9849 69.2585 65.2549C69.1585 64.5649 68.8285 64.0249 68.2885 63.6549C67.5185 63.1249 66.6985 62.7949 65.8485 62.6649L65.4385 62.6049C63.9085 62.3649 62.3185 62.1249 60.7685 61.8349C60.3885 61.7649 60.0085 61.7249 59.6285 61.6849C58.9985 61.6249 58.3485 61.5549 57.6985 61.3549C55.9085 60.8049 54.5885 59.8349 53.6485 58.3849C52.4985 56.6149 52.0085 54.6249 51.5385 52.6949L51.4885 52.5049C51.3585 51.9849 51.3285 51.4549 51.2985 50.9449C51.2785 50.6449 51.2585 50.3349 51.2185 50.0349C51.0885 49.0449 51.0985 48.0449 51.1085 47.0849C51.1185 46.0349 51.1285 45.0349 50.9685 44.0449C50.9185 43.7049 50.8685 43.3649 50.8185 43.0249C50.7385 42.4349 50.6585 41.8249 50.5285 41.2349C50.4485 40.8449 50.3885 40.4549 50.3385 40.0549C50.2985 39.7349 50.2485 39.4149 50.1885 39.0949C50.0385 38.2949 49.5685 37.6749 49.0785 37.0049L48.8785 36.7349C48.7985 36.6349 48.6885 36.5049 48.6185 36.3249C48.5985 36.3249 48.5785 36.3249 48.5685 36.3349C47.9685 36.4549 47.4385 36.6149 46.8785 36.7749C46.1685 36.9849 45.4385 37.2049 44.6685 37.3149C42.3585 37.6349 40.4585 37.7649 38.6985 37.7349C37.8185 37.7249 36.9785 38.0249 36.0785 38.3449L35.8085 38.4449C34.0585 39.0749 32.0985 39.5149 29.8185 39.7949C29.4985 39.8349 29.1685 39.8849 28.8485 39.9249C27.9185 40.0549 26.9585 40.2049 25.9885 40.1849C25.5685 40.1849 25.1385 40.1349 24.7185 40.0949L24.4685 40.0649C24.0185 40.0149 23.9885 40.1749 23.9485 40.3349C23.8685 40.6749 23.8285 40.9549 23.8285 41.2149C23.8285 43.2349 23.8285 45.2549 23.8285 47.2749C23.8285 51.3649 23.8285 55.4449 23.8485 59.5349C23.8585 61.4249 24.0785 63.4549 24.5585 66.1049C24.6385 66.5449 24.7585 66.9949 24.8685 67.4349C24.9785 67.8349 25.0785 68.2349 25.1585 68.6349C25.2785 69.2449 25.3485 69.8949 25.3485 70.5549C25.3485 71.8649 25.4285 72.9149 25.5885 73.8849C25.6985 74.5549 25.9685 75.1749 26.2585 75.8349C26.9785 77.4849 28.4385 78.3949 29.6285 78.9949C31.6585 80.0249 33.7385 81.2249 35.9685 82.6849C37.3285 83.5749 38.5985 84.1849 39.8485 84.5549C40.9485 84.8849 41.8485 85.5449 42.5785 86.0749C42.8285 86.2649 43.1285 86.3649 43.4585 86.4749C43.6685 86.5449 43.8785 86.6149 44.0885 86.7149C44.8885 84.8649 45.1985 83.3749 45.1085 81.8949C45.0385 80.7649 45.1085 79.6249 45.1885 78.5349C45.2085 78.2049 45.2385 77.8749 45.2485 77.5449C45.2785 77.0549 45.2885 76.5749 45.3085 76.0849C45.3385 75.2649 45.3685 74.4149 45.4485 73.5749C45.4885 73.1249 45.2585 72.7049 44.9985 72.3149C44.9085 72.1849 44.8285 72.1649 44.7285 72.1749C44.4585 72.2149 44.1985 72.0249 44.1685 71.7449C44.1285 71.4749 44.3185 71.2149 44.5985 71.1749C45.1085 71.1049 45.5585 71.3149 45.8485 71.7549C46.1885 72.2749 46.5285 72.9049 46.4585 73.6649C46.3785 74.4749 46.3485 75.3049 46.3185 76.1149C46.2985 76.6049 46.2785 77.1049 46.2585 77.5949C46.2385 77.9349 46.2185 78.2649 46.1885 78.6049C46.1185 79.6649 46.0385 80.7649 46.1085 81.8349C46.2185 83.5249 45.8585 85.1949 44.9485 87.2549C44.8385 87.5049 44.6385 87.6949 44.4185 87.7649C44.3385 87.7949 44.2685 87.8049 44.1885 87.8049L44.1585 87.8449Z" fill="#808080"></path>
    <path d="M21.1891 35.175C20.9591 35.175 20.7491 35.015 20.6991 34.775C20.6391 34.505 20.8191 34.235 21.0891 34.185C21.3191 34.135 21.5491 34.105 21.7891 34.085C21.9591 34.065 22.1191 34.045 22.2891 34.015C23.1791 33.855 24.0791 33.715 24.9691 33.565C25.9991 33.395 27.0291 33.225 28.0591 33.045C30.5091 32.605 32.9091 32.235 34.7391 31.965C35.7391 31.815 36.7391 31.645 37.7391 31.485C38.6391 31.335 39.5391 31.185 40.4391 31.045C41.6091 30.865 42.7791 30.665 43.9491 30.465C44.6591 30.345 45.3691 30.225 46.0891 30.105C46.7891 29.985 47.4991 29.875 48.1991 29.775C49.4591 29.575 50.7191 29.385 51.9791 29.155C52.9791 28.975 53.9791 28.805 54.9791 28.635C55.7291 28.515 56.4791 28.385 57.2291 28.255C58.1591 28.095 59.0991 27.955 60.0291 27.815L62.1891 27.485C63.4191 27.295 64.6591 27.095 65.8891 26.895C66.4891 26.795 67.0891 26.695 67.6991 26.585C68.6091 26.425 69.5191 26.275 70.4391 26.135C70.9891 26.055 71.5391 25.955 72.0891 25.865C72.9291 25.725 73.7791 25.575 74.6291 25.465C76.5091 25.225 78.3991 24.885 80.0191 24.595C80.3191 24.545 80.6191 24.495 80.9291 24.455C81.5791 24.365 82.1891 24.285 82.7591 24.065C83.0191 23.965 83.3091 24.095 83.4091 24.355C83.5091 24.615 83.3791 24.905 83.1191 25.005C82.4391 25.265 81.7391 25.355 81.0591 25.455C80.7691 25.495 80.4791 25.535 80.1991 25.585C78.5691 25.885 76.6591 26.225 74.7591 26.465C73.9191 26.575 73.0891 26.715 72.2691 26.855C71.7091 26.955 71.1591 27.045 70.5991 27.135C69.6891 27.275 68.7891 27.425 67.8791 27.585C67.2791 27.685 66.6691 27.795 66.0691 27.895C64.8291 28.095 63.5991 28.295 62.3591 28.485L60.1891 28.815C59.2591 28.955 58.3391 29.095 57.4091 29.255C56.6591 29.385 55.9091 29.515 55.1491 29.635C54.1591 29.805 53.1591 29.965 52.1691 30.145C50.8991 30.375 49.6291 30.575 48.3591 30.775C47.6591 30.885 46.9591 30.995 46.2591 31.105C45.5491 31.225 44.8391 31.345 44.1291 31.465C42.9491 31.665 41.7791 31.865 40.5991 32.045C39.6991 32.185 38.8091 32.335 37.9091 32.485C36.8991 32.655 35.8991 32.815 34.8891 32.965C33.0691 33.235 30.6791 33.605 28.2391 34.045C27.2091 34.235 26.1691 34.405 25.1391 34.575C24.2491 34.725 23.3591 34.865 22.4691 35.025C22.2791 35.055 22.0991 35.075 21.9091 35.105C21.7091 35.125 21.4991 35.155 21.2991 35.195C21.2691 35.195 21.2291 35.205 21.1991 35.205L21.1891 35.175Z" fill="#808080"></path>
    <path d="M119.04 88.9356C119.04 88.9356 119.01 88.9356 119 88.9356C118.09 88.8656 117.26 88.7056 116.47 88.4356C114.66 87.8356 113.08 87.2655 111.66 86.6955C110.8 86.3455 109.94 86.0156 109.08 85.6856C108.17 85.3356 107.27 84.9856 106.37 84.6156L105.27 84.1656C104.58 83.8856 103.89 83.5956 103.19 83.3256C102.9 83.2056 102.6 83.1056 102.3 82.9956C101.77 82.8056 101.22 82.6056 100.69 82.3556C100.07 82.0556 99.4398 81.7656 98.8098 81.4656C97.8098 80.9956 96.8198 80.5356 95.8298 80.0456C93.6498 78.9656 91.3098 78.2556 88.6898 77.5056C87.1398 77.0656 85.4398 76.6656 83.4898 76.2856L83.0698 76.1955C82.6498 76.1055 82.2498 76.0256 81.8598 76.0056C79.8198 75.9056 77.8998 76.4656 76.4398 76.9656L76.1098 77.0756C74.9798 77.4656 73.8198 77.8656 72.5698 78.0056L72.0898 78.0556C71.1798 78.1556 70.3298 78.2456 69.5298 78.5956C68.7498 78.9456 68.1498 79.1456 67.5898 79.2456C66.5898 79.4256 65.7198 79.8755 64.7598 80.6955C64.2998 81.0855 63.7298 81.3856 63.0198 81.6356C62.5398 81.7956 62.0598 81.9256 61.5798 82.0456C60.8998 82.2256 60.2498 82.3856 59.6298 82.6556C59.1798 82.8456 58.7598 83.0956 58.3098 83.3556C57.9998 83.5356 57.6898 83.7156 57.3698 83.8856C56.1398 84.5056 54.8498 85.0456 53.4298 85.5356C52.7498 85.7656 52.0798 86.0256 51.4098 86.2856C49.8298 86.8956 48.1998 87.5356 46.4398 87.7655C46.3198 87.7856 46.1998 87.8056 46.0798 87.8256C45.5498 87.9256 44.8798 88.0456 44.2298 87.6456C43.9898 87.5056 43.9198 87.1956 44.0598 86.9556C44.1998 86.7156 44.5098 86.6456 44.7498 86.7856C45.0598 86.9756 45.3898 86.9255 45.8998 86.8355C46.0398 86.8155 46.1698 86.7856 46.3098 86.7655C47.9498 86.5455 49.4598 85.9656 51.0498 85.3456C51.7298 85.0756 52.4198 84.8156 53.1098 84.5756C54.4898 84.1056 55.7398 83.5856 56.9198 82.9856C57.2198 82.8356 57.5198 82.6556 57.8098 82.4856C58.2598 82.2156 58.7298 81.9456 59.2398 81.7256C59.9298 81.4356 60.6398 81.2456 61.3298 81.0656C61.7898 80.9456 62.2498 80.8256 62.7098 80.6756C63.3098 80.4756 63.7598 80.2356 64.1298 79.9256C65.2198 79.0056 66.2698 78.4756 67.4298 78.2556C67.9098 78.1656 68.4398 77.9856 69.1498 77.6756C70.0898 77.2556 71.0598 77.1556 72.0098 77.0556L72.4798 77.0056C73.6198 76.8756 74.6798 76.5056 75.8098 76.1156L76.1398 76.0056C77.6798 75.4856 79.7198 74.8956 81.9198 74.9956C82.3998 75.0156 82.8498 75.1156 83.2898 75.2056L83.6998 75.2856C85.6798 75.6756 87.4098 76.0756 88.9798 76.5256C91.6498 77.2856 94.0398 78.0056 96.2898 79.1356C97.2698 79.6256 98.2598 80.0856 99.2498 80.5456C99.8798 80.8356 100.51 81.1356 101.14 81.4356C101.62 81.6656 102.12 81.8456 102.65 82.0356C102.96 82.1456 103.27 82.2555 103.58 82.3755C104.28 82.6556 104.97 82.9356 105.67 83.2256L106.77 83.6756C107.67 84.0356 108.57 84.3856 109.47 84.7356C110.34 85.0656 111.2 85.4056 112.07 85.7556C113.48 86.3256 115.03 86.8856 116.82 87.4756C117.54 87.7156 118.29 87.8556 119.12 87.9256C119.4 87.9456 119.6 88.1856 119.58 88.4656C119.56 88.7256 119.34 88.9256 119.08 88.9256L119.04 88.9356Z" fill="#808080"></path>
    <path d="M120.437 88.2647C120.117 88.2647 119.747 88.1548 119.387 87.8148C119.077 87.5247 118.937 87.1948 118.857 86.9648L118.657 86.4147C118.427 85.7747 118.187 85.1148 118.027 84.4348L117.947 84.0748C117.747 83.2348 117.547 82.3647 117.527 81.4548V81.3148C117.497 79.5747 117.467 77.7847 117.907 76.0247C118.117 75.1847 118.437 73.9048 119.967 73.5648C120.197 73.5148 120.437 73.4247 120.687 73.3347C120.827 73.2847 120.967 73.2348 121.107 73.1848C122.017 72.8948 122.937 72.6347 123.857 72.3747C124.937 72.0747 126.047 71.7547 127.117 71.3848L127.747 71.1748C129.647 70.5348 131.447 69.9248 133.067 68.8447C133.977 68.2347 134.617 67.5747 135.097 66.7647C135.537 66.0247 135.647 65.2348 135.677 64.2848C135.707 63.4748 135.777 62.6648 135.837 61.8548C135.927 60.7448 136.017 59.5948 136.007 58.4748C135.987 55.4648 136.047 51.9047 136.657 48.2547C136.777 47.5547 136.827 46.8148 136.867 46.1048C136.897 45.6948 136.927 45.2848 136.967 44.8748C137.007 44.4648 137.137 44.1048 137.277 43.7848C137.607 42.9948 138.127 42.4447 138.747 41.9548C138.547 41.8748 138.337 41.7948 138.137 41.7148C137.537 41.4748 136.967 41.2348 136.377 41.1348C136.047 41.0747 135.697 41.0748 135.317 41.0648C135.077 41.0648 134.837 41.0648 134.597 41.0348C133.337 40.9448 132.127 40.6447 130.957 40.3647L130.397 40.2348C128.207 39.7148 126.067 39.2948 124.017 38.9848C122.457 38.7448 120.917 38.2547 119.457 37.5247C119.407 37.5047 119.357 37.4848 119.267 37.4648C119.017 37.4048 118.837 37.3948 118.647 37.3848C118.227 37.3647 117.707 37.3348 117.237 36.9748C117.187 36.9748 117.107 36.9947 117.057 37.0047C116.957 37.0247 116.857 37.0347 116.767 37.0448C115.897 37.1147 115.017 37.0848 114.177 37.0648L113.417 37.0448C112.377 37.0247 111.497 36.6848 110.637 36.3648C110.287 36.2348 109.937 36.0948 109.577 35.9848C108.267 35.5848 106.877 35.4747 105.577 35.4147C103.057 35.2947 100.587 34.7448 98.2272 33.7748C97.0872 33.3048 96.1272 33.0848 95.2272 33.0748C93.5672 33.0648 92.0072 32.7348 90.2872 32.3348C89.5872 32.1748 88.8872 32.0048 88.1972 31.8348C87.1372 31.5748 86.0672 31.3148 84.9972 31.0848C84.4772 30.9748 83.8072 30.7848 83.2372 30.2848C82.8672 29.9648 82.6972 29.9248 82.2372 30.2848C81.2872 31.0348 80.1372 31.5248 78.6072 31.8148C77.9172 31.9448 77.3872 32.0848 76.9272 32.2648C75.9072 32.6548 74.8572 32.7648 73.8472 32.8648L72.1772 33.0448C70.1872 33.2548 68.3072 33.4548 66.5072 34.1748C65.6772 34.5048 64.8472 34.4747 63.9872 34.4147C62.8472 34.3247 62.0272 34.4548 61.2972 34.8048C60.6972 35.1048 59.9872 35.2248 59.0672 35.2048C57.6572 35.1748 56.3372 35.3748 55.0572 35.8148C53.5372 36.3448 51.9372 36.3048 50.5272 36.2848H50.1972C49.8172 36.2548 49.4872 36.2348 49.1972 36.3548C48.9372 36.4648 48.6472 36.3448 48.5472 36.0848C48.4372 35.8348 48.5672 35.5347 48.8172 35.4348C49.3172 35.2248 49.8172 35.2548 50.2572 35.2748H50.5572C51.8772 35.3148 53.3872 35.3448 54.7372 34.8748C56.1372 34.3948 57.5572 34.1748 59.0972 34.2048C59.8372 34.2248 60.4072 34.1248 60.8572 33.9048C62.0072 33.3348 63.1772 33.3447 64.0672 33.4147C64.7972 33.4747 65.5072 33.4948 66.1372 33.2448C68.0772 32.4648 70.1072 32.2548 72.0772 32.0448L73.7572 31.8648C74.7472 31.7648 75.6872 31.6648 76.5872 31.3248C77.0972 31.1248 77.6872 30.9748 78.4372 30.8348C79.8172 30.5748 80.8072 30.1648 81.6372 29.5048C82.4472 28.8548 83.1572 28.8648 83.9172 29.5248C84.2372 29.7948 84.6372 29.9748 85.2372 30.1048C86.3172 30.3348 87.3872 30.5948 88.4672 30.8548C89.1572 31.0248 89.8572 31.1948 90.5472 31.3548C92.2072 31.7348 93.7072 32.0548 95.2672 32.0648C96.2972 32.0648 97.3772 32.3148 98.6372 32.8348C100.887 33.7548 103.247 34.2848 105.657 34.3948C107.027 34.4648 108.487 34.5747 109.897 35.0047C110.277 35.1247 110.647 35.2648 111.027 35.4048C111.837 35.7148 112.607 36.0048 113.477 36.0248L114.247 36.0448C115.067 36.0648 115.907 36.0948 116.727 36.0248C116.787 36.0248 116.857 36.0048 116.927 35.9948C117.217 35.9448 117.577 35.8848 117.847 36.1248C118.067 36.3248 118.337 36.3448 118.747 36.3648C118.987 36.3748 119.227 36.3948 119.487 36.4548C119.657 36.4948 119.787 36.5248 119.937 36.6048C121.307 37.2848 122.747 37.7448 124.207 37.9648C126.277 38.2848 128.447 38.7048 130.667 39.2248L131.227 39.3548C132.417 39.6348 133.537 39.9048 134.707 39.9948C134.927 40.0148 135.157 40.0148 135.377 40.0148C135.767 40.0148 136.177 40.0347 136.577 40.0947C137.277 40.2147 137.927 40.4748 138.547 40.7348C138.837 40.8548 139.127 40.9748 139.417 41.0748C139.887 41.2348 140.107 41.2447 140.397 41.0947C140.867 40.8547 141.457 40.8248 141.957 41.0148C142.347 41.1648 142.637 41.4347 142.767 41.7747C142.897 42.1248 143.057 42.5348 143.067 42.9948C143.077 43.6148 143.127 44.2548 143.197 44.8948C143.357 46.3748 143.497 47.8348 143.317 49.3748C143.117 51.0348 143.037 52.7248 142.967 54.4548L142.927 55.4548C142.857 57.0448 142.787 58.6947 142.807 60.3148C142.817 61.1548 142.807 62.0247 142.767 62.9948C142.667 65.4347 142.627 68.0448 143.097 70.6048C143.257 71.4848 143.387 72.4348 143.207 73.4348C143.037 74.3748 142.697 75.3047 142.107 76.3447C141.417 77.5848 140.647 78.9848 139.347 79.9948C139.307 80.0247 139.267 80.0648 139.227 80.0947C139.047 80.2547 138.767 80.4947 138.367 80.4847C138.217 80.4847 138.107 80.5348 137.957 80.6748C137.617 80.9748 137.247 81.1448 136.887 81.3148C136.277 81.5947 135.707 81.7848 135.157 81.9748C134.897 82.0648 134.637 82.1548 134.377 82.2448C133.357 82.6147 132.477 83.2247 131.537 83.8747C131.297 84.0347 131.067 84.2048 130.827 84.3648C129.617 85.1748 128.507 85.5748 127.337 85.6448C126.827 85.6748 126.417 85.8347 126.127 86.1247C125.347 86.9147 124.537 87.3448 123.647 87.4348C122.887 87.5148 122.107 87.7147 121.197 88.0847C120.997 88.1647 120.747 88.2448 120.467 88.2448L120.437 88.2647ZM140.027 42.2348C140.027 42.2348 140.007 42.2548 139.997 42.2648C139.187 42.8448 138.547 43.3447 138.207 44.1647C138.097 44.4247 137.997 44.6948 137.977 44.9748C137.937 45.3748 137.907 45.7748 137.887 46.1748C137.837 46.9148 137.787 47.6747 137.667 48.4147C137.077 51.9847 137.017 55.4948 137.037 58.4648C137.037 59.6348 136.947 60.8048 136.857 61.9347C136.797 62.7347 136.727 63.5248 136.697 64.3248C136.657 65.2848 136.547 66.3047 135.977 67.2747C135.427 68.2048 134.667 68.9948 133.637 69.6748C131.907 70.8348 129.957 71.4847 128.087 72.1247L127.457 72.3347C126.357 72.7147 125.237 73.0247 124.147 73.3347C123.237 73.5947 122.337 73.8447 121.437 74.1348C121.307 74.1748 121.177 74.2248 121.047 74.2747C120.767 74.3747 120.487 74.4748 120.217 74.5348C119.347 74.7348 119.127 75.3747 118.897 76.2647C118.487 77.8947 118.517 79.6248 118.547 81.2948V81.4348C118.567 82.2348 118.747 83.0147 118.937 83.8447L119.027 84.2148C119.167 84.8348 119.387 85.4448 119.627 86.0748L119.827 86.6348C119.897 86.8447 119.987 86.9847 120.097 87.0947C120.297 87.2847 120.437 87.3348 120.817 87.1848C121.817 86.7848 122.677 86.5548 123.537 86.4748C124.187 86.4048 124.797 86.0747 125.407 85.4548C125.877 84.9847 126.497 84.7148 127.267 84.6748C128.247 84.6248 129.197 84.2648 130.257 83.5648C130.497 83.4048 130.727 83.2447 130.957 83.0847C131.897 82.4347 132.877 81.7547 134.017 81.3347C134.277 81.2347 134.547 81.1447 134.817 81.0547C135.367 80.8647 135.887 80.6847 136.397 80.4548C136.767 80.2848 137.057 80.1548 137.277 79.9548C137.627 79.6447 137.987 79.4947 138.387 79.5147C138.407 79.5147 138.487 79.4247 138.547 79.3747C138.607 79.3247 138.657 79.2748 138.717 79.2248C139.857 78.3448 140.547 77.0947 141.217 75.8848C141.747 74.9347 142.057 74.1048 142.207 73.2848C142.347 72.4848 142.267 71.7147 142.097 70.8047C141.607 68.1547 141.647 65.4748 141.747 62.9748C141.787 62.0247 141.797 61.1748 141.787 60.3548C141.767 58.7048 141.837 57.0448 141.907 55.4347L141.947 54.4347C142.017 52.6847 142.097 50.9748 142.297 49.2747C142.467 47.8447 142.337 46.4447 142.177 45.0247C142.107 44.3547 142.057 43.6948 142.047 43.0348C142.047 42.7448 141.927 42.4547 141.817 42.1647C141.787 42.0847 141.697 42.0148 141.577 41.9748C141.347 41.8848 141.037 41.9048 140.827 42.0148C140.547 42.1648 140.277 42.2248 140.027 42.2348Z" fill="#808080"></path>
    <path d="M147.367 81.5534C147.087 81.5534 146.867 81.3334 146.867 81.0534V42.2734C146.867 41.9934 147.087 41.7734 147.367 41.7734C147.647 41.7734 147.867 41.9934 147.867 42.2734V81.0634C147.867 81.3434 147.647 81.5634 147.367 81.5634V81.5534Z" fill="#808080"></path>
    <path d="M96.1177 80.0559C96.0277 80.0559 95.9377 80.0359 95.8577 79.9859C95.6177 79.8459 95.5477 79.5359 95.6877 79.2959C95.7377 79.2159 95.7477 79.1359 95.7377 79.0359C95.7177 78.8659 95.6877 78.7059 95.6577 78.5359C95.5877 78.1659 95.5177 77.7759 95.5177 77.3759C95.5177 76.7859 95.4677 76.3359 95.3777 75.9559C94.9877 74.3659 94.7577 72.7359 94.6477 70.9759C94.6177 70.3859 94.5477 69.7759 94.4777 69.1759C94.3277 67.8759 94.3277 66.5259 95.3577 65.4759C97.0677 63.7459 99.1577 62.8159 101.578 62.7259C101.788 62.7259 101.998 62.7259 102.218 62.7259C102.578 62.7259 102.908 62.7259 103.248 62.6859C104.108 62.5759 104.928 62.3459 105.798 62.1059C106.408 61.9359 107.018 61.7659 107.628 61.6359C109.318 61.2859 110.828 60.4859 112.068 59.7459C112.108 59.7259 112.138 59.6859 112.218 59.5859C112.878 58.7059 113.308 57.6559 113.538 56.3759C113.638 55.8359 113.698 55.2959 113.768 54.7559C113.908 53.6059 114.058 52.4259 114.488 51.2759C114.888 50.2059 114.918 49.0659 114.948 47.8659C114.968 47.2459 114.978 46.6059 115.058 45.9759C115.168 44.9859 115.228 43.9959 115.228 43.0259C115.228 42.7859 115.218 42.5459 115.208 42.3059C115.178 41.6559 115.148 40.9859 115.328 40.3059C115.608 39.2259 115.928 38.0359 117.238 37.4259C117.698 37.2159 117.718 36.9959 117.728 36.9159C117.748 36.6459 117.988 36.4259 118.268 36.4559C118.538 36.4759 118.748 36.7259 118.728 36.9959C118.698 37.3959 118.478 37.9559 117.668 38.3359C116.788 38.7459 116.568 39.5759 116.308 40.5359C116.158 41.0959 116.188 41.6659 116.218 42.2559C116.228 42.5159 116.238 42.7659 116.238 43.0259C116.238 44.0259 116.178 45.0559 116.058 46.0859C115.988 46.6759 115.978 47.2959 115.958 47.8859C115.928 49.1159 115.888 50.3859 115.438 51.6159C115.048 52.6559 114.918 53.7359 114.778 54.8759C114.708 55.4359 114.638 55.9959 114.538 56.5459C114.278 57.9759 113.788 59.1659 113.038 60.1759C112.928 60.3259 112.808 60.4759 112.598 60.6059C111.278 61.3859 109.688 62.2359 107.848 62.6159C107.258 62.7359 106.668 62.9059 106.078 63.0659C105.208 63.3059 104.318 63.5559 103.388 63.6759C102.988 63.7259 102.598 63.7259 102.228 63.7259C102.028 63.7259 101.838 63.7259 101.638 63.7259C99.4877 63.8059 97.6177 64.6359 96.0877 66.1759C95.3877 66.8859 95.3377 67.8059 95.4877 69.0559C95.5577 69.6759 95.6277 70.3059 95.6677 70.9159C95.7677 72.6159 95.9977 74.1859 96.3677 75.7159C96.4777 76.1659 96.5277 76.6859 96.5377 77.3559C96.5377 77.6759 96.5977 78.0059 96.6677 78.3459C96.6977 78.5259 96.7277 78.7059 96.7577 78.8759C96.7977 79.1959 96.7377 79.5159 96.5777 79.7959C96.4877 79.9559 96.3177 80.0359 96.1477 80.0359L96.1177 80.0559Z" fill="#808080"></path>
    <path d="M117.848 75.1635C117.848 75.1635 117.818 75.1635 117.798 75.1635C117.528 75.1335 117.258 75.1035 116.978 75.0635C116.608 75.0135 116.238 74.9635 115.868 74.9435C114.788 74.8735 113.788 74.5635 112.828 74.2735C112.568 74.1935 112.308 74.1135 112.048 74.0335C111.278 73.8135 110.538 73.5235 109.818 73.2435C109.088 72.9535 108.338 72.6635 107.578 72.4535C107.188 72.3435 106.788 72.2435 106.388 72.1435C105.418 71.9035 104.418 71.6535 103.458 71.2335C103.108 71.0835 102.758 70.9235 102.408 70.7635C101.648 70.4235 100.858 70.0635 100.068 69.7835C98.6385 69.2835 97.3085 68.5535 95.9985 67.5735C95.7785 67.4035 95.7285 67.0935 95.8985 66.8735C96.0685 66.6535 96.3785 66.6035 96.5985 66.7735C97.8285 67.6935 99.0685 68.3735 100.408 68.8335C101.238 69.1235 102.048 69.4935 102.828 69.8435C103.168 70.0035 103.518 70.1535 103.858 70.3035C104.738 70.6835 105.658 70.9135 106.638 71.1535C107.048 71.2535 107.448 71.3535 107.858 71.4735C108.658 71.6935 109.438 72.0035 110.188 72.2935C110.888 72.5635 111.608 72.8535 112.338 73.0635C112.608 73.1435 112.868 73.2235 113.138 73.3035C114.088 73.5935 114.988 73.8735 115.948 73.9335C116.338 73.9535 116.728 74.0035 117.128 74.0635C117.388 74.0935 117.648 74.1335 117.918 74.1535C118.188 74.1835 118.398 74.4235 118.368 74.7035C118.348 74.9635 118.128 75.1535 117.868 75.1535L117.848 75.1635Z" fill="#808080"></path>
    <path d="M32.147 64.6291C32.007 64.6291 31.867 64.5692 31.767 64.4592C31.587 64.2492 31.607 63.9292 31.817 63.7492C32.237 63.3892 32.707 63.1992 33.167 63.0092C33.367 62.9292 33.557 62.8492 33.747 62.7492C34.917 62.1592 36.237 61.7392 37.777 61.4792C38.877 61.2892 39.987 61.0592 41.157 60.7692C41.737 60.6292 42.297 60.4692 42.867 60.2992C44.117 59.9492 45.407 59.5792 46.747 59.4192C47.877 59.2892 48.977 59.0392 50.007 58.6692C50.107 58.6392 50.197 58.5992 50.297 58.5592C50.697 58.3992 51.157 58.2092 51.697 58.2692C51.967 58.2992 52.167 58.5492 52.137 58.8192C52.107 59.0892 51.857 59.2892 51.587 59.2592C51.297 59.2292 50.997 59.3492 50.667 59.4792C50.557 59.5192 50.447 59.5692 50.337 59.6092C49.237 59.9992 48.067 60.2792 46.857 60.4092C45.597 60.5492 44.347 60.9092 43.137 61.2492C42.557 61.4192 41.977 61.5792 41.387 61.7292C40.197 62.0192 39.067 62.2592 37.937 62.4492C36.497 62.6892 35.267 63.0792 34.187 63.6292C33.977 63.7392 33.757 63.8292 33.537 63.9192C33.137 64.0892 32.757 64.2392 32.457 64.4992C32.367 64.5792 32.247 64.6192 32.127 64.6192L32.147 64.6291Z" fill="#808080"></path>
    <path d="M47.7277 71.9224C47.6577 71.9224 47.5877 71.9224 47.5177 71.9224C47.2377 71.9224 47.0177 71.6924 47.0277 71.4124C47.0377 71.1324 47.2877 70.9124 47.5377 70.9224C49.0177 70.9324 50.4977 70.7724 52.0077 70.5924C53.6077 70.4024 55.2777 69.9824 57.2577 69.3024C58.9877 68.7024 60.7577 67.9724 62.5077 67.1424L63.3477 66.7524C64.2877 66.3224 65.2477 65.8724 66.1477 65.3324C66.2377 65.1124 66.4577 64.9424 66.6877 64.9824C66.9577 65.0224 67.1577 65.2224 67.1077 65.5024L66.6177 65.4224L67.1077 65.5324C67.0977 65.6524 67.0677 65.9424 66.7077 66.1624C65.7577 66.7424 64.7477 67.2124 63.7677 67.6624L62.9377 68.0524C61.1577 68.9024 59.3577 69.6424 57.5877 70.2524C55.5377 70.9624 53.7977 71.3924 52.1277 71.5924C50.6577 71.7724 49.2077 71.9324 47.7377 71.9324L47.7277 71.9224ZM66.0977 65.4424C66.0977 65.4424 66.0977 65.4424 66.0977 65.4524C66.0977 65.4524 66.0977 65.4524 66.0977 65.4424Z" fill="#808080"></path>
    <path d="M111.848 60.8001C111.848 60.8001 111.778 60.8001 111.748 60.7901C111.478 60.7301 111.308 60.4701 111.358 60.2001C111.528 59.3801 111.088 59.1401 110.748 59.0301C110.368 58.9101 109.928 58.8401 109.538 58.7801C107.888 58.5301 106.288 58.2801 104.848 57.3201C103.848 56.6501 102.618 56.3201 101.558 56.0901C100.948 55.9601 100.298 55.8601 99.5578 55.8001C98.2778 55.6901 97.0078 55.3601 95.6778 54.7701C95.0578 54.5001 94.3578 54.2301 93.4878 53.9301C92.6878 53.6601 91.8878 53.3701 91.0878 53.0901C89.9878 52.7001 88.8878 52.3101 87.7778 51.9401C86.0478 51.3701 84.1778 50.9301 82.2578 51.5601C80.4278 52.1701 78.6478 52.9901 76.9278 53.7801L76.6878 53.3401L76.5078 52.8701C78.2578 52.0701 80.0678 51.2401 81.9478 50.6101C84.1378 49.8801 86.1978 50.3601 88.0978 50.9801C89.2178 51.3501 90.3178 51.7401 91.4278 52.1301C92.2278 52.4101 93.0178 52.6901 93.8178 52.9701C94.7178 53.2801 95.4378 53.5501 96.0878 53.8401C97.3078 54.3801 98.4778 54.6901 99.6478 54.7801C100.418 54.8401 101.118 54.9401 101.778 55.0901C102.938 55.3401 104.278 55.7001 105.418 56.4701C106.668 57.3101 108.098 57.5301 109.608 57.7601C110.128 57.8401 110.618 57.9201 111.068 58.0601C112.108 58.3901 112.588 59.2601 112.358 60.3801C112.308 60.6201 112.098 60.7801 111.868 60.7801L111.848 60.8001Z" fill="#808080"></path>
    <path d="M87.9177 63.5727C87.8677 63.5727 87.8177 63.5727 87.7877 63.5727C87.5177 63.5527 87.2977 63.3127 87.3177 63.0327C87.3377 62.7727 87.5377 62.5827 87.7877 62.5727C88.0377 62.2327 88.3277 61.9427 88.6177 61.6727L88.6977 61.6027C89.1977 61.1127 89.7877 60.7827 90.3577 60.4627C90.6777 60.2827 90.9977 60.1027 91.2977 59.9027C91.6577 59.6527 92.1077 59.6827 92.4777 59.9827C92.7377 60.1927 93.0477 60.3127 93.3977 60.4427C94.0877 60.6927 94.8077 60.7927 95.5677 60.9027C95.8977 60.9527 96.2377 61.0027 96.5677 61.0627C97.2877 61.1927 97.9977 61.3827 98.6777 61.5727C99.2477 61.7327 99.8277 61.8827 100.408 62.0027C100.678 62.0627 100.848 62.3227 100.798 62.5927C100.738 62.8627 100.478 63.0327 100.208 62.9827C99.6077 62.8627 99.0177 62.6927 98.4177 62.5327C97.7577 62.3527 97.0677 62.1627 96.3877 62.0427C96.0677 61.9827 95.7477 61.9427 95.4277 61.8927C94.6477 61.7827 93.8477 61.6627 93.0677 61.3827C92.6477 61.2327 92.2377 61.0727 91.8677 60.7627C91.5577 60.9527 91.2077 61.1427 90.8677 61.3427C90.3377 61.6427 89.8277 61.9227 89.4177 62.3227L89.3377 62.4027C89.0377 62.6927 88.7477 62.9727 88.5377 63.2927C88.3677 63.5527 88.1077 63.5927 87.9377 63.5927L87.9177 63.5727Z" fill="#808080"></path>
    <path d="M82.0984 75.9356C82.0984 75.9356 82.0585 75.9356 82.0485 75.9356C81.7785 75.9056 81.5784 75.6556 81.6084 75.3856C81.7184 74.3956 81.7684 73.3756 81.8184 72.3856C81.8484 71.6956 81.8885 71.0156 81.9385 70.3256C81.9885 69.6456 81.9985 68.9556 82.0085 68.2656C82.0185 67.4556 82.0285 66.6156 82.1185 65.7756C82.2085 64.8756 82.2984 63.8056 82.3184 62.7556C82.3184 62.4856 82.5484 62.2656 82.8184 62.2656C83.0984 62.2656 83.3184 62.4956 83.3084 62.7756C83.2984 63.8656 83.1984 64.9556 83.1084 65.8756C83.0284 66.6656 83.0185 67.4856 83.0085 68.2756C83.0085 68.9856 82.9885 69.6956 82.9385 70.3956C82.8885 71.0756 82.8484 71.7456 82.8184 72.4256C82.7684 73.4256 82.7184 74.4556 82.6084 75.4756C82.5784 75.7356 82.3684 75.9256 82.1084 75.9256L82.0984 75.9356Z" fill="#808080"></path>
    <path d="M19.0078 76.9338C18.7278 76.9338 18.5078 76.7138 18.5078 76.4338V64.5938C18.5078 64.3137 18.7278 64.0938 19.0078 64.0938C19.2878 64.0938 19.5078 64.3137 19.5078 64.5938V76.4338C19.5078 76.7138 19.2878 76.9338 19.0078 76.9338Z" fill="#808080"></path>
    <path d="M105.537 41.5369C105.467 41.5369 105.397 41.5269 105.327 41.4869C105.017 41.3469 104.657 41.2869 104.287 41.2369L103.917 41.1769C102.877 40.9969 101.757 40.7969 100.637 40.6469C99.3775 40.4769 98.1575 40.2469 97.1375 40.0369C96.3175 39.8769 95.5075 39.6769 94.6975 39.4769L93.6475 39.2169C93.3775 39.1569 93.2075 38.8869 93.2775 38.6169C93.3375 38.3469 93.6075 38.1869 93.8775 38.2469L94.9375 38.5069C95.7375 38.7069 96.5375 38.8969 97.3375 39.0569C98.3475 39.2569 99.5475 39.4869 100.777 39.6569C101.917 39.8069 103.047 40.0069 104.097 40.1869L104.437 40.2369C104.867 40.2969 105.307 40.3669 105.747 40.5669C105.997 40.6769 106.107 40.9769 105.997 41.2269C105.917 41.4069 105.727 41.5169 105.537 41.5169V41.5369Z" fill="#808080"></path>
    <path d="M54.0573 58.4057C53.8273 58.4057 53.6273 58.2457 53.5673 58.0157C53.5073 57.7457 53.6673 57.4757 53.9373 57.4157C55.1373 57.1357 56.4173 56.7657 57.8373 56.2857C59.8073 55.6157 61.6073 55.2857 63.3273 55.2857C63.3373 55.2857 63.3573 55.2857 63.3673 55.2857C63.5673 55.2857 63.7673 55.2857 63.9673 55.2657C65.0573 55.2257 66.4073 55.1657 67.3573 56.4357C67.3673 56.4357 67.4473 56.4957 67.4873 56.5157C67.9373 56.7057 68.2473 57.0157 68.4073 57.4557C68.5073 57.7157 68.3673 58.0057 68.1173 58.0957C67.8573 58.1957 67.5673 58.0657 67.4773 57.8057C67.4173 57.6357 67.2973 57.5257 67.1073 57.4357C66.9073 57.3457 66.6773 57.1757 66.5673 57.0257C65.9273 56.1757 65.0473 56.2057 64.0173 56.2557C63.7973 56.2557 63.5873 56.2757 63.3573 56.2757C61.6873 56.2757 60.0273 56.5857 58.1573 57.2157C56.7073 57.7057 55.3973 58.0857 54.1573 58.3757C54.1173 58.3757 54.0773 58.3857 54.0473 58.3857L54.0573 58.4057Z" fill="#808080"></path>
    <path d="M112.667 52.0153C112.667 52.0153 112.607 52.0153 112.567 52.0153C110.777 51.6653 109.017 51.1453 107.307 50.6453L106.457 50.3953C105.227 50.0353 103.927 49.8053 102.367 49.6653C101.557 49.5953 100.847 49.3653 100.197 48.9553C99.1772 48.3253 98.1272 48.0853 96.9972 48.2253C95.7472 48.3853 94.3872 48.1353 92.9672 47.4953C92.3572 47.2153 91.7072 47.1053 91.0172 46.9853C90.7372 46.9353 90.4572 46.8853 90.1772 46.8253C89.4872 46.6753 88.7772 46.6253 88.0372 46.5753C87.2872 46.5253 86.5172 46.4653 85.7572 46.3053C85.2772 46.2053 84.8372 46.1153 84.4672 45.7753C84.0372 45.3853 83.5872 45.4253 82.8872 45.6453C81.4772 46.0853 80.0572 46.5153 78.6372 46.9353C78.4572 46.9853 78.2572 47.0553 78.0372 47.0053C76.9172 46.7553 75.7772 46.8653 74.7972 47.0053C74.7072 47.0153 74.5672 46.9953 74.4772 46.9553C74.2472 46.9253 74.0572 46.7253 74.0472 46.4853C74.0372 46.2053 74.2472 45.9753 74.5272 45.9653C74.5772 45.9653 74.6772 45.9853 74.7572 46.0053C75.7972 45.8553 77.0172 45.7453 78.2572 46.0253C78.2372 46.0153 78.2872 45.9953 78.3272 45.9853C79.7672 45.5553 81.1872 45.1253 82.5972 44.6853C83.1172 44.5253 84.2172 44.1753 85.1472 45.0253C85.3172 45.1853 85.5772 45.2353 85.8772 45.2953C86.6672 45.4653 87.3672 45.5153 88.1172 45.5753C88.8572 45.6253 89.6272 45.6853 90.3872 45.8453C90.6472 45.9053 90.9172 45.9453 91.1872 45.9953C91.9072 46.1253 92.6572 46.2453 93.3772 46.5753C94.6472 47.1453 95.7872 47.3653 96.8672 47.2253C98.2372 47.0553 99.4972 47.3353 100.717 48.0953C101.237 48.4153 101.787 48.5953 102.447 48.6553C104.077 48.8053 105.437 49.0453 106.727 49.4153L107.577 49.6653C109.267 50.1553 111.007 50.6753 112.747 51.0153C113.017 51.0653 113.197 51.3353 113.137 51.6053C113.087 51.8453 112.877 52.0053 112.647 52.0053L112.667 52.0153Z" fill="#808080"></path>
    <path d="M135.077 66.3261C134.967 66.3261 134.837 66.2961 134.687 66.2161C133.787 65.7261 132.837 65.4461 131.777 65.3761C130.987 65.3261 130.057 65.1961 129.147 64.7061C128.607 64.4161 128.047 64.1661 127.457 63.9561C127.187 63.8561 126.917 63.7561 126.637 63.6561C125.697 63.3061 124.817 62.9661 123.897 62.8261L123.517 62.7661C121.977 62.5361 120.387 62.2961 118.907 61.6761C117.217 60.9661 115.487 60.5761 113.407 60.2161C113.107 60.1661 112.937 59.9761 112.847 59.8861C112.607 59.7461 112.517 59.4161 112.667 59.1861C112.807 58.9461 113.107 58.8561 113.337 58.9961C113.457 59.0661 113.537 59.1561 113.587 59.2161C115.437 59.5661 117.407 59.9761 119.287 60.7661C120.657 61.3361 122.187 61.5661 123.657 61.7961L124.037 61.8561C125.067 62.0161 126.037 62.3861 126.987 62.7361C127.257 62.8361 127.517 62.9361 127.787 63.0361C128.417 63.2661 129.037 63.5361 129.617 63.8461C130.357 64.2461 131.157 64.3461 131.847 64.3961C133.017 64.4761 134.067 64.7761 135.067 65.3061C135.217 65.2761 135.377 65.3061 135.497 65.4261C135.707 65.6061 135.727 65.9261 135.537 66.1361C135.447 66.2361 135.297 66.3561 135.067 66.3561L135.077 66.3261Z" fill="#808080"></path>
    <path d="M83.8076 51.1359C83.5876 51.1359 83.3776 50.9859 83.3276 50.7559C83.2076 50.2959 83.2676 49.8659 83.3076 49.4859C83.3276 49.2959 83.3576 49.1159 83.3576 48.9259V47.6359C83.3576 46.3059 83.3576 44.9359 83.2776 43.5959L83.2276 42.9259C83.1276 41.5759 83.0276 40.1859 83.1676 38.8059C83.1976 38.5459 83.1976 38.2959 83.2076 38.0359C83.2076 37.7359 83.2276 37.4359 83.2576 37.1259C82.6476 36.9759 81.9776 37.0059 81.1576 37.2059C80.4476 37.3859 79.7376 37.5459 79.0176 37.7059C78.2376 37.8859 77.4576 38.0659 76.6776 38.2559C75.7776 38.4859 74.9476 38.9159 74.1176 39.3859C73.4576 39.7559 72.8176 39.7959 72.2776 39.8059C71.4476 39.8259 70.6076 39.7859 69.7976 39.7559C68.9676 39.7159 68.1076 39.6859 67.2776 39.7059C65.3876 39.7659 63.9576 40.0859 62.6376 40.7359C61.3676 41.3759 59.9376 41.5959 58.8376 41.7159C57.5776 41.8559 56.5176 41.8959 55.5076 41.8359C54.6376 41.7859 53.7376 41.6459 52.5976 41.3859C52.3876 41.3959 52.0676 41.4159 51.8076 41.1359C51.6176 40.9359 51.6376 40.6159 51.8376 40.4259C52.0176 40.2659 52.2776 40.2559 52.4676 40.3859C52.5976 40.3859 52.7076 40.3859 52.8276 40.4059C53.9076 40.6559 54.7576 40.7859 55.5676 40.8359C56.5176 40.8959 57.5176 40.8559 58.7276 40.7259C59.7476 40.6159 61.0676 40.4159 62.1976 39.8459C63.6276 39.1259 65.2376 38.7659 67.2576 38.7059C68.1276 38.6759 69.0076 38.7159 69.8576 38.7559C70.6476 38.7959 71.4676 38.8259 72.2676 38.8059C72.8276 38.7959 73.2276 38.7359 73.6476 38.5059C74.5476 38.0059 75.4376 37.5359 76.4476 37.2859C77.2276 37.0859 78.0176 36.9059 78.8076 36.7259C79.5176 36.5659 80.2176 36.4059 80.9276 36.2259C82.1176 35.9359 83.0876 35.9559 83.9976 36.2959C84.2276 36.3859 84.3576 36.6259 84.3076 36.8659C84.2276 37.2459 84.2176 37.6459 84.2076 38.0559C84.2076 38.3359 84.1876 38.6159 84.1576 38.8959C84.0276 40.1959 84.1276 41.5359 84.2276 42.8459L84.2776 43.5259C84.3776 44.9059 84.3676 46.2959 84.3676 47.6359V48.9159C84.3676 49.1459 84.3376 49.3759 84.3076 49.6059C84.2676 49.9259 84.2276 50.2359 84.3076 50.5059C84.3776 50.7759 84.2176 51.0459 83.9476 51.1159C83.9076 51.1259 83.8676 51.1359 83.8176 51.1359H83.8076Z" fill="#808080"></path>
    <path d="M55.8369 50.0442C55.2569 50.0442 54.6869 50.0142 54.1269 49.9542C53.9469 49.9342 53.7669 49.9442 53.5869 49.9542H53.2969C53.0169 49.9542 52.7969 49.7342 52.7969 49.4642C52.7969 49.1942 53.0169 48.9642 53.2969 48.9642H53.5669C53.7869 48.9542 54.0169 48.9442 54.2369 48.9642C55.6369 49.1142 57.0969 49.0642 58.5769 48.8142C60.4769 48.4942 62.1469 48.1342 63.6569 47.6942C65.7069 47.1042 67.9769 46.8242 70.3869 46.8342C71.4869 46.8342 72.6169 46.5542 73.6769 46.2742C74.0469 46.1742 74.0869 46.0242 74.1769 45.4942L74.6869 45.4442L74.1869 45.3942C74.1869 45.3342 74.1869 45.2742 74.1869 45.2142C74.2769 44.3742 74.1569 43.5442 74.0269 42.6642C73.9969 42.4342 73.9569 42.2042 73.9269 41.9742C73.8169 41.1542 73.6969 40.2142 73.2469 39.4442C73.1069 39.2042 73.1869 38.9042 73.4269 38.7642C73.6669 38.6242 73.9769 38.7042 74.1069 38.9442C74.6569 39.8842 74.7869 40.9242 74.9069 41.8442C74.9369 42.0642 74.9669 42.2942 75.0069 42.5142C75.1369 43.4142 75.2769 44.3542 75.1769 45.3142C75.1769 45.4042 75.1769 45.4842 75.1769 45.5842C75.0769 46.2142 74.9469 46.9742 73.9369 47.2442C72.8669 47.5242 71.6669 47.8542 70.3869 47.8342C68.0769 47.8142 65.8969 48.0942 63.9369 48.6542C62.3869 49.0942 60.6869 49.4742 58.7469 49.7942C57.7769 49.9542 56.8069 50.0442 55.8569 50.0442H55.8369Z" fill="#808080"></path>
    <path d="M30.0867 55.6759C29.8967 55.6759 29.7067 55.5659 29.6267 55.3659C29.5167 55.1159 29.6367 54.8159 29.8967 54.7059C30.1867 54.5859 30.4567 54.5659 30.7067 54.5559C30.8267 54.5559 30.9467 54.5459 31.0567 54.5259C32.4867 54.2359 33.9167 53.9359 35.3467 53.6159C36.3067 53.4059 37.2167 52.9759 37.9967 52.5959C38.7167 52.2459 39.4667 52.0259 40.1967 51.8459C39.9867 48.3559 39.5467 45.6859 38.7867 43.2359C38.7067 42.9759 38.8467 42.7059 39.0967 42.6159C39.3367 42.5259 39.5767 42.4359 39.8167 42.3459C40.5567 42.0559 41.3267 41.7559 42.1667 41.6659L43.6167 41.5059C45.2267 41.3259 46.8867 41.1459 48.5067 40.8959C48.7767 40.8559 49.0367 41.0459 49.0767 41.3159C49.1167 41.5859 48.9267 41.8459 48.6567 41.8859C47.0167 42.1359 45.3467 42.3259 43.7267 42.4959L42.2767 42.6559C41.5667 42.7359 40.8867 42.9959 40.1767 43.2759C40.0767 43.3159 39.9767 43.3559 39.8767 43.3959C40.6167 45.8959 41.0267 48.6459 41.2167 52.2159C41.2267 52.4559 41.0667 52.6759 40.8267 52.7259C39.9967 52.9159 39.1867 53.1159 38.4367 53.4959C37.6067 53.9059 36.6267 54.3659 35.5567 54.5959C34.1267 54.9159 32.6867 55.2159 31.2567 55.5059C31.0967 55.5359 30.9267 55.5459 30.7567 55.5559C30.5667 55.5659 30.4067 55.5759 30.2867 55.6259C30.2267 55.6559 30.1567 55.6659 30.0967 55.6659L30.0867 55.6759Z" fill="#808080"></path>
    <path d="M91.5167 60.677C91.4267 60.677 91.3267 60.647 91.2467 60.597C90.5867 60.177 89.8467 59.897 89.0767 59.607C88.7467 59.487 88.4167 59.357 88.0867 59.227L86.0967 58.407C85.2867 58.077 84.4767 57.737 83.6667 57.397C83.5167 57.507 83.2767 57.887 82.8167 57.907C82.3567 57.927 81.9067 57.997 81.4267 58.087C81.0167 58.157 80.6067 58.227 80.1867 58.257C78.8767 58.357 77.5967 58.497 76.3867 58.997C76.1467 59.097 75.9067 59.187 75.6567 59.287C75.1367 59.487 74.6467 59.677 74.1667 59.917C73.9867 60.007 73.8467 60.107 73.7167 60.237C73.5267 60.437 73.2067 60.437 73.0067 60.247C72.8067 60.057 72.8067 59.737 72.9967 59.537C73.2067 59.327 73.4367 59.147 73.7167 59.017C74.2367 58.757 74.7667 58.557 75.2867 58.347C75.5267 58.257 75.7567 58.167 75.9967 58.067C77.3367 57.517 78.6967 57.367 80.0967 57.257C80.4867 57.227 80.8667 57.157 81.2467 57.097C81.7167 57.017 82.1967 56.937 82.6967 56.907C83.0367 56.407 83.5367 56.267 84.0467 56.477C84.8567 56.817 85.6667 57.147 86.4767 57.487L88.4667 58.307C88.7767 58.437 89.0967 58.557 89.4167 58.677C90.2067 58.977 91.0267 59.277 91.7767 59.757C92.0067 59.907 92.0767 60.217 91.9267 60.447C91.8267 60.597 91.6667 60.677 91.5067 60.677H91.5167Z" fill="#808080"></path>
    <path d="M83.1571 57.4374C83.0371 57.4374 82.9271 57.3974 82.8371 57.3174C82.0071 56.6074 81.0271 56.2574 79.7971 55.9474C78.3471 55.5774 77.1871 54.8474 76.3471 53.7774C75.2471 54.0374 74.2071 54.1074 73.1971 54.1774C72.6471 54.2174 72.1071 54.2474 71.5671 54.3174C71.3471 54.3474 71.1271 54.3674 70.9071 54.3874C70.0171 54.4674 69.1771 54.5474 68.5271 55.0674C67.8771 55.5774 67.1971 55.9974 66.5271 56.3974C66.2971 56.5374 65.9571 56.4874 65.8071 56.2474C65.6671 56.0074 65.7071 55.7274 65.9471 55.5774C66.6771 55.1274 67.3171 54.7374 67.9171 54.2774C68.8071 53.5874 69.8271 53.4874 70.8271 53.3974C71.0371 53.3774 71.2471 53.3574 71.4571 53.3374C72.0171 53.2674 72.5871 53.2274 73.1471 53.1974C74.1571 53.1274 75.1071 53.0674 76.0471 52.8274C76.4871 52.7174 76.8871 52.8474 77.1571 53.1774C77.8671 54.0774 78.8271 54.6774 80.0671 54.9974C81.2471 55.2974 82.4771 55.6974 83.5071 56.5774C83.7171 56.7574 83.7371 57.0674 83.5671 57.2774C83.4671 57.3974 83.3271 57.4574 83.1871 57.4574L83.1571 57.4374Z" fill="#808080"></path>
    <path d="M68.7864 58.2684C68.7064 58.2684 68.6264 58.2484 68.5564 58.2084C68.3164 58.0784 68.2164 57.7784 68.3464 57.5384C68.4964 57.2484 68.7264 57.0684 68.9064 56.9184C68.9864 56.8584 69.0664 56.7984 69.1264 56.7184C69.9564 55.8184 71.0164 55.3884 72.2764 55.4284C72.9064 55.4484 73.5364 55.4284 74.1664 55.4084H74.4264C74.8564 55.3884 75.2764 55.3184 75.7164 55.2484C76.3364 55.1484 76.9764 55.0384 77.6564 55.0884C77.9264 55.1084 78.1464 55.0384 78.3464 54.8584C78.5464 54.6684 78.8664 54.6884 79.0564 54.8884C79.2464 55.0884 79.2264 55.4084 79.0264 55.5984C78.6264 55.9584 78.1464 56.1184 77.5964 56.0784C77.0464 56.0384 76.4864 56.1284 75.8964 56.2284C75.4364 56.3084 74.9564 56.3784 74.4664 56.3984H74.2064C73.5564 56.4284 72.9064 56.4484 72.2564 56.4284C71.2964 56.3984 70.5064 56.7184 69.8664 57.3984C69.7664 57.5084 69.6564 57.5984 69.5364 57.6884C69.4064 57.7984 69.2864 57.8884 69.2364 57.9884C69.1464 58.1584 68.9764 58.2584 68.7964 58.2584L68.7864 58.2684Z" fill="#808080"></path>
    <path d="M135.988 48.2431C135.918 48.2431 135.838 48.2231 135.768 48.1931C135.058 47.8431 134.298 47.6531 133.488 47.4531C133.218 47.3831 132.938 47.3131 132.668 47.2431C131.318 46.8731 130.088 46.6331 128.928 46.5131C128.038 46.4231 127.108 46.2631 126.088 46.0231C124.878 45.7331 123.718 45.4631 122.568 45.3531C121.998 45.3031 121.468 45.1331 120.958 44.9731C120.738 44.9031 120.518 44.8331 120.298 44.7731C119.608 44.5931 118.938 44.3431 118.298 44.1031C117.788 43.9131 117.278 43.7231 116.758 43.5731C116.498 43.4931 116.348 43.2131 116.428 42.9531C116.508 42.6931 116.788 42.5431 117.048 42.6231C117.588 42.7831 118.118 42.9831 118.648 43.1731C119.268 43.4031 119.918 43.6431 120.568 43.8131C120.798 43.8731 121.028 43.9431 121.268 44.0231C121.748 44.1731 122.208 44.3231 122.678 44.3631C123.898 44.4831 125.088 44.7631 126.238 45.0331C127.308 45.2831 128.198 45.4431 129.038 45.5231C130.258 45.6431 131.538 45.8931 132.938 46.2831C133.198 46.3531 133.468 46.4231 133.728 46.4831C134.548 46.6931 135.408 46.9031 136.208 47.3031C136.458 47.4231 136.558 47.7231 136.438 47.9731C136.348 48.1531 136.178 48.2531 135.988 48.2531V48.2431Z" fill="#808080"></path>
    <path d="M29.7882 46.5572C29.5682 46.5572 29.3282 46.5072 29.0882 46.3372C28.8582 46.1772 28.8082 45.8672 28.9682 45.6372C29.1282 45.4072 29.4382 45.3572 29.6682 45.5172C29.7482 45.5772 29.8282 45.5672 30.0982 45.5072C30.2382 45.4772 30.3882 45.4372 30.5282 45.4272C31.8182 45.3372 32.8082 45.0272 33.6482 44.4572C34.5582 43.8372 35.5782 43.2372 36.7982 43.0672L37.2582 43.0072C37.7182 42.9472 38.1582 42.8972 38.5782 42.7772C38.0982 41.7672 37.4182 40.8472 36.5182 39.9772C36.3182 39.7872 36.3182 39.4672 36.5182 39.2672C36.7082 39.0672 37.0282 39.0672 37.2282 39.2672C38.3682 40.3772 39.1882 41.5672 39.7282 42.8872C39.8282 43.1372 39.7082 43.4272 39.4582 43.5372C38.7582 43.8372 38.0682 43.9172 37.3882 44.0072L36.9482 44.0672C35.9882 44.2072 35.1582 44.6572 34.2182 45.2972C33.2282 45.9672 32.0882 46.3272 30.6082 46.4372C30.5182 46.4372 30.4282 46.4672 30.3382 46.4872C30.1882 46.5172 30.0082 46.5672 29.7982 46.5672L29.7882 46.5572Z" fill="#808080"></path>
    <path d="M106.54 61.7988C106.54 61.7988 106.45 61.7988 106.41 61.7788C106.23 61.7288 106.1 61.5888 106.06 61.4188C105.82 61.3188 105.58 61.2288 105.35 61.1288C104.81 60.8988 104.24 60.6688 103.68 60.4888C103.1 60.2988 102.52 60.0888 101.94 59.8888C100.69 59.4388 99.3999 58.9788 98.0899 58.7288C97.8999 58.6888 97.6999 58.6388 97.5099 58.5888C96.8299 58.4088 96.4299 58.3188 95.9199 58.6788C95.1599 59.2188 94.3199 59.6588 93.5099 60.0788C93.1599 60.2588 92.8199 60.4388 92.4799 60.6288C92.2399 60.7588 91.9299 60.6788 91.7999 60.4288C91.6699 60.1888 91.7499 59.8788 91.9999 59.7488C92.3499 59.5588 92.6999 59.3688 93.0599 59.1888C93.8799 58.7688 94.6499 58.3688 95.3499 57.8688C96.2699 57.2188 97.1099 57.4488 97.7899 57.6288C97.9599 57.6788 98.1199 57.7188 98.2899 57.7488C99.6799 58.0188 101 58.4888 102.29 58.9488C102.86 59.1488 103.43 59.3588 104 59.5388C104.6 59.7288 105.18 59.9688 105.74 60.2088C106.01 60.3188 106.29 60.4388 106.56 60.5388C107.04 60.7288 107.12 61.1188 107.04 61.4288C106.98 61.6488 106.78 61.7988 106.56 61.7988H106.54Z" fill="#808080"></path>
    <path d="M92.4692 47.2455C92.4192 47.2455 92.3592 47.2455 92.3092 47.2155C92.0492 47.1255 91.9092 46.8455 91.9992 46.5855C92.1592 46.1155 92.1292 45.5955 92.0992 45.0455C92.0992 44.8855 92.0792 44.7355 92.0792 44.5755C92.0592 43.9855 92.0792 43.3355 92.2792 42.6455C92.3592 42.3755 92.4492 42.1055 92.5392 41.8255C92.8392 40.8955 93.1292 40.0155 93.1692 39.0955C92.6992 39.0255 92.2292 38.9655 91.7592 38.8955C90.9792 38.7955 90.2092 38.6855 89.4392 38.5455C88.0992 38.3055 86.7492 37.9755 85.4492 37.6655C84.8892 37.5255 84.3292 37.3955 83.7592 37.2655C83.4892 37.2055 83.3192 36.9355 83.3792 36.6655C83.4392 36.3955 83.7092 36.2255 83.9792 36.2855C84.5492 36.4155 85.1092 36.5555 85.6792 36.6855C86.9692 36.9955 88.2992 37.3155 89.6192 37.5555C90.3692 37.6955 91.1292 37.7955 91.8892 37.8955C92.5092 37.9755 93.1192 38.0655 93.7392 38.1655C93.9692 38.2055 94.1492 38.3955 94.1592 38.6355C94.2192 39.8955 93.8392 41.0255 93.4792 42.1255C93.3892 42.3955 93.3092 42.6555 93.2292 42.9255C93.0592 43.4855 93.0492 44.0255 93.0692 44.5355C93.0692 44.6855 93.0792 44.8255 93.0892 44.9755C93.1292 45.5955 93.1692 46.2355 92.9392 46.8955C92.8692 47.1055 92.6692 47.2355 92.4692 47.2355V47.2455Z" fill="#808080"></path>
    <path d="M69.1371 78.65C68.8971 78.65 68.6871 78.48 68.6471 78.23C68.4871 77.28 68.5871 76.36 68.6771 75.47L68.7071 75.16C68.7571 74.68 68.8671 74.22 68.9771 73.78C69.0471 73.5 69.1171 73.22 69.1671 72.94C69.3771 71.74 69.3771 70.53 69.3471 69.51C69.3471 69.23 69.5571 69 69.8371 69C70.1171 69 70.3471 69.21 70.3471 69.49C70.3771 70.56 70.3771 71.84 70.1471 73.12C70.0971 73.42 70.0171 73.72 69.9471 74.02C69.8371 74.45 69.7471 74.85 69.6971 75.26L69.6671 75.58C69.5771 76.45 69.4971 77.26 69.6271 78.08C69.6771 78.35 69.4871 78.61 69.2171 78.66C69.1871 78.66 69.1571 78.66 69.1371 78.66V78.65Z" fill="#808080"></path>
    <path d="M93.817 66.5059C93.817 66.5059 93.787 66.5059 93.777 66.5059C93.277 66.4659 92.777 66.4459 92.267 66.4259C91.357 66.3859 90.417 66.3559 89.497 66.1959C88.697 66.0559 87.987 65.7159 87.307 65.3759L86.997 65.2259C86.057 64.7659 85.137 64.1859 84.197 63.4559C83.977 63.2859 83.947 62.9659 84.117 62.7559C84.287 62.5359 84.597 62.4959 84.817 62.6759C85.697 63.3659 86.557 63.9059 87.427 64.3359L87.737 64.4859C88.387 64.8059 88.997 65.1059 89.657 65.2159C90.517 65.3659 91.387 65.3959 92.307 65.4359C92.827 65.4559 93.337 65.4759 93.857 65.5159C94.137 65.5359 94.337 65.7759 94.317 66.0559C94.297 66.3159 94.077 66.5159 93.817 66.5159V66.5059Z" fill="#808080"></path>
    <path d="M124.389 54.729C124.129 54.729 123.909 54.529 123.889 54.269C123.849 53.719 123.939 53.179 124.039 52.669C124.149 52.079 124.249 51.499 124.349 50.909C124.429 50.439 124.509 49.959 124.599 49.489L124.719 48.819C124.859 48.009 125.009 47.169 125.279 46.359C125.559 45.509 125.829 44.589 125.869 43.659C125.919 42.519 126.269 41.489 126.979 40.409C127.129 40.179 127.439 40.109 127.669 40.259C127.899 40.409 127.969 40.719 127.819 40.949C127.219 41.869 126.919 42.749 126.869 43.699C126.819 44.749 126.529 45.739 126.229 46.659C125.979 47.399 125.849 48.169 125.709 48.979L125.589 49.659C125.499 50.129 125.429 50.589 125.349 51.059C125.249 51.659 125.149 52.249 125.029 52.849C124.939 53.309 124.859 53.759 124.889 54.179C124.909 54.459 124.699 54.699 124.429 54.719C124.419 54.719 124.409 54.719 124.389 54.719V54.729Z" fill="#808080"></path>
    <path d="M40.8686 52.6633C40.6086 52.6633 40.3886 52.4633 40.3686 52.2033C40.3486 51.9233 40.5486 51.6833 40.8286 51.6633C42.5786 51.5233 44.0386 51.5033 45.4286 51.5833C45.7386 51.6033 46.0686 51.5333 46.3486 51.3833C47.3686 50.8533 48.2486 50.4433 49.2186 50.2033C49.4886 50.1333 49.7586 50.3033 49.8286 50.5733C49.8986 50.8433 49.7286 51.1133 49.4586 51.1833C48.5886 51.4033 47.7686 51.7733 46.8086 52.2733C46.3586 52.5033 45.8586 52.6133 45.3586 52.5833C44.0086 52.5033 42.5886 52.5333 40.8886 52.6633C40.8786 52.6633 40.8586 52.6633 40.8486 52.6633H40.8686Z" fill="#808080"></path>
    <path d="M83.8087 57.3844C83.7587 57.3844 83.7087 57.3844 83.6587 57.3644C83.3987 57.2844 83.2487 56.9944 83.3387 56.7344C83.4787 56.2744 83.8587 56.1344 84.0787 56.0444C85.0687 55.6344 86.0187 55.3644 86.9387 55.0944C87.4587 54.9444 87.9787 54.8044 88.4887 54.6344L88.7287 54.5544C89.8087 54.2044 90.8287 53.8744 91.7087 53.2344C91.9287 53.0744 92.2487 53.1244 92.4087 53.3444C92.5687 53.5644 92.5187 53.8844 92.2987 54.0444C91.2887 54.7744 90.1487 55.1444 89.0387 55.5044L88.7987 55.5844C88.2787 55.7544 87.7487 55.9044 87.2187 56.0544C86.3287 56.3044 85.4087 56.5744 84.5487 56.9344L84.4587 56.9744C84.3987 56.9944 84.3187 57.0344 84.2887 57.0544C84.2187 57.2644 84.0287 57.3944 83.8187 57.3944L83.8087 57.3844Z" fill="#808080"></path>
    <path d="M136.518 58.9666C136.438 58.9666 136.358 58.9466 136.288 58.9066C136.238 58.8866 131.708 56.4966 128.738 56.2366C125.948 55.9866 124.458 55.0766 124.068 54.8166C123.998 54.7966 123.928 54.7766 123.848 54.7566C123.658 54.7066 123.498 54.6566 123.358 54.6666C122.488 54.7166 121.698 54.4866 121.108 54.2866C120.928 54.2266 120.758 54.1666 120.578 54.0966C120.148 53.9366 119.748 53.7966 119.328 53.7066C118.158 53.4466 116.918 53.1366 115.768 52.4866C115.528 52.3466 115.448 52.0466 115.578 51.8066C115.718 51.5666 116.018 51.4866 116.258 51.6166C117.288 52.2066 118.448 52.4866 119.538 52.7366C120.018 52.8466 120.468 53.0066 120.908 53.1666C121.078 53.2266 121.248 53.2866 121.418 53.3466C121.928 53.5166 122.598 53.7166 123.288 53.6766C123.598 53.6566 123.858 53.7366 124.098 53.7966C124.188 53.8166 124.268 53.8466 124.358 53.8666C124.438 53.8866 124.508 53.9166 124.568 53.9666C124.578 53.9666 125.918 54.9866 128.808 55.2566C131.978 55.5466 136.538 57.9366 136.738 58.0466C136.978 58.1766 137.078 58.4766 136.948 58.7266C136.858 58.8966 136.688 58.9966 136.508 58.9966L136.518 58.9666Z" fill="#808080"></path>
    <path d="M71.7266 64.4487C71.4566 64.4487 71.2266 64.2287 71.2266 63.9487C71.2266 63.6687 71.4466 63.4487 71.7266 63.4487C74.4166 63.4387 77.0966 63.0087 79.7066 62.1787C79.9666 62.0987 80.2466 62.2387 80.3366 62.4987C80.4166 62.7587 80.2766 63.0387 80.0166 63.1287C77.3066 63.9887 74.5266 64.4387 71.7366 64.4487H71.7266Z" fill="#808080"></path>
    <path d="M102.658 56.2755C102.398 56.2755 102.178 56.0655 102.158 55.7955C102.138 55.4455 102.308 55.1955 102.428 55.0355C102.458 54.9955 102.498 54.9355 102.508 54.9155C102.508 54.5055 102.568 54.0855 102.618 53.6755C102.678 53.2755 102.728 52.8955 102.728 52.5255C102.708 50.8055 103.008 49.0655 103.698 46.8855C103.808 46.5355 103.948 46.1855 104.088 45.8455C104.348 45.2055 104.588 44.5955 104.648 43.9355C104.688 43.4355 104.738 42.9355 104.798 42.4355C104.848 42.0755 104.908 41.7255 104.978 41.3655C105.128 40.6055 105.268 39.8755 105.168 39.1455C105.148 38.9755 105.148 38.8055 105.158 38.6355C105.158 38.5255 105.168 38.4155 105.158 38.3155C105.028 37.2255 105.478 36.3055 106.498 35.6055C106.728 35.4455 107.038 35.5055 107.198 35.7355C107.358 35.9655 107.298 36.2755 107.068 36.4355C106.348 36.9355 106.068 37.4755 106.158 38.2055C106.178 38.3655 106.178 38.5255 106.158 38.6955C106.158 38.8055 106.148 38.9155 106.158 39.0255C106.278 39.9155 106.118 40.7555 105.958 41.5655C105.898 41.8955 105.828 42.2355 105.788 42.5655C105.728 43.0455 105.678 43.5355 105.638 44.0155C105.568 44.8255 105.288 45.5355 105.008 46.2155C104.878 46.5355 104.748 46.8555 104.648 47.1855C103.998 49.2555 103.708 50.9055 103.728 52.5155C103.728 52.9655 103.668 53.3955 103.608 53.8155C103.548 54.2055 103.498 54.5755 103.498 54.9355C103.498 55.2555 103.338 55.4755 103.228 55.6255C103.198 55.6655 103.148 55.7255 103.148 55.7555C103.168 56.0355 102.958 56.2555 102.688 56.2755C102.678 56.2755 102.668 56.2755 102.658 56.2755Z" fill="#808080"></path>
    <path d="M59.78 60.505C59.6 60.505 59.42 60.405 59.33 60.235C59.21 59.985 59.3 59.685 59.55 59.565C60.75 58.955 61.85 58.465 62.9 58.075L63.09 58.005C63.92 57.695 64.79 57.365 65.73 57.285C66.09 57.255 66.43 57.275 66.76 57.285C67.24 57.315 67.69 57.335 68.11 57.205C68.46 57.095 68.9 57.275 69.17 57.505C69.5 57.785 69.9 57.975 70.33 58.185C70.52 58.275 70.71 58.375 70.9 58.475C71.08 58.575 71.27 58.655 71.45 58.735C71.89 58.925 72.39 59.145 72.79 59.555C72.98 59.755 72.98 60.065 72.79 60.265C72.59 60.455 72.28 60.455 72.08 60.265C71.81 59.995 71.44 59.835 71.05 59.665C70.84 59.575 70.62 59.475 70.42 59.365C70.25 59.275 70.07 59.185 69.89 59.095C69.43 58.865 68.95 58.635 68.53 58.285C68.45 58.225 68.37 58.185 68.34 58.185C67.82 58.355 67.26 58.325 66.71 58.295C66.4 58.275 66.11 58.265 65.82 58.295C65.01 58.365 64.24 58.655 63.44 58.955L63.24 59.025C62.22 59.405 61.16 59.875 59.99 60.475C59.92 60.515 59.84 60.525 59.76 60.525L59.78 60.505Z" fill="#808080"></path>
    <path d="M113.669 42.9473C113.599 42.9473 113.539 42.9373 113.469 42.9073C112.189 42.3573 110.799 42.1573 109.489 42.0173C109.189 41.9873 108.889 41.9573 108.589 41.9273C107.599 41.8373 106.579 41.7473 105.569 41.4573C105.299 41.3773 105.149 41.0973 105.229 40.8373C105.309 40.5773 105.589 40.4173 105.849 40.4973C106.759 40.7673 107.689 40.8473 108.669 40.9373C108.979 40.9673 109.279 40.9873 109.589 41.0273C110.979 41.1773 112.449 41.3973 113.859 41.9973C114.109 42.1073 114.229 42.3973 114.119 42.6573C114.039 42.8473 113.849 42.9573 113.659 42.9573L113.669 42.9473Z" fill="#808080"></path>
    <path d="M63.4293 48.7262C63.2693 48.7262 63.1193 48.6562 63.0193 48.5162C62.6293 47.9562 62.8593 47.4162 62.9893 47.0862L63.0293 46.9962C63.2493 46.4462 63.3693 45.9562 63.2593 45.3862C62.9493 43.8062 62.5893 42.1262 62.0693 40.4962C61.9893 40.2362 62.1293 39.9562 62.3893 39.8662C62.6493 39.7862 62.9293 39.9262 63.0193 40.1862C63.5493 41.8562 63.9193 43.5762 64.2293 45.1862C64.3993 46.0462 64.1993 46.7362 63.9493 47.3562L63.9093 47.4662C63.7793 47.7762 63.7693 47.8562 63.8293 47.9462C63.9893 48.1762 63.9293 48.4862 63.7093 48.6462C63.6193 48.7062 63.5193 48.7362 63.4193 48.7362L63.4293 48.7262Z" fill="#808080"></path>
    <path d="M43.2784 71.1529C43.2784 71.1529 43.1784 71.1529 43.1384 71.1329C41.9784 70.7829 40.7884 70.4829 39.5684 70.1829C39.0884 70.0629 38.5984 69.9729 38.1084 69.8829C36.7184 69.6129 35.2784 69.3429 33.9784 68.4929C33.6584 68.2829 33.3084 68.1229 32.9484 67.9429C32.5584 67.7529 32.1584 67.5629 31.7784 67.3129C30.7384 66.6329 30.1384 65.8429 29.8784 64.8329L29.7684 64.3929C29.6884 64.0429 29.5984 63.6829 29.4884 63.3429C28.3384 59.9529 27.7784 56.8929 27.7584 53.9929C27.7584 53.7529 27.7384 53.7029 27.6984 53.6629C27.5984 53.5729 27.5384 53.4529 27.5284 53.3229L27.4284 52.0929C27.1484 51.7629 27.1484 51.3729 27.1584 51.1229C27.1584 51.0229 27.1584 50.9229 27.1484 50.8629L26.9184 49.9629C26.6584 48.9429 26.3784 47.8929 26.1884 46.8329C26.1584 46.6529 26.1184 46.4829 26.0684 46.3129C25.9284 45.7429 25.7684 45.0929 25.9484 44.3829C26.0284 44.0729 26.0584 43.9429 26.0284 43.8129C25.6184 42.2529 24.7984 41.1229 23.5384 40.3429C23.2984 40.2029 23.2284 39.8929 23.3684 39.6529C23.5084 39.4129 23.8184 39.3429 24.0584 39.4929C25.5284 40.3929 26.5184 41.7629 26.9984 43.5629C27.0984 43.9529 27.0184 44.2829 26.9484 44.5529C26.8084 45.1129 26.9184 45.5629 27.0484 46.0929C27.0984 46.2829 27.1384 46.4729 27.1784 46.6729C27.3684 47.7029 27.6384 48.7329 27.8984 49.7329L28.1284 50.6429C28.1784 50.8329 28.1784 51.0029 28.1684 51.1629C28.1684 51.4329 28.1784 51.4529 28.2284 51.4929C28.3384 51.5829 28.4184 51.7129 28.4284 51.8529L28.5284 53.0929C28.7784 53.4129 28.7784 53.7929 28.7784 54.0129C28.7984 56.8029 29.3384 59.7529 30.4584 63.0429C30.5884 63.4129 30.6784 63.8029 30.7684 64.1829L30.8684 64.6129C31.0584 65.3729 31.5184 65.9629 32.3484 66.5029C32.6784 66.7129 33.0284 66.8829 33.4084 67.0629C33.7884 67.2429 34.1884 67.4329 34.5584 67.6829C35.6884 68.4229 36.9684 68.6629 38.3284 68.9229C38.8384 69.0229 39.3384 69.1129 39.8384 69.2429C41.0684 69.5429 42.2784 69.8429 43.4584 70.2029C43.7184 70.2829 43.8684 70.5629 43.7884 70.8229C43.7284 71.0429 43.5284 71.1829 43.3084 71.1829L43.2784 71.1529Z" fill="#808080"></path>
    <path d="M65.7195 56.2682C65.4795 56.2682 65.2695 56.0982 65.2295 55.8582C65.2095 55.7582 65.2095 55.6482 65.2095 55.5482C65.2095 55.4782 65.2095 55.4182 65.1995 55.3782C65.0595 54.8882 64.8695 54.4082 64.6595 53.9082C64.4495 53.3882 64.2295 52.8482 64.0695 52.2682C63.8695 51.5482 63.5895 50.8282 63.3195 50.1182C63.1295 49.6182 62.9395 49.1282 62.7695 48.6182C62.6795 48.3582 62.8195 48.0682 63.0795 47.9882C63.3395 47.8982 63.6295 48.0382 63.7095 48.2982C63.8695 48.7882 64.0595 49.2682 64.2395 49.7582C64.5195 50.4782 64.7995 51.2282 65.0195 51.9882C65.1695 52.5082 65.3695 52.9982 65.5695 53.5282C65.7695 54.0282 65.9795 54.5482 66.1395 55.0982C66.1895 55.2682 66.1895 55.4182 66.1895 55.5382C66.1895 55.5882 66.1895 55.6282 66.1895 55.6782C66.2395 55.9482 66.0595 56.2082 65.7895 56.2582C65.7595 56.2582 65.7295 56.2582 65.6995 56.2582L65.7195 56.2682Z" fill="#808080"></path>
    <path d="M43.1788 59.335C43.0088 59.335 42.8888 59.285 42.7988 59.225C42.5288 59.045 42.4788 58.755 42.4588 58.615C42.2588 57.775 41.9288 57.025 41.5388 56.205C41.4188 55.955 41.2888 55.705 41.1588 55.455C40.6688 54.515 40.1588 53.535 40.1888 52.325C40.1888 52.045 40.4388 51.825 40.7088 51.845C40.9888 51.845 41.1988 52.085 41.1888 52.365C41.1588 53.315 41.5888 54.135 42.0388 54.995C42.1788 55.255 42.3088 55.515 42.4388 55.785C42.8388 56.625 43.2088 57.455 43.4188 58.355C43.5788 58.405 43.6988 58.535 43.7488 58.705C43.8188 58.965 43.6688 59.235 43.4088 59.305C43.3188 59.325 43.2388 59.335 43.1688 59.335H43.1788Z" fill="#808080"></path>
    <path d="M76.2679 53.6689C76.0679 53.6689 75.8779 53.5489 75.7979 53.3489C75.5779 52.7889 75.3779 52.2289 75.2779 51.5889C75.1679 50.8289 74.9779 50.1089 74.7079 49.3889C74.6179 49.1489 74.4879 48.9089 74.3579 48.6789C74.0379 48.1089 73.6779 47.4589 73.7679 46.6389C73.7979 46.3689 74.0479 46.1689 74.3179 46.1889C74.5879 46.2189 74.7979 46.4589 74.7679 46.7389C74.7179 47.2489 74.9579 47.6889 75.2379 48.1889C75.3879 48.4589 75.5379 48.7389 75.6479 49.0289C75.9479 49.8189 76.1579 50.6189 76.2779 51.4489C76.3579 51.9789 76.5379 52.4789 76.7379 52.9889C76.8379 53.2489 76.7079 53.5389 76.4579 53.6389C76.3979 53.6589 76.3379 53.6689 76.2779 53.6689H76.2679Z" fill="#808080"></path>
    <path d="M83.6872 37.1737H83.6672C83.3872 37.1637 83.1772 36.9237 83.1872 36.6537C83.2072 36.1437 83.1472 35.6437 83.0772 35.1037C83.0172 34.6437 82.9572 34.1637 82.9572 33.6737V33.3937C82.9572 32.3037 82.9372 31.1737 83.3672 30.0737C83.4672 29.8137 83.7572 29.6837 84.0172 29.7837C84.2772 29.8837 84.4072 30.1737 84.3072 30.4337C83.9572 31.3637 83.9572 32.3437 83.9672 33.3937V33.6737C83.9672 34.1037 84.0272 34.5337 84.0772 34.9837C84.1472 35.5337 84.2172 36.1137 84.1872 36.7037C84.1772 36.9737 83.9572 37.1837 83.6872 37.1837V37.1737Z" fill="#808080"></path>
    <path d="M76.5599 62.917C76.4499 62.917 76.3399 62.877 76.2499 62.807L75.4699 62.187C74.8599 61.707 74.2599 61.227 73.6599 60.737C73.2099 60.367 72.8799 60.337 72.2599 60.587C71.4399 60.927 70.5399 60.997 69.6699 61.057L69.2999 61.087C68.6799 61.137 68.0499 61.207 67.4299 61.277L66.5999 61.367C66.3199 61.397 66.0799 61.197 66.0499 60.927C66.0199 60.657 66.2199 60.407 66.4899 60.377L67.3099 60.287C67.9399 60.217 68.5799 60.137 69.2099 60.087L69.5799 60.057C70.3699 59.997 71.1899 59.937 71.8599 59.657C72.8199 59.257 73.5399 59.347 74.2799 59.957C74.8699 60.447 75.4699 60.917 76.0799 61.397L76.8699 62.017C77.0899 62.187 77.1199 62.507 76.9499 62.717C76.8498 62.837 76.7099 62.907 76.5599 62.907V62.917Z" fill="#808080"></path>
    <path d="M127.278 73.8757C126.848 73.8757 126.638 73.5757 126.398 72.9657C126.328 72.7957 126.317 72.6857 126.307 72.6057C126.307 72.5857 126.307 72.5757 126.307 72.5757C126.148 72.3857 126.148 72.1057 126.307 71.9157C126.498 71.7057 126.807 71.6957 127.017 71.8757C127.247 72.0857 127.278 72.3457 127.298 72.4857L127.328 72.5957C127.358 72.6857 127.398 72.7757 127.428 72.8457C127.498 72.8257 127.587 72.7857 127.627 72.7757C129.067 72.2357 130.208 71.7257 131.218 71.1757C131.188 71.1657 131.158 71.0957 131.138 71.0157C131.118 70.9657 131.098 70.8857 131.078 70.8657C130.858 70.6957 130.828 70.3857 130.998 70.1657C131.168 69.9457 131.488 69.9157 131.708 70.0857C131.948 70.2757 132.027 70.5257 132.087 70.6957C132.097 70.7357 132.118 70.7757 132.128 70.8157C132.338 71.2957 132.168 71.7857 131.708 72.0457C130.658 72.6257 129.478 73.1557 127.978 73.7157C127.688 73.8257 127.468 73.8757 127.278 73.8757Z" fill="#808080"></path>
    <path d="M73.3076 39.0362C73.1276 38.2762 72.9576 37.5862 73.1576 36.7862C73.2276 36.5062 73.2076 36.1362 73.0876 35.6862C72.8776 34.8562 72.3176 34.2762 71.8076 33.8262C71.5976 33.6462 71.5776 33.3262 71.7676 33.1162C71.9576 32.9062 72.2676 32.8862 72.4776 33.0762C73.1076 33.6262 73.7876 34.3462 74.0676 35.4462C74.2276 36.0662 74.2476 36.6062 74.1376 37.0462C73.9976 37.6062 74.1176 38.1162 74.2676 38.7162L73.8076 38.9262L73.3176 39.0462L73.3076 39.0362Z" fill="#808080"></path>
    <path d="M93.5883 39.1169C93.5283 39.1169 93.4783 39.1169 93.4183 39.0869C93.1583 38.9969 93.0283 38.7069 93.1183 38.4469C93.1683 38.2969 93.1683 38.1169 93.1683 37.8969C93.1683 37.6369 93.1683 37.3469 93.2683 37.0469C93.3483 36.7769 93.4383 36.5169 93.5283 36.2569C93.8783 35.2369 94.1983 34.2669 94.2583 33.2369C94.2783 32.9569 94.5083 32.7469 94.7883 32.7669C95.0683 32.7869 95.2783 33.0169 95.2583 33.2969C95.1883 34.4669 94.8283 35.5369 94.4783 36.5769C94.3883 36.8369 94.2983 37.0969 94.2183 37.3569C94.1683 37.5169 94.1683 37.6969 94.1683 37.9069C94.1683 38.1769 94.1683 38.4769 94.0483 38.7969C93.9783 38.9969 93.7783 39.1269 93.5783 39.1269L93.5883 39.1169Z" fill="#808080"></path>
    <path d="M96.1175 58.3301C96.0175 58.3301 95.9175 58.3001 95.8275 58.2301C95.5975 58.0601 95.2975 57.9901 94.9575 57.9101C94.7775 57.8701 94.6075 57.8301 94.4275 57.7701C93.2575 57.4001 92.2575 56.7601 91.2875 56.1401C91.0575 56.0001 90.8375 55.8501 90.6075 55.7101C90.3775 55.5601 90.2975 55.2601 90.4475 55.0201C90.5875 54.7801 90.8975 54.7101 91.1375 54.8601C91.3675 55.0001 91.5975 55.1501 91.8275 55.2901C92.7875 55.9001 93.6975 56.4801 94.7375 56.8101C94.8875 56.8601 95.0375 56.8901 95.1875 56.9301C95.5775 57.0201 96.0175 57.1201 96.4175 57.4101C96.6375 57.5701 96.6875 57.8801 96.5275 58.1101C96.4275 58.2401 96.2775 58.3201 96.1175 58.3201V58.3301Z" fill="#808080"></path>
    <path d="M96.9973 58.2947C96.7273 58.2947 96.5173 58.1047 96.4973 57.8447C96.4773 57.4247 96.7073 57.2547 96.8473 57.1947L96.9873 57.1347C97.8873 56.7247 98.8273 56.2947 99.9273 56.2547C100.757 56.2247 101.337 56.0047 101.757 55.5447C101.947 55.3447 102.257 55.3247 102.467 55.5147C102.667 55.7047 102.687 56.0147 102.497 56.2247C101.897 56.8847 101.067 57.2247 99.9673 57.2547C99.0773 57.2847 98.2773 57.6447 97.4373 58.0247C97.3573 58.1747 97.1973 58.2947 97.0173 58.2947C97.0173 58.2947 97.0073 58.2947 96.9973 58.2947Z" fill="#808080"></path>
    <path d="M91.8163 52.2577C91.5463 52.2577 91.3263 52.0477 91.3163 51.7677C91.2763 50.3777 91.5563 49.0377 91.8363 47.7477C91.9063 47.4177 91.9763 47.0977 92.0363 46.7677C92.0863 46.4977 92.3563 46.3177 92.6263 46.3677C92.8963 46.4177 93.0763 46.6877 93.0263 46.9577C92.9663 47.2877 92.8963 47.6177 92.8263 47.9477C92.5563 49.2377 92.2963 50.4577 92.3363 51.7377C92.3363 52.0177 92.1263 52.2477 91.8563 52.2477C91.8563 52.2477 91.8463 52.2477 91.8363 52.2477L91.8163 52.2577Z" fill="#808080"></path>
    <path d="M62.6562 40.5934C62.4562 40.5934 62.2762 40.4734 62.1962 40.2834C62.0162 39.8534 61.9062 39.4034 61.8462 38.9234C61.7962 38.4834 61.6162 38.0534 61.4162 37.5934L61.3162 37.3434C61.0662 36.7334 60.7062 36.1834 60.3562 35.6634C60.2062 35.4334 60.2662 35.1234 60.4862 34.9734C60.7162 34.8234 61.0262 34.8834 61.1762 35.1034C61.5362 35.6334 61.9462 36.2634 62.2262 36.9534L62.3262 37.1934C62.5362 37.6934 62.7562 38.2134 62.8262 38.7934C62.8762 39.1834 62.9662 39.5534 63.1062 39.8934C63.2062 40.1534 63.0862 40.4434 62.8262 40.5434C62.7662 40.5634 62.6962 40.5834 62.6362 40.5834L62.6562 40.5934Z" fill="#808080"></path>
    <path d="M123.957 95.1646C123.897 95.1646 123.837 95.1546 123.777 95.1346C123.517 95.0346 123.397 94.7446 123.487 94.4846C123.637 94.0746 123.987 93.9346 124.187 93.8546C124.227 93.8346 124.267 93.8246 124.307 93.8046C125.357 93.2646 126.427 92.7746 127.507 92.2746C128.197 91.9546 128.877 91.6446 129.557 91.3146L130.547 90.8346C131.517 90.3646 132.487 89.8946 133.467 89.4446C134.007 89.1946 134.547 88.9246 135.087 88.6646C135.897 88.2646 136.717 87.8646 137.547 87.5046C138.147 87.2446 138.727 86.9646 139.317 86.6846C139.697 86.5046 140.087 86.3146 140.467 86.1346L140.637 86.0546C141.827 85.5046 142.107 85.3746 143.297 84.6746C144.067 84.2146 145.277 84.3746 145.417 84.3946C145.477 84.3946 145.537 84.4246 145.587 84.4546C146.397 84.9146 146.477 85.0946 146.527 85.2146C146.627 85.4746 146.507 85.7646 146.257 85.8646C146.037 85.9546 145.777 85.8646 145.657 85.6846C145.587 85.6246 145.387 85.4946 145.197 85.3846C144.797 85.3446 144.147 85.3546 143.817 85.5446C142.587 86.2746 142.267 86.4246 141.067 86.9746L140.897 87.0546C140.517 87.2346 140.137 87.4146 139.757 87.5946C139.157 87.8846 138.557 88.1746 137.947 88.4346C137.127 88.7846 136.327 89.1746 135.527 89.5746C134.977 89.8446 134.437 90.1046 133.887 90.3646C132.917 90.8146 131.947 91.2846 130.987 91.7446L129.997 92.2246C129.307 92.5546 128.617 92.8746 127.937 93.1946C126.877 93.6846 125.817 94.1746 124.777 94.7046C124.707 94.7346 124.637 94.7646 124.567 94.7946C124.517 94.8146 124.437 94.8446 124.417 94.8646C124.347 95.0646 124.157 95.1846 123.957 95.1846V95.1646Z" fill="#808080"></path>
    <path d="M144.588 85.1235C144.528 85.1235 144.458 85.1135 144.398 85.0835L142.708 84.3735C142.458 84.2635 142.328 83.9735 142.438 83.7235C142.548 83.4735 142.838 83.3435 143.088 83.4535L144.778 84.1635C145.028 84.2735 145.158 84.5635 145.048 84.8135C144.968 85.0035 144.778 85.1235 144.588 85.1235Z" fill="#808080"></path>
    <path d="M124.548 95.5117C124.468 95.5117 124.388 95.4917 124.318 95.4517C123.868 95.2117 123.348 95.1217 122.808 95.0217C122.608 94.9817 122.408 94.9517 122.208 94.9117C121.938 94.8517 121.768 94.5917 121.828 94.3217C121.888 94.0517 122.158 93.8817 122.418 93.9417C122.608 93.9817 122.788 94.0117 122.978 94.0517C123.578 94.1617 124.188 94.2717 124.788 94.5817C125.028 94.7117 125.128 95.0117 124.998 95.2617C124.908 95.4317 124.738 95.5317 124.558 95.5317L124.548 95.5117Z" fill="#808080"></path>
    <path d="M148.719 81.7092C148.719 81.7092 148.659 81.7092 148.639 81.7092C148.129 81.6192 147.609 81.6393 147.049 81.6493C146.799 81.6493 146.549 81.6593 146.299 81.6493C146.019 81.6493 145.799 81.4192 145.809 81.1392C145.809 80.8592 146.029 80.6293 146.319 80.6493C146.559 80.6493 146.799 80.6493 147.039 80.6493C147.609 80.6393 148.209 80.6193 148.809 80.7193C149.079 80.7693 149.269 81.0193 149.219 81.2993C149.179 81.5393 148.969 81.7192 148.729 81.7192L148.719 81.7092Z" fill="#808080"></path>
    <path d="M148.72 42.7162C148.72 42.7162 148.68 42.7162 148.66 42.7162C147.97 42.6362 147.24 42.6362 146.28 42.7162C146 42.7462 145.76 42.5362 145.74 42.2562C145.72 41.9762 145.92 41.7362 146.2 41.7162C147.22 41.6363 148.02 41.6363 148.77 41.7162C149.04 41.7462 149.24 41.9962 149.21 42.2662C149.18 42.5262 148.96 42.7062 148.71 42.7062L148.72 42.7162Z" fill="#808080"></path>
    <path d="M20.1881 64.9766H17.8281C17.5481 64.9766 17.3281 64.7566 17.3281 64.4766C17.3281 64.1966 17.5481 63.9766 17.8281 63.9766H20.1881C20.4681 63.9766 20.6881 64.1966 20.6881 64.4766C20.6881 64.7566 20.4681 64.9766 20.1881 64.9766Z" fill="#808080"></path>
    <path d="M20.1867 77.1155C20.1867 77.1155 20.1267 77.1155 20.0967 77.1155C19.6467 77.0355 19.1767 77.0455 18.6867 77.0555C18.4167 77.0555 18.1467 77.0655 17.8767 77.0555C17.5967 77.0555 17.3867 76.8155 17.3867 76.5455C17.3867 76.2655 17.6467 76.0555 17.8967 76.0555C18.1467 76.0555 18.3967 76.0555 18.6567 76.0555C19.1767 76.0455 19.7167 76.0255 20.2767 76.1255C20.5467 76.1755 20.7267 76.4355 20.6767 76.7055C20.6367 76.9455 20.4267 77.1155 20.1867 77.1155Z" fill="#808080"></path>
    <path d="M83.7496 25.9862C83.5896 25.9862 83.4396 25.9162 83.3396 25.7762L82.9996 25.2962C82.7096 24.8962 82.4296 24.4962 82.1696 24.0862C82.0996 24.0662 82.0396 24.0462 81.9996 24.0162C81.7696 23.8662 81.7096 23.5562 81.8596 23.3262C81.9796 23.1462 82.1896 23.0662 82.3896 23.1162C82.6996 23.1162 82.8696 23.2962 82.9596 23.4562C83.2196 23.8862 83.5196 24.3062 83.8096 24.7162L84.1596 25.2062C84.3196 25.4362 84.2596 25.7462 84.0396 25.9062C83.9496 25.9662 83.8496 25.9962 83.7496 25.9962V25.9862Z" fill="#808080"></path>
    <path d="M21.6092 36.1792C21.4292 36.1792 21.2492 36.0792 21.1592 35.8992C20.8792 35.3392 20.5492 34.6892 20.1292 34.0692C19.9792 33.8392 20.0392 33.5292 20.2692 33.3792C20.4992 33.2292 20.8092 33.2892 20.9592 33.5192C21.4092 34.1892 21.7592 34.8792 22.0492 35.4592C22.1692 35.7092 22.0692 36.0092 21.8192 36.1292C21.7492 36.1692 21.6692 36.1792 21.5992 36.1792H21.6092Z" fill="#808080"></path>
    <path d="M28.4297 15.7969H29.9297L30.5197 19.4169C30.6297 20.1969 30.7497 20.9769 30.8597 21.7769H30.8997C31.0497 20.9769 31.2097 20.1869 31.3697 19.4169L32.2297 15.7969H33.4997L34.3497 19.4169C34.5097 20.1769 34.6597 20.9769 34.8197 21.7769H34.8697C34.9797 20.9769 35.0897 20.1869 35.1997 19.4169L35.7897 15.7969H37.1897L35.8197 23.2069H33.9797L33.1497 19.5469C33.0297 18.9669 32.9197 18.3969 32.8297 17.8269H32.7897C32.6897 18.3969 32.5897 18.9669 32.4697 19.5469L31.6597 23.2069H29.8497L28.4297 15.7969Z" fill="#878787"></path>
    <path d="M38.2109 22.02H39.8009V17.53H38.4609V16.62C39.2009 16.48 39.7109 16.29 40.1809 16H41.2709V22.02H42.6609V23.21H38.2109V22.02Z" fill="#878787"></path>
    <path d="M47.1113 17.23H43.7812V16H48.7013V16.9C47.0213 18.95 46.7513 20.4 46.6313 23.21H45.1413C45.2713 20.72 45.7313 19.15 47.1113 17.23Z" fill="#878787"></path>
    <path d="M49.4297 22.34L50.1097 21.4C50.5297 21.81 51.0497 22.15 51.7397 22.15C52.5097 22.15 53.0497 21.7 53.0497 20.89C53.0497 20.08 52.5497 19.64 51.7997 19.64C51.3597 19.64 51.1197 19.75 50.6897 20.03L50.0197 19.6L50.2197 16H54.1797V17.23H51.4897L51.3497 18.8C51.6497 18.67 51.8997 18.6 52.2397 18.6C53.4797 18.6 54.5197 19.3 54.5197 20.84C54.5197 22.38 53.2997 23.35 51.9297 23.35C50.7597 23.35 49.9797 22.89 49.4297 22.34Z" fill="#878787"></path>
    <path d="M55.5 20.4088C55.5 18.5488 56.84 17.4688 58.36 17.4688C59.05 17.4688 59.58 17.7388 59.99 18.0888L59.29 19.0388C59.01 18.7988 58.75 18.6688 58.44 18.6688C57.58 18.6688 57 19.3588 57 20.4088C57 21.4588 57.59 22.1488 58.39 22.1488C58.79 22.1488 59.17 21.9588 59.48 21.6988L60.07 22.6688C59.53 23.1388 58.85 23.3488 58.23 23.3488C56.68 23.3488 55.5 22.2688 55.5 20.4088Z" fill="#878787"></path>
    <path d="M61.1211 17.6088H62.3211L62.4311 18.3588H62.4611C62.9311 17.8688 63.4511 17.4688 64.1811 17.4688C64.9811 17.4688 65.4511 17.8288 65.7211 18.4488C66.2311 17.9088 66.7711 17.4688 67.5011 17.4688C68.6911 17.4688 69.2411 18.3088 69.2411 19.7188V23.2087H67.7711V19.8988C67.7711 19.0288 67.5211 18.7288 66.9911 18.7288C66.6711 18.7288 66.3111 18.9388 65.9111 19.3588V23.2087H64.4511V19.8988C64.4511 19.0288 64.1911 18.7288 63.6611 18.7288C63.3411 18.7288 62.9811 18.9388 62.5911 19.3588V23.2087H61.1211V17.6088Z" fill="#878787"></path>
    <path d="M14.6819 102.172H15.8819L16.3519 105.062C16.4419 105.682 16.5319 106.312 16.6219 106.952H16.6519C16.7719 106.312 16.9019 105.682 17.0319 105.062L17.7219 102.172H18.7419L19.4219 105.062C19.5519 105.672 19.6719 106.312 19.8019 106.952H19.8419C19.9319 106.312 20.0219 105.682 20.1019 105.062L20.5719 102.172H21.6919L20.5919 108.092H19.1219L18.4619 105.162C18.3619 104.702 18.2819 104.242 18.2019 103.782H18.1719C18.0919 104.242 18.0119 104.692 17.9119 105.162L17.2619 108.092H15.8119L14.6719 102.172H14.6819Z" fill="#878787"></path>
    <path d="M22.5 107.14H23.77V103.55H22.7V102.82C23.29 102.71 23.7 102.56 24.08 102.32H24.95V107.13H26.06V108.08H22.5V107.13V107.14Z" fill="#878787"></path>
    <path d="M29.6209 103.308H26.9609V102.328H30.8909V103.048C29.5509 104.688 29.3309 105.848 29.2309 108.098H28.0409C28.1409 106.108 28.5109 104.848 29.6209 103.318V103.308Z" fill="#878787"></path>
    <path d="M31.4827 107.398L32.0227 106.648C32.3627 106.978 32.7727 107.248 33.3227 107.248C33.9427 107.248 34.3727 106.888 34.3727 106.238C34.3727 105.588 33.9727 105.238 33.3727 105.238C33.0227 105.238 32.8327 105.328 32.4827 105.548L31.9427 105.208L32.1027 102.328H35.2727V103.308H33.1227L33.0127 104.568C33.2527 104.468 33.4527 104.408 33.7227 104.408C34.7127 104.408 35.5427 104.968 35.5427 106.198C35.5427 107.428 34.5627 108.208 33.4727 108.208C32.5327 108.208 31.9127 107.838 31.4727 107.398H31.4827Z" fill="#878787"></path>
    <path d="M36.3438 105.866C36.3438 104.376 37.4138 103.516 38.6338 103.516C39.1838 103.516 39.6138 103.736 39.9338 104.016L39.3737 104.776C39.1537 104.586 38.9437 104.476 38.6937 104.476C38.0037 104.476 37.5438 105.026 37.5438 105.866C37.5438 106.706 38.0138 107.256 38.6538 107.256C38.9738 107.256 39.2738 107.106 39.5238 106.896L39.9938 107.676C39.5638 108.056 39.0138 108.216 38.5238 108.216C37.2838 108.216 36.3438 107.356 36.3438 105.866Z" fill="#878787"></path>
    <path d="M40.8303 103.626H41.7903L41.8803 104.226H41.9003C42.2803 103.836 42.6903 103.516 43.2803 103.516C43.9203 103.516 44.3003 103.806 44.5103 104.296C44.9203 103.866 45.3503 103.516 45.9303 103.516C46.8803 103.516 47.3203 104.186 47.3203 105.316V108.106H46.1403V105.456C46.1403 104.756 45.9403 104.516 45.5203 104.516C45.2603 104.516 44.9803 104.686 44.6603 105.016V108.096H43.4903V105.446C43.4903 104.746 43.2803 104.506 42.8603 104.506C42.6003 104.506 42.3203 104.676 42.0003 105.006V108.086H40.8203V103.606L40.8303 103.626Z" fill="#878787"></path>
    <path d="M126.359 103.797H128.589C131.079 103.797 132.619 105.097 132.619 107.847C132.619 110.597 131.079 111.947 128.679 111.947H126.359V103.797ZM128.489 110.637C130.009 110.637 130.949 109.827 130.949 107.847C130.949 105.867 129.999 105.107 128.489 105.107H127.979V110.637H128.489Z" fill="#878787"></path>
    <path d="M133.729 109.927C133.729 108.947 134.379 108.317 135.129 107.927V107.887C134.509 107.437 134.049 106.857 134.049 106.017C134.049 104.707 135.099 103.867 136.499 103.867C137.899 103.867 138.869 104.727 138.869 106.027C138.869 106.807 138.339 107.447 137.819 107.807V107.867C138.559 108.287 139.179 108.867 139.179 109.937C139.179 111.167 138.089 112.117 136.439 112.117C134.889 112.117 133.719 111.217 133.719 109.937L133.729 109.927ZM137.679 109.867C137.679 109.077 136.919 108.787 135.879 108.357C135.449 108.697 135.129 109.177 135.129 109.747C135.129 110.487 135.739 110.957 136.489 110.957C137.179 110.957 137.679 110.567 137.679 109.867ZM137.549 106.127C137.549 105.467 137.149 105.007 136.469 105.007C135.919 105.007 135.479 105.357 135.479 106.007C135.479 106.737 136.119 107.077 136.959 107.407C137.329 107.007 137.539 106.577 137.539 106.127H137.549Z" fill="#878787"></path>
    <path d="M140.168 107.947C140.168 105.267 141.258 103.867 142.928 103.867C144.598 103.867 145.678 105.277 145.678 107.947C145.678 110.617 144.598 112.107 142.928 112.107C141.258 112.107 140.168 110.647 140.168 107.947ZM144.148 107.947C144.148 105.747 143.628 105.127 142.928 105.127C142.228 105.127 141.698 105.747 141.698 107.947C141.698 110.147 142.228 110.837 142.928 110.837C143.628 110.837 144.148 110.157 144.148 107.947Z" fill="#878787"></path>
    <path d="M146.648 108.871C146.648 106.821 148.118 105.641 149.798 105.641C150.558 105.641 151.138 105.941 151.588 106.321L150.818 107.371C150.508 107.111 150.228 106.961 149.888 106.961C148.938 106.961 148.308 107.721 148.308 108.871C148.308 110.021 148.958 110.781 149.838 110.781C150.278 110.781 150.698 110.571 151.038 110.291L151.688 111.361C151.098 111.881 150.348 112.111 149.668 112.111C147.958 112.111 146.668 110.921 146.668 108.881L146.648 108.871Z" fill="#878787"></path>
    <path d="M152.831 105.791H154.151L154.271 106.621H154.301C154.821 106.081 155.391 105.641 156.191 105.641C157.071 105.641 157.591 106.041 157.881 106.721C158.441 106.131 159.041 105.641 159.841 105.641C161.151 105.641 161.751 106.561 161.751 108.121V111.961H160.131V108.321C160.131 107.361 159.861 107.031 159.271 107.031C158.921 107.031 158.521 107.261 158.081 107.721V111.961H156.471V108.321C156.471 107.361 156.181 107.031 155.601 107.031C155.251 107.031 154.851 107.261 154.421 107.721V111.961H152.801V105.801L152.831 105.791Z" fill="#878787"></path>
    <path d="M160.959 42.7266V44.3566H157.749V47.4366H160.959V49.0566H152.809V47.4366H156.329V44.3566H152.809V42.7266H160.959Z" fill="#878787"></path>
    <path d="M154.838 50.5703C155.818 50.5703 156.448 51.2203 156.838 51.9703H156.878C157.328 51.3503 157.908 50.8903 158.748 50.8903C160.058 50.8903 160.898 51.9303 160.898 53.3403C160.898 54.7503 160.038 55.7103 158.738 55.7103C157.958 55.7103 157.318 55.1803 156.958 54.6703H156.898C156.478 55.4103 155.898 56.0303 154.828 56.0303C153.598 56.0303 152.648 54.9403 152.648 53.2903C152.648 51.7403 153.548 50.5703 154.828 50.5703H154.838ZM154.898 54.5203C155.688 54.5203 155.978 53.7603 156.408 52.7203C156.068 52.2903 155.578 51.9703 155.018 51.9703C154.278 51.9703 153.808 52.5703 153.808 53.3303C153.808 54.0203 154.198 54.5203 154.898 54.5203ZM158.638 54.3903C159.298 54.3903 159.758 53.9903 159.758 53.3103C159.758 52.7603 159.408 52.3203 158.758 52.3203C158.028 52.3203 157.688 52.9603 157.358 53.8003C157.758 54.1703 158.188 54.3803 158.638 54.3803V54.3903Z" fill="#878787"></path>
    <path d="M156.82 57.0156C159.5 57.0156 160.9 58.1056 160.9 59.7756C160.9 61.4456 159.49 62.5256 156.82 62.5256C154.15 62.5256 152.66 61.4456 152.66 59.7756C152.66 58.1056 154.12 57.0156 156.82 57.0156ZM156.82 60.9956C159.02 60.9956 159.64 60.4756 159.64 59.7756C159.64 59.0756 159.02 58.5456 156.82 58.5456C154.62 58.5456 153.93 59.0756 153.93 59.7756C153.93 60.4756 154.61 60.9956 156.82 60.9956Z" fill="#878787"></path>
    <path d="M155.89 63.5C157.94 63.5 159.12 64.97 159.12 66.65C159.12 67.41 158.82 67.99 158.44 68.44L157.4 67.67C157.66 67.36 157.81 67.08 157.81 66.73C157.81 65.78 157.05 65.15 155.9 65.15C154.75 65.15 153.99 65.8 153.99 66.68C153.99 67.12 154.2 67.54 154.48 67.88L153.41 68.53C152.89 67.94 152.66 67.19 152.66 66.51C152.66 64.8 153.85 63.51 155.89 63.51V63.5Z" fill="#878787"></path>
    <path d="M158.967 69.6784V70.9984L158.137 71.1184V71.1484C158.677 71.6684 159.117 72.2384 159.117 73.0384C159.117 73.9184 158.717 74.4384 158.037 74.7284C158.627 75.2884 159.117 75.8884 159.117 76.6884C159.117 77.9984 158.197 78.5984 156.637 78.5984H152.797V76.9784H156.437C157.397 76.9784 157.727 76.7084 157.727 76.1184C157.727 75.7684 157.497 75.3684 157.037 74.9284H152.797V73.3184H156.437C157.397 73.3184 157.727 73.0284 157.727 72.4484C157.727 72.0984 157.497 71.6984 157.037 71.2684H152.797V69.6484H158.957L158.967 69.6784Z" fill="#878787"></path>
    <path d="M13.6097 52.1172V53.2972H11.2797V55.5372H13.6097V56.7172H7.67969V55.5372H10.2397V53.2972H7.67969V52.1172H13.5997H13.6097Z" fill="#878787"></path>
    <path d="M9.11922 60.1394V57.6094H9.92922L13.4592 59.8194V61.2394H10.0292V61.9394H9.12922V61.2394H7.69922V60.1394H9.12922H9.11922ZM10.0192 60.1394H11.1692C11.5092 60.1394 12.0592 60.1594 12.3992 60.1794V60.1494C12.0892 60.0094 11.7892 59.8494 11.4692 59.6794L10.0092 58.7594V60.1394H10.0192Z" fill="#878787"></path>
    <path d="M10.5903 62.5078C12.5403 62.5078 13.5603 63.2978 13.5603 64.5178C13.5603 65.7378 12.5403 66.5178 10.5903 66.5178C8.64031 66.5178 7.57031 65.7378 7.57031 64.5178C7.57031 63.2978 8.63031 62.5078 10.5903 62.5078ZM10.5903 65.3978C12.1903 65.3978 12.6403 65.0178 12.6403 64.5078C12.6403 63.9978 12.1903 63.6078 10.5903 63.6078C8.99031 63.6078 8.49031 63.9878 8.49031 64.5078C8.49031 65.0278 8.99031 65.3978 10.5903 65.3978Z" fill="#878787"></path>
    <path d="M9.92031 67.2188C11.4103 67.2188 12.2703 68.2888 12.2703 69.5088C12.2703 70.0588 12.0503 70.4887 11.7703 70.8087L11.0103 70.2487C11.2003 70.0287 11.3103 69.8187 11.3103 69.5687C11.3103 68.8787 10.7603 68.4187 9.92031 68.4187C9.08031 68.4187 8.53031 68.8887 8.53031 69.5287C8.53031 69.8487 8.68031 70.1488 8.89031 70.3988L8.11031 70.8688C7.73031 70.4388 7.57031 69.8888 7.57031 69.3988C7.57031 68.1588 8.43031 67.2188 9.92031 67.2188Z" fill="#878787"></path>
    <path d="M12.1597 71.7209V72.6809L11.5597 72.7709V72.7909C11.9497 73.1709 12.2697 73.5809 12.2697 74.1709C12.2697 74.8109 11.9797 75.1909 11.4897 75.4009C11.9197 75.8109 12.2697 76.2409 12.2697 76.8209C12.2697 77.7709 11.5997 78.2109 10.4697 78.2109H7.67969V77.0309H10.3297C11.0297 77.0309 11.2697 76.8309 11.2697 76.4109C11.2697 76.1509 11.0997 75.8709 10.7697 75.5509H7.68969V74.3809H10.3397C11.0397 74.3809 11.2797 74.1709 11.2797 73.7509C11.2797 73.4909 11.1097 73.2109 10.7797 72.8909H7.69969V71.7109H12.1797L12.1597 71.7209Z" fill="#878787"></path>
    <path d="M122.601 59.3208C122.601 59.3208 122.561 59.3208 122.541 59.3208C122.271 59.2908 122.071 59.0408 122.111 58.7608C122.391 56.4908 123.791 54.1808 123.851 54.0908C123.991 53.8608 124.301 53.7808 124.541 53.9208C124.781 54.0608 124.851 54.3708 124.711 54.6108C124.701 54.6308 123.371 56.8308 123.111 58.8808C123.081 59.1308 122.861 59.3208 122.611 59.3208H122.601Z" fill="#808080"></path>
    <path d="M66.7315 107.703C66.5115 107.703 66.2915 107.523 66.0815 107.353L64.5615 106.433C62.9815 105.493 61.4015 104.543 59.8215 103.613C58.6415 102.923 57.4715 102.213 56.3015 101.503C54.9615 100.693 53.6315 99.8829 52.2715 99.0929C51.4815 98.6329 50.7015 98.1729 49.9215 97.7029C49.0615 97.1929 48.2115 96.6829 47.3415 96.1829C45.5815 95.1729 43.8515 94.1229 42.1215 93.0729C40.9115 92.3429 39.7115 91.6129 38.4915 90.8929L36.9615 89.9929C35.6615 89.2329 34.3715 88.4729 33.0815 87.6929C31.8215 86.9229 30.5515 86.1729 29.2815 85.4329C27.5615 84.4229 25.7815 83.3729 24.0615 82.2929C23.5015 81.9429 22.9215 81.6129 22.3415 81.2729C21.5415 80.8129 20.7115 80.3329 19.9215 79.8029C19.6915 79.6529 19.6315 79.3429 19.7815 79.1129C19.9315 78.8829 20.2415 78.8229 20.4715 78.9729C21.2315 79.4829 22.0415 79.9529 22.8315 80.4029C23.4215 80.7429 24.0015 81.0829 24.5815 81.4329C26.2915 82.5029 28.0715 83.5529 29.7815 84.5629C31.0515 85.3129 32.3315 86.0629 33.5915 86.8329C34.8715 87.6129 36.1615 88.3729 37.4515 89.1329L38.9915 90.0329C40.2115 90.7529 41.4215 91.4829 42.6315 92.2129C44.3615 93.2529 46.0915 94.3029 47.8415 95.3129C48.7115 95.8129 49.5715 96.3229 50.4315 96.8429C51.2115 97.3129 51.9915 97.7729 52.7715 98.2329C54.1315 99.0229 55.4715 99.8329 56.8215 100.653C57.9915 101.363 59.1515 102.063 60.3315 102.753C61.9215 103.683 63.5015 104.633 65.0815 105.573L66.4615 106.403C66.5815 106.403 66.6915 106.463 66.7815 106.543C67.0715 106.833 67.4015 107.163 67.0715 107.523C66.9615 107.643 66.8415 107.693 66.7315 107.693V107.703Z" fill="#808080"></path>
    <path d="M19.0094 80.6462C18.7794 80.6462 18.5694 80.4862 18.5194 80.2462C18.3994 79.6562 18.8694 79.3962 19.0194 79.3062L19.1894 79.2162C19.7294 78.9162 20.2494 78.6262 20.6794 78.2362C20.8894 78.0562 21.1994 78.0662 21.3894 78.2762C21.5694 78.4862 21.5594 78.7962 21.3494 78.9862C20.8294 79.4462 20.2494 79.7762 19.6794 80.0962L19.5494 80.1662C19.5494 80.1662 19.5294 80.1762 19.5094 80.1862C19.4894 80.3962 19.3394 80.5862 19.1094 80.6262C19.0794 80.6262 19.0394 80.6362 19.0094 80.6362V80.6462Z" fill="#808080"></path>
    <path d="M64.9009 109.682C64.7309 109.682 64.5709 109.602 64.4709 109.442C64.3209 109.202 64.4009 108.902 64.6309 108.752L68.4209 106.412C68.6609 106.262 68.9609 106.342 69.1109 106.572C69.2609 106.812 69.1809 107.112 68.9509 107.262L65.1609 109.602C65.0809 109.652 64.9909 109.672 64.9009 109.672V109.682Z" fill="#808080"></path>
  </g>
  <defs>
    <clipPath id="clip0_5447_94679">
      <rect width="165" height="124" fill="white" transform="translate(0.5)"></rect>
    </clipPath>
  </defs>
</svg>
