<?xml version="1.0" encoding="UTF-8"?>
<svg xmlns="http://www.w3.org/2000/svg" width="166" height="124" viewBox="0 0 166 124" fill="none">
  <g clip-path="url(#clip0_5447_92634)">
    <path d="M50.7516 31.6353C50.5216 31.6353 50.3116 31.4753 50.2616 31.2353C50.2016 30.9653 50.3816 30.7053 50.6516 30.6453C51.5216 30.4653 52.3816 30.4653 53.2116 30.4653C53.7816 30.4653 54.3116 30.4653 54.8516 30.4153C55.7916 30.3253 56.7316 30.3453 57.6516 30.3553C58.6116 30.3753 59.6116 30.3853 60.5716 30.2753C61.1116 30.2153 61.6516 30.2153 62.1816 30.2153C62.7216 30.2153 63.2316 30.2153 63.7416 30.1553C64.3416 30.0853 64.9516 30.0853 65.5316 30.0953C65.9816 30.0953 66.4216 30.1053 66.8716 30.0753C68.0216 29.9953 69.1816 29.9853 70.3016 29.9753C71.1516 29.9753 72.0016 29.9553 72.8616 29.9253L74.1416 29.8653C75.7316 29.7853 77.3716 29.6953 78.9916 29.7753C79.0916 29.7753 79.2016 29.7753 79.3016 29.7753C80.7416 29.6753 82.2016 29.6453 83.6116 29.6153C85.2016 29.5853 86.8316 29.5453 88.4416 29.4153C89.0516 29.3653 89.6716 29.3753 90.2716 29.3853C90.8816 29.3853 91.4616 29.3953 92.0416 29.3553C93.0816 29.2653 94.1316 29.2753 95.1516 29.2753C95.9416 29.2753 96.7416 29.2753 97.5416 29.2353C99.7516 29.1253 101.922 29.0653 104.312 29.0053L105.842 28.9653C108.172 28.9053 110.592 28.8453 112.952 28.7453C115.212 28.6453 117.622 28.5853 120.342 28.5653C121.892 28.5453 123.442 28.4953 124.992 28.4453C126.162 28.4053 127.332 28.3653 128.502 28.3453C129.312 28.3253 130.132 28.3053 130.942 28.2853C132.662 28.2453 134.442 28.1953 136.192 28.1953C136.472 28.1953 136.692 28.4153 136.692 28.6953C136.692 28.9753 136.472 29.1953 136.192 29.1953C134.452 29.1953 132.682 29.2453 130.972 29.2853C130.152 29.3053 129.342 29.3253 128.522 29.3453C127.362 29.3653 126.192 29.4053 125.032 29.4453C123.472 29.4953 121.912 29.5553 120.352 29.5653C117.652 29.5953 115.242 29.6553 112.992 29.7453C110.612 29.8453 108.192 29.9053 105.862 29.9653L104.332 30.0053C101.942 30.0653 99.7816 30.1253 97.5816 30.2353C96.7716 30.2753 95.9516 30.2753 95.1416 30.2753C94.1516 30.2753 93.1216 30.2753 92.1216 30.3553C91.4916 30.4053 90.8716 30.3953 90.2616 30.3953C89.6616 30.3953 89.0916 30.3853 88.5316 30.4253C86.9016 30.5553 85.2416 30.5953 83.6416 30.6253C82.2416 30.6553 80.7916 30.6853 79.3816 30.7753C79.2416 30.7753 79.1016 30.7753 78.9616 30.7753C77.3816 30.7053 75.7616 30.7853 74.2016 30.8653L72.9116 30.9253C72.0516 30.9653 71.1816 30.9753 70.3216 30.9753C69.2116 30.9853 68.0716 30.9953 66.9516 31.0753C66.4816 31.1053 66.0116 31.1053 65.5316 31.0953C64.9516 31.0953 64.4116 31.0853 63.8716 31.1453C63.3016 31.2153 62.7316 31.2153 62.1916 31.2053C61.6716 31.2053 61.1916 31.2053 60.7016 31.2553C59.6716 31.3753 58.6516 31.3553 57.6516 31.3353C56.7616 31.3253 55.8516 31.3053 54.9616 31.3853C54.3816 31.4453 53.8016 31.4353 53.2316 31.4353C52.4116 31.4353 51.6316 31.4353 50.8716 31.5853C50.8416 31.5853 50.8016 31.5953 50.7716 31.5953L50.7516 31.6353Z" fill="#808080"></path>
    <path d="M97.0225 96.4807C94.6625 96.4807 92.3225 96.3007 89.9425 96.0907C89.7325 96.0707 89.5325 96.0707 89.3225 96.0607C88.9325 96.0507 88.5225 96.0307 88.1225 95.9507C87.1925 95.7607 86.2225 95.6607 85.2825 95.5607C84.8025 95.5107 84.3125 95.4607 83.8325 95.4007C83.2525 95.3307 82.6725 95.2507 82.0925 95.1707C81.2525 95.0607 80.4225 94.9407 79.5825 94.8407C77.7125 94.6207 75.7325 94.3207 73.8625 93.6307C73.2225 93.3907 72.5825 93.1807 71.9325 92.9707C70.9925 92.6607 70.0225 92.3407 69.0725 91.9507C68.2025 91.5907 67.1725 91.2407 66.1025 91.3607C65.7825 91.4007 65.4625 91.4607 65.1425 91.5207C64.7325 91.6007 64.3125 91.6807 63.8825 91.7107C62.4225 91.8207 60.9725 91.6307 59.5725 91.4407L54.3425 90.7507C52.6525 90.5307 50.9125 90.3107 49.2225 89.8707L48.8125 89.7607C47.3825 89.4007 45.9025 89.0207 44.6125 88.0907C43.6325 87.3807 42.5925 87.3607 41.4425 88.0107C40.8525 88.3407 40.2925 88.4107 39.8725 88.4307C38.6125 88.4907 37.3825 88.3207 36.1925 88.1407C35.7025 88.0707 35.2225 88.0007 34.7325 87.9507C32.2425 87.6807 30.3725 87.2507 28.6925 86.5707C27.1325 85.9407 26.0025 85.1607 25.1425 84.1107C24.6625 83.5307 24.1525 83.2407 23.4725 83.1707C22.2925 83.0607 21.2825 82.5407 20.4525 81.6407C19.2725 80.3507 18.9825 78.7807 18.7725 77.1507L18.7125 76.7307C18.5925 75.7807 18.4625 74.8107 18.3925 73.8307C18.3625 73.3607 18.2925 72.8907 18.2225 72.4207C18.1425 71.8407 18.0525 71.2507 18.0225 70.6507C17.9725 69.2907 17.8325 67.8307 17.5925 66.0707C17.4525 65.0107 17.3625 63.7907 18.0825 62.6307C19.1025 61.0007 20.4825 60.2907 22.1725 60.5407C23.0225 60.6607 23.8725 60.7707 24.7225 60.8707C25.3925 60.9407 26.0625 60.8707 26.7825 60.8007C27.0625 60.7707 27.3425 60.7407 27.6125 60.7207C28.7825 60.6307 29.9225 60.6507 30.8925 60.6807C31.5725 60.7007 32.2525 60.7807 32.9025 60.8707C33.8925 60.9907 34.8225 61.1107 35.7625 61.0207C35.8725 61.0107 35.9925 61.0107 36.1025 61.0207C37.0925 61.1107 38.0525 61.0807 39.2025 61.0207C40.6425 60.9507 42.1125 61.0507 43.5825 61.3007C44.4325 61.4507 45.0925 61.4807 45.7525 61.2007L45.8525 61.1607C46.2325 60.9907 46.7525 60.7607 47.3725 60.9707C48.7325 61.4207 50.1925 61.6507 51.8525 61.6907C52.6025 61.7107 53.3825 61.6507 54.1425 61.5907C55.0925 61.5207 56.0725 61.4407 57.0525 61.5107C57.2225 61.5207 57.4025 61.5307 57.5725 61.5307C58.3025 61.5607 59.1225 61.5907 59.8725 62.0607C59.8525 62.0507 59.9325 62.0507 59.9825 62.0507C60.4725 62.0507 60.9325 62.0807 61.4025 62.1007C62.3225 62.1407 63.2625 62.1707 64.1825 62.1207C64.6025 62.1007 65.0225 62.1007 65.4425 62.1007C65.9125 62.1007 66.3825 62.1007 66.8525 62.0707C67.3225 62.0307 67.7925 61.9707 68.2625 61.9107C68.7225 61.8507 69.1825 61.7907 69.6525 61.7507C71.0825 61.6407 72.6025 61.6407 74.5925 61.7707C75.2025 61.8107 75.9625 61.6707 76.6425 62.2207C76.8525 62.3907 76.8925 62.7107 76.7125 62.9207C76.5425 63.1307 76.2225 63.1707 76.0125 62.9907C75.6525 62.6907 75.0725 62.7907 74.5325 62.7607C72.5925 62.6407 71.1125 62.6307 69.7325 62.7407C69.2825 62.7807 68.8425 62.8307 68.3925 62.8907C67.9025 62.9507 67.4225 63.0107 66.9325 63.0507C66.4325 63.0907 65.9425 63.0907 65.4525 63.0907C65.0525 63.0907 64.6425 63.0907 64.2425 63.1107C63.2725 63.1607 62.3025 63.1207 61.3625 63.0907C60.9125 63.0707 60.4525 63.0507 60.0025 63.0507C59.8125 63.0507 59.5725 63.0507 59.3525 62.9107C58.8225 62.5807 58.2025 62.5607 57.5425 62.5307C57.3525 62.5307 57.1725 62.5207 56.9825 62.5007C56.0725 62.4407 55.1725 62.5007 54.2225 62.5807C53.4425 62.6407 52.6425 62.7107 51.8325 62.6907C50.0725 62.6507 48.5125 62.4007 47.0625 61.9207C46.8325 61.8407 46.5925 61.9307 46.2625 62.0807L46.1525 62.1307C45.1725 62.5507 44.2325 62.4307 43.4225 62.2907C42.0325 62.0507 40.6325 61.9607 39.2625 62.0207C38.1125 62.0707 37.0725 62.1107 36.0225 62.0107C35.9725 62.0107 35.9225 62.0107 35.8725 62.0107C34.8125 62.1107 33.7825 61.9907 32.7925 61.8607C32.1625 61.7807 31.5125 61.7007 30.8825 61.6807C29.9425 61.6507 28.8225 61.6407 27.7025 61.7207C27.4325 61.7407 27.1625 61.7707 26.9025 61.8007C26.1625 61.8807 25.4025 61.9607 24.6325 61.8707C23.7725 61.7707 22.9125 61.6607 22.0525 61.5407C20.7725 61.3607 19.7525 61.8907 18.9525 63.1707C18.4625 63.9607 18.4525 64.8207 18.6025 65.9507C18.8425 67.7507 18.9825 69.2307 19.0425 70.6307C19.0625 71.1807 19.1425 71.7207 19.2325 72.3007C19.3025 72.7907 19.3825 73.2907 19.4125 73.7807C19.4825 74.7207 19.6025 75.6907 19.7325 76.6207L19.7925 77.0407C19.9925 78.5607 20.2325 79.9007 21.2225 80.9807C21.8825 81.7007 22.6625 82.1007 23.5925 82.1907C24.5225 82.2807 25.2925 82.7107 25.9325 83.4907C26.6825 84.4107 27.6825 85.1007 29.0825 85.6607C30.6825 86.3107 32.4625 86.7107 34.8625 86.9807C35.3625 87.0307 35.8625 87.1107 36.3525 87.1807C37.5525 87.3507 38.6725 87.5107 39.8325 87.4607C40.3025 87.4407 40.6425 87.3507 40.9625 87.1707C42.4525 86.3307 43.9125 86.3807 45.2125 87.3107C46.3525 88.1307 47.6725 88.4707 49.0825 88.8207L49.5025 88.9307C51.1325 89.3507 52.8425 89.5707 54.5025 89.7807L59.7425 90.4707C61.0925 90.6507 62.4825 90.8407 63.8425 90.7407C64.2125 90.7107 64.5925 90.6407 64.9825 90.5607C65.3225 90.4907 65.6725 90.4307 66.0125 90.3907C67.3125 90.2507 68.5525 90.6707 69.4725 91.0507C70.3825 91.4307 71.3325 91.7407 72.2625 92.0407C72.9225 92.2607 73.5725 92.4707 74.2225 92.7107C75.9925 93.3707 77.9125 93.6507 79.7125 93.8707C80.5525 93.9707 81.3925 94.0807 82.2325 94.2007C82.8125 94.2807 83.3925 94.3607 83.9725 94.4307C84.4425 94.4907 84.9225 94.5407 85.4025 94.5907C86.3625 94.6907 87.3625 94.7907 88.3425 94.9907C88.6625 95.0607 89.0125 95.0707 89.3825 95.0807C89.6025 95.0807 89.8325 95.1007 90.0525 95.1107C92.8425 95.3507 95.5825 95.5607 98.3425 95.4807L99.4825 95.4507C100.742 95.4207 102.042 95.3907 103.292 95.2407C105.022 95.0207 106.732 94.7607 108.762 94.4407C109.772 94.2807 110.762 94.0907 111.762 93.8907C112.972 93.6607 114.212 93.4107 115.462 93.2307C116.452 93.0907 117.452 93.0407 118.412 92.9907C118.822 92.9707 119.232 92.9507 119.642 92.9207L120.032 92.8907C121.792 92.7807 123.612 92.6607 125.372 92.3307C125.652 92.2807 125.932 92.2407 126.222 92.1907C127.042 92.0607 127.822 91.9507 128.532 91.6107C129.022 91.3807 129.382 91.0607 129.712 90.5907L129.792 90.4707C130.352 89.6707 130.982 88.7607 131.972 88.2107C132.372 87.9907 132.792 87.7307 133.212 87.4407C133.562 87.2007 133.642 86.8307 133.732 86.2507L133.792 85.9407C133.982 84.9407 134.062 83.9007 134.142 82.8907C134.192 82.2507 134.242 81.6207 134.312 80.9807C134.402 80.2107 134.342 79.4607 134.272 78.6707C134.222 78.0907 134.172 77.4907 134.182 76.8807C134.182 76.5907 134.262 76.3507 134.322 76.1407C134.382 75.9507 134.422 75.7907 134.422 75.6207C134.392 73.8507 134.392 72.0707 134.392 70.3007C134.392 69.1107 134.392 67.9107 134.392 66.7207C134.392 65.3607 134.492 63.9907 134.592 62.6707C134.632 62.1407 134.672 61.6107 134.712 61.0807C134.772 60.1707 134.832 59.2607 134.902 58.3507L135.052 56.1507C135.092 55.5507 135.152 54.9407 135.212 54.3407C135.282 53.6507 135.342 52.9507 135.382 52.2607L135.402 51.8807C135.452 50.9907 135.502 50.0707 135.642 49.1707C135.752 48.4507 135.762 47.7007 135.762 46.9807V46.4407C135.782 45.7207 135.732 44.9607 135.682 44.2407L135.652 43.7407C135.602 42.9307 135.412 42.1507 135.212 41.3307C135.032 40.6007 134.852 39.8507 134.782 39.0707C134.742 38.7107 134.732 38.3507 134.712 37.9907C134.672 37.3507 134.642 36.7407 134.522 36.1407C134.232 34.6507 133.272 33.6207 131.402 32.7807C131.322 32.7407 131.222 32.7607 131.002 32.8207L130.792 32.8707C130.332 32.9707 129.902 33.2107 129.442 33.4607L129.352 33.5107C129.292 34.1507 128.962 34.5807 128.682 34.9607L128.532 35.1707C128.182 35.6507 127.912 36.1807 127.622 36.7407C127.272 37.4207 126.912 38.1107 126.412 38.7407C126.312 38.8707 126.292 39.2407 126.272 39.5207L126.222 40.2807C126.142 41.4707 126.062 42.5907 126.182 43.7307C126.242 44.2807 126.152 44.8007 126.062 45.3107C126.032 45.5107 125.992 45.7107 125.972 45.9107C125.932 46.2407 125.902 46.5707 125.872 46.9007C125.812 47.5207 125.752 48.1707 125.642 48.8107C125.542 49.3907 125.502 49.9707 125.452 50.5807C125.412 51.1307 125.372 51.7007 125.282 52.2707C125.282 52.3007 125.282 52.3407 125.282 52.3707V52.5007C125.272 54.4607 124.962 56.3407 124.632 58.2507C124.352 59.8307 124.222 61.4707 124.102 63.0607L124.042 63.8007C123.982 64.5607 123.972 65.3407 123.972 66.0907C123.972 66.6007 123.972 67.1107 123.942 67.6207C123.912 68.4207 123.492 69.0107 122.802 69.2307C122.192 69.4207 121.572 69.6207 120.842 69.3807C120.512 69.2707 120.122 69.2807 119.712 69.2907C119.462 69.2907 119.202 69.3007 118.952 69.2907C118.332 69.2407 117.712 69.2707 117.052 69.2907C116.272 69.3207 115.472 69.3507 114.672 69.2607C114.182 69.2007 113.702 69.1507 113.212 69.1107C112.492 69.0407 111.772 68.9707 111.062 68.8607C110.212 68.7307 109.312 68.7007 108.442 68.6807H108.262C107.602 68.6507 106.932 68.6507 106.272 68.6407C105.532 68.6407 104.792 68.6307 104.062 68.6007C102.652 68.5507 101.202 68.2507 99.7625 67.7207L99.6425 67.6807C99.5425 67.6407 99.4225 67.6007 99.3825 67.5907C99.4325 67.5907 99.3825 67.6507 99.3025 67.7107C99.0925 67.8807 98.7725 67.8507 98.6025 67.6407C98.4325 67.4307 98.4625 67.1107 98.6825 66.9407C99.2025 66.5207 99.4125 66.5307 100.002 66.7507L100.112 66.7907C101.452 67.2907 102.792 67.5707 104.092 67.6107C104.822 67.6407 105.552 67.6407 106.282 67.6507C106.952 67.6507 107.622 67.6607 108.302 67.6807H108.482C109.382 67.7107 110.312 67.7407 111.222 67.8807C111.922 67.9807 112.622 68.0507 113.322 68.1207C113.822 68.1707 114.312 68.2207 114.812 68.2807C115.542 68.3707 116.262 68.3407 117.032 68.3107C117.692 68.2807 118.372 68.2607 119.052 68.3107C119.272 68.3307 119.492 68.3207 119.712 68.3107C120.192 68.3107 120.682 68.2907 121.172 68.4607C121.592 68.6007 121.972 68.4807 122.442 68.3307C122.622 68.2707 122.922 68.1807 122.952 67.6207C122.972 67.1207 122.972 66.6207 122.982 66.1207C122.982 65.3507 122.992 64.5507 123.062 63.7607L123.122 63.0207C123.242 61.4107 123.372 59.7407 123.662 58.1107C123.992 56.2407 124.292 54.4007 124.302 52.5207C124.302 52.3407 124.302 52.2407 124.302 52.1407C124.382 51.6107 124.422 51.0907 124.462 50.5307C124.512 49.9207 124.552 49.2907 124.662 48.6607C124.762 48.0607 124.832 47.4307 124.882 46.8307C124.912 46.4907 124.942 46.1607 124.982 45.8207C125.012 45.6007 125.042 45.3907 125.082 45.1707C125.162 44.7107 125.232 44.2807 125.192 43.8607C125.062 42.6407 125.142 41.4207 125.222 40.2407L125.272 39.5007C125.292 39.0707 125.322 38.5307 125.632 38.1507C126.072 37.6007 126.392 36.9807 126.732 36.3207C127.022 35.7507 127.322 35.1607 127.712 34.6207L127.882 34.3907C128.102 34.1007 128.312 33.8207 128.332 33.5307C128.362 33.0907 128.642 32.7907 128.862 32.6607L128.952 32.6107C129.452 32.3307 129.962 32.0507 130.572 31.9207L130.732 31.8807C131.002 31.8107 131.382 31.7107 131.792 31.8907C133.152 32.5007 135.022 33.5807 135.482 35.9707C135.612 36.6407 135.652 37.3107 135.682 37.9607C135.702 38.3107 135.722 38.6507 135.752 39.0007C135.822 39.7107 135.982 40.4007 136.162 41.1207C136.362 41.9507 136.572 42.8107 136.622 43.7007L136.652 44.2007C136.702 44.9507 136.752 45.7207 136.742 46.4807V47.0207C136.732 47.7807 136.722 48.5707 136.602 49.3607C136.472 50.2107 136.422 51.1107 136.372 51.9707L136.352 52.3507C136.312 53.0607 136.242 53.7707 136.172 54.4707C136.112 55.0607 136.062 55.6607 136.022 56.2507L135.872 58.4607C135.812 59.3707 135.742 60.2807 135.682 61.1907C135.652 61.7307 135.602 62.2607 135.562 62.8007C135.462 64.1007 135.352 65.4407 135.362 66.7607C135.362 67.9607 135.362 69.1507 135.362 70.3507C135.362 72.1207 135.362 73.8807 135.392 75.6507C135.392 75.9707 135.322 76.2307 135.252 76.4707C135.202 76.6507 135.152 76.8007 135.152 76.9507C135.142 77.5007 135.192 78.0507 135.232 78.6307C135.302 79.4407 135.372 80.2807 135.272 81.1507C135.202 81.7707 135.152 82.3907 135.102 83.0107C135.022 84.0507 134.942 85.1207 134.732 86.1707L134.682 86.4607C134.582 87.0707 134.452 87.8207 133.732 88.3107C133.282 88.6207 132.842 88.8907 132.412 89.1307C131.622 89.5707 131.082 90.3407 130.572 91.0807L130.492 91.2007C130.062 91.8207 129.562 92.2507 128.912 92.5507C128.072 92.9507 127.182 93.0907 126.322 93.2207C126.052 93.2607 125.782 93.3007 125.502 93.3507C123.682 93.6907 121.832 93.8107 120.042 93.9207L119.652 93.9507C119.232 93.9807 118.822 94.0007 118.402 94.0207C117.462 94.0607 116.492 94.1107 115.542 94.2507C114.322 94.4307 113.082 94.6707 111.892 94.9007C110.882 95.1007 109.872 95.2907 108.852 95.4507C106.812 95.7807 105.092 96.0407 103.342 96.2607C102.032 96.4207 100.712 96.4507 99.4325 96.4807L98.3025 96.5107C97.8625 96.5207 97.4225 96.5307 96.9825 96.5307L97.0225 96.4807Z" fill="#808080"></path>
    <path d="M142.43 93.3591C142.15 93.3591 141.93 93.1391 141.93 92.8591V32.7891C141.93 32.5091 142.15 32.2891 142.43 32.2891C142.71 32.2891 142.93 32.5091 142.93 32.7891V92.8591C142.93 93.1391 142.71 93.3591 142.43 93.3591Z" fill="#808080"></path>
    <path d="M66.8313 91.2253C66.7013 91.2253 66.5713 91.1753 66.4713 91.0753C66.3113 90.9053 66.2913 90.6553 66.4113 90.4653C65.7113 88.3653 65.3213 86.2153 65.0113 84.3553C64.8413 83.3353 64.7213 82.2953 64.6113 81.2953L64.5113 80.4353C64.3713 79.2153 64.2313 77.9953 64.1013 76.7753L64.0113 76.0053C63.9313 75.3153 63.8513 74.5953 63.8313 73.8753C63.8013 72.7753 63.5813 71.6753 63.3613 70.6053C62.8713 68.1453 63.5213 66.1653 65.2913 64.6953C66.2113 63.9353 67.2813 63.6253 68.3013 63.4053C70.4413 62.9453 72.7913 62.6653 75.4613 62.5753C75.6713 62.5753 75.8213 62.5353 75.9113 62.4653C76.2813 62.1953 76.6613 62.1953 76.9413 62.1953C77.5913 62.1953 78.2413 62.2553 78.8713 62.3153C79.5713 62.3853 80.2413 62.4453 80.8913 62.4353C81.6113 62.4353 82.3413 62.4353 83.0613 62.4353C84.3013 62.4353 85.5813 62.4553 86.8413 62.3753C88.3713 62.2853 89.8713 62.4753 91.3313 62.6553L92.0513 62.7453C92.9713 62.8553 93.7213 62.9453 94.3613 62.4253C94.5713 62.2553 94.8913 62.2853 95.0613 62.4953C95.2313 62.7053 95.2013 63.0253 94.9913 63.1953C94.0313 63.9753 92.9413 63.8453 91.9813 63.7353L91.2113 63.6453C89.8013 63.4653 88.3313 63.2853 86.9013 63.3753C85.6113 63.4553 84.3213 63.4453 83.0613 63.4353C82.3413 63.4353 81.6313 63.4253 80.9113 63.4353C80.1813 63.4453 79.4713 63.3753 78.7813 63.3153C78.1813 63.2553 77.5513 63.1953 76.9413 63.1953C76.7013 63.1953 76.6013 63.1953 76.5013 63.2753C76.2513 63.4553 75.9213 63.5553 75.5013 63.5653C72.8813 63.6553 70.6013 63.9253 68.5113 64.3753C67.4813 64.5953 66.6413 64.8653 65.9313 65.4553C64.4413 66.6753 63.9213 68.2953 64.3413 70.3953C64.5613 71.5053 64.7913 72.6453 64.8313 73.8353C64.8513 74.5153 64.9313 75.2053 65.0113 75.8853L65.1013 76.6653C65.2313 77.8853 65.3613 79.0953 65.5113 80.3153L65.6113 81.1753C65.7213 82.1653 65.8413 83.1953 66.0013 84.1853C66.3013 86.0153 66.6913 88.1453 67.3613 90.1453C67.5313 90.6553 67.3213 90.9553 67.1813 91.0853C67.0813 91.1753 66.9613 91.2253 66.8313 91.2253Z" fill="#808080"></path>
    <path d="M96.7412 93.4185C96.4912 93.4185 96.2812 93.2385 96.2412 92.9885L96.1612 92.3485C96.0512 91.4685 95.9312 90.5585 95.7012 89.7085C95.3712 88.5085 95.1212 87.2785 94.8712 86.0885C94.7712 85.5785 94.6612 85.0685 94.5512 84.5585C94.2712 83.2585 93.8412 82.0085 93.4312 80.8385C93.0712 79.8185 92.8912 78.8685 92.8812 77.9385C92.8712 77.0185 92.8012 76.0685 92.7312 75.1585C92.6812 74.5085 92.6312 73.8585 92.6012 73.2085C92.5812 72.8485 92.5612 72.4985 92.5312 72.1385C92.4612 71.2785 92.3912 70.3785 92.4912 69.4785C92.5012 69.3785 92.5012 69.2785 92.5012 69.1685C92.5012 68.7285 92.5212 68.0585 93.1412 67.6585C93.2812 67.5685 93.3512 67.4585 93.3612 67.3085C93.3812 66.8385 93.6012 66.5985 93.8012 66.3885C94.8312 65.2885 97.6812 65.4285 98.7712 66.3385C98.9812 66.5185 99.0112 66.8285 98.8312 67.0385C98.6512 67.2485 98.3412 67.2785 98.1312 67.0985C97.3612 66.4585 95.1212 66.4285 94.5412 67.0485C94.3612 67.2385 94.3612 67.2485 94.3512 67.3485C94.3312 67.8285 94.0912 68.2385 93.6712 68.4985C93.5212 68.5885 93.5012 68.7785 93.4912 69.1785C93.4912 69.3085 93.4912 69.4485 93.4712 69.5685C93.3912 70.3785 93.4512 71.1885 93.5112 72.0485C93.5412 72.4185 93.5712 72.7885 93.5812 73.1485C93.6112 73.7885 93.6612 74.4285 93.7012 75.0685C93.7712 75.9985 93.8412 76.9585 93.8512 77.9085C93.8512 78.7185 94.0212 79.5685 94.3512 80.4885C94.7512 81.6385 95.2112 82.9685 95.5112 84.3285C95.6212 84.8385 95.7312 85.3585 95.8312 85.8685C96.0712 87.0385 96.3212 88.2585 96.6412 89.4285C96.8912 90.3385 97.0112 91.2885 97.1312 92.2085L97.2112 92.8385C97.2512 93.1085 97.0612 93.3685 96.7812 93.3985C96.7612 93.3985 96.7312 93.3985 96.7112 93.3985L96.7412 93.4185Z" fill="#808080"></path>
    <path d="M99.253 100.508C99.003 100.508 98.783 100.318 98.753 100.058C98.723 99.788 98.923 99.538 99.193 99.508L100.623 99.348C101.813 99.218 103.003 99.078 104.193 98.968C104.513 98.938 104.823 98.918 105.143 98.908C105.533 98.888 105.923 98.878 106.303 98.818C107.273 98.678 108.243 98.568 109.213 98.458L110.153 98.348C110.663 98.288 111.173 98.248 111.683 98.218C112.363 98.168 113.053 98.118 113.723 98.018C114.853 97.838 116.003 97.718 117.113 97.608C117.543 97.568 117.963 97.518 118.393 97.478C118.953 97.418 119.523 97.358 120.083 97.298C120.893 97.218 121.713 97.128 122.523 97.038C123.523 96.918 124.523 96.818 125.523 96.728C126.803 96.608 128.123 96.478 129.413 96.298C130.173 96.188 130.943 96.118 131.703 96.048C132.693 95.958 133.713 95.858 134.693 95.688C134.963 95.638 135.223 95.818 135.273 96.098C135.323 96.368 135.143 96.628 134.863 96.678C133.843 96.858 132.803 96.958 131.793 97.048C131.043 97.118 130.293 97.188 129.543 97.298C128.233 97.478 126.903 97.608 125.613 97.728C124.623 97.828 123.633 97.918 122.643 98.038C121.833 98.138 121.003 98.218 120.183 98.308C119.623 98.368 119.063 98.418 118.503 98.488C118.073 98.538 117.643 98.578 117.213 98.628C116.113 98.738 114.983 98.858 113.883 99.028C113.173 99.138 112.453 99.188 111.763 99.238C111.263 99.278 110.773 99.308 110.273 99.368L109.333 99.478C108.373 99.588 107.403 99.698 106.443 99.838C106.033 99.898 105.613 99.918 105.193 99.938C104.893 99.948 104.593 99.968 104.293 99.998C103.103 100.118 101.923 100.248 100.733 100.378L99.303 100.538C99.303 100.538 99.263 100.538 99.243 100.538L99.253 100.508Z" fill="#808080"></path>
    <path d="M47.1218 61.8072C46.9018 61.8072 46.6818 61.6672 46.6218 61.4472C46.5118 61.0772 46.6818 60.7972 46.7718 60.6472C46.9418 60.0872 47.0318 59.5772 47.0818 58.9472C47.1618 57.9472 47.4318 56.9872 47.9218 56.0172C48.4418 54.9772 48.7118 53.8272 48.9518 52.4372L48.9918 52.2272C49.1418 51.3772 49.2818 50.5772 49.1418 49.7372L49.0818 49.3772C48.9718 48.7672 48.8618 48.1272 48.8618 47.4672C48.8618 46.2172 48.8918 44.7372 49.2218 43.2072C49.2918 42.8972 49.3518 42.5772 49.4118 42.2672C49.5618 41.4772 49.7118 40.6572 50.0018 39.8572C50.7118 37.8372 52.5718 36.5472 54.5418 36.7372C55.7318 36.8472 56.7918 37.3872 57.6718 37.8972C58.1518 38.1772 58.5818 38.2472 59.0918 38.1472C59.7718 38.0072 60.4618 37.8972 61.1518 37.7872C61.6518 37.7072 62.1418 37.6272 62.6418 37.5372C63.2918 37.4172 63.9618 37.4072 64.6318 37.5172C66.6018 37.8272 68.6518 37.7672 70.7318 37.3572C70.8518 37.3372 70.9618 37.2872 71.0818 37.2372C71.4218 37.0972 71.8818 36.9072 72.4318 37.1372C72.6818 37.2472 72.8018 37.5372 72.7018 37.7972C72.5918 38.0472 72.3018 38.1672 72.0418 38.0672C71.9018 38.0072 71.7618 38.0472 71.4718 38.1672C71.2918 38.2372 71.1218 38.3072 70.9418 38.3472C68.7518 38.7872 66.5718 38.8472 64.4918 38.5172C63.9318 38.4272 63.3818 38.4372 62.8318 38.5372C62.3318 38.6272 61.8218 38.7072 61.3218 38.7872C60.6518 38.8972 59.9718 38.9972 59.3118 39.1372C58.5718 39.2872 57.8718 39.1672 57.1918 38.7772C56.3718 38.2972 55.4718 37.8472 54.4718 37.7472C52.8018 37.5872 51.4418 38.8672 50.9718 40.2072C50.7118 40.9272 50.5718 41.6772 50.4218 42.4672C50.3618 42.7872 50.3018 43.1072 50.2318 43.4272C49.9218 44.8572 49.8918 46.2772 49.9018 47.4672C49.9018 48.0372 50.0118 48.6372 50.1118 49.2072L50.1718 49.5772C50.3418 50.5772 50.1718 51.5072 50.0218 52.4072L49.9818 52.6172C49.7618 53.8972 49.4718 55.2472 48.8618 56.4672C48.4318 57.3172 48.1918 58.1572 48.1218 59.0272C48.0618 59.7172 47.9718 60.2872 47.8318 60.8272C47.7918 60.9672 47.7218 61.0872 47.6718 61.1672C47.7518 61.4272 47.5818 61.7072 47.3118 61.7872C47.2618 61.7972 47.2118 61.8072 47.1718 61.8072H47.1218Z" fill="#808080"></path>
    <path d="M120.802 67.5187C120.702 67.5187 120.612 67.4887 120.522 67.4287C120.502 67.4187 120.422 67.3387 120.402 67.3287C119.602 67.2087 118.772 67.0087 117.972 66.8187C117.662 66.7487 117.352 66.6687 117.052 66.5987C115.052 66.1387 113.372 65.7487 111.682 65.3187C110.012 64.8887 108.252 64.6187 106.292 64.4987C104.972 64.4187 103.762 64.2387 102.602 63.9387L102.282 63.8587C101.262 63.5987 100.212 63.3287 99.2122 63.4687C97.7622 63.6887 96.3622 63.5587 95.0122 63.4387C94.9022 63.4387 94.5722 63.3987 94.3522 63.1187C94.1922 62.9187 94.1322 62.6687 94.1722 62.3387C94.3122 61.2087 94.3822 60.0587 94.4022 58.9187C94.4122 58.1987 94.5222 57.4987 94.6322 56.8187C94.7222 56.2787 94.8022 55.7687 94.8322 55.2387C94.9322 53.7587 95.0322 52.2287 95.2122 50.6987L95.4122 49.0487C95.5222 48.1987 95.6222 47.3487 95.7222 46.4987C95.7622 46.1087 95.8422 45.7187 95.9122 45.3287C96.0222 44.7187 96.1322 44.1487 96.1322 43.5687C96.1422 41.6787 96.3922 39.9587 96.9022 38.3087C97.2422 37.2087 97.6622 36.0787 98.7722 35.4187C98.9222 35.3287 99.0822 35.2487 99.2422 35.1687C99.5722 34.9987 99.8922 34.8387 100.112 34.5887C100.302 34.3787 100.612 34.3687 100.822 34.5487C101.032 34.7287 101.042 35.0487 100.862 35.2587C100.512 35.6387 100.082 35.8687 99.7022 36.0587C99.5622 36.1287 99.4222 36.1987 99.2922 36.2787C98.4822 36.7587 98.1622 37.6487 97.8622 38.5987C97.3822 40.1487 97.1522 41.7787 97.1422 43.5687C97.1422 44.2387 97.0222 44.8787 96.9122 45.4987C96.8422 45.8687 96.7822 46.2387 96.7322 46.6087C96.6322 47.4587 96.5322 48.3187 96.4222 49.1687L96.2222 50.8187C96.0422 52.3187 95.9422 53.8387 95.8422 55.3087C95.8022 55.8787 95.7222 56.4387 95.6322 56.9787C95.5222 57.6487 95.4222 58.2887 95.4122 58.9387C95.3922 60.0987 95.3122 61.2787 95.1722 62.4487C96.4822 62.5687 97.7822 62.6787 99.0722 62.4787C100.272 62.2987 101.422 62.5987 102.542 62.8887L102.852 62.9687C103.952 63.2487 105.102 63.4187 106.362 63.4987C108.382 63.6187 110.212 63.8987 111.942 64.3487C113.622 64.7787 115.292 65.1687 117.292 65.6287C117.602 65.6987 117.922 65.7787 118.232 65.8487C119.012 66.0387 119.812 66.2287 120.602 66.3487C120.862 66.3887 121.022 66.5287 121.102 66.6087C121.322 66.7687 121.382 67.0987 121.222 67.3187C121.122 67.4587 120.972 67.5287 120.812 67.5287L120.802 67.5187Z" fill="#808080"></path>
    <path d="M68.2912 62.7778C68.0712 62.7778 67.8612 62.6278 67.8112 62.3978C67.7112 61.9978 67.8112 61.6478 67.9012 61.3678C67.9312 61.2578 67.9712 61.1578 67.9812 61.0478C68.1412 59.9178 68.4012 58.8078 68.6512 57.7378L68.8012 57.1078C69.0812 55.8878 69.3112 54.5478 69.5012 53.0078C69.5412 52.6378 69.5812 52.2678 69.6212 51.9078C69.7112 50.9978 69.8112 50.0578 70.0212 49.1278C70.2712 47.9878 70.5612 46.6278 70.7712 45.2578C70.9712 43.9578 71.1312 42.6178 71.2812 41.3178C71.3812 40.4778 71.4812 39.6478 71.5912 38.8078C71.6112 38.6878 71.6112 38.5578 71.6212 38.4278C71.6612 37.9478 71.6912 37.4478 71.9912 37.1178C72.4212 36.6378 73.0712 35.9678 73.8812 35.6878C75.2312 35.2278 76.5512 35.4178 77.6212 36.2178C77.9312 36.4478 78.2812 36.5778 78.6912 36.5978C80.4712 36.6778 82.8112 36.7378 85.2012 36.4978C86.3712 36.3778 87.6612 36.3178 89.2712 36.3078C90.9312 36.2978 92.5612 36.2678 94.2112 36.0578C95.4312 35.8978 96.5112 35.7078 97.3512 34.9178C97.6912 34.5978 98.1212 34.4678 98.5012 34.3478L98.6412 34.3078C99.2612 34.1078 99.8312 34.1978 100.391 34.2778L100.691 34.3178C101.591 34.4378 102.271 34.7178 102.901 35.2278C103.181 35.4478 103.541 35.5878 103.961 35.6378C104.801 35.7278 105.581 35.6678 106.331 35.4578C107.161 35.2178 107.891 35.0878 108.561 35.0378C109.241 34.9878 109.931 34.9878 110.601 34.9878C110.971 34.9878 111.331 34.9878 111.691 34.9878C112.791 34.9678 113.911 34.8878 114.991 34.8078C115.841 34.7478 116.681 34.6878 117.531 34.6578L118.081 34.6378C118.631 34.6178 119.161 34.6078 119.671 34.5278C120.291 34.4278 120.921 34.3778 121.551 34.3278C122.031 34.2878 122.501 34.2478 122.981 34.1878C124.201 34.0378 125.471 33.8678 126.661 33.4378C126.821 33.3778 126.981 33.3078 127.141 33.2278C127.641 32.9978 128.211 32.7278 128.911 32.8378C129.181 32.8778 129.371 33.1378 129.321 33.4078C129.281 33.6778 129.021 33.8678 128.751 33.8178C128.361 33.7578 127.991 33.9278 127.561 34.1278C127.371 34.2178 127.191 34.2978 127.001 34.3678C125.701 34.8378 124.381 35.0078 123.111 35.1678C122.621 35.2278 122.131 35.2678 121.641 35.3078C121.041 35.3578 120.431 35.4078 119.831 35.4978C119.261 35.5878 118.681 35.5978 118.121 35.6178L117.581 35.6378C116.741 35.6778 115.901 35.7278 115.071 35.7878C113.981 35.8678 112.851 35.9478 111.721 35.9678C111.351 35.9678 110.981 35.9778 110.611 35.9678C109.981 35.9678 109.291 35.9678 108.641 36.0178C108.031 36.0678 107.371 36.1878 106.601 36.4078C105.731 36.6578 104.811 36.7278 103.851 36.6278C103.241 36.5578 102.691 36.3478 102.261 35.9978C101.771 35.6078 101.261 35.3978 100.551 35.2978L100.231 35.2478C99.7512 35.1778 99.3412 35.1178 98.9312 35.2478L98.7912 35.2878C98.4912 35.3778 98.2112 35.4678 98.0412 35.6278C96.9812 36.6178 95.6912 36.8578 94.3412 37.0278C92.6412 37.2478 90.9112 37.2778 89.2812 37.2878C87.7012 37.2878 86.4412 37.3578 85.3112 37.4678C82.8612 37.7178 80.4712 37.6578 78.6612 37.5778C78.0512 37.5478 77.5012 37.3578 77.0412 36.9978C76.0312 36.2278 74.9512 36.3678 74.2312 36.6078C73.8012 36.7578 73.3212 37.1278 72.7712 37.7478C72.7012 37.8378 72.6712 38.2478 72.6512 38.4678C72.6412 38.6178 72.6312 38.7678 72.6112 38.9078C72.5012 39.7378 72.4012 40.5678 72.3012 41.3978C72.1512 42.6978 71.9912 44.0478 71.7912 45.3678C71.5812 46.7678 71.2812 48.1478 71.0212 49.3078C70.8312 50.1778 70.7312 51.0878 70.6412 51.9678C70.6012 52.3478 70.5612 52.7178 70.5212 53.0878C70.3312 54.6578 70.0912 56.0278 69.8012 57.2878L69.6512 57.9178C69.4012 58.9678 69.1512 60.0578 69.0012 61.1378C68.9812 61.2978 68.9312 61.4478 68.8912 61.6078C68.8212 61.8378 68.7812 61.9778 68.8112 62.1078C68.8812 62.3778 68.7112 62.6478 68.4412 62.7178C68.4012 62.7278 68.3612 62.7278 68.3212 62.7278L68.2912 62.7778Z" fill="#808080"></path>
    <path d="M42.9514 87.3884C42.7214 87.3884 42.5114 87.2284 42.4614 86.9884C42.3514 86.4884 42.1214 86.0284 41.8714 85.5384C41.6914 85.1884 41.5114 84.8284 41.3714 84.4484C41.0214 83.4884 40.6514 82.4484 40.3414 81.3584C39.7514 79.2984 39.3314 77.4484 39.0614 75.6884C38.8014 74.0384 38.5414 72.3484 38.4614 70.6384C38.4514 70.3884 38.4414 70.1384 38.4414 69.8884C38.4214 69.1784 38.4114 68.5084 38.2814 67.8384C38.1614 67.1784 38.1614 66.4484 38.2814 65.7184L38.3114 65.5484C38.3914 65.0484 38.4914 64.4284 38.9314 63.9484C39.9014 62.8784 41.1914 62.2484 42.7714 62.0684L43.0414 62.0384C43.4514 61.9984 43.8114 61.9684 44.0614 61.7284C44.2514 61.5384 44.5714 61.5384 44.7714 61.7284C44.9614 61.9284 44.9614 62.2384 44.7714 62.4384C44.2714 62.9384 43.6414 62.9884 43.1414 63.0384L42.8914 63.0584C41.5414 63.2084 40.4914 63.7184 39.6814 64.6184C39.4414 64.8884 39.3714 65.2884 39.3014 65.7184L39.2714 65.8984C39.1714 66.4984 39.1714 67.1284 39.2714 67.6584C39.4114 68.4084 39.4314 69.1484 39.4414 69.8684C39.4414 70.1084 39.4514 70.3584 39.4614 70.5984C39.5314 72.2484 39.7914 73.9084 40.0414 75.5184C40.3114 77.2484 40.7214 79.0584 41.3014 81.0784C41.6014 82.1384 41.9614 83.1484 42.3114 84.0984C42.4314 84.4284 42.5914 84.7484 42.7714 85.0884C43.0414 85.6184 43.3114 86.1584 43.4514 86.7884C43.5114 87.0584 43.3414 87.3284 43.0714 87.3784C43.0314 87.3784 43.0014 87.3884 42.9714 87.3884H42.9514Z" fill="#808080"></path>
    <path d="M45.5708 57.7196C45.5708 57.7196 45.5208 57.7196 45.4908 57.7196C45.0108 57.6396 44.5208 57.6496 44.0008 57.6596C43.7508 57.6596 43.5008 57.6696 43.2408 57.6596C42.9008 57.6596 42.5708 57.6596 42.2408 57.6596C41.7108 57.6596 41.1908 57.6796 40.6608 57.6396C38.2408 57.4896 35.7808 57.5096 33.4008 57.5296C31.6908 57.5496 29.9308 57.5596 28.1908 57.5096C26.1508 57.4596 24.0708 57.4596 22.0708 57.4696C20.7008 57.4696 19.3308 57.4696 17.9708 57.4696C17.6908 57.4696 17.4708 57.2396 17.4808 56.9596C17.4808 56.6896 17.7108 56.4696 17.9808 56.4696C19.3408 56.4796 20.7108 56.4796 22.0708 56.4696C24.0908 56.4696 26.1708 56.4596 28.2208 56.5096C29.9408 56.5596 31.7008 56.5396 33.3908 56.5296C35.7908 56.5096 38.2708 56.4896 40.7208 56.6396C41.2208 56.6696 41.7208 56.6596 42.2208 56.6496C42.5708 56.6496 42.9108 56.6396 43.2608 56.6496C43.5008 56.6496 43.7408 56.6496 43.9808 56.6496C44.5208 56.6396 45.0808 56.6296 45.6508 56.7196C45.9208 56.7696 46.1108 57.0196 46.0608 57.2996C46.0208 57.5396 45.8108 57.7196 45.5708 57.7196Z" fill="#808080"></path>
    <path d="M13.0312 82.3675C12.7512 82.3675 12.5312 82.1475 12.5312 81.8675V60.9375C12.5312 60.6575 12.7512 60.4375 13.0312 60.4375C13.3112 60.4375 13.5312 60.6575 13.5312 60.9375V81.8675C13.5312 82.1475 13.3112 82.3675 13.0312 82.3675Z" fill="#808080"></path>
    <path d="M108.952 55.7651C108.742 55.7651 108.522 55.7451 108.292 55.6951C108.022 55.6451 107.842 55.3751 107.902 55.1051C107.952 54.8351 108.222 54.6551 108.492 54.7151C109.222 54.8651 109.802 54.6751 110.382 54.1251C111.202 53.3351 112.212 52.8851 113.302 52.8151C114.622 52.7351 115.962 52.8551 117.152 52.9651C117.302 52.9751 117.452 52.9851 117.602 52.9951C117.972 53.0151 118.342 53.0451 118.732 53.1151C120.032 53.3751 121.192 53.3751 122.282 53.1151C122.442 53.0751 122.582 53.0951 122.702 53.1051C122.712 53.1051 122.722 53.1051 122.732 53.1051C122.872 52.9251 123.112 52.8451 123.332 52.9351C123.582 53.0451 123.712 53.3051 123.612 53.5551C123.372 54.1751 122.802 54.1151 122.612 54.0951C122.572 54.0951 122.542 54.0951 122.512 54.0951C121.292 54.3951 119.992 54.3951 118.542 54.1051C118.222 54.0451 117.892 54.0251 117.552 53.9951C117.392 53.9851 117.232 53.9751 117.072 53.9651C115.862 53.8551 114.612 53.7451 113.372 53.8151C112.522 53.8651 111.732 54.2251 111.082 54.8451C110.442 55.4551 109.752 55.7551 108.972 55.7551L108.952 55.7651Z" fill="#808080"></path>
    <path d="M87.6901 82.7586C87.1601 82.7586 86.5901 82.6986 85.9801 82.5686L85.0201 82.3586C84.2501 82.1886 83.4801 82.0286 82.7101 81.8886C82.3301 81.8186 81.9401 81.8286 81.5301 81.8286C81.1601 81.8286 80.7901 81.8286 80.4201 81.7886C79.1801 81.6486 77.9301 81.4386 76.7101 81.1586C76.5501 81.1186 76.3901 81.1186 76.2201 81.1186C76.1201 81.1186 76.0301 81.1186 75.9301 81.1086C75.6501 81.0886 75.4501 80.8486 75.4701 80.5786C75.4901 80.2986 75.7301 80.0986 76.0001 80.1186C76.0801 80.1186 76.1701 80.1186 76.2501 80.1286C76.4801 80.1286 76.7101 80.1486 76.9201 80.1986C78.1101 80.4686 79.3201 80.6686 80.5201 80.8086C80.8501 80.8486 81.1801 80.8386 81.5101 80.8386C81.9501 80.8386 82.4001 80.8386 82.8701 80.9086C83.6601 81.0486 84.4401 81.2186 85.2201 81.3886L86.1701 81.5886C87.7101 81.9086 88.9101 81.7786 89.9601 81.1586C90.2001 81.0186 90.5001 81.0986 90.6401 81.3386C90.7801 81.5786 90.7001 81.8786 90.4601 82.0186C89.6201 82.5086 88.7101 82.7586 87.6701 82.7586H87.6901Z" fill="#808080"></path>
    <path d="M110.56 41.9381C110.56 41.9381 110.53 41.9381 110.52 41.9381C110.24 41.9381 110.02 41.7081 110.02 41.4381C110.02 41.1681 110.25 40.9381 110.52 40.9381C110.52 40.9381 110.55 40.9381 110.56 40.9381C111.17 40.9381 111.74 40.8181 112.35 40.5681L112.87 40.3481C113.63 40.0281 114.41 39.6881 115.26 39.5581C117 39.2981 118.33 39.1781 119.59 39.1781C119.85 39.1781 120.11 39.1781 120.38 39.1681C121.22 39.1481 122.09 39.1381 122.96 39.2681C123.07 39.2881 123.18 39.3081 123.3 39.3381C123.59 39.4081 123.72 39.4381 123.84 39.3681C124.07 39.2181 124.38 39.2981 124.53 39.5281C124.68 39.7581 124.6 40.0681 124.37 40.2181C123.89 40.5181 123.39 40.3981 123.06 40.3081C122.98 40.2881 122.9 40.2681 122.82 40.2581C122.03 40.1381 121.24 40.1581 120.4 40.1681C120.13 40.1681 119.86 40.1781 119.6 40.1781C118.39 40.1781 117.1 40.2981 115.41 40.5481C114.69 40.6581 114 40.9481 113.27 41.2681L112.73 41.4981C112.01 41.7981 111.3 41.9381 110.56 41.9381Z" fill="#808080"></path>
    <path d="M108.451 55.6509C108.391 55.6509 108.341 55.6509 108.281 55.6209C108.021 55.5309 107.891 55.2409 107.981 54.9809C108.201 54.3609 108.401 53.7509 108.311 53.1509L108.061 51.3309C107.811 49.6509 107.691 47.9309 107.691 46.0809C107.691 44.6509 108.141 43.5209 109.061 42.6109C109.361 42.3209 109.651 42.0009 109.721 41.6109C109.771 41.3409 110.031 41.1609 110.301 41.2009C110.571 41.2509 110.751 41.5109 110.711 41.7809C110.591 42.4609 110.161 42.9309 109.771 43.3209C109.041 44.0409 108.701 44.9209 108.701 46.0809C108.701 47.8909 108.821 49.5609 109.051 51.1909L109.311 53.0209C109.431 53.8509 109.191 54.6209 108.931 55.3309C108.861 55.5309 108.661 55.6609 108.461 55.6609L108.451 55.6509Z" fill="#808080"></path>
    <path d="M56.092 79.2804C55.352 79.2804 54.612 79.2304 53.892 79.1804L52.712 79.1104C51.492 79.0404 50.222 78.9704 48.982 78.6704C48.902 78.6504 48.832 78.6604 48.782 78.6804C48.542 78.8104 48.232 78.7104 48.112 78.4704C47.982 78.2204 48.082 77.9204 48.322 77.8004C48.582 77.6604 48.902 77.6304 49.212 77.7004C50.372 77.9704 51.592 78.0404 52.772 78.1104L53.962 78.1904C55.112 78.2704 56.292 78.3504 57.452 78.2104C58.772 78.0504 60.132 77.9704 61.442 77.8804L61.742 77.8604C62.012 77.8404 62.252 78.0504 62.272 78.3304C62.292 78.6104 62.082 78.8404 61.802 78.8604L61.502 78.8804C60.202 78.9604 58.862 79.0504 57.572 79.2004C57.072 79.2604 56.582 79.2804 56.092 79.2804Z" fill="#808080"></path>
    <path d="M93.4633 54.5448C93.4633 54.5448 93.4233 54.5448 93.4033 54.5448C92.7133 54.4548 91.9934 54.4348 91.3034 54.4148C90.5734 54.3948 89.8233 54.3648 89.0833 54.2748C87.6133 54.0848 86.1433 54.0648 84.5133 54.0548C83.6833 54.0548 82.8433 54.1348 82.0233 54.2148C81.6533 54.2548 81.2733 54.2848 80.9033 54.3148C79.5833 54.4148 78.4433 54.2448 77.4933 53.7948C75.8433 53.0148 74.1233 53.0148 72.0833 53.7848C71.8433 53.8748 71.6133 53.9948 71.3933 54.1148C71.2733 54.1748 71.1533 54.2448 71.0333 54.3048C70.7933 54.4248 70.4833 54.3248 70.3633 54.0848C70.2433 53.8348 70.3433 53.5348 70.5833 53.4148C70.6933 53.3548 70.8034 53.2948 70.9134 53.2448C71.1834 53.1048 71.4433 52.9648 71.7233 52.8548C74.0333 51.9848 76.0034 51.9948 77.9134 52.8948C78.7034 53.2648 79.6733 53.4048 80.8133 53.3248C81.1833 53.2948 81.5434 53.2648 81.9134 53.2248C82.7534 53.1448 83.6433 53.0648 84.5033 53.0648C86.1733 53.0648 87.6733 53.0948 89.1933 53.2848C89.8934 53.3748 90.5833 53.3948 91.3233 53.4148C92.0433 53.4348 92.7833 53.4648 93.5233 53.5548C93.7933 53.5848 93.9933 53.8348 93.9633 54.1148C93.9333 54.3648 93.7133 54.5548 93.4633 54.5548V54.5448Z" fill="#808080"></path>
    <path d="M48.3121 78.5541C48.0421 78.5541 47.8121 78.3341 47.8121 78.0641C47.8121 77.9741 47.8222 77.8841 47.8322 77.7841C47.8422 77.7041 47.8522 77.6641 47.8322 77.6341C47.6422 76.9841 47.6221 76.3241 47.6021 75.6941C47.5621 74.3541 47.6721 73.0041 47.7821 71.7141C47.8121 71.3141 47.8521 70.9241 47.8721 70.5241C47.9521 69.4141 48.3221 68.3541 49.0121 67.2941C49.3221 66.8041 49.7122 66.4441 50.0821 66.0941C50.2722 65.9141 50.4721 65.7241 50.6521 65.5241C50.9621 65.1841 51.4821 64.8641 52.2421 65.2641C52.4621 65.3741 52.6521 65.4641 52.8721 65.5241C53.6421 65.7341 54.4421 65.7641 55.2821 65.7941H55.6321C58.0121 65.9041 60.3321 65.9541 62.6221 65.3841C62.8921 65.3241 63.1621 65.4841 63.2221 65.7541C63.2921 66.0241 63.1221 66.2941 62.8521 66.3641C60.4321 66.9541 58.0322 66.9141 55.5821 66.8141H55.2321C54.3721 66.7641 53.4821 66.7341 52.6021 66.4941C52.2721 66.4041 52.0021 66.2741 51.7621 66.1541C51.5521 66.0441 51.5121 66.0541 51.3821 66.2041C51.1821 66.4241 50.9721 66.6241 50.7521 66.8341C50.4121 67.1641 50.0821 67.4641 49.8321 67.8441C49.2422 68.7641 48.9221 69.6741 48.8521 70.6141C48.8221 71.0141 48.7921 71.4141 48.7521 71.8141C48.6421 73.0841 48.5322 74.3941 48.5822 75.6841C48.6022 76.2541 48.6221 76.8541 48.7721 77.3841C48.8421 77.6241 48.8121 77.8241 48.7921 77.9541C48.7921 77.9941 48.7821 78.0241 48.7821 78.0641C48.7821 78.3441 48.5621 78.5641 48.2921 78.5741L48.3121 78.5541Z" fill="#808080"></path>
    <path d="M25.2816 75.8165C25.1916 75.8165 25.1016 75.7965 25.0216 75.7465C24.7916 75.5965 24.7116 75.2965 24.8616 75.0565C24.9216 74.9565 24.9216 74.8165 24.9116 74.5865C24.9116 74.4265 24.8916 74.2565 24.9116 74.0965C25.0316 73.0865 25.0616 72.0465 25.0916 71.0365C25.1316 69.9065 25.1616 68.7265 25.3216 67.5665C25.4416 66.6565 25.6316 65.8265 25.9016 65.0365C26.0616 64.5565 26.3116 64.1365 26.5516 63.7265C26.7516 63.3765 26.9516 63.0565 27.0716 62.7065C27.1716 62.4465 27.4516 62.3165 27.7116 62.4165C27.9716 62.5165 28.1016 62.7965 28.0016 63.0565C27.8416 63.4865 27.6216 63.8665 27.4016 64.2365C27.1816 64.6165 26.9716 64.9665 26.8416 65.3565C26.6016 66.0865 26.4216 66.8565 26.3116 67.7065C26.1616 68.8165 26.1216 69.9665 26.0916 71.0665C26.0616 72.0965 26.0216 73.1665 25.9016 74.2165C25.8916 74.3165 25.9016 74.4265 25.9016 74.5265C25.9216 74.8265 25.9416 75.1965 25.7016 75.5765C25.6116 75.7265 25.4416 75.8165 25.2716 75.8165H25.2816Z" fill="#808080"></path>
    <path d="M81.0912 93.3548C80.9912 93.3548 80.8912 93.3247 80.8112 93.2647C80.5912 93.1147 80.4312 92.9348 80.2812 92.7548C79.3812 91.6948 78.5812 90.4448 77.7412 88.8148C76.7912 86.9648 76.1512 85.2048 75.8012 83.4447C75.6112 82.5147 75.4912 81.6048 75.3712 80.6748C75.2412 79.6648 75.1112 78.5847 75.0812 77.5147C75.0612 76.7447 75.1412 75.9748 75.2112 75.2248C75.2412 74.9748 75.2612 74.7148 75.2912 74.4648C75.4412 72.7548 75.9612 71.0948 76.8612 69.3848C77.0012 69.1248 77.1612 68.9148 77.3312 68.7048C77.5512 68.4148 77.7512 68.1647 77.8212 67.8747C77.8812 67.6047 78.1612 67.4448 78.4212 67.5048C78.6912 67.5648 78.8512 67.8348 78.7912 68.1048C78.6712 68.6048 78.3812 68.9848 78.1212 69.3148C77.9912 69.4848 77.8512 69.6648 77.7512 69.8548C76.9112 71.4448 76.4312 72.9748 76.2912 74.5448C76.2712 74.8048 76.2412 75.0648 76.2112 75.3248C76.1312 76.0648 76.0612 76.7748 76.0812 77.4748C76.1112 78.5048 76.2412 79.5548 76.3612 80.5448C76.4812 81.4548 76.6012 82.3548 76.7812 83.2448C77.1212 84.9148 77.7212 86.5848 78.6312 88.3548C79.4312 89.9148 80.2012 91.1148 81.0512 92.1148C81.1712 92.2548 81.2712 92.3647 81.3912 92.4447C81.6212 92.6047 81.6712 92.9148 81.5212 93.1448C81.4212 93.2848 81.2712 93.3648 81.1112 93.3648L81.0912 93.3548Z" fill="#808080"></path>
    <path d="M108.321 55.765C108.241 55.765 108.161 55.7449 108.091 55.7049C107.281 55.2849 106.351 55.0749 105.081 55.0449C104.041 55.0149 102.681 55.0049 101.311 55.1849C100.021 55.3449 98.7408 55.1849 97.5008 55.0149C97.2308 54.9749 96.9608 54.9449 96.6808 54.9149C96.4508 54.8849 96.1708 54.765 96.0608 54.355C95.9408 54.155 95.9808 53.8949 96.1608 53.7249C96.3708 53.5449 96.6808 53.5649 96.8708 53.7649C96.9208 53.8249 96.9508 53.8749 96.9808 53.9349C97.2008 53.9649 97.4108 53.9849 97.6308 54.0149C98.8608 54.1749 100.021 54.3249 101.181 54.1849C102.611 54.0049 104.021 54.0149 105.101 54.0449C105.991 54.0649 107.321 54.1749 108.551 54.8149C108.791 54.9449 108.891 55.245 108.761 55.485C108.671 55.655 108.501 55.7549 108.321 55.7549V55.765Z" fill="#808080"></path>
    <path d="M110.093 42.0247C110.043 42.0247 109.993 42.0247 109.953 42.0247C109.193 41.9947 108.453 41.8347 107.743 41.6847C106.793 41.4747 105.893 41.2847 104.963 41.3847C103.483 41.5347 101.963 41.4647 100.623 41.4047C100.163 41.3847 99.7325 41.3047 99.3125 41.2247C99.0325 41.1747 98.7425 41.1247 98.4625 41.0847C98.1925 41.0547 97.9925 40.8047 98.0225 40.5347C98.0525 40.2647 98.2925 40.0547 98.5725 40.0947C98.8825 40.1247 99.1825 40.1847 99.4925 40.2447C99.9025 40.3147 100.283 40.3947 100.673 40.4047C102.043 40.4647 103.453 40.5347 104.863 40.3847C105.953 40.2747 106.973 40.4947 107.953 40.7047C108.623 40.8447 109.263 40.9847 109.903 41.0247C109.903 40.8347 109.933 40.6647 109.963 40.5247C109.983 40.3947 110.013 40.2847 110.003 40.1947C109.923 38.9447 110.513 37.9747 111.103 37.1947C111.123 37.1747 111.153 37.1047 111.173 37.0447C111.283 36.8047 111.513 36.3147 112.163 36.3047C112.443 36.3047 112.663 36.5347 112.653 36.8147C112.653 37.0947 112.413 37.2847 112.143 37.3047H112.123C112.123 37.3047 112.103 37.3947 112.073 37.4547C112.023 37.5547 111.973 37.6747 111.893 37.7947C111.393 38.4647 110.933 39.2147 110.993 40.1347C111.003 40.3547 110.973 40.5447 110.933 40.7147C110.903 40.8847 110.873 41.0247 110.903 41.1547C110.973 41.4647 110.853 41.6747 110.783 41.7647C110.593 41.9947 110.293 42.0347 110.083 42.0347L110.093 42.0247Z" fill="#808080"></path>
    <path d="M85.7407 68.6362C85.3707 68.6362 85.0007 68.6362 84.6307 68.6362C84.0407 68.6362 83.4507 68.6262 82.8707 68.6362C81.8107 68.6562 80.7507 68.5662 79.7207 68.4862C79.2107 68.4462 78.7107 68.4062 78.2007 68.3762C76.6507 68.2862 75.1307 68.0462 73.7007 67.8062C72.0007 67.5162 70.2407 67.2162 68.5007 66.8362C68.4007 66.8162 68.3007 66.8062 68.2007 66.7862C67.8207 66.7362 67.3507 66.6762 66.9607 66.2762C66.7707 66.0762 66.7807 65.7562 66.9807 65.5662C67.1807 65.3762 67.5007 65.3862 67.6907 65.5862C67.8207 65.7262 68.0107 65.7562 68.3207 65.7862C68.4507 65.8062 68.5907 65.8162 68.7207 65.8462C70.4407 66.2262 72.1907 66.5162 73.8807 66.8062C75.2807 67.0462 76.7807 67.2862 78.2707 67.3662C78.7807 67.3962 79.3007 67.4362 79.8107 67.4762C80.8107 67.5562 81.8507 67.6362 82.8607 67.6262C83.4607 67.6262 84.0507 67.6262 84.6507 67.6262C85.5607 67.6262 86.5007 67.6462 87.4107 67.5962C87.6807 67.5862 87.9607 67.5962 88.2307 67.5962C88.7807 67.6062 89.3007 67.6162 89.7807 67.4662C90.0407 67.3862 90.3307 67.5262 90.4107 67.7862C90.4907 68.0462 90.3507 68.3262 90.0907 68.4162C89.4507 68.6262 88.8207 68.6062 88.2207 68.5962C87.9707 68.5962 87.7207 68.5862 87.4707 68.5962C86.9007 68.6262 86.3307 68.6362 85.7607 68.6362H85.7407Z" fill="#808080"></path>
    <path d="M59.72 44.8347C59.5 44.8347 59.27 44.7947 59.02 44.6847C58.83 44.6047 58.65 44.4947 58.47 44.3947C58.26 44.2747 58.06 44.1547 57.85 44.0947C57.59 44.0147 57.37 43.9047 57.2 43.7647C56.51 43.2047 55.71 43.1947 54.74 43.2547C53.53 43.3247 52.4 43.1047 51.39 42.6147C51.14 42.4947 51.04 42.1947 51.16 41.9447C51.28 41.6947 51.58 41.5947 51.83 41.7147C52.69 42.1347 53.66 42.3147 54.69 42.2547C55.8 42.1947 56.87 42.2047 57.84 42.9847C57.89 43.0247 57.99 43.0847 58.16 43.1447C58.47 43.2447 58.72 43.3847 58.97 43.5347C59.12 43.6247 59.27 43.7047 59.42 43.7747C59.8 43.9347 60.1 43.7747 60.6 43.4947C60.78 43.3947 60.96 43.2847 61.14 43.2147C61.7 42.9647 62.23 42.7347 62.85 42.7147C64.82 42.6247 66.88 42.5847 68.97 42.5947C69.16 42.5947 69.35 42.6147 69.54 42.6347C69.77 42.6647 69.99 42.6847 70.19 42.6547C70.47 42.6147 70.71 42.8147 70.75 43.0847C70.79 43.3547 70.59 43.6047 70.32 43.6447C70.01 43.6847 69.7 43.6447 69.44 43.6247C69.18 43.5947 68.91 43.5847 68.65 43.5847C66.69 43.5847 64.76 43.6247 62.91 43.7047C62.47 43.7247 62.07 43.8947 61.61 44.1047C61.41 44.1947 61.26 44.2747 61.11 44.3647C60.74 44.5747 60.28 44.8447 59.73 44.8447L59.72 44.8347Z" fill="#808080"></path>
    <path d="M68.5429 54.4875C68.5429 54.4875 68.4429 54.4875 68.3929 54.4675C68.2029 54.4075 68.0629 54.2375 68.0429 54.0475C67.2629 53.7975 66.4129 53.5975 65.5129 53.7475C64.7529 53.8675 64.0029 53.8475 63.2729 53.8275C62.9429 53.8275 62.6129 53.8075 62.2729 53.8175C61.5629 53.8275 60.9729 53.8675 60.3829 54.0375C58.9829 54.4275 57.6129 54.0675 56.4029 53.7575C55.0029 53.3875 53.7629 53.0675 52.4729 53.2775C52.0729 53.3475 51.6929 53.5175 51.2929 53.7075L51.1129 53.7875C51.0629 54.0175 50.8729 54.2075 50.6429 54.2175C50.3829 54.2375 50.1329 54.0475 50.1329 53.7675C50.1329 53.5875 50.1129 53.1475 50.6029 52.9275L50.8729 52.8075C51.3229 52.5975 51.7829 52.3775 52.3229 52.2875C53.8229 52.0475 55.2329 52.4175 56.5929 52.7675C57.8129 53.0875 58.9829 53.3975 60.1229 53.0775C60.8129 52.8875 61.4829 52.8375 62.2629 52.8275C62.6129 52.8275 62.9529 52.8275 63.3029 52.8375C64.0229 52.8575 64.6929 52.8775 65.3629 52.7675C66.5229 52.5775 67.5929 52.8475 68.4029 53.1075C69.2329 53.3775 69.0729 54.0275 69.0329 54.1475C68.9629 54.3575 68.7729 54.4975 68.5529 54.4975L68.5429 54.4875Z" fill="#808080"></path>
    <path d="M83.6695 42.9252C83.3895 42.9252 83.1095 42.8952 82.8195 42.8452C82.5495 42.7952 82.3695 42.5252 82.4295 42.2552C82.4895 41.9852 82.7395 41.8052 83.0195 41.8652C83.9895 42.0552 84.9395 41.8252 85.9995 41.1452L86.1695 41.0352C86.5695 40.7752 87.0195 40.4752 87.5995 40.3952C89.5795 40.1052 91.5595 40.3252 93.2295 40.5852C93.4995 40.6252 93.6895 40.8852 93.6495 41.1552C93.6095 41.4252 93.3495 41.6152 93.0795 41.5752C91.3995 41.3152 89.5895 41.1152 87.7395 41.3852C87.3695 41.4352 87.0695 41.6352 86.7095 41.8752L86.5395 41.9852C85.5595 42.6152 84.6095 42.9352 83.6695 42.9352V42.9252Z" fill="#808080"></path>
    <path d="M32.7107 77.3573C32.6207 77.3573 32.5307 77.3573 32.4407 77.3573C31.6107 77.3073 30.8307 77.1473 30.1107 76.9873L28.8107 76.6973C27.4907 76.4073 26.1207 76.1073 24.7907 75.7373C23.3707 75.3473 21.9607 74.6873 20.6207 73.7873C20.3907 73.6373 20.3307 73.3173 20.4807 73.0973C20.6307 72.8673 20.9507 72.8073 21.1707 72.9573C22.4207 73.7973 23.7307 74.4173 25.0507 74.7773C26.3607 75.1373 27.7107 75.4373 29.0207 75.7173L30.3207 76.0073C31.0007 76.1573 31.7407 76.3073 32.5007 76.3573C33.3807 76.4173 34.2007 76.1273 35.2307 75.3973C35.4607 75.2373 35.7707 75.2873 35.9307 75.5173C36.0907 75.7473 36.0407 76.0573 35.8107 76.2173C35.0507 76.7573 34.0207 77.3673 32.7107 77.3673V77.3573Z" fill="#808080"></path>
    <path d="M52.8798 88.6712C52.7498 88.6712 52.6098 88.6212 52.5098 88.5112C52.2398 88.2212 52.0398 87.8912 51.8598 87.5812L51.7798 87.4512C50.7098 85.6812 49.7698 83.7212 48.7298 81.0912C48.4198 80.3212 48.1298 79.4812 47.9798 78.5312C46.1198 78.2512 44.2798 77.7412 42.4998 77.2512L42.0898 77.1412C41.8198 77.0712 41.6698 76.7912 41.7398 76.5312C41.8098 76.2612 42.0898 76.1112 42.3598 76.1812L42.7698 76.2912C44.6398 76.8112 46.5798 77.3412 48.4998 77.6012C48.7298 77.6312 48.9098 77.8112 48.9298 78.0412C49.0398 79.0412 49.3498 79.9212 49.6698 80.7312C50.6898 83.3012 51.6098 85.2212 52.6498 86.9412L52.7298 87.0712C52.8998 87.3512 53.0598 87.6112 53.2598 87.8312C53.4498 88.0312 53.4398 88.3512 53.2398 88.5412C53.1398 88.6312 53.0198 88.6712 52.8998 88.6712H52.8798Z" fill="#808080"></path>
    <path d="M51.172 66.1298C51.032 66.1298 50.902 66.0698 50.802 65.9698C50.592 65.7298 50.282 65.5998 49.762 65.5298C48.472 65.3398 47.122 65.3698 45.822 65.3998L44.912 65.4198C43.682 65.4198 42.542 65.1598 41.382 64.5598C41.132 64.4298 41.042 64.1298 41.162 63.8898C41.292 63.6398 41.592 63.5498 41.832 63.6698C42.842 64.1898 43.852 64.4398 44.882 64.4198L45.792 64.3998C47.132 64.3698 48.522 64.3298 49.902 64.5398C50.412 64.6098 51.062 64.7699 51.542 65.2999C51.732 65.4999 51.712 65.8198 51.502 66.0098C51.402 66.0998 51.282 66.1398 51.162 66.1398L51.172 66.1298Z" fill="#808080"></path>
    <path d="M78.9033 68.2607C78.6333 68.2607 78.4133 68.0507 78.4033 67.7807C78.3833 67.2607 78.6733 66.9107 78.9133 66.6707C79.2533 66.3407 79.7233 65.9107 80.2433 65.5207C81.7833 64.4107 83.4533 63.7207 85.2233 63.4807C85.8133 63.4007 86.4033 63.4107 86.9733 63.4207C87.3033 63.4207 87.6333 63.4307 87.9533 63.4207C88.2233 63.4107 88.4633 63.6207 88.4733 63.9007C88.4833 64.1807 88.2733 64.4107 87.9933 64.4207C87.6433 64.4307 87.3033 64.4207 86.9533 64.4207C86.3933 64.4207 85.8733 64.4007 85.3633 64.4707C83.7333 64.6907 82.2533 65.3007 80.8333 66.3307C80.3533 66.6707 79.9333 67.0707 79.6133 67.3807C79.4333 67.5607 79.3933 67.6407 79.4033 67.7407C79.4133 68.0207 79.1933 68.2507 78.9233 68.2607C78.9233 68.2607 78.9133 68.2607 78.9033 68.2607Z" fill="#808080"></path>
    <path d="M58.1819 59.7258C57.9019 59.7258 57.6819 59.5058 57.6819 59.2258V59.1158C57.6719 58.9958 57.6619 58.8558 57.6919 58.6958C58.0219 57.1258 58.0019 55.4758 57.9819 53.8858V53.2558C57.9719 52.5458 58.0619 51.8158 58.2619 51.0058L58.3219 50.7558C58.6919 49.2358 59.0419 47.8058 58.8619 46.3058C58.8019 45.7958 58.8119 45.3058 58.9119 44.8658C59.3219 42.9358 60.3019 41.2758 61.2519 39.6758L61.4819 39.2958C61.6219 39.0558 61.9319 38.9758 62.1619 39.1158C62.4019 39.2558 62.4819 39.5658 62.3419 39.7958L62.1119 40.1858C61.1619 41.7858 60.2719 43.3058 59.8919 45.0758C59.8219 45.4158 59.8119 45.7858 59.8619 46.1958C60.0719 47.8858 59.6819 49.4658 59.3019 51.0058L59.2419 51.2558C59.0619 51.9858 58.9819 52.6358 58.9919 53.2658V53.8958C59.0219 55.5358 59.0419 57.2358 58.6919 58.9158C58.6919 58.9458 58.6919 59.0158 58.6919 59.0758V59.2358C58.6919 59.5158 58.4719 59.7358 58.2019 59.7358L58.1819 59.7258Z" fill="#808080"></path>
    <path d="M82.7415 42.9771C82.6915 42.9771 82.6315 42.9771 82.5715 42.9471C82.1215 42.7871 81.6615 42.6871 81.1715 42.5771C80.6115 42.4471 80.0215 42.3171 79.4515 42.0971C78.9515 41.9071 78.4115 41.7071 77.8715 41.5671C76.6315 41.2671 75.3915 41.3771 74.3315 41.5371C74.2915 41.7271 74.1415 41.8871 73.9315 41.9171C73.6615 41.9671 73.4015 41.7971 73.3515 41.5171C73.2915 41.2071 73.3815 41.0071 73.4715 40.8871C73.5515 40.7671 73.7115 40.6171 74.0115 40.5671C75.1315 40.3871 76.6215 40.2171 78.1115 40.5871C78.7115 40.7371 79.2815 40.9471 79.8215 41.1471C80.3215 41.3371 80.8515 41.4571 81.4015 41.5871C81.9015 41.6971 82.4115 41.8171 82.9115 41.9971C83.1715 42.0871 83.3115 42.3771 83.2215 42.6371C83.1515 42.8471 82.9515 42.9771 82.7515 42.9771H82.7415Z" fill="#808080"></path>
    <path d="M36.5307 64.0297C36.4407 64.0297 36.3407 64.0097 36.2307 63.9697C35.6607 63.7297 35.0207 63.7097 34.3407 63.6797C33.8807 63.6597 33.4207 63.6797 32.9407 63.7197C32.1907 63.7597 31.4107 63.8097 30.6307 63.6797C29.4407 63.4797 28.0807 63.2597 26.7507 63.0997L25.9607 62.9997C24.4507 62.8197 22.8907 62.6197 21.3507 62.7097C21.0907 62.7297 20.8407 62.5097 20.8207 62.2397C20.8107 61.9597 21.0207 61.7297 21.2907 61.7097C22.9107 61.6197 24.5207 61.8197 26.0707 62.0097L26.8507 62.0997C28.2107 62.2597 29.5707 62.4797 30.7807 62.6797C31.4607 62.7897 32.1407 62.7497 32.8707 62.7097C33.3607 62.6797 33.8607 62.6497 34.3707 62.6697C35.0807 62.6997 35.8007 62.7197 36.5107 62.9997C36.6107 62.9497 36.7507 62.9097 36.9207 62.9297C37.1907 62.9697 37.3807 63.2197 37.3407 63.4997C37.3107 63.7297 37.1207 63.8997 36.9007 63.9297C36.8107 63.9697 36.6807 64.0297 36.5207 64.0297H36.5307Z" fill="#808080"></path>
    <path d="M75.5112 80.8767C74.8512 80.8767 74.2412 80.7167 73.6412 80.5567C73.3712 80.4867 73.1012 80.4067 72.8312 80.3567C71.3312 80.0567 69.8312 79.7967 68.3312 79.5367C68.0312 79.4867 67.7312 79.4467 67.4412 79.4067L67.0112 79.3467C66.7412 79.3067 66.5512 79.0567 66.5812 78.7867C66.6212 78.5167 66.8712 78.3167 67.1412 78.3567L67.5612 78.4067C67.8712 78.4467 68.1912 78.4867 68.5012 78.5367C70.0112 78.7967 71.5212 79.0667 73.0312 79.3667C73.3212 79.4267 73.6112 79.5067 73.9112 79.5867C74.5112 79.7467 75.0812 79.9067 75.6512 79.8767C75.9312 79.8667 76.1612 80.0767 76.1712 80.3567C76.1812 80.6367 75.9712 80.8667 75.6912 80.8767C75.6312 80.8767 75.5712 80.8767 75.5112 80.8767Z" fill="#808080"></path>
    <path d="M27.6633 84.5876C27.6633 84.5876 27.6333 84.5876 27.6233 84.5876C27.3433 84.5676 27.1433 84.3276 27.1633 84.0476C27.1633 84.0076 27.1633 83.9476 27.1033 83.8476C26.4333 82.6876 25.9033 81.3976 25.4633 79.9076C24.9533 78.1976 24.8033 76.8376 24.9733 75.4976C25.0033 75.2276 25.2633 75.0276 25.5333 75.0676C25.8033 75.0976 26.0033 75.3476 25.9633 75.6276C25.8133 76.8276 25.9633 78.0576 26.4233 79.6276C26.8433 81.0376 27.3533 82.2576 27.9733 83.3576C28.1133 83.6076 28.1833 83.8676 28.1633 84.1276C28.1433 84.3876 27.9233 84.5876 27.6633 84.5876Z" fill="#808080"></path>
    <path d="M51.7819 66.0684C51.7819 66.0684 51.6919 66.0684 51.6519 66.0484C51.3819 65.9784 51.2219 65.7084 51.3019 65.4384C51.3719 65.1884 51.5519 64.8284 52.0519 64.5784C52.3119 64.4484 52.5719 64.3084 52.8319 64.1784C53.4719 63.8484 54.1319 63.5084 54.8119 63.2084C56.2219 62.5984 57.4219 62.3184 58.6719 62.3284C58.9319 62.3284 58.9819 62.2984 59.0219 62.2584C59.2019 62.0484 59.5219 62.0284 59.7319 62.2084C59.9419 62.3884 59.9619 62.7084 59.7819 62.9184C59.4119 63.3384 58.9119 63.3384 58.6719 63.3284C57.5919 63.3184 56.4919 63.5684 55.2119 64.1284C54.5619 64.4084 53.9219 64.7484 53.3019 65.0684C53.0419 65.2084 52.7719 65.3384 52.5119 65.4784C52.3119 65.5784 52.2919 65.6684 52.2819 65.6984C52.2219 65.9184 52.0219 66.0684 51.8019 66.0684H51.7819Z" fill="#808080"></path>
    <path d="M81.4404 56.9041C81.4404 56.9041 81.4104 56.9041 81.3904 56.9041C81.1204 56.8741 80.9104 56.6341 80.9404 56.3641C81.0804 54.8441 81.2204 51.8941 81.2204 51.8641C81.2804 51.3641 81.4204 50.7841 81.5804 50.1041C81.8204 49.0841 82.1204 47.8141 82.2104 46.6341C82.3504 44.7041 82.2904 42.4441 82.2904 42.4241C82.2904 42.3641 82.2904 42.3141 82.3104 42.2641C82.3804 42.0541 82.3704 41.8241 82.3504 41.5441C82.3504 41.3741 82.3304 41.2141 82.3504 41.0541C82.4004 39.8141 82.8304 38.7141 83.6304 37.7641C83.8104 37.5541 84.1204 37.5241 84.3304 37.7041C84.5404 37.8841 84.5704 38.1941 84.3904 38.4041C83.7304 39.1841 83.3904 40.0641 83.3504 41.0841C83.3504 41.2141 83.3504 41.3541 83.3504 41.4841C83.3604 41.7841 83.3804 42.1141 83.2904 42.4641C83.2904 42.8841 83.3304 44.8941 83.2004 46.6941C83.1104 47.9541 82.8004 49.2641 82.5504 50.3241C82.4004 50.9741 82.2604 51.5341 82.2104 51.9441C82.2104 51.9441 82.0704 54.9041 81.9304 56.4441C81.9104 56.7041 81.6904 56.8941 81.4304 56.8941L81.4404 56.9041Z" fill="#808080"></path>
    <path d="M135.322 98.885C135.322 98.885 135.292 98.885 135.282 98.885C134.802 98.845 134.732 98.385 134.622 97.605C134.602 97.485 134.592 97.375 134.582 97.315C134.392 96.505 134.402 95.695 134.402 94.925C134.402 94.645 134.632 94.375 134.902 94.375C135.182 94.375 135.402 94.555 135.402 94.825V94.925C135.402 95.675 135.402 96.395 135.552 97.095C135.572 97.165 135.592 97.305 135.612 97.465C135.632 97.625 135.682 97.935 135.712 98.075C135.792 98.175 135.832 98.295 135.822 98.425C135.802 98.685 135.582 98.885 135.322 98.885Z" fill="#808080"></path>
    <path d="M99.3109 101.725C99.0809 101.725 98.8709 101.565 98.8209 101.325C98.7009 100.735 98.6509 100.135 98.6009 99.5547C98.5709 99.2547 98.5509 98.9647 98.5109 98.6647C98.4809 98.3947 98.6709 98.1447 98.9509 98.1047C99.2209 98.0747 99.4709 98.2647 99.5109 98.5447C99.5509 98.8547 99.5709 99.1547 99.6009 99.4647C99.6509 100.045 99.7009 100.585 99.8109 101.125C99.8609 101.395 99.6909 101.655 99.4209 101.715C99.3909 101.715 99.3609 101.715 99.3209 101.715L99.3109 101.725Z" fill="#808080"></path>
    <path d="M17.8816 58.5675C17.6116 58.5675 17.3816 58.3475 17.3816 58.0775L17.3516 55.6975C17.3516 55.4175 17.5716 55.1975 17.8416 55.1875C18.1116 55.1875 18.3416 55.4075 18.3416 55.6775L18.3716 58.0575C18.3716 58.3375 18.1516 58.5575 17.8816 58.5675Z" fill="#808080"></path>
    <path d="M45.6914 58.82C45.4114 58.82 45.1914 58.6 45.1914 58.32V56C45.1914 55.72 45.4114 55.5 45.6914 55.5C45.9714 55.5 46.1914 55.72 46.1914 56V58.32C46.1914 58.6 45.9714 58.82 45.6914 58.82Z" fill="#808080"></path>
    <path d="M143.59 33.1094H141.27C140.99 33.1094 140.77 32.8894 140.77 32.6094C140.77 32.3294 140.99 32.1094 141.27 32.1094H143.59C143.87 32.1094 144.09 32.3294 144.09 32.6094C144.09 32.8894 143.87 33.1094 143.59 33.1094Z" fill="#808080"></path>
    <path d="M50.6316 32.797C50.6316 32.797 50.5416 32.797 50.4916 32.777C50.2216 32.697 50.0716 32.427 50.1516 32.157C50.2516 31.797 50.2016 31.417 50.1416 30.997C50.0916 30.637 50.0416 30.267 50.0716 29.867C50.1016 29.587 50.3416 29.387 50.6216 29.417C50.8916 29.447 51.1016 29.687 51.0716 29.967C51.0416 30.247 51.0916 30.547 51.1316 30.857C51.2016 31.327 51.2716 31.867 51.1116 32.427C51.0516 32.647 50.8516 32.787 50.6316 32.787V32.797Z" fill="#808080"></path>
    <path d="M143.59 93.5469H141.27C140.99 93.5469 140.77 93.3269 140.77 93.0469C140.77 92.7669 140.99 92.5469 141.27 92.5469H143.59C143.87 92.5469 144.09 92.7669 144.09 93.0469C144.09 93.3269 143.87 93.5469 143.59 93.5469Z" fill="#808080"></path>
    <path d="M14.1314 82.4609H11.9414C11.6614 82.4609 11.4414 82.2409 11.4414 81.9609C11.4414 81.6809 11.6614 81.4609 11.9414 81.4609H14.1314C14.4114 81.4609 14.6314 81.6809 14.6314 81.9609C14.6314 82.2409 14.4114 82.4609 14.1314 82.4609Z" fill="#808080"></path>
    <path d="M136.321 30.2978C136.051 30.2978 135.831 30.0878 135.821 29.8178L135.731 27.4978C135.721 27.2178 135.931 26.9878 136.211 26.9778C136.481 26.9578 136.721 27.1778 136.731 27.4578L136.821 29.7778C136.831 30.0578 136.621 30.2878 136.341 30.2978C136.341 30.2978 136.331 30.2978 136.321 30.2978Z" fill="#808080"></path>
    <path d="M14.07 61.3047H12C11.72 61.3047 11.5 61.0847 11.5 60.8047C11.5 60.5247 11.72 60.3047 12 60.3047H14.07C14.35 60.3047 14.57 60.5247 14.57 60.8047C14.57 61.0847 14.35 61.3047 14.07 61.3047Z" fill="#808080"></path>
    <path d="M71.0781 17.0391H72.5781L73.1681 20.6591C73.2781 21.4391 73.3981 22.2191 73.5081 23.0191H73.5481C73.6981 22.2191 73.8581 21.4291 74.0181 20.6591L74.8781 17.0391H76.1481L76.9981 20.6591C77.1581 21.4191 77.3081 22.2191 77.4681 23.0191H77.5181C77.6281 22.2191 77.7381 21.4291 77.8481 20.6591L78.4381 17.0391H79.8381L78.4681 24.4491H76.6281L75.7981 20.7891C75.6781 20.2091 75.5681 19.6391 75.4781 19.0691H75.4381C75.3381 19.6391 75.2381 20.2091 75.1181 20.7891L74.3081 24.4491H72.4981L71.0781 17.0391Z" fill="#878787"></path>
    <path d="M80.8594 23.2622H82.4494V18.7722H81.1094V17.8622C81.8494 17.7222 82.3594 17.5322 82.8294 17.2422H83.9194V23.2622H85.3094V24.4522H80.8594V23.2622Z" fill="#878787"></path>
    <path d="M86.4481 23.7516L87.2281 22.8616C87.4881 23.1616 87.9381 23.3916 88.3681 23.3916C89.2181 23.3916 89.9181 22.7716 89.9781 20.9116C89.5681 21.4216 88.9381 21.7216 88.4581 21.7216C87.2181 21.7216 86.3281 21.0016 86.3281 19.4916C86.3281 17.9816 87.3881 17.1016 88.6581 17.1016C90.0581 17.1016 91.3181 18.1716 91.3181 20.6516C91.3181 23.4016 89.9481 24.5916 88.4581 24.5916C87.5481 24.5916 86.8781 24.2016 86.4481 23.7516ZM88.7381 20.6716C89.1281 20.6716 89.5981 20.4416 89.9381 19.8816C89.7881 18.6716 89.2881 18.2116 88.6781 18.2116C88.1281 18.2116 87.6781 18.6316 87.6781 19.4916C87.6781 20.3016 88.0881 20.6716 88.7381 20.6716Z" fill="#878787"></path>
    <path d="M92.2578 20.8116C92.2578 18.3716 93.2478 17.1016 94.7678 17.1016C96.2878 17.1016 97.2678 18.3816 97.2678 20.8116C97.2678 23.2416 96.2878 24.5916 94.7678 24.5916C93.2478 24.5916 92.2578 23.2616 92.2578 20.8116ZM95.8778 20.8116C95.8778 18.8116 95.4078 18.2516 94.7678 18.2516C94.1278 18.2516 93.6478 18.8116 93.6478 20.8116C93.6478 22.8116 94.1278 23.4416 94.7678 23.4416C95.4078 23.4416 95.8778 22.8216 95.8778 20.8116Z" fill="#878787"></path>
    <path d="M98.1484 21.6509C98.1484 19.7909 99.4884 18.7109 101.008 18.7109C101.698 18.7109 102.228 18.9809 102.638 19.3309L101.938 20.2809C101.658 20.0409 101.398 19.9109 101.088 19.9109C100.228 19.9109 99.6484 20.6009 99.6484 21.6509C99.6484 22.7009 100.238 23.3909 101.038 23.3909C101.438 23.3909 101.818 23.2009 102.128 22.9409L102.718 23.9109C102.178 24.3809 101.498 24.5909 100.878 24.5909C99.3284 24.5909 98.1484 23.5109 98.1484 21.6509Z" fill="#878787"></path>
    <path d="M103.77 18.8509H104.97L105.08 19.6009H105.11C105.58 19.1109 106.1 18.7109 106.83 18.7109C107.63 18.7109 108.1 19.0709 108.37 19.6909C108.88 19.1509 109.42 18.7109 110.15 18.7109C111.34 18.7109 111.89 19.5509 111.89 20.9609V24.4509H110.42V21.1409C110.42 20.2709 110.17 19.9709 109.64 19.9709C109.32 19.9709 108.96 20.1809 108.56 20.6009V24.4509H107.1V21.1409C107.1 20.2709 106.84 19.9709 106.31 19.9709C105.99 19.9709 105.63 20.1809 105.24 20.6009V24.4509H103.77V18.8509Z" fill="#878787"></path>
    <path d="M155.931 46.1484V47.7784H152.721V50.8584H155.931V52.4784H147.781V50.8584H151.301V47.7784H147.781V46.1484H155.931Z" fill="#878787"></path>
    <path d="M149.799 53.9922C150.779 53.9922 151.409 54.6422 151.799 55.3922H151.839C152.289 54.7722 152.869 54.3122 153.709 54.3122C155.019 54.3122 155.859 55.3522 155.859 56.7622C155.859 58.1722 154.999 59.1322 153.699 59.1322C152.919 59.1322 152.279 58.6022 151.919 58.0922H151.859C151.439 58.8322 150.859 59.4522 149.789 59.4522C148.559 59.4522 147.609 58.3622 147.609 56.7122C147.609 55.1622 148.509 53.9922 149.789 53.9922H149.799ZM149.859 57.9422C150.649 57.9422 150.939 57.1822 151.369 56.1422C151.029 55.7122 150.539 55.3922 149.979 55.3922C149.239 55.3922 148.769 55.9922 148.769 56.7522C148.769 57.4422 149.159 57.9422 149.859 57.9422ZM153.599 57.8122C154.259 57.8122 154.719 57.4122 154.719 56.7322C154.719 56.1822 154.369 55.7422 153.719 55.7422C152.989 55.7422 152.649 56.3822 152.319 57.2222C152.719 57.5922 153.149 57.8022 153.599 57.8022V57.8122Z" fill="#878787"></path>
    <path d="M151.781 60.4375C154.461 60.4375 155.861 61.5275 155.861 63.1975C155.861 64.8675 154.451 65.9475 151.781 65.9475C149.111 65.9475 147.621 64.8675 147.621 63.1975C147.621 61.5275 149.081 60.4375 151.781 60.4375ZM151.781 64.4175C153.981 64.4175 154.601 63.8975 154.601 63.1975C154.601 62.4975 153.981 61.9675 151.781 61.9675C149.581 61.9675 148.891 62.4975 148.891 63.1975C148.891 63.8975 149.571 64.4175 151.781 64.4175Z" fill="#878787"></path>
    <path d="M150.859 66.9219C152.909 66.9219 154.089 68.3919 154.089 70.0719C154.089 70.8319 153.789 71.4119 153.409 71.8619L152.369 71.0919C152.629 70.7819 152.779 70.5019 152.779 70.1519C152.779 69.2019 152.019 68.5719 150.869 68.5719C149.719 68.5719 148.959 69.2219 148.959 70.1019C148.959 70.5419 149.169 70.9619 149.449 71.3019L148.379 71.9519C147.859 71.3619 147.629 70.6119 147.629 69.9319C147.629 68.2219 148.819 66.9319 150.859 66.9319V66.9219Z" fill="#878787"></path>
    <path d="M153.94 73.1003V74.4203L153.11 74.5403V74.5703C153.65 75.0903 154.09 75.6603 154.09 76.4603C154.09 77.3403 153.69 77.8603 153.01 78.1503C153.6 78.7103 154.09 79.3103 154.09 80.1103C154.09 81.4203 153.17 82.0203 151.61 82.0203H147.77V80.4003H151.41C152.37 80.4003 152.7 80.1303 152.7 79.5403C152.7 79.1903 152.47 78.7903 152.01 78.3503H147.77V76.7403H151.41C152.37 76.7403 152.7 76.4503 152.7 75.8703C152.7 75.5203 152.47 75.1203 152.01 74.6903H147.77V73.0703H153.93L153.94 73.1003Z" fill="#878787"></path>
    <path d="M8.20906 58.5469V59.7269H5.87906V61.9669H8.20906V63.1469H2.28906V61.9669H4.84906V59.7269H2.28906V58.5469H8.20906Z" fill="#878787"></path>
    <path d="M3.71906 66.5691V64.0391H4.52906L8.05906 66.2491V67.6691H4.62906V68.3691H3.72906V67.6691H2.28906V66.5691H3.71906ZM4.61906 66.5691H5.76906C6.10906 66.5691 6.65906 66.5891 6.99906 66.6091V66.5791C6.68906 66.4391 6.38906 66.2791 6.06906 66.1091L4.60906 65.1891V66.5691H4.61906Z" fill="#878787"></path>
    <path d="M5.19969 68.9375C7.14969 68.9375 8.16969 69.7275 8.16969 70.9475C8.16969 72.1675 7.14969 72.9475 5.19969 72.9475C3.24969 72.9475 2.17969 72.1675 2.17969 70.9475C2.17969 69.7275 3.23969 68.9375 5.19969 68.9375ZM5.19969 71.8275C6.79969 71.8275 7.24969 71.4475 7.24969 70.9375C7.24969 70.4275 6.79969 70.0375 5.19969 70.0375C3.59969 70.0375 3.09969 70.4175 3.09969 70.9375C3.09969 71.4575 3.59969 71.8275 5.19969 71.8275Z" fill="#878787"></path>
    <path d="M4.52969 73.6484C6.01969 73.6484 6.87969 74.7184 6.87969 75.9384C6.87969 76.4884 6.65969 76.9184 6.37969 77.2384L5.61969 76.6784C5.80969 76.4584 5.91969 76.2484 5.91969 75.9984C5.91969 75.3084 5.36969 74.8484 4.52969 74.8484C3.68969 74.8484 3.13969 75.3184 3.13969 75.9584C3.13969 76.2784 3.28969 76.5784 3.49969 76.8284L2.71969 77.2984C2.33969 76.8684 2.17969 76.3184 2.17969 75.8284C2.17969 74.5884 3.03969 73.6484 4.52969 73.6484Z" fill="#878787"></path>
    <path d="M6.75906 78.1506V79.1106L6.15906 79.2006V79.2206C6.54906 79.6006 6.86906 80.0106 6.86906 80.6006C6.86906 81.2406 6.57906 81.6206 6.08906 81.8306C6.51906 82.2406 6.86906 82.6706 6.86906 83.2506C6.86906 84.2006 6.19906 84.6406 5.06906 84.6406H2.28906V83.4606H4.93906C5.63906 83.4606 5.87906 83.2606 5.87906 82.8406C5.87906 82.5806 5.70906 82.3006 5.37906 81.9806H2.28906V80.8106H4.93906C5.63906 80.8106 5.87906 80.6006 5.87906 80.1806C5.87906 79.9206 5.70906 79.6406 5.37906 79.3206H2.28906V78.1406H6.75906V78.1506Z" fill="#878787"></path>
    <path d="M102.719 103.797H104.949C107.439 103.797 108.979 105.097 108.979 107.847C108.979 110.597 107.439 111.947 105.039 111.947H102.719V103.797ZM104.849 110.637C106.369 110.637 107.309 109.827 107.309 107.847C107.309 105.867 106.359 105.107 104.849 105.107H104.339V110.637H104.849Z" fill="#878787"></path>
    <path d="M110.09 109.927C110.09 108.947 110.74 108.317 111.49 107.927V107.887C110.87 107.437 110.41 106.857 110.41 106.017C110.41 104.707 111.45 103.867 112.86 103.867C114.27 103.867 115.23 104.727 115.23 106.027C115.23 106.807 114.7 107.447 114.19 107.807V107.867C114.93 108.287 115.55 108.867 115.55 109.937C115.55 111.167 114.46 112.117 112.81 112.117C111.26 112.117 110.09 111.217 110.09 109.937V109.927ZM114.04 109.867C114.04 109.077 113.28 108.787 112.24 108.357C111.81 108.697 111.49 109.177 111.49 109.747C111.49 110.487 112.09 110.957 112.85 110.957C113.54 110.957 114.04 110.567 114.04 109.867ZM113.91 106.127C113.91 105.467 113.51 105.007 112.83 105.007C112.28 105.007 111.84 105.357 111.84 106.007C111.84 106.737 112.48 107.077 113.32 107.407C113.69 107.007 113.9 106.577 113.9 106.127H113.91Z" fill="#878787"></path>
    <path d="M116.539 107.947C116.539 105.267 117.629 103.867 119.299 103.867C120.969 103.867 122.049 105.277 122.049 107.947C122.049 110.617 120.969 112.107 119.299 112.107C117.629 112.107 116.539 110.647 116.539 107.947ZM120.519 107.947C120.519 105.747 119.999 105.127 119.299 105.127C118.599 105.127 118.069 105.747 118.069 107.947C118.069 110.147 118.599 110.837 119.299 110.837C119.999 110.837 120.519 110.157 120.519 107.947Z" fill="#878787"></path>
    <path d="M123.02 108.871C123.02 106.821 124.49 105.641 126.17 105.641C126.93 105.641 127.51 105.941 127.96 106.321L127.19 107.371C126.88 107.111 126.6 106.961 126.25 106.961C125.3 106.961 124.67 107.721 124.67 108.871C124.67 110.021 125.32 110.781 126.2 110.781C126.64 110.781 127.06 110.571 127.4 110.291L128.05 111.361C127.46 111.881 126.71 112.111 126.03 112.111C124.32 112.111 123.03 110.921 123.03 108.881L123.02 108.871Z" fill="#878787"></path>
    <path d="M129.198 105.791H130.518L130.638 106.621H130.668C131.188 106.081 131.758 105.641 132.558 105.641C133.438 105.641 133.958 106.041 134.248 106.721C134.808 106.131 135.408 105.641 136.208 105.641C137.518 105.641 138.118 106.561 138.118 108.121V111.961H136.498V108.321C136.498 107.361 136.228 107.031 135.638 107.031C135.288 107.031 134.888 107.261 134.448 107.721V111.961H132.838V108.321C132.838 107.361 132.548 107.031 131.968 107.031C131.618 107.031 131.218 107.261 130.788 107.721V111.961H129.168V105.801L129.198 105.791Z" fill="#878787"></path>
    <path d="M18.6602 46.0234H20.2802C22.0902 46.0234 23.2102 46.9634 23.2102 48.9634C23.2102 50.9634 22.0902 51.9434 20.3502 51.9434H18.6602V46.0234ZM20.2102 50.9934C21.3102 50.9934 22.0002 50.4034 22.0002 48.9634C22.0002 47.5234 21.3102 46.9734 20.2102 46.9734H19.8402V50.9934H20.2102Z" fill="#878787"></path>
    <path d="M24.0391 49.2203C24.0391 47.0203 25.1391 46.0703 26.3291 46.0703C27.0491 46.0703 27.5791 46.3703 27.9291 46.7403L27.3091 47.4403C27.0991 47.2103 26.7391 47.0203 26.3991 47.0203C25.7191 47.0203 25.1591 47.5203 25.1091 49.0103C25.4391 48.6003 25.9391 48.3603 26.3291 48.3603C27.3191 48.3603 28.0291 48.9303 28.0291 50.1403C28.0291 51.3503 27.1791 52.0603 26.1691 52.0603C25.0491 52.0603 24.0391 51.2003 24.0391 49.2203ZM25.1391 49.8303C25.2491 50.8103 25.6491 51.1703 26.1391 51.1703C26.5891 51.1703 26.9491 50.8303 26.9491 50.1403C26.9491 49.4903 26.6091 49.2003 26.0991 49.2003C25.7991 49.2003 25.4391 49.3703 25.1391 49.8303Z" fill="#878787"></path>
    <path d="M28.7109 49.0403C28.7109 47.0903 29.5009 46.0703 30.7209 46.0703C31.9409 46.0703 32.7209 47.0903 32.7209 49.0403C32.7209 50.9903 31.9409 52.0603 30.7209 52.0603C29.5009 52.0603 28.7109 51.0003 28.7109 49.0403ZM31.6009 49.0403C31.6009 47.4403 31.2209 46.9903 30.7109 46.9903C30.2009 46.9903 29.8109 47.4403 29.8109 49.0403C29.8109 50.6403 30.1909 51.1403 30.7109 51.1403C31.2309 51.1403 31.6009 50.6403 31.6009 49.0403Z" fill="#878787"></path>
    <path d="M33.4219 49.7172C33.4219 48.2272 34.4919 47.3672 35.7119 47.3672C36.2619 47.3672 36.6919 47.5872 37.0119 47.8672L36.4519 48.6272C36.2319 48.4372 36.0219 48.3272 35.7719 48.3272C35.0819 48.3272 34.6219 48.8772 34.6219 49.7172C34.6219 50.5572 35.0919 51.1072 35.7319 51.1072C36.0519 51.1072 36.3519 50.9572 36.6019 50.7472L37.0719 51.5272C36.6419 51.9072 36.0919 52.0672 35.6019 52.0672C34.3619 52.0672 33.4219 51.2072 33.4219 49.7172Z" fill="#878787"></path>
    <path d="M37.9202 47.4772H38.8802L38.9702 48.0772H38.9902C39.3702 47.6872 39.7802 47.3672 40.3702 47.3672C41.0102 47.3672 41.3902 47.6572 41.6002 48.1472C42.0102 47.7172 42.4402 47.3672 43.0202 47.3672C43.9702 47.3672 44.4102 48.0372 44.4102 49.1672V51.9572H43.2302V49.3072C43.2302 48.6072 43.0302 48.3672 42.6102 48.3672C42.3502 48.3672 42.0702 48.5372 41.7502 48.8672V51.9472H40.5802V49.2972C40.5802 48.5972 40.3702 48.3572 39.9502 48.3572C39.6902 48.3572 39.4102 48.5272 39.0902 48.8572V51.9372H37.9102V47.4572L37.9202 47.4772Z" fill="#878787"></path>
  </g>
  <defs>
    <clipPath id="clip0_5447_92634">
      <rect width="165" height="124" fill="white" transform="translate(0.5)"></rect>
    </clipPath>
  </defs>
</svg>
