<?xml version="1.0" encoding="UTF-8"?>
<svg xmlns="http://www.w3.org/2000/svg" width="166" height="124" viewBox="0 0 166 124" fill="none">
  <g clip-path="url(#clip0_5404_95416)">
    <path d="M101.642 91.8175C101.642 91.8175 101.562 91.8175 101.532 91.8175C100.602 91.8175 99.6719 91.7675 98.7419 91.7175C97.4719 91.6475 96.1819 91.6375 94.9219 91.6275H94.2019C92.5119 91.5975 90.8219 91.5475 89.1219 91.4875C87.3019 91.4275 85.4319 91.3675 83.5819 91.3475C82.8419 91.3475 82.1019 91.3075 81.3619 91.2775C80.9819 91.2575 80.6019 91.2475 80.2219 91.2275C78.5119 91.1675 76.7919 91.0675 75.0819 90.9775L73.5719 90.8975C73.0119 90.8675 72.4519 90.8275 71.8919 90.7875C71.1819 90.7375 70.4719 90.6875 69.7619 90.6575C68.9319 90.6175 68.0919 90.5475 67.2619 90.4675C66.7219 90.4175 66.1919 90.3675 65.6519 90.3275C65.0519 90.2875 64.4619 90.2575 63.8619 90.2175C63.1519 90.1775 62.4419 90.1375 61.7319 90.0875C60.7719 90.0075 59.8119 89.9175 58.8519 89.8275C58.1619 89.7575 57.4619 89.6975 56.7719 89.6375C56.1419 89.5875 55.5019 89.5375 54.8719 89.4875C53.6519 89.3975 52.3919 89.3075 51.1619 89.1475C49.9019 88.9875 48.6119 88.9075 47.3519 88.8275C46.8819 88.7975 46.4019 88.7675 45.9319 88.7275C45.2019 88.6775 44.4619 88.6375 43.7219 88.6075C42.5819 88.5575 41.4119 88.5075 40.2519 88.3775C38.8319 88.2175 37.8119 87.6075 37.1219 86.5175C36.6319 85.7375 36.2619 84.9075 35.9719 84.1975C35.1219 82.1475 34.6719 80.2175 34.5719 78.3175L34.5019 76.8775C34.4519 75.8175 34.3919 74.7575 34.3519 73.6975C34.2919 72.2575 34.0719 70.8175 33.8619 69.6075C33.4719 67.3275 33.3319 64.9975 33.2019 62.7475L33.1719 62.2775C33.1119 61.2175 33.0519 60.2675 32.9419 59.3075C32.7719 57.8775 32.6119 56.4675 32.3619 55.0675C32.1119 53.6375 31.8319 52.4475 31.2719 51.3275C30.5219 49.8175 29.5319 48.4175 28.5619 47.0675L28.2819 46.6775C26.4119 44.0375 25.1419 41.4575 24.4219 38.7775C24.0119 37.2675 23.5919 35.6575 23.3519 33.9875L23.2319 33.2175C23.1419 32.6275 23.0519 32.0275 22.9919 31.4275C22.9519 31.0775 22.9119 30.7275 22.8619 30.3775C22.7719 29.6775 22.6719 28.9475 22.6719 28.2075C22.6719 27.7775 22.7119 27.3575 22.7619 26.9475L22.7819 26.7075C22.9019 25.5475 23.1419 24.2475 24.4719 23.4875C24.6219 23.4075 24.7519 23.2975 24.8819 23.1875C25.0419 23.0575 25.2119 22.9175 25.3919 22.8175C27.1919 21.7375 28.8019 21.5375 30.4519 22.1775C30.7519 22.2975 31.0519 22.4275 31.3619 22.5575C32.1619 22.9075 32.9119 23.2475 33.7519 23.2775C34.2819 23.2975 34.7919 23.3975 35.2919 23.4975C35.6019 23.5575 35.9119 23.6175 36.2219 23.6575C37.3019 23.7975 38.3919 23.9675 39.4719 24.1275C40.8819 24.3375 42.3319 24.5575 43.7719 24.7275C45.0019 24.8675 46.3019 24.9475 47.7619 24.9675C49.3119 24.9875 50.8819 24.9175 52.4119 24.8475L53.3919 24.8075C54.4719 24.7675 55.3419 24.5475 56.1219 24.1275L57.2619 23.5175C58.9519 22.6075 60.6919 21.6775 62.5119 20.9175C64.6019 20.0475 66.5519 20.3475 68.1619 21.7675C70.6419 23.9575 72.4919 26.7075 73.6519 29.9375C74.3419 31.8675 74.9219 33.8675 75.4819 35.8075L75.9319 37.3475C76.5319 39.3775 77.3919 42.0275 78.7719 44.4575C79.1019 45.0475 79.4319 45.6375 79.7619 46.2375C80.2319 47.0875 80.7019 47.9475 81.1919 48.7875L81.6119 49.5175C82.4519 50.9575 83.3119 52.4475 84.2919 53.8275C84.6119 54.2775 84.9519 54.4175 85.5419 54.3275C86.3119 54.2175 87.0919 54.1575 87.8419 54.0975C88.2019 54.0675 88.5519 54.0475 88.9119 54.0175L89.7719 53.9375C90.4019 53.8875 91.0419 53.8275 91.6719 53.7575C92.8219 53.6375 94.0619 53.5275 95.5619 53.4275L96.0719 53.3975C96.4919 53.3775 96.9119 53.3475 97.3319 53.2975C98.6419 53.1575 99.9619 53.0975 101.242 53.0475C101.702 53.0275 102.162 53.0075 102.622 52.9875C104.492 52.8975 106.442 52.9275 108.572 53.1075L109.212 53.1575C110.122 53.2275 111.032 53.2975 111.942 53.4175C112.972 53.5475 114.002 53.6775 115.042 53.7775C115.612 53.8375 116.182 53.9075 116.752 53.9875C117.222 54.0475 117.692 54.1075 118.162 54.1575C119.182 54.2675 120.212 54.4475 121.202 54.6275C121.582 54.6975 121.972 54.7675 122.352 54.8275C123.902 55.0875 125.732 55.4375 127.562 56.0475C128.842 56.4775 130.402 57.1975 131.152 59.0475C131.492 59.8875 131.662 60.8175 131.692 61.9875C131.772 65.1675 131.832 67.8475 131.802 70.5475V72.5775C131.782 73.5975 131.772 74.6075 131.762 75.6275V76.1275C131.762 76.7875 131.762 77.4775 131.582 78.1775C131.542 78.3275 131.542 78.4875 131.582 78.5575C131.772 79.0775 131.782 79.6375 131.632 80.2375C131.562 80.5275 131.452 80.8075 131.352 81.0875C131.212 81.4575 131.092 81.8075 131.042 82.1475C130.912 83.0975 130.322 83.7375 129.272 84.0375C128.452 84.2775 127.612 84.4775 126.792 84.6675C126.192 84.8075 125.592 84.9475 124.992 85.1075C124.712 85.1775 124.422 85.2475 124.142 85.3075C123.352 85.4775 122.592 85.6375 122.002 86.0775C120.892 86.9075 119.642 87.4375 117.932 87.7975C116.322 88.1375 114.702 88.5775 113.122 89.0075C112.302 89.2275 111.492 89.4475 110.672 89.6575C110.512 89.6975 110.352 89.7475 110.192 89.7975C109.722 89.9375 109.232 90.0875 108.692 90.0775C108.612 90.0875 108.532 90.0975 108.462 90.0775C108.192 90.1375 107.932 90.2275 107.672 90.3175C107.172 90.4875 106.652 90.6575 106.082 90.6975C105.262 90.7475 104.462 90.9875 103.632 91.4175C102.952 91.7675 102.292 91.8075 101.662 91.8075L101.642 91.8175ZM28.6119 22.7975C27.7619 22.7975 26.8919 23.0775 25.9219 23.6575C25.7819 23.7375 25.6519 23.8475 25.5319 23.9475C25.3519 24.0875 25.1819 24.2275 24.9919 24.3375C24.1519 24.8175 23.9319 25.5675 23.8019 26.7875L23.7719 27.0275C23.7319 27.4275 23.6919 27.8075 23.6919 28.1775C23.6919 28.8475 23.7819 29.5175 23.8719 30.2175C23.9219 30.5775 23.9719 30.9375 24.0019 31.3075C24.0619 31.8875 24.1519 32.4675 24.2419 33.0475L24.3619 33.8275C24.5919 35.4375 25.0019 37.0175 25.4019 38.4975C26.0919 41.0575 27.3119 43.5375 29.1119 46.0775L29.3919 46.4675C30.3819 47.8575 31.4019 49.2875 32.1819 50.8675C32.8319 52.1675 33.1319 53.5675 33.3619 54.8775C33.6119 56.3075 33.7819 57.7275 33.9519 59.1775C34.0619 60.1675 34.1219 61.1375 34.1919 62.2075L34.2219 62.6775C34.3519 64.8975 34.4819 67.1975 34.8719 69.4275C35.0819 70.6675 35.3119 72.1375 35.3819 73.6375C35.4319 74.6975 35.4819 75.7475 35.5319 76.8075L35.6019 78.2475C35.6919 80.0375 36.1219 81.8575 36.9219 83.7975C37.2019 84.4675 37.5419 85.2475 37.9919 85.9675C38.5119 86.7975 39.2819 87.2475 40.3919 87.3675C41.5219 87.4975 42.6719 87.5475 43.7919 87.5975C44.5419 87.6275 45.2819 87.6675 46.0319 87.7175C46.5019 87.7475 46.9719 87.7775 47.4419 87.8175C48.7119 87.8975 50.0119 87.9875 51.3119 88.1475C52.5219 88.2975 53.7719 88.3875 54.9719 88.4775C55.6119 88.5275 56.2519 88.5675 56.8819 88.6275C57.5819 88.6875 58.2819 88.7575 58.9719 88.8175C59.9319 88.9075 60.8819 88.9975 61.8419 89.0775C62.5419 89.1375 63.2519 89.1675 63.9519 89.2075C64.5519 89.2375 65.1619 89.2675 65.7619 89.3175C66.3019 89.3575 66.8519 89.4075 67.3919 89.4575C68.2119 89.5375 69.0219 89.6075 69.8419 89.6475C70.5619 89.6775 71.2819 89.7275 71.9919 89.7775C72.5419 89.8175 73.1019 89.8575 73.6519 89.8875L75.1619 89.9675C76.8619 90.0675 78.5719 90.1575 80.2719 90.2175C80.6519 90.2275 81.0419 90.2475 81.4219 90.2675C82.1519 90.2975 82.8819 90.3375 83.6019 90.3375C85.4619 90.3475 87.3419 90.4175 89.1619 90.4775C90.8419 90.5375 92.5319 90.5875 94.2119 90.6075H94.9319C96.2019 90.6275 97.5019 90.6375 98.7919 90.7075C99.7119 90.7575 100.622 90.8075 101.542 90.8075C102.102 90.8075 102.652 90.7975 103.162 90.5275C104.122 90.0375 105.052 89.7675 106.002 89.6975C106.442 89.6675 106.882 89.5175 107.342 89.3675C107.592 89.2875 107.842 89.1975 108.102 89.1275C108.242 88.8975 108.542 88.8275 108.772 88.9575C108.822 88.9875 108.862 89.0175 108.902 89.0575C109.222 89.0375 109.552 88.9375 109.892 88.8275C110.072 88.7775 110.242 88.7175 110.422 88.6775C111.232 88.4675 112.052 88.2475 112.862 88.0275C114.442 87.5975 116.082 87.1475 117.722 86.8075C119.282 86.4775 120.412 86.0075 121.402 85.2675C122.172 84.6975 123.062 84.5075 123.932 84.3175C124.202 84.2575 124.472 84.1975 124.742 84.1275C125.342 83.9675 125.952 83.8275 126.562 83.6775C127.372 83.4875 128.192 83.2975 128.992 83.0675C129.662 82.8675 129.972 82.5575 130.052 81.9975C130.112 81.5475 130.262 81.1275 130.412 80.7275C130.502 80.4775 130.592 80.2275 130.662 79.9775C130.762 79.5675 130.762 79.2175 130.642 78.8875C130.492 78.4875 130.582 78.0675 130.622 77.8975C130.772 77.3275 130.772 76.7375 130.772 76.1175C130.772 75.9475 130.772 75.7675 130.772 75.5975C130.782 74.5875 130.792 73.5675 130.802 72.5575V70.5275C130.842 67.8375 130.792 65.1775 130.702 62.0075C130.672 60.9575 130.522 60.1375 130.232 59.4075C129.762 58.2575 128.842 57.5075 127.252 56.9775C125.482 56.3875 123.702 56.0475 122.192 55.7875C121.802 55.7175 121.422 55.6475 121.032 55.5775C120.062 55.3975 119.052 55.2175 118.062 55.1175C117.582 55.0675 117.102 55.0075 116.632 54.9375C116.072 54.8675 115.522 54.7875 114.962 54.7375C113.922 54.6375 112.872 54.5075 111.832 54.3775C110.942 54.2675 110.042 54.1975 109.152 54.1275L108.502 54.0775C106.422 53.9075 104.512 53.8675 102.682 53.9675C102.222 53.9875 101.762 54.0075 101.292 54.0275C100.032 54.0775 98.7219 54.1375 97.4519 54.2775C97.0219 54.3275 96.5819 54.3475 96.1419 54.3775L95.6419 54.4075C94.1519 54.5075 92.9319 54.6075 91.7919 54.7375C91.1519 54.8075 90.5119 54.8575 89.8719 54.9175L89.0119 54.9875C88.6519 55.0175 88.2919 55.0475 87.9219 55.0775C87.1819 55.1275 86.4219 55.1875 85.6919 55.2975C84.7319 55.4375 84.0119 55.1375 83.4719 54.3875C82.4719 52.9675 81.6019 51.4675 80.7519 50.0075L80.3319 49.2875C79.8319 48.4375 79.3619 47.5775 78.8919 46.7175C78.5719 46.1275 78.2419 45.5375 77.9119 44.9575C76.4819 42.4375 75.6019 39.7175 74.9819 37.6375L74.5319 36.0975C73.9819 34.1775 73.4019 32.1875 72.7219 30.2875C71.6219 27.2175 69.8619 24.6075 67.5119 22.5275C66.1719 21.3475 64.6619 21.1175 62.9019 21.8575C61.1319 22.5875 59.4119 23.5175 57.7419 24.4175L56.6019 25.0275C55.6919 25.5075 54.6619 25.7675 53.4419 25.8175L52.4719 25.8575C50.9319 25.9275 49.3319 25.9975 47.7619 25.9775C46.2719 25.9575 44.9319 25.8775 43.6719 25.7375C42.2219 25.5675 40.7519 25.3475 39.3319 25.1375C38.2619 24.9775 37.1819 24.8075 36.1019 24.6675C35.7719 24.6275 35.4419 24.5575 35.1119 24.4975C34.6319 24.4075 34.1719 24.3175 33.7219 24.2975C32.6919 24.2575 31.8219 23.8675 30.9719 23.4875C30.6819 23.3575 30.4019 23.2375 30.1119 23.1275C29.6119 22.9375 29.1119 22.8375 28.6119 22.8375V22.7975ZM108.892 89.6275L108.942 89.6575C108.942 89.6575 108.942 89.6575 108.942 89.6475L108.892 89.6175V89.6275Z" fill="#818181"></path>
    <path d="M18.8097 88.7012C18.5297 88.7012 18.3097 88.4812 18.3097 88.2012V23.1712V23.0512C18.3097 22.8612 18.2897 22.6012 18.4197 22.3312C18.5397 22.0812 18.8397 21.9812 19.0897 22.0912C19.3397 22.2112 19.4497 22.5112 19.3297 22.7612C19.3097 22.8112 19.3097 22.9112 19.3197 23.0112V23.1812V88.2012C19.3197 88.4812 19.0997 88.7012 18.8197 88.7012H18.8097Z" fill="#818181"></path>
    <path d="M101.412 100.345H101.402C99.5423 100.295 97.6223 100.185 95.5423 100.005C95.2123 99.9751 94.8723 99.9651 94.5423 99.9551C94.2023 99.9451 93.8623 99.9351 93.5223 99.9051C92.5523 99.8251 91.5823 99.7851 90.6123 99.7451C89.9523 99.7151 89.2923 99.6951 88.6323 99.6551C87.4023 99.5851 86.1623 99.4951 84.9323 99.4151C83.8423 99.3451 82.7423 99.2651 81.6523 99.2051C80.7523 99.1551 79.8623 99.1051 78.9623 99.0651C78.3423 99.0351 77.7223 99.0051 77.0923 98.9751L75.7723 98.9051C74.4023 98.8351 72.9823 98.7651 71.5923 98.6351C71.2323 98.6051 70.8723 98.5851 70.5123 98.5751C70.2023 98.5651 69.8923 98.5551 69.5823 98.5251C68.6323 98.4551 67.6823 98.4151 66.7223 98.3751C65.9823 98.3451 65.2523 98.3151 64.5123 98.2751C63.3023 98.2051 62.1023 98.1151 60.8923 98.0251C59.9023 97.9551 58.9223 97.8851 57.9323 97.8151C57.1723 97.7651 56.4123 97.7351 55.6623 97.7051L52.2423 97.5351C50.3323 97.4451 48.4223 97.3451 46.5123 97.2251C45.5323 97.1651 44.5623 97.1051 43.5823 97.0451C42.5723 96.9851 41.5723 96.9251 40.5623 96.8651C40.0323 96.8351 39.5023 96.8051 38.9723 96.7751C38.0423 96.7251 37.1023 96.6751 36.1723 96.5951C35.9023 96.5751 35.6923 96.3351 35.7123 96.0551C35.7323 95.7751 35.9723 95.5751 36.2523 95.5951C37.1723 95.6651 38.1023 95.7151 39.0323 95.7751C39.5623 95.8051 40.1023 95.8351 40.6323 95.8651C41.6323 95.9251 42.6423 95.9851 43.6423 96.0451C44.6223 96.1051 45.5923 96.1651 46.5723 96.2251C48.4723 96.3451 50.3823 96.4351 52.2923 96.5351L55.7023 96.6951C56.4723 96.7251 57.2323 96.7651 58.0023 96.8151C58.9923 96.8751 59.9823 96.9451 60.9723 97.0251C62.1723 97.1151 63.3823 97.1951 64.5823 97.2751C65.3123 97.3151 66.0423 97.3451 66.7723 97.3751C67.7323 97.4151 68.7023 97.4551 69.6623 97.5251C69.9623 97.5451 70.2623 97.5551 70.5623 97.5651C70.9423 97.5751 71.3223 97.5951 71.6923 97.6251C73.0623 97.7551 74.4723 97.8251 75.8323 97.8951L77.1523 97.9651C77.7723 97.9951 78.3923 98.0251 79.0123 98.0551C79.9123 98.0951 80.8123 98.1451 81.7123 98.1951C82.8123 98.2651 83.9023 98.3351 85.0023 98.4151C86.2323 98.4951 87.4623 98.5851 88.6923 98.6551C89.3423 98.6951 90.0023 98.7251 90.6623 98.7451C91.6423 98.7851 92.6323 98.8251 93.6123 98.9051C93.9323 98.9351 94.2623 98.9451 94.5823 98.9551C94.9323 98.9651 95.2823 98.9851 95.6323 99.0151C97.6923 99.1851 99.5923 99.3051 101.432 99.3551C101.712 99.3551 101.922 99.5951 101.922 99.8651C101.922 100.135 101.692 100.355 101.422 100.355L101.412 100.345Z" fill="#818181"></path>
    <path d="M101.942 91.1778C101.702 91.1778 101.492 91.0078 101.442 90.7678C101.392 90.4978 101.572 90.2378 101.842 90.1878C101.932 90.1678 102.032 90.1478 102.102 90.1378C102.102 90.0278 102.102 89.8678 102.102 89.7578V89.5978C102.102 88.2678 102.102 86.8978 102.042 85.5578C101.982 83.9178 101.902 82.2778 101.822 80.6478L101.632 76.4778C101.602 75.6578 101.562 74.8478 101.522 74.0278L101.472 72.9378C101.412 71.7078 101.352 70.4378 101.232 69.1978C101.012 66.9378 100.692 64.5278 99.8917 62.2778C99.5417 61.3078 99.0817 60.4178 98.4617 59.5678C97.9017 58.7878 97.0817 58.4178 95.9117 58.4078C94.4017 58.3878 92.6917 58.3778 91.1417 58.9878C90.3817 59.2878 89.6217 59.6678 88.8917 60.0278L88.3517 60.2978C85.3517 61.7778 82.2017 63.1278 78.9617 64.3178C77.0817 65.0078 75.5117 65.5678 73.8217 65.9778C73.2717 66.1078 72.7117 66.1278 72.1717 66.1578L71.7717 66.1778C71.4917 66.1978 71.2117 66.1878 70.9217 66.1778C70.7017 66.1778 70.4817 66.1778 70.2617 66.1778C68.6217 66.2378 66.9617 66.1778 65.3617 66.1078C64.6817 66.0778 63.9917 66.0578 63.3117 66.0378C61.7217 65.9978 59.8717 65.8978 58.1217 65.2078C54.3617 63.7378 51.8017 61.5278 50.2917 58.4478L49.9817 57.8078C48.9717 55.7378 47.9517 53.6578 46.9517 51.5778C46.6317 50.9078 46.3117 50.2378 46.0017 49.5678C45.3817 48.2578 44.7417 46.8978 44.0617 45.5978C43.2417 44.0278 42.2817 42.4878 41.3517 41.0078C39.5917 38.1878 38.1717 35.3178 37.1317 33.1178C35.8217 30.3578 33.9917 27.7178 31.3917 24.8078C30.7517 24.0878 29.9717 23.7578 29.0217 23.8078H28.8217C27.7517 23.8578 26.7417 23.9078 25.8417 24.3978C24.8217 24.9578 24.3217 25.7078 24.2317 26.8178C24.1317 28.0078 24.1217 29.1378 24.2017 30.2678C24.2217 30.5478 24.0117 30.7778 23.7317 30.7978C23.4517 30.7978 23.2217 30.6078 23.2017 30.3278C23.1217 29.1478 23.1417 27.9678 23.2417 26.7378C23.3617 25.2878 24.0517 24.2378 25.3717 23.5178C26.4717 22.9178 27.6517 22.8678 28.7917 22.8178H28.9917C30.2417 22.7578 31.3117 23.2078 32.1517 24.1478C34.8217 27.1278 36.6917 29.8478 38.0517 32.6878C39.0817 34.8578 40.4917 37.6978 42.1817 40.4278C43.1517 41.9878 44.1217 43.5378 44.9617 45.1378C45.6517 46.4578 46.3017 47.8278 46.9217 49.1478C47.2317 49.8178 47.5517 50.4778 47.8717 51.1478C48.8817 53.2278 49.8917 55.2978 50.9017 57.3678L51.2117 58.0078C52.6017 60.8478 54.9817 62.8978 58.5017 64.2778C60.1017 64.8978 61.8417 64.9978 63.3517 65.0378C64.0417 65.0578 64.7317 65.0778 65.4217 65.1078C67.0017 65.1678 68.6417 65.2278 70.2517 65.1778C70.4917 65.1778 70.7317 65.1778 70.9617 65.1778C71.2217 65.1778 71.4817 65.1778 71.7417 65.1778L72.1517 65.1578C72.6717 65.1378 73.1517 65.1178 73.6117 65.0078C75.2517 64.6178 76.7917 64.0678 78.6417 63.3878C81.8417 62.2078 84.9717 60.8678 87.9317 59.4078L88.4717 59.1378C89.2217 58.7678 89.9917 58.3778 90.7917 58.0578C92.5217 57.3678 94.3417 57.3878 95.9417 57.4078C97.4417 57.4278 98.5317 57.9378 99.2917 58.9778C99.9617 59.9078 100.472 60.8778 100.852 61.9378C101.692 64.2978 102.022 66.7778 102.252 69.0978C102.372 70.3578 102.442 71.6378 102.502 72.8878L102.552 73.9678C102.592 74.7878 102.632 75.6078 102.662 76.4278L102.852 80.5878C102.932 82.2278 103.012 83.8678 103.072 85.5078C103.122 86.8678 103.132 88.2478 103.132 89.5778V89.7378C103.132 90.7178 103.012 90.9878 102.042 91.1578C102.012 91.1578 101.982 91.1578 101.952 91.1578L101.942 91.1778Z" fill="#818181"></path>
    <path d="M99.411 90.5359C98.671 90.5359 98.041 90.2659 97.431 90.0059C97.261 89.9359 97.091 89.8559 96.921 89.7959C96.651 89.6959 96.381 89.5759 96.111 89.4659C95.521 89.2159 94.961 88.9859 94.381 88.8359C93.981 88.7359 93.861 88.7759 93.851 88.7759C93.291 89.0259 92.731 89.0259 92.241 89.0259H91.091C86.881 89.0259 82.671 89.0259 78.471 89.0259C76.601 89.0259 74.681 88.9059 72.591 88.6759C68.661 88.2359 64.811 87.8559 60.951 87.9859C60.391 88.0059 59.831 88.0459 59.271 88.0959C58.341 88.1659 57.381 88.2459 56.421 88.2059C55.181 88.1559 54.171 88.0259 53.251 87.7859C53.201 87.7759 53.161 87.7559 53.111 87.7459C53.011 87.8059 52.891 87.8459 52.721 87.8659L51.911 87.9459C51.181 88.0159 50.431 88.0859 49.691 88.0959C47.321 88.1259 44.911 88.1259 42.521 88.0959C41.571 88.0859 40.651 88.0359 39.741 87.6659C38.041 86.9659 37.291 86.5659 37.351 84.4159C37.381 83.4159 37.381 82.4159 37.391 81.4159C37.391 80.2459 37.391 79.0659 37.441 77.8859C37.491 76.4659 37.521 75.0459 37.541 73.6159C37.551 72.8859 37.571 72.1559 37.581 71.4259C37.581 71.2359 37.551 70.8659 37.901 70.6859C37.981 70.6459 38.071 70.6259 38.161 70.6359C40.671 70.7859 43.201 70.7159 45.651 70.6559C46.821 70.6259 47.981 70.5959 49.151 70.5859C49.281 70.5859 49.411 70.6359 49.511 70.7359C49.611 70.8359 49.661 70.9559 49.661 71.0859V71.2859V71.6259C49.641 72.9159 49.611 74.3859 49.641 75.8159C49.681 77.7159 49.871 79.2359 50.221 80.6059L50.421 81.3959C50.741 82.6759 51.031 83.8859 51.671 84.9859C52.191 85.8859 52.651 86.5859 53.511 86.8159C54.351 87.0359 55.291 87.1659 56.461 87.2059C57.371 87.2459 58.301 87.1659 59.201 87.0959C59.781 87.0459 60.351 87.0059 60.931 86.9859C64.861 86.8459 68.751 87.2359 72.721 87.6759C74.771 87.9059 76.661 88.0159 78.491 88.0159C82.701 88.0159 86.901 88.0159 91.111 88.0159H92.271C92.721 88.0159 93.101 88.0159 93.471 87.8559C93.851 87.6859 94.311 87.7659 94.661 87.8559C95.321 88.0259 95.931 88.2859 96.531 88.5259C96.791 88.6359 97.051 88.7459 97.321 88.8459C97.501 88.9159 97.691 88.9959 97.871 89.0759C98.441 89.3159 98.971 89.5359 99.541 89.5259C99.811 89.5059 100.051 89.7259 100.061 90.0059C100.071 90.2859 99.861 90.5159 99.581 90.5259C99.541 90.5259 99.501 90.5259 99.461 90.5259L99.411 90.5359ZM38.561 71.6759C38.551 72.3359 38.531 72.9959 38.521 73.6559C38.501 75.0859 38.471 76.5159 38.421 77.9459C38.381 79.1059 38.371 80.2759 38.371 81.4359C38.371 82.4459 38.371 83.4559 38.331 84.4559C38.291 85.9459 38.491 86.0859 40.101 86.7459C40.841 87.0559 41.671 87.0859 42.511 87.0959C44.891 87.1259 47.291 87.1259 49.651 87.0959C50.361 87.0959 51.091 87.0159 51.791 86.9459C51.341 86.4859 51.031 85.9459 50.771 85.4859C50.071 84.2659 49.741 82.9259 49.421 81.6359L49.221 80.8559C48.841 79.4159 48.651 77.8159 48.611 75.8359C48.581 74.3859 48.611 72.9059 48.631 71.6059V71.5859C47.631 71.5959 46.641 71.6259 45.651 71.6459C43.331 71.7059 40.941 71.7659 38.551 71.6459L38.561 71.6759Z" fill="#818181"></path>
    <path d="M97.9497 47.5363C95.6797 47.5363 93.3597 47.5362 90.9297 47.5262C90.6497 47.5262 90.4297 47.2962 90.4297 47.0262C90.4297 46.7462 90.6497 46.5262 90.9297 46.5262C99.8497 46.5662 107.42 46.5262 115.43 46.4762C120.99 46.4462 126.66 46.4162 132.94 46.4062C133.22 46.4062 133.44 46.6262 133.44 46.9062C133.44 47.1862 133.22 47.4062 132.94 47.4062C126.67 47.4062 121 47.4462 115.44 47.4762C109.6 47.5062 104 47.5363 97.9497 47.5363Z" fill="#818181"></path>
    <path d="M102.052 90.0178C101.782 90.0178 101.562 89.8078 101.552 89.5378L101.512 88.2878C101.432 85.5978 101.342 82.8178 101.162 80.0878C101.132 79.6278 101.112 79.1678 101.092 78.7078C101.072 78.2978 101.062 77.8978 101.032 77.4878C100.922 75.7378 100.812 73.9878 100.702 72.2378L100.652 71.4278C100.582 70.3878 100.512 69.3478 100.442 68.3178C100.332 66.6978 100.042 65.0378 99.6117 63.3878C99.3417 62.3878 99.0017 61.5278 98.5517 60.7478C97.9117 59.6278 96.9217 59.0578 95.4417 58.9478C93.5817 58.8178 91.9317 59.1278 90.3917 59.8978C90.0617 60.0678 89.7117 60.1978 89.3617 60.3278C89.2117 60.3878 89.0617 60.4378 88.9117 60.4978C88.6617 60.5978 88.3617 60.4778 88.2617 60.2178C88.1617 59.9578 88.2817 59.6678 88.5417 59.5678C88.6917 59.5078 88.8517 59.4478 89.0117 59.3878C89.3317 59.2678 89.6417 59.1478 89.9517 58.9978C91.6617 58.1478 93.4817 57.7978 95.5217 57.9478C97.3417 58.0778 98.6217 58.8278 99.4317 60.2478C99.9217 61.1078 100.302 62.0478 100.592 63.1278C101.052 64.8378 101.342 66.5578 101.462 68.2478C101.532 69.2878 101.602 70.3278 101.672 71.3678L101.722 72.1778C101.842 73.9278 101.942 75.6778 102.052 77.4278C102.072 77.8378 102.092 78.2578 102.112 78.6678C102.132 79.1178 102.152 79.5678 102.182 80.0178C102.362 82.7578 102.452 85.5478 102.532 88.2478L102.572 89.4978C102.572 89.7778 102.362 90.0078 102.092 90.0178C102.092 90.0178 102.082 90.0178 102.072 90.0178H102.052Z" fill="#818181"></path>
    <path d="M111.232 97.4458C110.942 97.4458 110.652 97.4058 110.392 97.3658C110.182 97.3358 109.972 97.2958 109.762 97.2958C109.482 97.2958 109.272 97.0558 109.282 96.7758C109.282 96.4958 109.522 96.2658 109.802 96.2958C110.052 96.2958 110.302 96.3358 110.542 96.3758C110.932 96.4358 111.292 96.4958 111.592 96.4058C111.872 96.3258 112.142 96.2058 112.412 96.0958C112.652 95.9958 112.892 95.8958 113.132 95.8058L116.332 94.6958C118.262 94.0258 120.202 93.3558 122.132 92.6958C123.712 92.1558 125.302 91.6158 126.892 91.0858C128.272 90.6258 129.642 90.1558 131.022 89.6958L132.062 89.3458C133.232 88.9558 134.442 88.5458 135.592 88.0758C136.512 87.6958 137.362 87.7758 138.192 87.8558L138.552 87.8858C138.822 87.9058 139.032 88.1558 139.012 88.4258C138.992 88.6958 138.752 88.9058 138.472 88.8858L138.102 88.8558C137.342 88.7758 136.672 88.7158 135.992 89.0058C134.812 89.4958 133.582 89.9058 132.392 90.3058L131.352 90.6558C129.972 91.1258 128.602 91.5858 127.222 92.0558C125.632 92.5858 124.052 93.1258 122.472 93.6658C120.542 94.3258 118.602 94.9958 116.672 95.6658L113.472 96.7758C113.252 96.8558 113.032 96.9458 112.812 97.0358C112.502 97.1658 112.192 97.2958 111.882 97.3858C111.662 97.4458 111.442 97.4758 111.232 97.4758V97.4458Z" fill="#818181"></path>
    <path d="M139.57 81.5356C139.29 81.5356 139.07 81.3156 139.07 81.0356V54.2656C139.07 53.9856 139.29 53.7656 139.57 53.7656C139.85 53.7656 140.07 53.9856 140.07 54.2656V81.0356C140.07 81.3156 139.85 81.5356 139.57 81.5356Z" fill="#818181"></path>
    <path d="M60.9716 67.8693C60.7816 67.8693 60.6116 67.7693 60.5216 67.5893C60.4016 67.3393 60.5016 67.0393 60.7516 66.9193C61.0316 66.7893 61.2216 66.5793 61.3916 66.2993C60.7116 66.2293 60.0616 66.1193 59.4216 66.0193L59.1516 65.9793C56.7516 65.5793 54.8316 64.6493 53.2816 63.1293C52.7416 62.5993 52.2516 62.0193 51.7716 61.4693C51.4116 61.0493 51.0516 60.6293 50.6716 60.2293C50.4816 60.0293 50.4916 59.7093 50.6916 59.5193C50.8916 59.3293 51.2116 59.3393 51.4016 59.5393C51.7916 59.9493 52.1616 60.3893 52.5316 60.8193C52.9916 61.3593 53.4616 61.9193 53.9716 62.4193C55.3716 63.7893 57.1216 64.6393 59.3016 64.9993L59.5716 65.0393C60.4116 65.1793 61.2816 65.3293 62.1916 65.3693C62.3616 65.3693 62.5116 65.4693 62.6016 65.6093C62.6916 65.7493 62.7016 65.9293 62.6216 66.0793C62.3216 66.7193 61.9816 67.4393 61.1716 67.8393C61.1016 67.8693 61.0316 67.8893 60.9516 67.8893L60.9716 67.8693Z" fill="#818181"></path>
    <path d="M64.6398 68.6078C64.4698 68.6078 64.2998 68.6078 64.1298 68.6078C62.9398 68.5778 61.9498 68.3378 61.0798 67.8678C60.8398 67.7378 60.7398 67.4378 60.8698 67.1878C60.9998 66.9478 61.2998 66.8578 61.5498 66.9778C62.2798 67.3678 63.1298 67.5678 64.1598 67.5978C65.0298 67.6278 65.9198 67.5778 66.7898 67.5278L67.3498 67.4978C67.9498 67.4678 68.5498 67.4278 69.1598 67.3878C69.7298 67.3478 70.3098 67.3078 70.8798 67.2778C70.9798 67.0278 71.1098 66.7978 71.2298 66.5678C71.3898 66.2678 71.5498 65.9778 71.6298 65.6778C71.6998 65.4078 71.9798 65.2578 72.2398 65.3178C72.5098 65.3878 72.6698 65.6578 72.5998 65.9278C72.4898 66.3478 72.2998 66.6978 72.1198 67.0378C71.9898 67.2678 71.8698 67.4978 71.7798 67.7478C71.6998 67.9678 71.4998 68.2378 70.9998 68.2578C70.4098 68.2878 69.8298 68.3278 69.2398 68.3678C68.6298 68.4078 68.0298 68.4478 67.4198 68.4778L66.8598 68.5078C66.1398 68.5478 65.3998 68.5878 64.6598 68.5878L64.6398 68.6078Z" fill="#818181"></path>
    <path d="M75.5687 61.5808C75.4087 61.5808 75.2487 61.5008 75.1487 61.3608C74.9987 61.1308 75.0587 60.8208 75.2887 60.6708C76.0487 60.1608 76.8587 59.7408 77.6387 59.3308C78.1587 59.0608 78.6787 58.7808 79.1887 58.4808C80.5087 57.7008 81.8687 56.9708 83.1987 56.2608C83.7687 55.9508 84.3387 55.6508 84.9087 55.3408C85.1487 55.2108 85.4587 55.3008 85.5887 55.5408C85.7187 55.7808 85.6287 56.0908 85.3887 56.2208C84.8187 56.5308 84.2487 56.8408 83.6687 57.1508C82.3587 57.8508 80.9987 58.5808 79.6987 59.3508C79.1787 59.6608 78.6387 59.9408 78.1087 60.2208C77.3487 60.6208 76.5687 61.0308 75.8487 61.5108C75.7587 61.5708 75.6687 61.5908 75.5687 61.5908V61.5808Z" fill="#818181"></path>
    <path d="M108.631 89.848C108.441 89.848 108.262 89.738 108.172 89.558C108.062 89.308 108.172 89.0081 108.422 88.8981L109.222 88.5381C109.802 88.2781 110.381 88.0181 110.951 87.7481C112.131 87.1981 113.252 86.6281 114.072 85.6881C114.252 85.4781 114.572 85.4581 114.782 85.6381C114.992 85.8181 115.012 86.138 114.832 86.348C113.882 87.448 112.652 88.068 111.372 88.668C110.792 88.938 110.211 89.1981 109.631 89.4581L108.832 89.8181C108.762 89.8481 108.692 89.8581 108.622 89.8581L108.631 89.848Z" fill="#818181"></path>
    <path d="M37.142 27.6442C36.972 27.6442 36.802 27.5542 36.712 27.3942C36.562 27.1242 36.312 26.9042 36.062 26.6742L35.832 26.4542C35.262 25.9142 34.622 25.4842 33.942 25.0242C33.542 24.7542 33.142 24.4842 32.752 24.1942C32.532 24.0242 32.492 23.7142 32.652 23.4942C32.822 23.2742 33.132 23.2342 33.352 23.3942C33.722 23.6742 34.112 23.9342 34.492 24.1942C35.182 24.6542 35.882 25.1342 36.512 25.7342L36.732 25.9342C37.032 26.2042 37.342 26.4942 37.582 26.8942C37.722 27.1342 37.642 27.4342 37.402 27.5742C37.322 27.6242 37.232 27.6442 37.152 27.6442H37.142Z" fill="#818181"></path>
    <path d="M130.719 81.0167C130.439 81.0167 130.219 80.7967 130.219 80.5167C130.219 79.9767 130.219 79.3067 130.489 78.6467C130.599 78.3867 130.889 78.2667 131.139 78.3767C131.389 78.4867 131.519 78.7767 131.409 79.0267C131.229 79.4567 131.219 79.9367 131.219 80.5067C131.219 80.7867 130.999 81.0067 130.719 81.0067V81.0167Z" fill="#818181"></path>
    <path d="M90.7607 49.0841C90.7607 49.0841 90.7307 49.0841 90.7107 49.0841C90.4407 49.0541 90.2307 48.8141 90.2607 48.5441C90.3607 47.5041 90.3607 46.4441 90.2607 45.4041C90.2307 45.1341 90.4407 44.8841 90.7107 44.8641C90.9907 44.8241 91.2307 45.0441 91.2507 45.3141C91.3607 46.4141 91.3607 47.5341 91.2507 48.6441C91.2307 48.9041 91.0107 49.0941 90.7507 49.0941L90.7607 49.0841Z" fill="#818181"></path>
    <path d="M36.1016 98.2144C35.8216 98.2144 35.6016 97.9944 35.6016 97.7144V94.4844C35.6016 94.2044 35.8216 93.9844 36.1016 93.9844C36.3816 93.9844 36.6016 94.2044 36.6016 94.4844V97.7144C36.6016 97.9944 36.3816 98.2144 36.1016 98.2144Z" fill="#818181"></path>
    <path d="M101.592 102.02C101.342 102.02 101.132 101.83 101.092 101.58C101.002 100.85 101.012 100.12 101.022 99.4103C101.022 99.0403 101.032 98.6703 101.022 98.3003C101.022 98.0203 101.232 97.8003 101.512 97.7903C101.792 97.7703 102.012 98.0003 102.022 98.2803C102.022 98.6603 102.022 99.0503 102.022 99.4303C102.012 100.13 102.002 100.79 102.082 101.46C102.112 101.73 101.922 101.98 101.652 102.02C101.632 102.02 101.612 102.02 101.592 102.02Z" fill="#818181"></path>
    <path d="M20.4803 22.9745C20.4803 22.9745 20.4403 22.9745 20.4303 22.9745C19.8203 22.9045 19.2003 22.9145 18.5603 22.9245C18.1203 22.9245 17.6803 22.9345 17.2303 22.9245C16.9503 22.9145 16.7403 22.6845 16.7503 22.4045C16.7603 22.1245 17.0103 21.9045 17.2703 21.9245C17.6903 21.9445 18.1203 21.9345 18.5403 21.9245C19.1903 21.9245 19.8603 21.9045 20.5303 21.9745C20.8003 22.0045 21.0003 22.2545 20.9703 22.5245C20.9403 22.7845 20.7303 22.9745 20.4703 22.9745H20.4803Z" fill="#818181"></path>
    <path d="M141.191 81.6562H137.961C137.681 81.6562 137.461 81.4362 137.461 81.1562C137.461 80.8762 137.681 80.6562 137.961 80.6562H141.191C141.471 80.6562 141.691 80.8762 141.691 81.1562C141.691 81.4362 141.471 81.6562 141.191 81.6562Z" fill="#818181"></path>
    <path d="M141.188 54.7084C141.188 54.7084 141.158 54.7084 141.148 54.7084C140.098 54.6284 139.038 54.6284 137.998 54.7084C137.718 54.7284 137.478 54.5184 137.458 54.2484C137.438 53.9684 137.638 53.7284 137.918 53.7084C139.018 53.6284 140.128 53.6284 141.228 53.7084C141.508 53.7284 141.708 53.9684 141.688 54.2484C141.668 54.5084 141.448 54.7084 141.188 54.7084Z" fill="#818181"></path>
    <path d="M20.48 88.8655C20.48 88.8655 20.44 88.8655 20.42 88.8655C19.76 88.7855 19.09 88.7955 18.39 88.8055C18.01 88.8055 17.62 88.8155 17.24 88.8055C16.96 88.8055 16.75 88.5655 16.75 88.2955C16.75 88.0155 16.99 87.8055 17.26 87.8055C17.63 87.8055 18 87.8055 18.37 87.8055C19.08 87.7955 19.81 87.7755 20.54 87.8755C20.81 87.9055 21.01 88.1555 20.97 88.4355C20.94 88.6855 20.72 88.8755 20.47 88.8755L20.48 88.8655Z" fill="#818181"></path>
    <path d="M133.059 48.9638C132.779 48.9638 132.559 48.7438 132.559 48.4638V45.3438C132.559 45.0637 132.779 44.8438 133.059 44.8438C133.339 44.8438 133.559 45.0637 133.559 45.3438V48.4638C133.559 48.7438 133.339 48.9638 133.059 48.9638Z" fill="#818181"></path>
    <path d="M136.32 88.6965C136.22 88.6965 136.11 88.6665 136.02 88.5965C135.99 88.5765 135.88 88.5765 135.77 88.5765C135.58 88.5765 135.33 88.5965 135.07 88.4665C134.82 88.3465 134.71 88.0465 134.83 87.7965C134.95 87.5465 135.24 87.4365 135.5 87.5565C135.54 87.5765 135.65 87.5665 135.74 87.5665C135.97 87.5665 136.31 87.5465 136.62 87.7765C136.84 87.9365 136.89 88.2565 136.73 88.4765C136.63 88.6065 136.48 88.6765 136.33 88.6765L136.32 88.6965Z" fill="#818181"></path>
    <path d="M112.639 97.5737C112.379 97.5737 112.059 97.5537 111.749 97.4037C111.499 97.2837 111.399 96.9837 111.519 96.7337C111.639 96.4837 111.939 96.3837 112.189 96.5037C112.329 96.5737 112.519 96.5737 112.739 96.5637H112.899C113.179 96.5637 113.399 96.7937 113.399 97.0637C113.399 97.3337 113.169 97.5637 112.899 97.5637H112.749C112.749 97.5637 112.679 97.5637 112.639 97.5637V97.5737Z" fill="#818181"></path>
    <path d="M46.6602 104.703H48.8902C51.3802 104.703 52.9202 106.003 52.9202 108.753C52.9202 111.503 51.3802 112.853 48.9802 112.853H46.6602V104.703ZM48.7902 111.543C50.3102 111.543 51.2502 110.733 51.2502 108.753C51.2502 106.773 50.3002 106.013 48.7902 106.013H48.2802V111.543H48.7902Z" fill="#888888"></path>
    <path d="M54.0909 112.086L54.9509 111.106C55.2409 111.436 55.7309 111.686 56.2009 111.686C57.1409 111.686 57.9109 111.006 57.9709 108.956C57.5209 109.516 56.8309 109.846 56.3009 109.846C54.9409 109.846 53.9609 109.056 53.9609 107.396C53.9609 105.736 55.1309 104.766 56.5209 104.766C58.0609 104.766 59.4509 105.946 59.4509 108.676C59.4509 111.706 57.9409 113.006 56.3009 113.006C55.3009 113.006 54.5609 112.576 54.0909 112.086ZM56.6109 108.696C57.0409 108.696 57.5609 108.446 57.9309 107.826C57.7609 106.496 57.2109 105.986 56.5409 105.986C55.9409 105.986 55.4409 106.446 55.4409 107.396C55.4409 108.286 55.8909 108.696 56.6109 108.696Z" fill="#888888"></path>
    <path d="M60.4805 108.853C60.4805 106.173 61.5705 104.773 63.2405 104.773C64.9105 104.773 65.9905 106.183 65.9905 108.853C65.9905 111.523 64.9105 113.013 63.2405 113.013C61.5705 113.013 60.4805 111.553 60.4805 108.853ZM64.4605 108.853C64.4605 106.653 63.9405 106.033 63.2405 106.033C62.5405 106.033 62.0105 106.653 62.0105 108.853C62.0105 111.053 62.5405 111.743 63.2405 111.743C63.9405 111.743 64.4605 111.063 64.4605 108.853Z" fill="#888888"></path>
    <path d="M66.9609 109.777C66.9609 107.727 68.4309 106.547 70.1109 106.547C70.8709 106.547 71.4509 106.847 71.9009 107.227L71.1309 108.277C70.8209 108.017 70.5409 107.867 70.1909 107.867C69.2409 107.867 68.6109 108.627 68.6109 109.777C68.6109 110.927 69.2609 111.687 70.1409 111.687C70.5809 111.687 71.0009 111.477 71.3409 111.187L71.9909 112.257C71.4009 112.777 70.6509 113.007 69.9709 113.007C68.2609 113.007 66.9709 111.817 66.9709 109.777H66.9609Z" fill="#888888"></path>
    <path d="M73.1394 106.697H74.4594L74.5794 107.527H74.6094C75.1294 106.987 75.6994 106.547 76.4994 106.547C77.3794 106.547 77.8994 106.947 78.1894 107.627C78.7494 107.037 79.3494 106.547 80.1494 106.547C81.4594 106.547 82.0594 107.467 82.0594 109.027V112.867H80.4394V109.227C80.4394 108.267 80.1694 107.937 79.5794 107.937C79.2294 107.937 78.8294 108.167 78.3894 108.627V112.867H76.7794V109.227C76.7794 108.267 76.4894 107.937 75.9094 107.937C75.5594 107.937 75.1594 108.167 74.7294 108.627V112.867H73.1094V106.707L73.1394 106.697Z" fill="#888888"></path>
    <path d="M153.17 54.4609V55.6409H150.84V57.8809H153.17V59.0609H147.25V57.8809H149.81V55.6409H147.25V54.4609H153.17Z" fill="#888888"></path>
    <path d="M148.67 62.4831V59.9531H149.48L153.01 62.1631V63.5831H149.58V64.2831H148.68V63.5831H147.25V62.4831H148.68H148.67ZM149.57 62.4831H150.72C151.06 62.4831 151.61 62.5031 151.95 62.5231V62.4931C151.64 62.3531 151.34 62.1931 151.02 62.0231L149.56 61.1031V62.4831H149.57Z" fill="#888888"></path>
    <path d="M150.149 64.8516C152.099 64.8516 153.119 65.6416 153.119 66.8616C153.119 68.0816 152.099 68.8616 150.149 68.8616C148.199 68.8616 147.129 68.0816 147.129 66.8616C147.129 65.6416 148.189 64.8516 150.149 64.8516ZM150.149 67.7416C151.749 67.7416 152.199 67.3616 152.199 66.8516C152.199 66.3416 151.749 65.9516 150.149 65.9516C148.549 65.9516 148.049 66.3316 148.049 66.8516C148.049 67.3716 148.549 67.7416 150.149 67.7416Z" fill="#888888"></path>
    <path d="M149.479 69.5625C150.969 69.5625 151.829 70.6325 151.829 71.8525C151.829 72.4025 151.609 72.8325 151.329 73.1525L150.569 72.5925C150.759 72.3725 150.869 72.1625 150.869 71.9125C150.869 71.2225 150.319 70.7625 149.479 70.7625C148.639 70.7625 148.089 71.2325 148.089 71.8725C148.089 72.1925 148.239 72.4925 148.449 72.7425L147.669 73.2125C147.289 72.7825 147.129 72.2325 147.129 71.7425C147.129 70.5025 147.989 69.5625 149.479 69.5625Z" fill="#888888"></path>
    <path d="M151.718 74.0625V75.0225L151.118 75.1125V75.1325C151.508 75.5125 151.828 75.9225 151.828 76.5125C151.828 77.1525 151.538 77.5325 151.048 77.7425C151.478 78.1525 151.828 78.5825 151.828 79.1625C151.828 80.1125 151.158 80.5525 150.028 80.5525H147.238V79.3825H149.888C150.588 79.3825 150.828 79.1825 150.828 78.7625C150.828 78.5025 150.658 78.2225 150.328 77.9025H147.248V76.7325H149.898C150.598 76.7325 150.838 76.5225 150.838 76.1025C150.838 75.8425 150.668 75.5625 150.338 75.2425H147.258V74.0625H151.738H151.718Z" fill="#888888"></path>
    <path d="M15.3531 39.0469V40.6769H12.1431V43.7569H15.3531V45.3769H7.20312V43.7569H10.7231V40.6769H7.20312V39.0469H15.3531Z" fill="#888888"></path>
    <path d="M9.22125 46.885C10.2013 46.885 10.8313 47.535 11.2213 48.285H11.2613C11.7112 47.665 12.2912 47.205 13.1312 47.205C14.4412 47.205 15.2812 48.255 15.2812 49.655C15.2812 51.055 14.4212 52.025 13.1212 52.025C12.3412 52.025 11.7013 51.495 11.3412 50.975H11.2812C10.8612 51.715 10.2812 52.335 9.21125 52.335C7.98125 52.335 7.03125 51.245 7.03125 49.595C7.03125 48.045 7.93125 46.875 9.21125 46.875L9.22125 46.885ZM9.28125 50.835C10.0712 50.835 10.3612 50.075 10.7912 49.035C10.4512 48.605 9.97125 48.285 9.40125 48.285C8.66125 48.285 8.19125 48.885 8.19125 49.645C8.19125 50.335 8.57125 50.835 9.28125 50.835ZM13.0213 50.705C13.6813 50.705 14.1413 50.305 14.1413 49.625C14.1413 49.075 13.7913 48.635 13.1413 48.635C12.4113 48.635 12.0712 49.275 11.7412 50.125C12.1412 50.495 12.5713 50.705 13.0213 50.705Z" fill="#888888"></path>
    <path d="M11.203 53.3359C13.883 53.3359 15.283 54.4259 15.283 56.0959C15.283 57.7659 13.873 58.8459 11.203 58.8459C8.53297 58.8459 7.04297 57.7659 7.04297 56.0959C7.04297 54.4259 8.50297 53.3359 11.203 53.3359ZM11.203 57.3159C13.403 57.3159 14.023 56.7959 14.023 56.0959C14.023 55.3959 13.403 54.8659 11.203 54.8659C9.00297 54.8659 8.31297 55.3959 8.31297 56.0959C8.31297 56.7959 8.99297 57.3159 11.203 57.3159Z" fill="#888888"></path>
    <path d="M10.2808 59.8203C12.3308 59.8203 13.5108 61.2903 13.5108 62.9703C13.5108 63.7303 13.2108 64.3103 12.8308 64.7603L11.7808 63.9903C12.0408 63.6803 12.1908 63.4003 12.1908 63.0503C12.1908 62.1003 11.4308 61.4703 10.2808 61.4703C9.13078 61.4703 8.37078 62.1203 8.37078 63.0003C8.37078 63.4403 8.58078 63.8603 8.87078 64.2003L7.80078 64.8503C7.28078 64.2603 7.05078 63.5103 7.05078 62.8303C7.05078 61.1203 8.24078 59.8303 10.2808 59.8303V59.8203Z" fill="#888888"></path>
    <path d="M13.3614 65.9987V67.3187L12.5314 67.4388V67.4688C13.0714 67.9887 13.5114 68.5587 13.5114 69.3587C13.5114 70.2387 13.1114 70.7588 12.4314 71.0488C13.0214 71.6088 13.5114 72.1988 13.5114 73.0088C13.5114 74.3188 12.5914 74.9187 11.0314 74.9187H7.19141V73.2988H10.8314C11.7914 73.2988 12.1214 73.0288 12.1214 72.4388C12.1214 72.0888 11.8914 71.6887 11.4314 71.2487H7.20141V69.6387H10.8414C11.8014 69.6387 12.1314 69.3487 12.1314 68.7687C12.1314 68.4187 11.9014 68.0187 11.4414 67.5887H7.20141V65.9688H13.3614V65.9987Z" fill="#888888"></path>
    <path d="M125.721 96.3438H126.921L127.391 99.2338C127.481 99.8538 127.571 100.484 127.661 101.124H127.691C127.811 100.484 127.941 99.8538 128.071 99.2338L128.761 96.3438H129.781L130.461 99.2338C130.591 99.8438 130.711 100.484 130.841 101.124H130.881C130.971 100.484 131.061 99.8538 131.141 99.2338L131.611 96.3438H132.731L131.631 102.264H130.161L129.501 99.3338C129.401 98.8738 129.321 98.4138 129.241 97.9538H129.211C129.131 98.4138 129.051 98.8638 128.951 99.3338L128.301 102.264H126.851L125.711 96.3438H125.721Z" fill="#888888"></path>
    <path d="M133.281 99.5328C133.281 97.3328 134.381 96.3828 135.571 96.3828C136.291 96.3828 136.821 96.6828 137.171 97.0528L136.551 97.7528C136.341 97.5228 135.981 97.3328 135.641 97.3328C134.961 97.3328 134.401 97.8328 134.351 99.3228C134.681 98.9128 135.181 98.6728 135.571 98.6728C136.561 98.6728 137.271 99.2428 137.271 100.453C137.271 101.663 136.421 102.373 135.411 102.373C134.291 102.373 133.281 101.513 133.281 99.5328ZM134.381 100.143C134.491 101.123 134.891 101.483 135.381 101.483C135.831 101.483 136.191 101.143 136.191 100.453C136.191 99.8028 135.851 99.5128 135.341 99.5128C135.041 99.5128 134.681 99.6828 134.381 100.143Z" fill="#888888"></path>
    <path d="M137.811 101.57L138.351 100.82C138.691 101.15 139.101 101.42 139.651 101.42C140.271 101.42 140.701 101.06 140.701 100.41C140.701 99.76 140.301 99.41 139.701 99.41C139.351 99.41 139.161 99.5 138.811 99.72L138.271 99.38L138.431 96.5H141.601V97.48H139.451L139.341 98.73C139.581 98.63 139.781 98.57 140.051 98.57C141.041 98.57 141.871 99.13 141.871 100.36C141.871 101.59 140.891 102.37 139.801 102.37C138.861 102.37 138.241 102 137.801 101.56L137.811 101.57Z" fill="#888888"></path>
    <path d="M142.66 100.022C142.66 98.5319 143.73 97.6719 144.95 97.6719C145.5 97.6719 145.93 97.8919 146.25 98.1719L145.69 98.9319C145.47 98.7419 145.26 98.6319 145.01 98.6319C144.32 98.6319 143.86 99.1819 143.86 100.022C143.86 100.862 144.33 101.412 144.97 101.412C145.29 101.412 145.59 101.262 145.84 101.052L146.31 101.832C145.88 102.212 145.33 102.372 144.84 102.372C143.6 102.372 142.66 101.512 142.66 100.022Z" fill="#888888"></path>
    <path d="M147.162 97.7819H148.122L148.212 98.3819H148.232C148.612 97.9919 149.022 97.6719 149.612 97.6719C150.252 97.6719 150.632 97.9619 150.842 98.4519C151.252 98.0219 151.682 97.6719 152.262 97.6719C153.212 97.6719 153.652 98.3419 153.652 99.4719V102.262H152.472V99.6119C152.472 98.9119 152.272 98.6719 151.852 98.6719C151.592 98.6719 151.312 98.8419 150.992 99.1719V102.252H149.822V99.6019C149.822 98.9019 149.612 98.6619 149.192 98.6619C148.932 98.6619 148.652 98.8319 148.332 99.1619V102.242H147.152V97.7619L147.162 97.7819Z" fill="#888888"></path>
    <path d="M100.309 38.3516H101.929C103.739 38.3516 104.859 39.2916 104.859 41.2916C104.859 43.2916 103.739 44.2716 101.999 44.2716H100.309V38.3516ZM101.859 43.3216C102.959 43.3216 103.649 42.7316 103.649 41.2916C103.649 39.8516 102.959 39.3016 101.859 39.3016H101.489V43.3216H101.859Z" fill="#888888"></path>
    <path d="M105.688 41.5406C105.688 39.3406 106.788 38.3906 107.978 38.3906C108.698 38.3906 109.227 38.6906 109.577 39.0606L108.957 39.7606C108.747 39.5306 108.388 39.3406 108.048 39.3406C107.368 39.3406 106.807 39.8406 106.757 41.3306C107.087 40.9206 107.588 40.6806 107.978 40.6806C108.968 40.6806 109.677 41.2506 109.677 42.4606C109.677 43.6706 108.827 44.3806 107.817 44.3806C106.697 44.3806 105.688 43.5206 105.688 41.5406ZM106.787 42.1506C106.897 43.1306 107.297 43.4906 107.787 43.4906C108.237 43.4906 108.597 43.1506 108.597 42.4606C108.597 41.8106 108.257 41.5206 107.747 41.5206C107.447 41.5206 107.087 41.6906 106.787 42.1506Z" fill="#888888"></path>
    <path d="M110.359 41.3606C110.359 39.4106 111.149 38.3906 112.369 38.3906C113.589 38.3906 114.369 39.4106 114.369 41.3606C114.369 43.3106 113.589 44.3806 112.369 44.3806C111.149 44.3806 110.359 43.3206 110.359 41.3606ZM113.249 41.3606C113.249 39.7606 112.869 39.3106 112.359 39.3106C111.849 39.3106 111.459 39.7606 111.459 41.3606C111.459 42.9606 111.839 43.4606 112.359 43.4606C112.879 43.4606 113.249 42.9606 113.249 41.3606Z" fill="#888888"></path>
    <path d="M115.07 42.0297C115.07 40.5397 116.14 39.6797 117.36 39.6797C117.91 39.6797 118.34 39.8997 118.66 40.1797L118.1 40.9397C117.88 40.7497 117.67 40.6397 117.42 40.6397C116.73 40.6397 116.27 41.1897 116.27 42.0297C116.27 42.8697 116.74 43.4197 117.38 43.4197C117.7 43.4197 118 43.2697 118.25 43.0597L118.72 43.8397C118.29 44.2197 117.74 44.3797 117.25 44.3797C116.01 44.3797 115.07 43.5197 115.07 42.0297Z" fill="#888888"></path>
    <path d="M119.569 39.7897H120.529L120.619 40.3897H120.639C121.019 39.9997 121.429 39.6797 122.019 39.6797C122.659 39.6797 123.039 39.9697 123.249 40.4597C123.659 40.0297 124.089 39.6797 124.669 39.6797C125.619 39.6797 126.059 40.3497 126.059 41.4797V44.2697H124.879V41.6197C124.879 40.9197 124.679 40.6797 124.259 40.6797C123.999 40.6797 123.719 40.8497 123.399 41.1797V44.2597H122.229V41.6097C122.229 40.9097 122.019 40.6697 121.599 40.6697C121.339 40.6697 121.059 40.8397 120.739 41.1697V44.2497H119.559V39.7697L119.569 39.7897Z" fill="#888888"></path>
  </g>
  <defs>
    <clipPath id="clip0_5404_95416">
      <rect width="165" height="124" fill="white" transform="translate(0.5)"></rect>
    </clipPath>
  </defs>
</svg>
