<?xml version="1.0" encoding="UTF-8"?>
<svg xmlns="http://www.w3.org/2000/svg" width="304" height="176" viewBox="0 0 304 176" fill="none">
  <path d="M16.75 32.75C25.59 32.75 32.75 25.59 32.75 16.75C32.75 7.91 25.59 0.75 16.75 0.75C7.91 0.75 0.75 7.91 0.75 16.75C0.75 25.59 7.91 32.75 16.75 32.75Z" fill="white"></path>
  <path d="M16.75 33.5C7.51 33.5 0 25.99 0 16.75C0 7.51 7.51 0 16.75 0C25.99 0 33.5 7.51 33.5 16.75C33.5 25.99 25.99 33.5 16.75 33.5ZM16.75 1.5C8.34 1.5 1.5 8.34 1.5 16.75C1.5 25.16 8.34 32 16.75 32C25.16 32 32 25.16 32 16.75C32 8.34 25.16 1.5 16.75 1.5Z" fill="#888888"></path>
  <path d="M12.5299 21.3698C16.0099 17.9498 18.1199 15.7798 18.1199 13.8698C18.1199 12.5398 17.4099 11.6598 15.9999 11.6598C15.0099 11.6598 14.1999 12.2898 13.5399 13.0498L12.4399 11.9598C13.5099 10.7998 14.6199 10.0898 16.2499 10.0898C18.5399 10.0898 20.0199 11.5498 20.0199 13.7598C20.0199 15.9698 17.9999 18.2298 15.3999 20.9498C16.0299 20.8798 16.8299 20.8298 17.4399 20.8298H20.6199V22.4998H12.5499V21.3598H12.5299V21.3698Z" fill="#888888"></path>
  <path d="M237.89 93.3087H208.7C208.15 93.3087 207.7 92.8587 207.7 92.3087C207.7 91.7587 208.15 91.3087 208.7 91.3087H237.89C245.84 91.3087 252.31 84.8387 252.31 76.8887C252.31 68.9387 245.84 62.4688 237.89 62.4688H225.64C225.09 62.4688 224.64 62.0187 224.64 61.4688C224.64 60.9187 225.09 60.4688 225.64 60.4688H237.89C246.95 60.4688 254.31 67.8387 254.31 76.8887C254.31 85.9387 246.94 93.3087 237.89 93.3087Z" fill="#0066CB"></path>
  <path d="M217.5 103.039C217.24 103.039 216.97 102.939 216.78 102.729L207.29 92.7587C206.92 92.3687 206.92 91.7487 207.31 91.3587L216.8 81.8687C217.19 81.4787 217.82 81.4787 218.21 81.8687C218.6 82.2587 218.6 82.8887 218.21 83.2787L209.41 92.0787L218.23 101.339C218.61 101.739 218.6 102.369 218.2 102.749C218.01 102.929 217.76 103.029 217.51 103.029L217.5 103.039Z" fill="#0066CB"></path>
  <path d="M148.36 83.3295L199.02 60.6895V92.2495L148.36 114.899" fill="white"></path>
  <path d="M148.36 115.65C148.07 115.65 147.8 115.48 147.67 115.21C147.5 114.83 147.67 114.39 148.05 114.22L198.28 91.77V61.85L148.67 84.02C148.29 84.19 147.85 84.02 147.68 83.64C147.51 83.26 147.68 82.82 148.06 82.65L198.73 60C198.96 59.9 199.23 59.92 199.44 60.06C199.65 60.2 199.78 60.44 199.78 60.69V92.26C199.78 92.56 199.61 92.82 199.34 92.94L148.67 115.59C148.57 115.63 148.47 115.66 148.36 115.66V115.65Z" fill="#808080"></path>
  <path d="M148.99 83.3301H50.72V114.9H148.99V83.3301Z" fill="white"></path>
  <path d="M148.99 115.65H50.72C50.31 115.65 49.97 115.31 49.97 114.9V83.3301C49.97 82.9201 50.31 82.5801 50.72 82.5801H148.99C149.4 82.5801 149.74 82.9201 149.74 83.3301V114.9C149.74 115.31 149.4 115.65 148.99 115.65ZM51.47 114.15H148.24V84.0801H51.47V114.15Z" fill="#808080"></path>
  <path d="M50.8899 83.3395L100.76 60.6895H199.02L148.84 83.3795L50.8899 83.3395Z" fill="white"></path>
  <path d="M148.84 84.1297L50.8899 84.0897C50.5399 84.0897 50.2299 83.8397 50.1599 83.4997C50.0899 83.1497 50.2599 82.7997 50.5799 82.6597L100.44 59.9997C100.54 59.9597 100.64 59.9297 100.75 59.9297H199.02C199.37 59.9297 199.68 60.1797 199.75 60.5197C199.82 60.8697 199.65 61.2197 199.33 61.3597L149.14 84.0497C149.04 84.0897 148.94 84.1197 148.83 84.1197L148.84 84.1297ZM54.3499 82.5897L148.67 82.6297L195.54 61.4397H100.92L54.3599 82.5997L54.3499 82.5897Z" fill="#808080"></path>
</svg>
