<?xml version="1.0" encoding="UTF-8"?>
<svg xmlns="http://www.w3.org/2000/svg" width="304" height="176" viewBox="0 0 304 176" fill="none">
  <path d="M16.75 32.75C25.59 32.75 32.75 25.59 32.75 16.75C32.75 7.91 25.59 0.75 16.75 0.75C7.91 0.75 0.75 7.91 0.75 16.75C0.75 25.59 7.91 32.75 16.75 32.75Z" fill="white"></path>
  <path d="M16.75 33.5C7.51 33.5 0 25.99 0 16.75C0 7.51 7.51 0 16.75 0C25.99 0 33.5 7.51 33.5 16.75C33.5 25.99 25.99 33.5 16.75 33.5ZM16.75 1.5C8.34 1.5 1.5 8.34 1.5 16.75C1.5 25.16 8.34 32 16.75 32C25.16 32 32 25.16 32 16.75C32 8.34 25.16 1.5 16.75 1.5Z" fill="#888888"></path>
  <path d="M12.26 21.0094L13.21 19.7494C13.94 20.4994 14.88 21.1294 16.17 21.1294C17.58 21.1294 18.55 20.3694 18.55 19.1394C18.55 17.7994 17.67 16.9294 14.84 16.9294V15.4894C17.3 15.4894 18.12 14.5894 18.12 13.4194C18.12 12.3294 17.39 11.6694 16.2 11.6694C15.23 11.6694 14.42 12.1494 13.7 12.8594L12.68 11.6394C13.67 10.7394 14.82 10.1094 16.27 10.1094C18.51 10.1094 20.09 11.2694 20.09 13.2694C20.09 14.6794 19.26 15.6194 17.93 16.1094V16.1894C19.37 16.5494 20.51 17.5994 20.51 19.2494C20.51 21.4394 18.62 22.7294 16.33 22.7294C14.36 22.7294 13.08 21.9494 12.25 21.0094H12.26V21.0094Z" fill="#888888"></path>
  <path d="M44.41 152.709H132.17C137.86 152.709 142.47 148.099 142.47 142.409V127.549C142.47 124.119 139.54 121.419 136.12 121.709C128.24 122.369 112.78 127.229 88.33 127.229C63.85 127.229 48.35 122.369 40.46 121.709C37.04 121.419 34.11 124.119 34.11 127.549V142.419C34.11 148.109 38.72 152.719 44.41 152.719V152.709Z" fill="white"></path>
  <path d="M132.17 153.46H44.41C38.32 153.46 33.36 148.5 33.36 142.41V127.54C33.36 125.7 34.14 123.92 35.49 122.67C36.85 121.42 38.68 120.8 40.51 120.95C42.89 121.15 45.89 121.71 49.68 122.42C58.24 124.03 71.19 126.46 88.32 126.46C105.45 126.46 118.36 124.03 126.91 122.42C130.69 121.71 133.68 121.15 136.05 120.95C137.89 120.8 139.72 121.42 141.07 122.67C142.43 123.92 143.21 125.69 143.21 127.54V142.4C143.21 148.49 138.25 153.45 132.16 153.45L132.17 153.46ZM39.95 122.44C38.67 122.44 37.46 122.91 36.51 123.79C35.45 124.77 34.86 126.1 34.86 127.55V142.42C34.86 147.68 39.14 151.97 44.41 151.97H132.17C137.43 151.97 141.72 147.69 141.72 142.42V127.56C141.72 126.11 141.13 124.78 140.07 123.8C139.01 122.82 137.63 122.35 136.19 122.47C133.89 122.66 130.94 123.22 127.2 123.92C118.6 125.54 105.59 127.99 88.34 127.99C71.09 127.99 58.04 125.54 49.42 123.92C45.67 123.22 42.71 122.66 40.41 122.47C40.26 122.46 40.12 122.45 39.97 122.45L39.95 122.44Z" fill="#808080"></path>
  <path d="M143.82 121.061V118.881C143.82 115.361 140.81 112.601 137.3 112.901C129.22 113.581 113.38 118.461 88.32 118.461C63.26 118.461 47.35 113.581 39.26 112.901C35.75 112.611 32.75 115.371 32.75 118.881V121.061" fill="white"></path>
  <path d="M143.82 121.811C143.41 121.811 143.07 121.471 143.07 121.061V118.881C143.07 117.391 142.47 116.021 141.37 115.011C140.27 114.001 138.85 113.511 137.36 113.641C135.01 113.841 132 114.391 128.19 115.101C119.37 116.731 106.03 119.201 88.31 119.201C70.59 119.201 57.22 116.731 48.38 115.101C44.56 114.391 41.54 113.841 39.19 113.641C37.7 113.521 36.28 114.001 35.19 115.011C34.1 116.021 33.49 117.391 33.49 118.881V121.061C33.49 121.471 33.15 121.811 32.74 121.811C32.33 121.811 31.99 121.471 31.99 121.061V118.881C31.99 117.001 32.79 115.181 34.17 113.911C35.56 112.631 37.43 111.991 39.32 112.151C41.75 112.351 44.8 112.921 48.66 113.631C57.45 115.251 70.73 117.711 88.32 117.711C105.91 117.711 119.15 115.261 127.92 113.631C131.77 112.921 134.81 112.351 137.24 112.151C139.12 112.001 141 112.631 142.39 113.911C143.78 115.191 144.57 117.001 144.57 118.881V121.061C144.57 121.471 144.23 121.811 143.82 121.811V121.811Z" fill="#808080"></path>
  <path d="M119.97 109.519C121.06 107.059 121.17 102.939 121.61 102.069C122.05 101.199 123.32 100.319 124.61 100.389C125.9 100.459 132.63 102.429 134.21 102.489C135.79 102.559 138.8 96.9593 138.8 96.9593C138.8 96.9593 134.02 93.2093 133.39 92.4493C132.76 91.6893 132.71 90.1593 131.57 87.7493C130.43 85.3393 125.8 84.2393 125.8 84.2393C122.01 83.2893 121.02 83.7593 119.78 84.5893C118.54 85.4193 109.01 90.8793 105.36 92.8493C101.61 94.8793 97.07 97.1293 92 97.8693C86.93 98.6093 67.86 99.0793 62.58 99.9293C57.3 100.779 54.08 105.629 52.76 108.059C51.44 110.489 45.75 120.709 48.55 130.739C50.01 135.979 51.08 128.739 52.5 123.499C54.14 117.409 56.67 114.549 56.67 114.549" fill="white"></path>
  <path d="M49.55 133.31C48.61 133.31 48.16 132.17 47.82 130.94C46.53 126.3 46.21 118.52 52.03 107.81L52.09 107.7C53.61 104.89 56.99 100.06 62.45 99.1801C65.25 98.7301 71.8 98.3901 78.14 98.0601C83.98 97.7601 89.49 97.4701 91.88 97.1201C96.68 96.4201 101.02 94.3301 104.99 92.1801C108.63 90.2101 118.16 84.7601 119.35 83.9601C120.73 83.0301 121.94 82.5001 125.97 83.5001C126.17 83.5501 130.95 84.7102 132.23 87.4102C132.83 88.6802 133.14 89.6901 133.38 90.5101C133.58 91.1701 133.74 91.7001 133.95 91.9501C134.37 92.4601 137.42 94.9101 139.25 96.3501C139.54 96.5801 139.62 96.9701 139.45 97.3001C138.48 99.1101 136.01 103.31 134.17 103.23C133.25 103.19 131.06 102.64 128.73 102.06C127.03 101.64 125.1 101.15 124.56 101.13C123.61 101.07 122.59 101.76 122.27 102.4C122.15 102.63 122.02 103.58 121.9 104.41C121.66 106.11 121.35 108.24 120.65 109.83C120.48 110.21 120.04 110.38 119.66 110.21C119.28 110.04 119.11 109.6 119.28 109.22C119.9 107.82 120.2 105.73 120.42 104.2C120.61 102.88 120.72 102.17 120.93 101.74C121.48 100.64 123.02 99.5701 124.64 99.6401C125.27 99.6701 126.74 100.03 129.09 100.62C131.14 101.13 133.47 101.71 134.23 101.74C134.8 101.69 136.45 99.5701 137.82 97.1501C136.46 96.0701 133.36 93.6001 132.8 92.9301C132.39 92.4401 132.2 91.7901 131.95 90.9601C131.72 90.1901 131.43 89.2401 130.88 88.0701C130.07 86.3701 126.81 85.2601 125.62 84.9701C121.93 84.0501 121.2 84.5401 120.19 85.2101C118.95 86.0401 109.48 91.4701 105.71 93.5001C101.61 95.7201 97.13 97.8701 92.1 98.6001C89.65 98.9601 84.1 99.2501 78.22 99.5501C71.92 99.8801 65.41 100.22 62.69 100.65C57.86 101.42 54.8 105.84 53.41 108.4L53.35 108.51C47.76 118.78 48.04 126.15 49.26 130.52C49.38 130.95 49.49 131.25 49.57 131.45C50 130.49 50.54 128.24 50.96 126.52C51.22 125.44 51.49 124.33 51.76 123.29C53.43 117.11 55.99 114.16 56.09 114.04C56.36 113.73 56.84 113.7 57.15 113.97C57.46 114.24 57.49 114.72 57.22 115.03C57.2 115.06 54.78 117.87 53.21 123.68C52.93 124.7 52.67 125.8 52.42 126.87C51.36 131.31 50.84 133.27 49.58 133.29H49.56L49.55 133.31Z" fill="#808080"></path>
  <path d="M126.86 88.8613C126.86 88.8613 127.2 91.5613 125.77 93.8113C124.34 96.0713 122.46 97.1913 122.46 97.1913C122.46 97.1913 120.21 96.9213 119.38 94.3913C118.56 91.8613 118.49 89.8113 118.49 89.8113" fill="white"></path>
  <path d="M122.46 97.9508C122.46 97.9508 122.4 97.9508 122.37 97.9508C122.26 97.9408 119.63 97.5908 118.67 94.6408C117.83 92.0408 117.75 89.9508 117.74 89.8608C117.73 89.4508 118.05 89.1008 118.46 89.0908C118.87 89.0608 119.22 89.4008 119.24 89.8108C119.24 89.8308 119.32 91.8008 120.1 94.1808C120.62 95.7608 121.79 96.2608 122.31 96.4108C122.83 96.0408 124.12 95.0408 125.14 93.4208C126.4 91.4308 126.12 88.9908 126.12 88.9608C126.07 88.5508 126.36 88.1808 126.77 88.1208C127.18 88.0708 127.55 88.3608 127.61 88.7708C127.63 88.8908 127.97 91.7708 126.41 94.2208C124.9 96.6008 122.94 97.7908 122.85 97.8408C122.73 97.9108 122.6 97.9508 122.46 97.9508V97.9508Z" fill="#808080"></path>
  <path d="M102.57 110.68L123.9 111.03L129.32 113.53" fill="white"></path>
  <path d="M129.32 114.28C129.21 114.28 129.11 114.26 129.01 114.21L123.74 111.77L102.56 111.42C102.15 111.42 101.82 111.07 101.82 110.66C101.82 110.25 102.17 109.94 102.58 109.92L123.92 110.27C124.02 110.27 124.13 110.3 124.22 110.34L129.64 112.84C130.02 113.01 130.18 113.46 130.01 113.84C129.88 114.11 129.61 114.28 129.33 114.28H129.32Z" fill="#808080"></path>
  <path d="M73.2499 106.67C73.2499 106.67 77.1399 106.26 80.2199 107.64C85.5399 110.02 86.3499 115.55 86.3499 115.55H95.9899L97.4199 116.98" fill="white"></path>
  <path d="M97.4199 117.74C97.2299 117.74 97.0399 117.67 96.8899 117.52L95.6799 116.31H86.3499C85.9799 116.31 85.6599 116.04 85.6099 115.67C85.6099 115.62 84.7799 110.51 79.9199 108.33C77.0599 107.05 73.3699 107.41 73.3299 107.42C72.9199 107.46 72.5499 107.16 72.5099 106.75C72.4699 106.34 72.7699 105.97 73.1799 105.93C73.3499 105.91 77.2999 105.52 80.5399 106.97C85.1299 109.02 86.5699 113.21 86.9699 114.81H95.9999C96.1999 114.81 96.3899 114.89 96.5299 115.03L97.9599 116.46C98.2499 116.75 98.2499 117.23 97.9599 117.52C97.8099 117.67 97.6199 117.74 97.4299 117.74H97.4199Z" fill="#808080"></path>
  <path d="M210.79 43.2908C222.04 43.2908 231.16 34.1708 231.16 22.9208C231.16 11.6707 222.04 2.55078 210.79 2.55078C199.54 2.55078 190.42 11.6707 190.42 22.9208C190.42 34.1708 199.54 43.2908 210.79 43.2908Z" fill="#0066CB"></path>
  <path d="M199.31 33.5016V25.3516H201.02C201.84 25.3516 202.49 25.4316 202.96 25.5916C203.47 25.7516 203.93 26.0216 204.35 26.4016C205.19 27.1716 205.61 28.1816 205.61 29.4316C205.61 30.6816 205.17 31.7016 204.3 32.4716C203.86 32.8616 203.4 33.1316 202.92 33.2816C202.47 33.4316 201.83 33.5116 201 33.5116H199.31V33.5016ZM200.54 32.3416H201.09C201.64 32.3416 202.1 32.2816 202.47 32.1716C202.84 32.0516 203.17 31.8516 203.46 31.5816C204.07 31.0316 204.37 30.3116 204.37 29.4216C204.37 28.5316 204.07 27.8016 203.47 27.2416C202.93 26.7416 202.14 26.5016 201.09 26.5016H200.54V32.3416Z" fill="white"></path>
  <path d="M210.51 28.3607H211.7V33.5007H210.51V32.9607C210.02 33.4207 209.49 33.6507 208.93 33.6507C208.22 33.6507 207.63 33.3907 207.17 32.8807C206.71 32.3607 206.48 31.7007 206.48 30.9207C206.48 30.1407 206.71 29.5107 207.17 28.9907C207.63 28.4807 208.21 28.2207 208.9 28.2207C209.5 28.2207 210.04 28.4707 210.51 28.9607V28.3607V28.3607ZM207.69 30.9207C207.69 31.4107 207.82 31.8107 208.09 32.1207C208.36 32.4307 208.7 32.5907 209.11 32.5907C209.55 32.5907 209.91 32.4407 210.18 32.1407C210.45 31.8307 210.59 31.4307 210.59 30.9507C210.59 30.4707 210.45 30.0707 210.18 29.7607C209.91 29.4507 209.56 29.3007 209.12 29.3007C208.71 29.3007 208.37 29.4607 208.1 29.7607C207.83 30.0707 207.69 30.4607 207.69 30.9207V30.9207Z" fill="white"></path>
  <path d="M214.92 32.5513L212.61 28.3613H213.99L215.56 31.3213L217.03 28.3613H218.37L214.27 36.3013H212.91L214.92 32.5513V32.5513Z" fill="white"></path>
  <path d="M222.16 29.2422L221.18 29.7622C221.03 29.4422 220.83 29.2922 220.6 29.2922C220.49 29.2922 220.4 29.3322 220.32 29.4022C220.24 29.4722 220.2 29.5622 220.2 29.6822C220.2 29.8822 220.43 30.0722 220.89 30.2722C221.52 30.5422 221.94 30.7922 222.16 31.0222C222.38 31.2522 222.49 31.5622 222.49 31.9422C222.49 32.4422 222.31 32.8522 221.94 33.1922C221.58 33.5122 221.15 33.6722 220.65 33.6722C219.79 33.6722 219.18 33.2522 218.82 32.4122L219.83 31.9422C219.97 32.1922 220.08 32.3422 220.15 32.4122C220.29 32.5422 220.47 32.6122 220.67 32.6122C221.07 32.6122 221.27 32.4322 221.27 32.0622C221.27 31.8522 221.12 31.6522 220.81 31.4722C220.69 31.4122 220.57 31.3522 220.45 31.3022C220.33 31.2422 220.21 31.1922 220.09 31.1322C219.75 30.9622 219.5 30.7922 219.36 30.6222C219.18 30.4122 219.09 30.1322 219.09 29.7922C219.09 29.3422 219.24 28.9722 219.55 28.6822C219.86 28.3922 220.24 28.2422 220.69 28.2422C221.35 28.2422 221.84 28.5822 222.16 29.2622V29.2422Z" fill="white"></path>
  <path d="M204.71 17.2516V15.6016C205.53 15.6016 206.08 15.5116 206.36 15.3316C206.86 15.0116 207.11 14.5016 207.11 13.7916C207.11 13.2416 206.93 12.8016 206.56 12.4616C206.2 12.1116 205.73 11.9416 205.16 11.9416C204.62 11.9416 204.21 12.0716 203.92 12.3316C203.64 12.5916 203.43 13.0416 203.29 13.6716H201.37C201.57 12.4716 201.98 11.5916 202.6 11.0216C203.22 10.4616 204.08 10.1816 205.19 10.1816C206.3 10.1816 207.22 10.5116 207.93 11.1716C208.64 11.8316 208.99 12.6716 208.99 13.7116C208.99 14.8816 208.53 15.7916 207.6 16.4416C208.66 17.0616 209.19 18.0816 209.19 19.4816C209.19 20.6316 208.8 21.5716 208.03 22.3016C207.26 23.0316 206.27 23.3916 205.06 23.3916C203.52 23.3916 202.38 22.8216 201.63 21.6916C201.32 21.2216 201.13 20.5616 201.04 19.7216H202.9C203 20.3416 203.24 20.8116 203.62 21.1416C204 21.4716 204.5 21.6316 205.12 21.6316C205.74 21.6316 206.26 21.4216 206.67 21.0116C207.08 20.5916 207.28 20.0516 207.28 19.4016C207.28 18.5416 206.97 17.9316 206.36 17.5616C206 17.3516 205.45 17.2516 204.7 17.2516H204.71Z" fill="white"></path>
  <path d="M210.83 16.7116C210.83 14.6716 211.3 13.0516 212.25 11.8316C213.1 10.7316 214.13 10.1816 215.34 10.1816C216.55 10.1816 217.58 10.7316 218.43 11.8316C219.38 13.0416 219.85 14.7016 219.85 16.7916C219.85 18.8816 219.38 20.5316 218.43 21.7416C217.58 22.8416 216.55 23.3916 215.35 23.3916C214.15 23.3916 213.11 22.8416 212.25 21.7416C211.3 20.5316 210.83 18.8516 210.83 16.7116ZM212.73 16.7116C212.73 18.1316 212.98 19.3116 213.47 20.2516C213.96 21.1716 214.59 21.6316 215.35 21.6316C216.11 21.6316 216.73 21.1716 217.23 20.2516C217.73 19.3316 217.98 18.1816 217.98 16.7816C217.98 15.3816 217.73 14.2216 217.23 13.3016C216.73 12.3816 216.11 11.9316 215.35 11.9316C214.59 11.9316 213.98 12.3916 213.48 13.3016C212.98 14.2116 212.73 15.3516 212.73 16.7116Z" fill="white"></path>
  <path d="M210.79 48.9402L214.85 41.9102H206.72L210.79 48.9402Z" fill="#0066CB"></path>
  <path d="M91.85 79.8494C103.1 79.8494 112.22 70.7294 112.22 59.4794C112.22 48.2293 103.1 39.1094 91.85 39.1094C80.5999 39.1094 71.48 48.2293 71.48 59.4794C71.48 70.7294 80.5999 79.8494 91.85 79.8494Z" fill="#0066CB"></path>
  <path d="M80.37 70.0602V61.9102H82.08C82.9 61.9102 83.55 61.9902 84.02 62.1502C84.53 62.3102 84.99 62.5802 85.41 62.9602C86.25 63.7302 86.67 64.7402 86.67 65.9902C86.67 67.2402 86.23 68.2602 85.36 69.0302C84.92 69.4202 84.46 69.6902 83.98 69.8402C83.53 69.9902 82.89 70.0702 82.06 70.0702H80.37V70.0602ZM81.6 68.9002H82.15C82.7 68.9002 83.16 68.8402 83.53 68.7302C83.9 68.6102 84.23 68.4102 84.52 68.1402C85.13 67.5902 85.43 66.8702 85.43 65.9802C85.43 65.0902 85.13 64.3602 84.53 63.8002C83.99 63.3002 83.2 63.0602 82.15 63.0602H81.6V68.9002V68.9002Z" fill="white"></path>
  <path d="M91.57 64.9095H92.76V70.0495H91.57V69.5095C91.08 69.9695 90.55 70.1995 89.99 70.1995C89.28 70.1995 88.69 69.9395 88.23 69.4295C87.77 68.9095 87.54 68.2495 87.54 67.4695C87.54 66.6895 87.77 66.0595 88.23 65.5395C88.69 65.0295 89.27 64.7695 89.96 64.7695C90.56 64.7695 91.1 65.0195 91.57 65.5095V64.9095ZM88.75 67.4695C88.75 67.9595 88.88 68.3595 89.15 68.6695C89.42 68.9795 89.76 69.1395 90.17 69.1395C90.61 69.1395 90.97 68.9895 91.24 68.6895C91.51 68.3795 91.65 67.9795 91.65 67.4995C91.65 67.0195 91.51 66.6195 91.24 66.3095C90.97 65.9995 90.62 65.8495 90.18 65.8495C89.77 65.8495 89.43 66.0095 89.16 66.3095C88.89 66.6195 88.75 67.0095 88.75 67.4695Z" fill="white"></path>
  <path d="M95.98 69.1002L93.67 64.9102H95.05L96.62 67.8702L98.09 64.9102H99.43L95.33 72.8502H93.97L95.98 69.1002Z" fill="white"></path>
  <path d="M103.23 65.791L102.25 66.311C102.1 65.991 101.9 65.841 101.67 65.841C101.56 65.841 101.47 65.881 101.39 65.951C101.31 66.021 101.27 66.111 101.27 66.231C101.27 66.431 101.5 66.621 101.96 66.821C102.59 67.091 103.01 67.341 103.23 67.571C103.45 67.801 103.56 68.111 103.56 68.491C103.56 68.991 103.38 69.401 103.01 69.741C102.65 70.061 102.22 70.221 101.72 70.221C100.86 70.221 100.25 69.801 99.89 68.961L100.9 68.491C101.04 68.741 101.15 68.891 101.22 68.961C101.36 69.091 101.54 69.161 101.74 69.161C102.14 69.161 102.34 68.981 102.34 68.611C102.34 68.401 102.19 68.201 101.88 68.021C101.76 67.961 101.64 67.901 101.52 67.851C101.4 67.791 101.28 67.741 101.16 67.681C100.82 67.511 100.57 67.341 100.43 67.171C100.25 66.961 100.16 66.681 100.16 66.341C100.16 65.891 100.31 65.521 100.62 65.231C100.93 64.941 101.31 64.791 101.76 64.791C102.42 64.791 102.91 65.131 103.23 65.811V65.791Z" fill="white"></path>
  <path d="M87.87 46.5098L89.29 47.5698L86.24 51.7298C86.41 51.7098 86.55 51.6898 86.66 51.6798C86.78 51.6698 86.87 51.6598 86.93 51.6598C87.97 51.6598 88.86 52.0598 89.62 52.8498C90.37 53.6298 90.75 54.5798 90.75 55.6798C90.75 56.8498 90.33 57.8498 89.49 58.6898C88.65 59.5298 87.66 59.9398 86.49 59.9398C85.32 59.9398 84.32 59.5298 83.44 58.7098C82.58 57.8898 82.16 56.9098 82.16 55.7898C82.16 54.7798 82.58 53.7098 83.41 52.5798L87.88 46.5098H87.87ZM88.86 55.8098C88.86 55.1298 88.63 54.5598 88.16 54.0898C87.68 53.6198 87.11 53.3798 86.45 53.3798C85.79 53.3798 85.21 53.6098 84.74 54.0798C84.27 54.5498 84.04 55.1198 84.04 55.7898C84.04 56.4598 84.27 57.0298 84.74 57.4998C85.21 57.9698 85.78 58.1998 86.46 58.1998C87.14 58.1998 87.69 57.9698 88.16 57.4998C88.63 57.0298 88.87 56.4598 88.87 55.8198L88.86 55.8098Z" fill="white"></path>
  <path d="M92.0601 53.2702C92.0601 51.2302 92.5301 49.6102 93.4801 48.3902C94.3301 47.2902 95.3601 46.7402 96.5701 46.7402C97.7801 46.7402 98.8101 47.2902 99.6601 48.3902C100.61 49.6002 101.08 51.2602 101.08 53.3502C101.08 55.4402 100.61 57.0902 99.6601 58.3002C98.8101 59.4002 97.7801 59.9502 96.5801 59.9502C95.3801 59.9502 94.3401 59.4002 93.4801 58.3002C92.5301 57.0902 92.0601 55.4102 92.0601 53.2702V53.2702ZM93.9601 53.2702C93.9601 54.6902 94.2101 55.8702 94.7001 56.8102C95.1901 57.7302 95.8201 58.1902 96.5801 58.1902C97.3401 58.1902 97.9601 57.7302 98.4601 56.8102C98.9601 55.8902 99.2101 54.7402 99.2101 53.3402C99.2101 51.9402 98.9601 50.7802 98.4601 49.8602C97.9601 48.9402 97.3401 48.4902 96.5801 48.4902C95.8201 48.4902 95.2101 48.9502 94.7101 49.8602C94.2101 50.7702 93.9601 51.9102 93.9601 53.2702V53.2702Z" fill="white"></path>
  <path d="M91.85 85.3095L95.91 78.2695H87.79L91.85 85.3095Z" fill="#0066CB"></path>
  <path d="M246.95 74.2204C247.67 71.6004 248.9 69.2004 250.32 66.9104C252.24 63.8104 254.24 60.7704 257.15 58.4604C259.02 56.9704 261.34 56.3804 263.39 55.2504C263.88 54.9804 264.45 55.3804 264.72 55.6404C266.33 57.1604 267.99 58.6704 268.97 60.7004C269.87 62.5704 270.11 64.6004 270.23 66.6504C270.25 67.0604 270.27 67.3904 270.57 67.7904C271.3 68.7504 271.13 70.0004 271.19 71.1204C271.39 74.5504 271.59 77.9804 271.47 81.4204C271.2 88.9904 271.3 96.5604 271.39 104.13C271.46 110.33 271.33 116.54 271.5 122.74C271.6 126.46 271.54 130.19 271.59 133.91C271.7 140.93 268.72 146.32 262.87 150.16C260.23 151.89 257.31 152.76 254.16 152.9C247.98 153.17 241.79 153 235.6 153.01C219.29 153.04 202.97 153.02 186.66 153.01C183.33 153.01 180.14 152.41 177.2 150.78C172.32 148.08 169.13 144.07 167.86 138.62C167.51 137.11 167.34 135.59 167.35 134.03C167.41 121.83 167.45 109.63 167.48 97.4304C167.48 95.9004 167.4 94.3704 167.36 92.8404C167.35 92.2904 167.27 91.6904 167.63 91.2504C167.83 91.0004 167.79 90.7804 167.72 90.6204C166.46 87.7404 167.72 85.2404 169.15 82.9504C171.41 79.3504 173.48 75.5704 176.37 72.4104C178.19 70.4204 180.28 68.7004 182.47 67.0404C184.87 65.2204 187.31 63.5204 189.94 62.1304C191.61 61.2404 193.33 60.3204 195.39 60.2604C196.02 60.2404 196.81 59.5204 197.49 59.0804C200.66 57.0304 204.23 56.1504 207.84 55.3904C210.66 54.8004 213.47 54.1704 216.31 53.7404C218.73 53.3704 221.2 53.1104 223.65 53.3304C224.3 53.3904 224.87 53.2404 225.39 53.1104C229.18 52.1104 233.02 52.3904 236.86 52.5504C237.16 52.5604 237.44 52.7804 237.73 52.9104" fill="white"></path>
  <path d="M245.81 153.791C244.2 153.791 242.61 153.781 241.03 153.771C239.23 153.761 237.43 153.741 235.62 153.751C223.73 153.771 211.85 153.771 199.96 153.761H186.68C182.89 153.761 179.68 152.991 176.85 151.431C171.7 148.581 168.44 144.331 167.14 138.791C166.78 137.261 166.6 135.651 166.61 134.031C166.67 121.831 166.71 109.631 166.74 97.4306C166.74 96.4006 166.71 95.3606 166.67 94.3306C166.65 93.8406 166.64 93.3506 166.62 92.8706V92.6806C166.59 92.1206 166.56 91.4406 167.01 90.8406C165.63 87.6006 167.07 84.8606 168.52 82.5506C168.97 81.8306 169.42 81.1006 169.86 80.3706C171.63 77.4706 173.46 74.4806 175.82 71.9006C177.84 69.6906 180.19 67.8206 182.02 66.4406C184.95 64.2206 187.29 62.6806 189.59 61.4606C191.35 60.5306 193.14 59.5706 195.37 59.5006C195.61 59.5006 196.16 59.1006 196.52 58.8306C196.71 58.6906 196.9 58.5506 197.09 58.4306C200.38 56.3006 204.14 55.3906 207.7 54.6406L209 54.3606C211.35 53.8606 213.79 53.3406 216.21 52.9806C218.46 52.6406 221.11 52.3306 223.73 52.5706C224.26 52.6206 224.74 52.4906 225.21 52.3706C228.78 51.4206 232.4 51.5806 235.89 51.7406L236.9 51.7806C237.27 51.8006 237.58 51.9606 237.82 52.0906C237.89 52.1306 237.96 52.1706 238.04 52.2006C238.42 52.3606 238.6 52.8006 238.43 53.1806C238.27 53.5606 237.83 53.7406 237.45 53.5706C237.34 53.5206 237.23 53.4606 237.12 53.4006C237.03 53.3506 236.89 53.2806 236.84 53.2706L235.84 53.2306C232.3 53.0806 228.96 52.9306 225.61 53.8106C225.07 53.9506 224.4 54.1306 223.61 54.0606C221.16 53.8306 218.72 54.1206 216.45 54.4606C214.07 54.8206 211.66 55.3306 209.33 55.8306L208.03 56.1106C204.46 56.8606 201.01 57.7006 197.93 59.7006C197.77 59.8106 197.6 59.9306 197.43 60.0506C196.8 60.5106 196.15 60.9806 195.45 61.0006C193.58 61.0606 191.93 61.9306 190.35 62.7806C188.1 63.9706 185.83 65.4706 182.97 67.6406C181.2 68.9806 178.92 70.7906 176.97 72.9206C174.71 75.3906 172.92 78.3206 171.19 81.1606C170.74 81.8906 170.29 82.6306 169.84 83.3506C168.52 85.4506 167.32 87.7306 168.46 90.3206C168.68 90.8106 168.61 91.3106 168.27 91.7306C168.13 91.9006 168.14 92.2506 168.16 92.6306V92.8406C168.18 93.3206 168.2 93.8106 168.21 94.2906C168.25 95.3406 168.28 96.4006 168.28 97.4506C168.25 109.651 168.21 121.851 168.15 134.061C168.15 135.571 168.31 137.061 168.64 138.481C169.83 143.591 172.85 147.521 177.61 150.151C180.21 151.591 183.19 152.291 186.71 152.291H199.99C211.88 152.291 223.76 152.301 235.65 152.291C237.46 152.291 239.26 152.291 241.07 152.311C245.37 152.341 249.81 152.371 254.18 152.181C257.28 152.041 260.08 151.161 262.52 149.571C268.19 145.851 271.01 140.591 270.9 133.961C270.88 132.381 270.87 130.801 270.87 129.211C270.87 127.111 270.87 124.931 270.8 122.801C270.7 119.081 270.7 115.301 270.71 111.641C270.71 109.151 270.71 106.661 270.69 104.171V103.631C270.6 96.3606 270.51 88.8406 270.77 81.4306C270.89 78.0206 270.69 74.5506 270.49 71.2006C270.48 70.9606 270.47 70.7106 270.47 70.4606C270.46 69.6306 270.45 68.8506 270.02 68.2906C269.58 67.7106 269.55 67.2006 269.53 66.7406C269.43 64.8506 269.21 62.8606 268.35 61.0706C267.47 59.2606 266.03 57.8906 264.49 56.4506L264.26 56.2306C264.04 56.0306 263.85 55.9406 263.79 55.9606C263 56.3906 262.17 56.7506 261.37 57.1006C260.03 57.6806 258.76 58.2206 257.67 59.0906C254.85 61.3306 252.91 64.2806 251.01 67.3506C249.38 69.9906 248.34 72.2506 247.72 74.4706C247.61 74.8706 247.2 75.1006 246.8 74.9906C246.4 74.8806 246.17 74.4706 246.28 74.0706C246.93 71.7106 248.03 69.3206 249.74 66.5606C251.71 63.3706 253.73 60.3106 256.74 57.9206C257.99 56.9306 259.41 56.3206 260.78 55.7206C261.59 55.3706 262.35 55.0406 263.08 54.6406C263.75 54.2806 264.57 54.4606 265.29 55.1406L265.52 55.3606C267.08 56.8406 268.7 58.3606 269.7 60.4206C270.68 62.4506 270.92 64.6206 271.03 66.6606C271.05 67.0506 271.07 67.1906 271.22 67.3906C271.95 68.3506 271.96 69.4606 271.98 70.4506C271.98 70.6806 271.98 70.9106 272 71.1306C272.2 74.5106 272.4 78.0106 272.28 81.5006C272.02 88.8706 272.11 96.3706 272.19 103.631V104.171C272.23 106.671 272.22 109.161 272.22 111.661C272.22 115.311 272.21 119.071 272.31 122.771C272.37 124.931 272.37 127.111 272.38 129.221C272.38 130.791 272.38 132.371 272.41 133.941C272.52 141.121 269.48 146.801 263.35 150.831C260.69 152.581 257.63 153.541 254.26 153.691C251.47 153.811 248.65 153.841 245.86 153.841L245.81 153.791Z" fill="#808080"></path>
  <path d="M168 90.9709C169.31 91.8609 170 93.2909 170.96 94.4709C173.54 97.6209 176.43 100.381 180.09 102.241C180.43 102.411 180.65 102.571 180.83 102.881C183.02 106.691 186.65 108.391 190.67 109.441C193.55 110.191 196.52 110.461 199.51 110.451C202.37 110.451 205.24 110.521 208.1 110.431C211.55 110.331 215 110.091 218.44 109.751C220.89 109.501 223.33 109.191 225.78 108.971C227.36 108.831 228.02 108.211 228.28 106.611C228.41 105.791 228.9 105.101 229.28 104.381C229.96 103.061 230.55 101.651 231.33 100.451C233.9 96.4909 236.27 92.3309 239.99 89.2509C240.77 88.6009 241.35 87.9209 241.65 86.9009C241.87 86.1309 242.45 85.4209 242.99 84.7909C244.37 83.1709 245.83 81.6309 247.71 80.5509C248.37 80.1709 248.87 79.6409 248.96 78.8209C249.04 78.0309 249.67 77.5609 250.08 76.9609C251.25 75.2809 252.87 74.0309 254.32 72.6209C254.95 72.0109 254.79 71.1809 255.09 70.5109C255.74 69.0309 256.69 67.7109 257.8 66.5309C259.58 64.6309 261.78 63.7109 264.4 63.8009C264.94 63.8209 265.48 63.8009 266.02 63.8009" fill="white"></path>
  <path d="M204.81 111.221C203.95 111.221 203.09 111.221 202.24 111.211C201.33 111.211 200.42 111.211 199.5 111.201C196.14 111.221 193.17 110.861 190.47 110.161C187 109.251 182.69 107.651 180.17 103.251C180.1 103.121 180.02 103.041 179.74 102.901C176.41 101.211 173.43 98.6812 170.37 94.9412C170.06 94.5612 169.77 94.1512 169.49 93.7412C168.91 92.9112 168.36 92.1212 167.57 91.5912C167.23 91.3612 167.14 90.8912 167.37 90.5512C167.6 90.2112 168.07 90.1212 168.41 90.3512C169.43 91.0412 170.09 91.9812 170.72 92.8912C170.98 93.2712 171.24 93.6412 171.53 93.9912C174.46 97.5712 177.28 99.9712 180.42 101.571C180.79 101.761 181.18 102.011 181.47 102.511C183.72 106.431 187.66 107.881 190.85 108.711C193.4 109.381 196.22 109.701 199.45 109.701H199.67C200.53 109.701 201.39 109.701 202.24 109.711C204.15 109.721 206.13 109.741 208.06 109.681C211.4 109.581 214.86 109.351 218.35 109.001C219.4 108.891 220.45 108.781 221.5 108.661C222.9 108.501 224.3 108.341 225.7 108.221C226.94 108.111 227.32 107.751 227.52 106.491C227.64 105.731 228 105.091 228.32 104.531C228.41 104.371 228.5 104.201 228.59 104.041C228.8 103.621 229.01 103.201 229.22 102.781C229.67 101.861 230.13 100.911 230.68 100.051C231.04 99.5012 231.39 98.9412 231.75 98.3912C233.94 94.9612 236.2 91.4112 239.49 88.6812C240.28 88.0312 240.69 87.4512 240.91 86.7012C241.17 85.8012 241.79 85.0212 242.4 84.3112C243.77 82.7012 245.31 81.0612 247.31 79.9112C247.87 79.5912 248.14 79.2312 248.19 78.7512C248.27 77.9512 248.74 77.4012 249.11 76.9712C249.23 76.8312 249.35 76.6912 249.45 76.5512C250.35 75.2512 251.5 74.2012 252.61 73.1912C253 72.8312 253.4 72.4712 253.78 72.1012C253.99 71.9012 254.05 71.6312 254.12 71.1912C254.17 70.8912 254.23 70.5612 254.38 70.2312C255.02 68.7812 255.98 67.3712 257.23 66.0412C259.16 63.9812 261.57 62.9712 264.4 63.0712C264.76 63.0812 265.12 63.0712 265.48 63.0712H266C266.41 63.0712 266.75 63.4012 266.75 63.8212C266.75 64.2412 266.41 64.5712 266 64.5712H265.5C265.12 64.5712 264.74 64.5712 264.36 64.5712C261.95 64.4912 259.98 65.3112 258.33 67.0712C257.2 68.2812 256.33 69.5512 255.76 70.8412C255.69 71.0012 255.65 71.2212 255.61 71.4612C255.52 71.9812 255.4 72.6312 254.83 73.1912C254.44 73.5712 254.03 73.9412 253.63 74.3112C252.53 75.3112 251.5 76.2512 250.69 77.4212C250.56 77.6112 250.41 77.7812 250.27 77.9612C249.94 78.3512 249.73 78.6112 249.7 78.9312C249.6 79.9012 249.05 80.6712 248.08 81.2312C246.28 82.2712 244.84 83.8012 243.56 85.3012C243.06 85.8912 242.55 86.5212 242.37 87.1312C241.99 88.4612 241.19 89.2512 240.47 89.8512C237.36 92.4312 235.16 95.8812 233.04 99.2112C232.68 99.7712 232.33 100.331 231.97 100.891C231.46 101.671 231.04 102.541 230.6 103.461C230.39 103.901 230.18 104.331 229.96 104.761C229.87 104.941 229.77 105.121 229.66 105.301C229.38 105.801 229.11 106.271 229.03 106.771C228.72 108.691 227.77 109.591 225.86 109.761C224.47 109.891 223.08 110.041 221.69 110.201C220.63 110.321 219.58 110.441 218.52 110.541C214.99 110.891 211.5 111.121 208.13 111.231C207.03 111.261 205.92 111.271 204.82 111.271L204.81 111.221Z" fill="#808080"></path>
  <path d="M270.11 67.6406C269.34 68.0506 269.53 68.8606 269.37 69.5006C268.41 73.4206 266.48 76.8606 264.25 80.1706C260.97 85.0406 256.58 88.8106 251.77 92.0406C244.64 96.8306 237.51 101.621 230.49 106.581C229.9 107.001 229.3 107.691 228.39 107.341" fill="white"></path>
  <path d="M228.89 108.19C228.66 108.19 228.4 108.15 228.13 108.05C227.74 107.9 227.55 107.47 227.69 107.08C227.84 106.69 228.27 106.5 228.66 106.64C228.97 106.76 229.18 106.65 229.73 106.22C229.84 106.13 229.96 106.04 230.07 105.96C237.08 101.01 244.32 96.1505 251.32 91.4405C256.87 87.7105 260.77 84.0005 263.64 79.7405C265.44 77.0705 267.63 73.4705 268.65 69.3105C268.68 69.1705 268.69 69.0305 268.71 68.8805C268.76 68.3205 268.85 67.4605 269.76 66.9705C270.12 66.7705 270.58 66.9105 270.78 67.2705C270.98 67.6305 270.84 68.0905 270.48 68.2905C270.3 68.3905 270.26 68.5005 270.21 69.0305C270.19 69.2505 270.17 69.4705 270.11 69.6805C269.04 74.0705 266.76 77.8105 264.89 80.5905C261.91 85.0205 257.88 88.8505 252.21 92.6705C245.17 97.4005 237.94 102.26 230.94 107.2C230.85 107.27 230.75 107.34 230.66 107.41C230.24 107.74 229.66 108.19 228.9 108.19H228.89Z" fill="#808080"></path>
  <path d="M231.14 100.152C228.48 98.3024 225.38 97.9324 222.3 97.5624C219.62 97.2424 216.91 97.2024 214.21 97.3024C210.63 97.4324 207.06 97.6224 203.5 98.0124C198.68 98.5324 193.94 99.3624 189.31 100.772C188.31 101.082 187.32 101.432 186.32 101.762" fill="white"></path>
  <path d="M186.3 102.511C185.99 102.511 185.69 102.311 185.59 102.001C185.46 101.611 185.67 101.181 186.07 101.051L187 100.741C187.69 100.511 188.38 100.271 189.08 100.061C193.34 98.7714 198.03 97.8514 203.41 97.2714C207.22 96.8614 210.99 96.6814 214.18 96.5614C217.23 96.4414 219.92 96.5314 222.39 96.8214C225.52 97.1914 228.75 97.5714 231.57 99.5414C231.91 99.7814 231.99 100.241 231.76 100.581C231.52 100.921 231.06 101.001 230.72 100.771C228.21 99.0214 225.16 98.6614 222.22 98.3114C219.83 98.0314 217.22 97.9514 214.24 98.0614C211.08 98.1814 207.34 98.3614 203.58 98.7614C198.29 99.3314 193.7 100.231 189.52 101.491C188.84 101.701 188.16 101.931 187.49 102.161L186.55 102.481C186.47 102.511 186.39 102.521 186.31 102.521L186.3 102.511Z" fill="#808080"></path>
  <path d="M209.97 55.3613C210.44 56.9413 210.31 58.5913 210.44 60.2013C210.84 65.2413 211.14 70.2913 211.46 75.3413C211.69 78.9813 211.88 82.6213 212.09 86.2613C212.16 87.5013 212.25 88.7413 212.34 89.9813" fill="white"></path>
  <path d="M212.33 90.7212C211.94 90.7212 211.61 90.4212 211.58 90.0212L211.5 88.8612C211.44 88.0112 211.38 87.1512 211.33 86.2912C211.25 84.9212 211.17 83.5412 211.1 82.1712C210.97 79.9112 210.85 77.6412 210.71 75.3812L210.57 73.1712C210.31 68.9412 210.04 64.5612 209.69 60.2612C209.65 59.7612 209.63 59.2612 209.62 58.7612C209.58 57.6412 209.55 56.5812 209.25 55.5712C209.13 55.1712 209.36 54.7612 209.76 54.6412C210.16 54.5212 210.57 54.7512 210.69 55.1512C211.04 56.3512 211.08 57.5512 211.12 58.7212C211.14 59.2012 211.15 59.6712 211.19 60.1512C211.54 64.4612 211.81 68.8412 212.07 73.0912L212.21 75.3012C212.35 77.5712 212.48 79.8412 212.61 82.1012C212.69 83.4712 212.76 84.8512 212.84 86.2212C212.89 87.0712 212.95 87.9212 213.01 88.7712L213.09 89.9412C213.12 90.3512 212.81 90.7112 212.39 90.7412C212.37 90.7412 212.36 90.7412 212.34 90.7412L212.33 90.7212Z" fill="#808080"></path>
  <path d="M224.16 53.6211C224.18 55.7411 223.53 57.7711 223.11 59.8111C222.5 62.7311 222.19 65.6811 221.95 68.6311C221.61 72.9611 221.5 77.3111 221.55 81.6611C221.58 83.6511 221.71 85.6311 221.79 87.6211" fill="white"></path>
  <path d="M221.8 88.3711C221.4 88.3711 221.07 88.0511 221.05 87.6511C221.02 87.0311 220.99 86.4111 220.96 85.8011C220.89 84.4511 220.82 83.0511 220.81 81.6811C220.75 77.0111 220.88 72.7311 221.21 68.5911C221.4 66.1311 221.71 62.8911 222.38 59.6711C222.49 59.1511 222.61 58.6311 222.73 58.1111C223.09 56.5811 223.43 55.1311 223.42 53.6311C223.42 53.2211 223.75 52.8811 224.16 52.8711C224.55 52.8711 224.91 53.2011 224.92 53.6111C224.94 55.2911 224.56 56.9011 224.19 58.4511C224.07 58.9611 223.95 59.4611 223.85 59.9711C223.2 63.1011 222.9 66.2811 222.71 68.7011C222.39 72.8011 222.26 77.0311 222.32 81.6611C222.34 83.0111 222.41 84.3911 222.47 85.7311C222.5 86.3511 222.53 86.9711 222.56 87.5911C222.58 88.0011 222.26 88.3511 221.84 88.3711C221.83 88.3711 221.82 88.3711 221.81 88.3711H221.8Z" fill="#808080"></path>
  <path d="M195.4 60.4414C196.4 62.0914 197.48 63.7014 198.37 65.4114C199.92 68.4014 200.74 71.6214 201.29 74.9514C201.89 78.5814 202.21 82.2414 202.72 85.8814C202.99 87.8114 203.03 89.7614 203.18 91.7114" fill="white"></path>
  <path d="M203.18 92.4611C202.79 92.4611 202.46 92.161 202.43 91.771C202.38 91.161 202.35 90.5511 202.31 89.9411C202.23 88.6311 202.16 87.2811 201.97 85.9911C201.77 84.5311 201.59 83.0611 201.42 81.6011C201.16 79.4611 200.9 77.2411 200.54 75.0811C199.91 71.2611 199 68.301 197.69 65.771C197.09 64.6211 196.38 63.4811 195.7 62.3811C195.38 61.8711 195.06 61.3611 194.75 60.8411C194.54 60.4911 194.65 60.0211 195.01 59.8111C195.37 59.6011 195.83 59.7111 196.04 60.0711C196.35 60.5811 196.66 61.0911 196.98 61.5911C197.68 62.7111 198.41 63.881 199.03 65.091C200.42 67.771 201.37 70.8711 202.03 74.8511C202.39 77.0411 202.66 79.2811 202.92 81.4411C203.09 82.9011 203.27 84.3511 203.47 85.8011C203.66 87.1611 203.74 88.5411 203.82 89.8711C203.86 90.4711 203.89 91.0711 203.93 91.6711C203.96 92.0811 203.65 92.4411 203.24 92.4711C203.22 92.4711 203.2 92.4711 203.18 92.4711V92.4611Z" fill="#808080"></path>
  <path d="M263.14 55.23C262.64 54.08 261.41 54.06 260.52 53.93C256.98 53.41 253.44 52.69 249.82 53.13C249.2 53.21 248.82 52.67 248.21 52.6C245.43 52.26 242.65 52.16 239.86 52.39C238.8 52.48 237.94 52.83 237.34 53.86C236.2 55.82 234.84 57.64 234.11 59.82C233.16 62.67 232.43 65.56 231.89 68.51C231.39 71.24 230.73 73.95 230.44 76.7C230.11 79.78 229.56 82.88 230.02 86" fill="white"></path>
  <path d="M230.01 86.7508C229.64 86.7508 229.32 86.4808 229.27 86.1108C228.88 83.4408 229.19 80.8008 229.5 78.2508C229.56 77.7108 229.63 77.1608 229.69 76.6208C229.9 74.6708 230.29 72.7208 230.67 70.8408C230.84 70.0208 231 69.2008 231.15 68.3708C231.71 65.3308 232.46 62.3708 233.4 59.5808C233.97 57.8808 234.89 56.4008 235.78 54.9708C236.09 54.4808 236.4 53.9808 236.69 53.4808C237.56 51.9908 238.88 51.7208 239.79 51.6408C242.48 51.4208 245.26 51.4908 248.29 51.8508C248.7 51.9008 249.02 52.0708 249.28 52.2108C249.52 52.3408 249.63 52.3908 249.73 52.3808C252.91 51.9908 256.03 52.4808 259.05 52.9408C259.58 53.0208 260.11 53.1008 260.63 53.1808L260.92 53.2208C261.83 53.3408 263.21 53.5108 263.83 54.9308C264 55.3108 263.83 55.7508 263.44 55.9208C263.06 56.0908 262.62 55.9208 262.45 55.5308C262.19 54.9408 261.62 54.8208 260.72 54.7108L260.4 54.6708C259.87 54.5908 259.34 54.5108 258.8 54.4308C255.88 53.9808 252.87 53.5108 249.89 53.8708C249.3 53.9408 248.86 53.7008 248.54 53.5308C248.37 53.4408 248.22 53.3608 248.09 53.3408C245.16 52.9908 242.48 52.9208 239.89 53.1308C238.92 53.2108 238.37 53.5208 237.96 54.2308C237.66 54.7508 237.34 55.2508 237.03 55.7608C236.15 57.1808 235.31 58.5208 234.8 60.0608C233.89 62.7908 233.15 65.6808 232.6 68.6508C232.45 69.4808 232.28 70.3108 232.11 71.1408C231.74 72.9908 231.35 74.9008 231.15 76.7908C231.09 77.3408 231.03 77.8908 230.96 78.4408C230.67 80.8908 230.37 83.4308 230.73 85.9108C230.79 86.3208 230.51 86.7008 230.1 86.7608C230.06 86.7608 230.03 86.7608 229.99 86.7608L230.01 86.7508Z" fill="#808080"></path>
  <path d="M249.32 53.252C249.33 53.762 248.85 53.872 248.57 54.112C245.91 56.292 244.33 59.182 243.09 62.312C241.33 66.762 240.17 71.3719 239.43 76.0919C239.13 78.0219 238.93 79.962 239.23 81.922" fill="white"></path>
  <path d="M239.23 82.6612C238.87 82.6612 238.55 82.4012 238.49 82.0312C238.16 79.9312 238.39 77.8712 238.69 75.9712C239.49 70.8712 240.7 66.3112 242.39 62.0312C243.44 59.3912 245.03 56.0312 248.09 53.5312C248.19 53.4512 248.31 53.3712 248.43 53.3012C248.49 53.2612 248.59 53.2012 248.61 53.1812C248.6 52.7712 248.91 52.4712 249.32 52.4612C249.73 52.4112 250.06 52.8212 250.07 53.2312C250.09 54.0512 249.49 54.4112 249.2 54.5912C249.14 54.6212 249.09 54.6512 249.04 54.6912C246.25 56.9712 244.77 60.1112 243.79 62.5812C242.14 66.7612 240.95 71.2112 240.17 76.2012C239.89 77.9812 239.68 79.9012 239.97 81.8012C240.03 82.2112 239.75 82.5912 239.35 82.6612C239.31 82.6612 239.27 82.6612 239.23 82.6612V82.6612Z" fill="#808080"></path>
  <path d="M182.69 67.2715C183.83 68.2615 185.17 68.9815 186.31 69.9915C189.45 72.7815 191.23 76.3215 192.28 80.3015C193.37 84.4215 194.09 88.6115 194.64 92.8315" fill="white"></path>
  <path d="M194.65 93.5816C194.28 93.5816 193.96 93.3116 193.91 92.9316C193.27 88.0716 192.53 84.1216 191.57 80.4916C190.44 76.2316 188.56 72.9816 185.83 70.5516C185.28 70.0616 184.68 69.6516 184.04 69.2116C183.43 68.7916 182.8 68.3516 182.21 67.8416C181.9 67.5716 181.86 67.0916 182.14 66.7816C182.41 66.4716 182.89 66.4316 183.2 66.7116C183.73 67.1716 184.3 67.5616 184.9 67.9816C185.54 68.4316 186.21 68.8916 186.83 69.4416C189.79 72.0716 191.82 75.5616 193.03 80.1216C194.01 83.8116 194.76 87.8216 195.41 92.7516C195.46 93.1616 195.17 93.5416 194.76 93.5916C194.73 93.5916 194.69 93.5916 194.66 93.5916L194.65 93.5816Z" fill="#808080"></path>
  <path d="M170.86 80.9199C171.57 81.4799 172.46 81.1899 173.23 81.2999C175.96 81.6699 177.89 83.2299 179.43 85.2799C181.68 88.2799 183.15 91.6799 184.06 95.3099C184.1 95.4699 184.06 95.6399 184.06 95.8099" fill="white"></path>
  <path d="M184.06 96.5604C183.65 96.5604 183.31 96.2204 183.31 95.8104C183.31 95.7404 183.31 95.6704 183.31 95.6004C183.31 95.5604 183.31 95.5104 183.31 95.4704C182.38 91.7504 180.87 88.4604 178.82 85.7304C177.16 83.5204 175.35 82.3504 173.12 82.0404C172.91 82.0104 172.69 82.0204 172.48 82.0304C171.86 82.0404 171.09 82.0604 170.39 81.5104C170.07 81.2504 170.01 80.7804 170.27 80.4604C170.53 80.1404 171 80.0804 171.32 80.3404C171.58 80.5504 171.92 80.5504 172.45 80.5404C172.73 80.5404 173.03 80.5304 173.33 80.5704C175.94 80.9304 178.13 82.3304 180.02 84.8404C182.2 87.7404 183.79 91.2104 184.77 95.1404C184.82 95.3604 184.81 95.5604 184.8 95.7004V95.8104C184.8 96.2204 184.46 96.5604 184.04 96.5604H184.06Z" fill="#808080"></path>
  <path d="M259.53 80.6701C258.45 80.1701 257.4 79.6001 256.29 79.2001C254.4 78.5201 252.46 78.7402 250.58 79.2302C250.02 79.3802 249.5 79.3902 248.95 79.4302" fill="white"></path>
  <path d="M259.53 81.4206C259.43 81.4206 259.32 81.4006 259.22 81.3506C258.88 81.1906 258.54 81.0306 258.2 80.8606C257.46 80.5006 256.76 80.1606 256.03 79.9006C254.57 79.3706 252.9 79.3906 250.77 79.9506C250.2 80.1006 249.69 80.1306 249.2 80.1606H249C248.59 80.2006 248.23 79.8906 248.2 79.4706C248.17 79.0606 248.49 78.7006 248.9 78.6706H249.11C249.55 78.6306 249.97 78.6006 250.39 78.4906C251.93 78.0906 254.24 77.6506 256.54 78.4806C257.34 78.7706 258.11 79.1406 258.86 79.5006C259.19 79.6606 259.52 79.8206 259.85 79.9706C260.23 80.1406 260.39 80.5906 260.22 80.9606C260.09 81.2306 259.82 81.4006 259.54 81.4006L259.53 81.4206Z" fill="#808080"></path>
  <path d="M249.57 89.8508C247.84 87.5808 245.44 87.2208 242.85 87.6708C242.44 87.7408 242.01 87.7908 241.6 87.8608" fill="white"></path>
  <path d="M249.57 90.6015C249.34 90.6015 249.12 90.5015 248.97 90.3015C247.62 88.5315 245.72 87.9215 242.98 88.4015C242.77 88.4415 242.56 88.4715 242.35 88.5015C242.14 88.5315 241.93 88.5615 241.73 88.6015C241.32 88.6715 240.93 88.4015 240.86 87.9915C240.79 87.5815 241.06 87.1915 241.47 87.1215C241.69 87.0815 241.92 87.0515 242.15 87.0115C242.35 86.9815 242.54 86.9515 242.73 86.9215C246.04 86.3415 248.47 87.1515 250.17 89.3815C250.42 89.7115 250.36 90.1815 250.03 90.4315C249.89 90.5315 249.73 90.5815 249.58 90.5815L249.57 90.6015Z" fill="#808080"></path>
  <path d="M255.05 71.8612C255.52 71.8712 255.97 71.8212 256.42 71.6212C259.3 70.3812 261.99 70.8312 264.51 72.6112C264.53 72.6212 264.51 72.6912 264.51 72.7312" fill="white"></path>
  <path d="M264.51 73.5008C264.21 73.5008 263.95 73.3108 263.83 73.0508C261.51 71.5008 259.17 71.2508 256.71 72.3108C256.19 72.5308 255.65 72.6308 255.02 72.6108C254.61 72.6008 254.28 72.2508 254.29 71.8408C254.3 71.4308 254.65 71.0808 255.06 71.1108C255.47 71.1108 255.8 71.0708 256.12 70.9308C259.14 69.6308 262.11 69.9908 264.94 71.9908C265.16 72.1508 265.29 72.4908 265.26 72.7608C265.26 73.1708 264.92 73.4908 264.51 73.4908V73.5008Z" fill="#808080"></path>
  <path d="M183.95 143.321L183.15 146.241L181.9 150.891L180.18 152.761C180.18 152.761 176.63 153.011 176.63 152.591C176.63 152.171 178.07 150.721 178.07 150.721L179.47 149.101L179.78 144.561C179.83 144.621 177.88 143.821 176.36 142.491C175.02 141.321 173.61 139.261 173.61 139.261L175.68 135.631L185.01 140.031L183.96 143.321H183.95Z" fill="white"></path>
  <path d="M178.22 153.591C176.56 153.591 176.29 153.341 176.14 153.211C175.99 153.071 175.87 152.811 175.87 152.601C175.87 152.381 175.87 151.871 177.53 150.201L178.73 148.811L178.98 145.061C177.64 144.521 175.88 143.091 175.85 143.071C174.45 141.851 173.03 139.791 172.97 139.701C172.81 139.461 172.79 139.151 172.94 138.901L175.01 135.271C175.2 134.931 175.63 134.791 175.98 134.961L185.31 139.361C185.65 139.521 185.82 139.911 185.7 140.271L184.66 143.541L182.61 151.091C182.58 151.211 182.52 151.311 182.44 151.401L180.72 153.271C180.59 153.411 180.41 153.501 180.22 153.511C179.39 153.571 178.73 153.591 178.21 153.591H178.22ZM177.83 152.081C178.39 152.091 179.14 152.071 179.83 152.031L181.22 150.521L183.23 143.131C183.23 143.131 183.23 143.111 183.23 143.101L184.08 140.441L175.97 136.621L174.48 139.231C174.94 139.861 175.92 141.141 176.84 141.941C178.06 143.011 179.6 143.711 179.92 143.841C180.08 143.871 180.22 143.951 180.33 144.081C180.47 144.241 180.53 144.451 180.51 144.661L180.21 149.171C180.2 149.331 180.14 149.491 180.03 149.611L178.63 151.231C178.34 151.521 178.06 151.831 177.83 152.101V152.081Z" fill="#808080"></path>
  <path d="M177.37 153.481C176.96 153.481 176.61 153.141 176.61 152.731C176.61 152.321 176.94 151.981 177.35 151.981H177.36C177.77 151.981 178.11 152.321 178.11 152.731C178.11 153.141 177.77 153.481 177.36 153.481H177.37ZM181.9 151.641C181.49 151.641 181.15 151.301 181.15 150.891C181.15 150.481 181.48 150.141 181.9 150.141C182.31 150.141 182.65 150.481 182.65 150.891C182.65 151.301 182.31 151.641 181.9 151.641Z" fill="#808080"></path>
  <path d="M159.17 152.521L161.6 152.311L164.32 140.591L163.05 135.951L158.63 137.371L157.34 149.891L159.17 152.521Z" fill="white"></path>
  <path d="M159.17 153.271C158.93 153.271 158.7 153.151 158.55 152.951L156.72 150.321C156.62 150.171 156.57 149.991 156.59 149.821L157.88 137.301C157.91 137.001 158.11 136.751 158.4 136.661L162.82 135.241C163.02 135.181 163.23 135.201 163.41 135.291C163.59 135.381 163.72 135.551 163.78 135.751L165.04 140.391C165.07 140.511 165.08 140.641 165.04 140.761L162.33 152.481C162.26 152.801 161.99 153.031 161.67 153.061L159.24 153.281C159.24 153.281 159.2 153.281 159.17 153.281V153.271ZM158.11 149.691L159.53 151.741L160.98 151.611L163.53 140.611L162.52 136.911L159.31 137.941L158.1 149.701L158.11 149.691Z" fill="#808080"></path>
  <path d="M178.4 141.721C175.22 140.551 172.53 138.561 172.53 138.561C171.11 138.821 169.25 139.131 167.47 139.291C164.24 139.581 161.58 139.151 161.58 139.151C161.58 139.151 159.25 151.801 158.76 152.561C158.47 152.951 155.81 153.421 154.01 152.471C154.85 150.781 155.91 150.951 156.33 150.671C156.75 150.391 156.89 141.551 155.67 139.591C154.9 138.351 154.43 138.251 153.25 137.071C150.85 134.681 151.65 127.061 151.14 124.931C150.35 124.551 149.43 124.111 149.22 123.191C149.11 122.711 148.88 121.651 148.87 121.381C148.85 120.791 149.03 120.161 149.72 119.841C150.2 119.621 151.13 119.101 151.78 118.611C152.28 118.241 152.76 118.001 153.39 118.151C154.28 118.371 155.26 118.591 155.26 118.591L157.2 115.711C157.52 116.351 157.77 117.031 157.93 117.731C158.07 118.311 158.06 118.861 158.09 119.451C158.11 119.991 158.26 120.511 158.43 121.021C158.81 122.091 159.05 123.021 158.82 124.091C158.77 124.341 159.54 125.541 159.8 125.701C161.39 126.711 164.95 124.371 168.97 124.361C172.99 124.361 179.66 127.431 180.8 127.321C183.64 127.031 186.52 125.501 187.85 122.951C188.81 121.111 188.84 118.971 188.35 116.601C187.99 114.911 186.65 113.351 187.63 112.371C188.33 111.661 189.32 111.801 190.22 113.781C193.04 119.981 190.9 124.811 186.2 129.261C186.23 129.231 187.13 133.011 186.43 135.251C186.13 136.201 191.49 140.571 191.49 140.571L189.46 150.391L187.83 153.031L183.29 153.091C183.81 150.711 186.45 149.761 186.45 149.761L187.17 143.431C187.17 143.431 181.79 142.971 178.36 141.711L178.4 141.721Z" fill="white"></path>
  <path d="M183.34 153.851C183.11 153.851 182.9 153.751 182.76 153.571C182.62 153.391 182.56 153.161 182.61 152.931C183.08 150.791 184.94 149.661 185.8 149.251L186.39 144.101C184.76 143.921 180.89 143.421 178.15 142.411C175.45 141.421 173.13 139.881 172.36 139.341C170.58 139.661 168.96 139.891 167.55 140.021C165.24 140.231 163.23 140.081 162.2 139.971C161.3 144.801 159.87 152.221 159.41 152.951C158.79 153.801 155.69 154.181 153.68 153.111C153.32 152.921 153.18 152.481 153.36 152.111C154.14 150.551 155.17 150.251 155.72 150.091C155.73 150.091 155.74 150.091 155.75 150.091C156.02 148.531 155.99 141.471 155.05 139.981C154.6 139.261 154.29 139.001 153.78 138.561C153.49 138.311 153.16 138.021 152.73 137.601C150.85 135.731 150.73 131.511 150.63 128.121C150.6 127.071 150.57 126.071 150.48 125.431C149.66 125.021 148.75 124.451 148.5 123.351C148.15 121.781 148.14 121.501 148.14 121.401C148.1 120.361 148.57 119.541 149.42 119.151C149.89 118.931 150.76 118.431 151.35 118.001C151.92 117.581 152.64 117.181 153.59 117.421C154.07 117.541 154.58 117.661 154.94 117.741L156.59 115.291C156.74 115.071 156.99 114.941 157.26 114.961C157.53 114.981 157.76 115.141 157.88 115.381C158.23 116.091 158.5 116.831 158.67 117.561C158.8 118.121 158.82 118.651 158.84 119.161V119.421C158.87 119.901 159.02 120.391 159.15 120.771C159.5 121.771 159.82 122.841 159.6 124.091C159.72 124.361 160.1 124.961 160.26 125.111C160.77 125.431 162.13 125.041 163.57 124.621C165.09 124.181 166.99 123.631 168.98 123.621C171.63 123.651 175.2 124.831 177.83 125.721C179.04 126.131 180.41 126.571 180.75 126.581C183.61 126.291 186.08 124.771 187.2 122.621C188.01 121.071 188.14 119.211 187.63 116.771C187.53 116.271 187.31 115.771 187.11 115.271C186.64 114.141 186.11 112.861 187.11 111.851C187.59 111.371 188.18 111.161 188.76 111.271C189.59 111.421 190.31 112.161 190.91 113.481C193.54 119.261 192.32 124.361 187.05 129.501C187.46 130.981 187.59 133.881 187.2 135.351C187.51 136.061 189.87 138.281 191.98 140.001C192.2 140.181 192.3 140.461 192.24 140.731L190.21 150.551C190.19 150.641 190.16 150.721 190.11 150.791L188.48 153.431C188.35 153.651 188.11 153.781 187.85 153.791L183.31 153.851H183.3H183.34ZM178.66 141.011C181.96 142.221 187.23 142.681 187.28 142.691C187.48 142.711 187.67 142.811 187.8 142.961C187.93 143.111 187.99 143.321 187.96 143.521L187.24 149.851C187.21 150.131 187.02 150.371 186.75 150.471C186.73 150.471 185.22 151.051 184.44 152.331L187.45 152.291L188.79 150.111L190.7 140.871C185.32 136.431 185.62 135.461 185.75 135.041C186.33 133.191 185.66 130.001 185.54 129.561C185.53 129.531 185.52 129.491 185.51 129.461C185.44 129.201 185.52 128.921 185.72 128.731C190.8 123.921 191.99 119.411 189.57 114.111C189.14 113.171 188.74 112.801 188.52 112.761C188.43 112.741 188.32 112.801 188.2 112.931C187.93 113.201 188.1 113.711 188.52 114.721C188.74 115.251 188.99 115.851 189.12 116.481C189.7 119.241 189.52 121.481 188.55 123.331C187.2 125.921 184.27 127.751 180.91 128.101C180.34 128.161 179.36 127.841 177.37 127.161C174.85 126.311 171.4 125.141 169.02 125.141H169C167.22 125.141 165.51 125.641 164 126.081C162.07 126.641 160.55 127.081 159.42 126.361C159.06 126.131 157.96 124.671 158.11 123.961C158.29 123.111 158.12 122.361 157.74 121.291C157.57 120.821 157.38 120.191 157.35 119.501V119.231C157.33 118.751 157.31 118.341 157.21 117.921C157.16 117.721 157.11 117.521 157.04 117.321L155.88 119.031C155.71 119.291 155.39 119.411 155.09 119.341C155.09 119.341 154.1 119.121 153.21 118.891C152.92 118.821 152.67 118.901 152.22 119.231C151.55 119.721 150.57 120.281 150.02 120.531C149.9 120.581 149.59 120.731 149.61 121.361C149.61 121.461 149.69 121.921 149.94 123.041C150.06 123.601 150.75 123.931 151.42 124.251C151.62 124.351 151.8 124.551 151.85 124.771C152.02 125.491 152.06 126.641 152.1 128.101C152.18 130.891 152.3 135.111 153.76 136.551C154.15 136.941 154.46 137.211 154.73 137.441C155.28 137.921 155.72 138.291 156.29 139.201C157.32 140.851 157.93 150.481 156.74 151.291C156.54 151.431 156.32 151.491 156.11 151.551C155.8 151.641 155.47 151.741 155.13 152.101C156.37 152.431 157.75 152.221 158.17 152.051C158.5 151.131 159.78 144.721 160.83 139.011C160.9 138.611 161.28 138.341 161.69 138.411C161.72 138.411 164.3 138.821 167.39 138.541C168.81 138.411 170.54 138.161 172.38 137.821C172.58 137.781 172.8 137.831 172.96 137.961C172.99 137.981 175.6 139.911 178.64 141.021L178.66 141.011Z" fill="#808080"></path>
  <path d="M246.95 74.22C247.67 71.6 248.9 69.2 250.32 66.91C252.24 63.81 254.24 60.77 257.15 58.46C259.02 56.97 261.34 56.38 263.39 55.25C263.88 54.98 264.45 55.38 264.72 55.64" fill="white"></path>
  <path d="M246.95 74.9697C246.88 74.9697 246.82 74.9697 246.75 74.9397C246.35 74.8297 246.12 74.4197 246.23 74.0197C246.88 71.6597 247.98 69.2697 249.69 66.5097C251.66 63.3197 253.68 60.2597 256.69 57.8697C257.94 56.8797 259.36 56.2697 260.73 55.6697C261.54 55.3197 262.3 54.9897 263.03 54.5897C263.7 54.2297 264.52 54.4097 265.24 55.0897C265.54 55.3697 265.55 55.8497 265.27 56.1497C264.99 56.4497 264.51 56.4597 264.21 56.1797C263.99 55.9797 263.8 55.8897 263.74 55.9097C262.95 56.3397 262.12 56.6997 261.32 57.0497C259.98 57.6297 258.71 58.1697 257.62 59.0397C254.8 61.2797 252.86 64.2297 250.96 67.2997C249.33 69.9397 248.29 72.1997 247.67 74.4197C247.58 74.7497 247.28 74.9697 246.95 74.9697V74.9697Z" fill="#808080"></path>
</svg>
