<?xml version="1.0" encoding="UTF-8"?>
<svg xmlns="http://www.w3.org/2000/svg" width="304" height="176" viewBox="0 0 304 176" fill="none">
  <path d="M16.75 32.75C25.59 32.75 32.75 25.59 32.75 16.75C32.75 7.91 25.59 0.75 16.75 0.75C7.91 0.75 0.75 7.91 0.75 16.75C0.75 25.59 7.91 32.75 16.75 32.75Z" fill="white"></path>
  <path d="M16.75 33.5C7.51 33.5 0 25.99 0 16.75C0 7.51 7.51 0 16.75 0C25.99 0 33.5 7.51 33.5 16.75C33.5 25.99 25.99 33.5 16.75 33.5ZM16.75 1.5C8.34 1.5 1.5 8.34 1.5 16.75C1.5 25.16 8.34 32 16.75 32C25.16 32 32 25.16 32 16.75C32 8.34 25.16 1.5 16.75 1.5Z" fill="#888888"></path>
  <path d="M12.5299 21.3698C16.0099 17.9498 18.1199 15.7798 18.1199 13.8698C18.1199 12.5398 17.4099 11.6598 15.9999 11.6598C15.0099 11.6598 14.1999 12.2898 13.5399 13.0498L12.4399 11.9598C13.5099 10.7998 14.6199 10.0898 16.2499 10.0898C18.5399 10.0898 20.0199 11.5498 20.0199 13.7598C20.0199 15.9698 17.9999 18.2298 15.3999 20.9498C16.0299 20.8798 16.8299 20.8298 17.4399 20.8298H20.6199V22.4998H12.5499V21.3598H12.5299V21.3698Z" fill="#888888"></path>
  <path d="M40.1501 140.341L59.9001 131.091C62.8401 132.581 66.5801 136.031 69.7801 135.611C71.8401 135.341 74.9101 134.681 76.6701 133.631L85.1101 119.411L68.9601 97.7207C68.9601 97.7207 62.3901 104.661 60.7201 106.841C59.0501 109.021 57.3801 110.821 57.3801 110.821L31.5901 114.541L40.1401 140.351L40.1501 140.341Z" fill="white"></path>
  <path d="M182.22 95.48L239.8 69.75V105.62L182.22 131.35" fill="white"></path>
  <path d="M182.22 132.101C181.93 132.101 181.66 131.931 181.53 131.661C181.36 131.281 181.53 130.841 181.91 130.671L239.04 105.131V70.9005L182.52 96.1606C182.14 96.3306 181.7 96.1605 181.53 95.7805C181.36 95.4005 181.53 94.9605 181.91 94.7905L239.49 69.0605C239.72 68.9605 239.99 68.9806 240.2 69.1206C240.41 69.2606 240.54 69.5005 240.54 69.7505V105.621C240.54 105.921 240.37 106.181 240.1 106.301L182.52 132.031C182.42 132.071 182.32 132.101 182.21 132.101H182.22Z" fill="#808080"></path>
  <path d="M182.94 95.4805H71.27V131.35H182.94V95.4805Z" fill="white"></path>
  <path d="M182.94 132.1H71.27C70.86 132.1 70.52 131.76 70.52 131.35V95.4805C70.52 95.0705 70.86 94.7305 71.27 94.7305H182.94C183.35 94.7305 183.69 95.0705 183.69 95.4805V131.35C183.69 131.76 183.35 132.1 182.94 132.1ZM72.02 130.6H182.19V96.2305H72.02V130.6Z" fill="#808080"></path>
  <path d="M71.47 95.49L128.13 69.75H239.8L182.77 95.54L71.47 95.49Z" fill="white"></path>
  <path d="M182.77 96.2898L71.47 96.2498C71.12 96.2498 70.81 95.9998 70.74 95.6598C70.67 95.3098 70.84 94.9598 71.16 94.8198L127.82 69.0798C127.92 69.0398 128.02 69.0098 128.13 69.0098H239.8C240.15 69.0098 240.46 69.2598 240.53 69.5998C240.6 69.9498 240.43 70.2998 240.11 70.4398L183.08 96.2298C182.98 96.2698 182.88 96.2998 182.77 96.2998V96.2898ZM74.93 94.7498L182.61 94.7898L236.32 70.4998H128.29L74.93 94.7498Z" fill="#808080"></path>
  <path d="M40.1499 141.09C39.8699 141.09 39.5999 140.93 39.4699 140.66C39.2899 140.28 39.4599 139.84 39.8299 139.66L59.5799 130.41C59.7899 130.31 60.0299 130.32 60.2399 130.42C61.1299 130.87 62.0499 131.47 63.0399 132.11C65.2199 133.52 67.6899 135.12 69.6799 134.86C71.8299 134.58 74.6999 133.93 76.2799 132.98C76.6299 132.77 77.0999 132.88 77.3099 133.24C77.5199 133.59 77.4099 134.06 77.0499 134.27C74.8099 135.62 70.9899 136.21 69.8699 136.36C67.3199 136.69 64.6099 134.93 62.2099 133.38C61.3899 132.84 60.5999 132.34 59.8699 131.94L40.4599 141.03C40.3599 141.08 40.2499 141.1 40.1399 141.1L40.1499 141.09Z" fill="#808080"></path>
  <path d="M31.75 114.7L58.24 110.29C58.24 110.29 60.81 106.65 62.29 104.92C64.49 102.33 66.92 100.62 68.98 97.7001C71.08 94.7301 72.68 93.6502 78.85 92.1402C81.93 91.7302 83.49 90.4302 84.81 90.8202C87.08 91.5002 85.19 95.1502 83.46 96.7902C81.78 98.3802 77.51 99.1402 77.51 99.1402C76.84 100.85 75.19 105.56 73.31 108.39C71.63 110.91 70.98 114.09 68.97 115.53" fill="white"></path>
  <path d="M68.95 116.3C68.72 116.3 68.49 116.19 68.34 115.99C68.1 115.65 68.18 115.18 68.51 114.94C69.6 114.16 70.28 112.69 71 111.13C71.49 110.08 71.99 109 72.66 107.99C74.22 105.65 75.66 101.85 76.44 99.8099C76.58 99.4499 76.7 99.1399 76.79 98.8899C76.89 98.6499 77.1 98.4699 77.36 98.4299C78.49 98.2299 81.68 97.4499 82.92 96.2699C84.24 95.0199 85.27 92.9599 85.05 92.0199C85.01 91.8399 84.92 91.6699 84.57 91.5599C84.1 91.4199 83.45 91.6499 82.54 91.9699C81.61 92.2999 80.45 92.6999 78.92 92.8999C72.95 94.3699 71.55 95.3399 69.57 98.1499C68.32 99.9199 66.93 101.27 65.58 102.58C64.67 103.47 63.72 104.38 62.84 105.42C61.4 107.1 58.86 110.7 58.84 110.74C58.72 110.9 58.55 111.01 58.35 111.05L31.86 115.46C31.45 115.53 31.07 115.25 31 114.84C30.93 114.43 31.21 114.05 31.62 113.98L57.8 109.62C58.42 108.75 60.44 105.94 61.71 104.45C62.64 103.36 63.61 102.42 64.55 101.51C65.91 100.19 67.19 98.9499 68.36 97.2899C70.53 94.2199 72.23 93.0099 78.66 91.4399C80.11 91.2399 81.15 90.8799 82.06 90.5599C83.14 90.1799 84.08 89.8499 85.01 90.1299C85.8 90.3699 86.34 90.9199 86.52 91.6799C86.96 93.5099 85.29 96.1099 83.96 97.3599C82.44 98.7999 79.21 99.5799 78.05 99.8299C77.99 99.9899 77.92 100.16 77.85 100.35C77.06 102.45 75.58 106.35 73.92 108.83C73.31 109.74 72.83 110.77 72.37 111.77C71.56 113.51 70.8 115.16 69.39 116.17C69.26 116.26 69.11 116.31 68.95 116.31V116.3Z" fill="#808080"></path>
  <path d="M196.43 130.931L196.79 131.481C194.66 132.831 192.38 134.401 189 134.081C188.7 134.051 188.43 134.021 188.21 134.001L188.33 134.361C186.4 135.031 183.33 135.081 181.3 134.971C178.08 134.781 172.55 133.261 169.95 131.241L149.18 135.731L147.69 124.041L145.78 108.971L170.51 109.461C170.51 109.461 181.95 101.971 188.56 103.291L196.01 104.581C200.47 105.711 205.46 105.011 206.98 107.931C208.5 110.841 204.18 111.811 200.89 111.911C198.46 111.991 197.38 112.131 195.13 111.911L190.3 113.611L190.2 115.171L194.74 117.411C196.22 118.381 200.17 120.551 202.01 121.261C203.85 121.991 206.56 120.901 206.56 120.901C206.56 120.901 207.7 120.431 210.32 119.251C212.67 118.201 214.16 116.421 214.08 118.201C213.95 121.971 212.7 122.961 211 124.361C209.32 125.771 208.68 126.471 206.67 127.021L201.23 130.141C199.84 131.051 198.13 131.101 196.43 130.911V130.931Z" fill="white"></path>
  <path d="M189.86 129.272C192.56 129.782 191.75 130.112 194.45 130.622C195.09 130.742 195.76 130.862 196.43 130.942C198.13 131.132 199.84 131.082 201.23 130.172L206.67 127.052L206.89 126.932" fill="white"></path>
  <path d="M197.89 131.771C197.33 131.771 196.8 131.731 196.34 131.671C195.74 131.601 195.12 131.501 194.31 131.351C192.88 131.081 192.36 130.851 191.85 130.631C191.41 130.431 190.99 130.251 189.72 130.011C189.31 129.931 189.04 129.541 189.12 129.131C189.2 128.721 189.59 128.451 190 128.531C191.44 128.801 191.96 129.031 192.46 129.251C192.9 129.451 193.32 129.631 194.59 129.871C195.37 130.021 195.96 130.111 196.51 130.181C198.46 130.401 199.79 130.201 200.82 129.531L206.51 126.261C206.87 126.051 207.33 126.181 207.53 126.541C207.74 126.901 207.61 127.361 207.25 127.561L201.59 130.811C200.43 131.571 199.07 131.771 197.87 131.771H197.89Z" fill="#808080"></path>
  <path d="M184.08 133.261C186.91 133.981 186.01 133.831 188.22 134.011C188.44 134.031 188.7 134.061 189.01 134.091C192.39 134.401 194.67 132.841 196.8 131.491C196.83 131.481 196.85 131.451 196.88 131.441" fill="white"></path>
  <path d="M189.87 134.882C189.57 134.882 189.25 134.872 188.93 134.842L187.38 134.702C186.33 134.622 186.29 134.612 185.06 134.292L183.89 133.992C183.49 133.892 183.25 133.482 183.35 133.082C183.45 132.682 183.86 132.432 184.26 132.542L185.44 132.842C186.193 133.035 186.88 133.158 187.5 133.212L189.07 133.352C192.05 133.622 194.11 132.312 196.11 131.032L196.38 130.862C196.38 130.862 196.52 130.782 196.55 130.762C196.93 130.582 197.37 130.752 197.55 131.122C197.73 131.492 197.56 131.942 197.19 132.122L196.93 132.292C195.02 133.512 192.87 134.882 189.88 134.882H189.87Z" fill="#808080"></path>
  <path d="M196.77 125.24C199.52 126.12 202.58 127.3 204.82 127.33C205.37 127.33 206.01 127.22 206.67 127.04C208.68 126.49 209.33 125.78 211 124.38C212.7 122.97 213.95 121.98 214.08 118.22C214.15 116.44 212.66 118.22 210.32 119.27C207.7 120.45 206.56 120.92 206.56 120.92C206.56 120.92 203.85 122.01 202.01 121.28C200.17 120.57 196.22 118.4 194.74 117.43L190.2 115.19L190.3 113.63L195.13 111.93C197.38 112.15 198.47 112.01 200.89 111.93C204.19 111.82 208.5 110.86 206.98 107.95C205.46 105.04 200.48 105.73 196.01 104.6L188.56 103.31C181.95 101.99 170.51 109.48 170.51 109.48L145.78 108.99" fill="white"></path>
  <path d="M204.85 128.081H204.81C202.88 128.051 200.46 127.251 198.12 126.471C197.59 126.291 197.06 126.121 196.54 125.951C196.15 125.821 195.93 125.401 196.05 125.011C196.18 124.621 196.6 124.401 196.99 124.521C197.51 124.691 198.05 124.861 198.58 125.041C200.81 125.781 203.12 126.551 204.82 126.581C205.26 126.581 205.81 126.491 206.46 126.311C208.07 125.871 208.7 125.331 209.95 124.271L210.51 123.801C212.18 122.421 213.16 121.611 213.31 118.411C213.12 118.521 212.9 118.661 212.71 118.781C212.14 119.141 211.43 119.581 210.61 119.951C208.01 121.121 206.87 121.591 206.83 121.611C206.7 121.661 203.81 122.801 201.72 121.971C199.82 121.231 195.82 119.041 194.31 118.051L189.85 115.851C189.58 115.721 189.42 115.431 189.43 115.131L189.53 113.571C189.55 113.271 189.75 113.011 190.03 112.911L194.86 111.211C194.96 111.171 195.07 111.161 195.18 111.171C196.87 111.341 197.87 111.291 199.37 111.231C199.81 111.211 200.29 111.191 200.84 111.171C203.64 111.081 205.87 110.411 206.4 109.511C206.52 109.301 206.64 108.951 206.3 108.281C205.45 106.651 203.03 106.361 200.22 106.031C198.78 105.861 197.29 105.681 195.82 105.311L188.42 104.031C182.17 102.791 171.02 110.021 170.91 110.091C170.78 110.171 170.64 110.211 170.48 110.211L145.75 109.721C145.34 109.721 145.01 109.371 145.02 108.951C145.02 108.541 145.36 108.201 145.78 108.221L170.29 108.711C171.9 107.681 182.28 101.271 188.7 102.551L196.13 103.841C197.56 104.201 199 104.371 200.4 104.531C203.5 104.901 206.42 105.241 207.64 107.581C208.28 108.801 208.03 109.711 207.71 110.261C206.54 112.261 202.56 112.601 200.91 112.661C200.37 112.681 199.89 112.701 199.45 112.721C197.98 112.781 196.91 112.831 195.21 112.671L191.01 114.151L190.98 114.721L195.07 116.741C196.57 117.721 200.48 119.871 202.28 120.561C203.56 121.071 205.6 120.471 206.28 120.201C206.28 120.201 207.44 119.731 210.01 118.561C210.73 118.231 211.37 117.841 211.93 117.491C212.9 116.881 213.6 116.441 214.27 116.831C214.88 117.181 214.85 117.971 214.84 118.231C214.7 122.281 213.24 123.491 211.55 124.891L210.94 125.401C209.61 126.531 208.81 127.221 206.87 127.751C206.09 127.971 205.43 128.071 204.85 128.071V128.081Z" fill="#808080"></path>
  <path d="M149.18 136.481C148.83 136.481 148.52 136.241 148.45 135.891C148.36 135.491 148.62 135.091 149.02 135.001L169.79 130.511C170.01 130.461 170.23 130.511 170.41 130.651C172.81 132.511 178.1 134.031 181.35 134.221C183.48 134.341 186.37 134.261 188.09 133.661C188.47 133.491 188.93 133.641 189.11 134.021C189.28 134.401 189.14 134.841 188.77 135.011C188.74 135.021 188.65 135.061 188.62 135.071C186.16 135.931 182.37 135.791 181.27 135.731C178.29 135.551 172.76 134.181 169.78 132.061L149.34 136.481C149.29 136.491 149.23 136.501 149.18 136.501V136.481Z" fill="#808080"></path>
  <path d="M229.58 85.7C249.462 85.7 265.58 69.4255 265.58 49.35C265.58 29.2744 249.462 13 229.58 13C209.698 13 193.58 29.2744 193.58 49.35C193.58 69.4255 209.698 85.7 229.58 85.7Z" fill="white"></path>
  <path d="M229.58 86.7098C209.18 86.7098 192.58 69.9498 192.58 49.3598C192.58 28.7698 209.18 12.0098 229.58 12.0098C249.98 12.0098 266.58 28.7698 266.58 49.3598C266.58 69.9498 249.98 86.7098 229.58 86.7098ZM229.58 13.9998C210.28 13.9998 194.58 29.8598 194.58 49.3498C194.58 68.8398 210.28 84.6998 229.58 84.6998C248.88 84.6998 264.58 68.8398 264.58 49.3498C264.58 29.8598 248.88 13.9998 229.58 13.9998Z" fill="#0066CB"></path>
  <path d="M241.59 27.4707H217.57V41.6307H241.59V27.4707Z" fill="#0066CB"></path>
  <path d="M229.55 37.9105C231.356 37.9105 232.82 36.4331 232.82 34.6105C232.82 32.788 231.356 31.3105 229.55 31.3105C227.744 31.3105 226.28 32.788 226.28 34.6105C226.28 36.4331 227.744 37.9105 229.55 37.9105Z" fill="white"></path>
  <path d="M212.36 46.8105V52.8705C212.36 53.5905 212.31 54.1305 212.21 54.4905C212.11 54.8905 211.94 55.2405 211.7 55.5205C211.23 56.0705 210.61 56.3505 209.84 56.3505C209.26 56.3505 208.71 56.2005 208.2 55.8905L208.88 54.6805C209.22 54.9105 209.54 55.0305 209.84 55.0305C210.26 55.0305 210.54 54.8705 210.7 54.5505C210.87 54.2305 210.95 53.6705 210.95 52.8805V46.8205H212.36V46.8105Z" fill="#0066CB"></path>
  <path d="M220.36 50.2696H221.72V56.1796H220.36V55.5596C219.8 56.0896 219.2 56.3496 218.56 56.3496C217.75 56.3496 217.08 56.0496 216.55 55.4596C216.03 54.8596 215.76 54.1096 215.76 53.1996C215.76 52.2896 216.02 51.5796 216.55 50.9896C217.08 50.3996 217.73 50.0996 218.52 50.0996C219.2 50.0996 219.81 50.3796 220.35 50.9496V50.2596L220.36 50.2696ZM217.15 53.2096C217.15 53.7796 217.3 54.2396 217.6 54.5896C217.91 54.9496 218.3 55.1296 218.77 55.1296C219.27 55.1296 219.68 54.9596 219.98 54.6096C220.29 54.2496 220.44 53.7896 220.44 53.2396C220.44 52.6896 220.29 52.2296 219.98 51.8696C219.67 51.5196 219.27 51.3396 218.78 51.3396C218.32 51.3396 217.93 51.5196 217.61 51.8696C217.3 52.2296 217.15 52.6796 217.15 53.1996V53.2096Z" fill="#0066CB"></path>
  <path d="M226.49 59.3896H225.14V50.2696H226.49V50.9096C227.02 50.3696 227.63 50.0996 228.3 50.0996C229.1 50.0996 229.77 50.3996 230.29 50.9996C230.82 51.5896 231.08 52.3396 231.08 53.2496C231.08 54.1596 230.82 54.8696 230.29 55.4596C229.77 56.0496 229.11 56.3396 228.32 56.3396C227.64 56.3396 227.02 56.0596 226.48 55.5096V59.3896H226.49ZM229.7 53.2596C229.7 52.6896 229.55 52.2296 229.24 51.8796C228.93 51.5196 228.54 51.3396 228.07 51.3396C227.57 51.3396 227.17 51.5096 226.86 51.8596C226.55 52.2096 226.4 52.6696 226.4 53.2296C226.4 53.7896 226.55 54.2396 226.86 54.5996C227.16 54.9496 227.56 55.1296 228.06 55.1296C228.53 55.1296 228.91 54.9496 229.22 54.5996C229.53 54.2396 229.69 53.7996 229.69 53.2696L229.7 53.2596Z" fill="#0066CB"></path>
  <path d="M238.56 50.2696H239.92V56.1796H238.56V55.5596C238 56.0896 237.4 56.3496 236.76 56.3496C235.95 56.3496 235.28 56.0496 234.75 55.4596C234.23 54.8596 233.96 54.1096 233.96 53.1996C233.96 52.2896 234.22 51.5796 234.75 50.9896C235.28 50.3996 235.93 50.0996 236.72 50.0996C237.4 50.0996 238.01 50.3796 238.55 50.9496V50.2596L238.56 50.2696ZM235.35 53.2096C235.35 53.7796 235.5 54.2396 235.8 54.5896C236.11 54.9496 236.5 55.1296 236.97 55.1296C237.47 55.1296 237.88 54.9596 238.18 54.6096C238.49 54.2496 238.64 53.7896 238.64 53.2396C238.64 52.6896 238.49 52.2296 238.18 51.8696C237.87 51.5196 237.47 51.3396 236.98 51.3396C236.52 51.3396 236.13 51.5196 235.81 51.8696C235.5 52.2296 235.35 52.6796 235.35 53.1996V53.2096Z" fill="#0066CB"></path>
  <path d="M243.34 50.2713H244.7V50.8213C245.17 50.3513 245.71 50.1113 246.3 50.1113C246.98 50.1113 247.51 50.3313 247.89 50.7613C248.22 51.1313 248.38 51.7313 248.38 52.5613V56.1813H247.02V52.8813C247.02 52.3013 246.94 51.9013 246.78 51.6713C246.62 51.4413 246.34 51.3313 245.93 51.3313C245.48 51.3313 245.16 51.4813 244.97 51.7813C244.79 52.0813 244.69 52.5913 244.69 53.3313V56.1813H243.33V50.2713H243.34Z" fill="#0066CB"></path>
  <path d="M211.45 65.1815H212.8V65.7315C213.06 65.4515 213.28 65.2715 213.47 65.1715C213.67 65.0715 213.91 65.0215 214.21 65.0215C214.87 65.0215 215.39 65.3115 215.78 65.8915C216.2 65.3115 216.78 65.0215 217.5 65.0215C218.82 65.0215 219.48 65.8315 219.48 67.4415V71.0915H218.12V67.8115C218.12 67.2415 218.05 66.8415 217.92 66.6115C217.78 66.3715 217.55 66.2515 217.23 66.2515C216.86 66.2515 216.59 66.3915 216.42 66.6715C216.25 66.9515 216.16 67.4115 216.16 68.0315V71.0815H214.8V67.8215C214.8 66.7715 214.5 66.2415 213.9 66.2415C213.52 66.2415 213.24 66.3815 213.07 66.6715C212.9 66.9615 212.81 67.4115 212.81 68.0315V71.0815H211.46V65.1715L211.45 65.1815Z" fill="#0066CB"></path>
  <path d="M227.22 65.1798H228.58V71.0898H227.22V70.4698C226.66 70.9998 226.06 71.2598 225.42 71.2598C224.61 71.2598 223.94 70.9598 223.41 70.3698C222.89 69.7698 222.62 69.0198 222.62 68.1098C222.62 67.1998 222.88 66.4898 223.41 65.8998C223.94 65.3098 224.59 65.0098 225.38 65.0098C226.06 65.0098 226.67 65.2898 227.21 65.8598V65.1698L227.22 65.1798ZM224.01 68.1198C224.01 68.6898 224.16 69.1498 224.46 69.4998C224.77 69.8598 225.16 70.0398 225.63 70.0398C226.13 70.0398 226.54 69.8698 226.84 69.5198C227.15 69.1598 227.3 68.6998 227.3 68.1498C227.3 67.5998 227.15 67.1398 226.84 66.7798C226.53 66.4298 226.13 66.2498 225.64 66.2498C225.18 66.2498 224.79 66.4298 224.47 66.7798C224.16 67.1398 224.01 67.5898 224.01 68.1098V68.1198Z" fill="#0066CB"></path>
  <path d="M236.32 60.8398H237.68V71.0898H236.32V70.4698C235.79 70.9998 235.18 71.2598 234.51 71.2598C233.71 71.2598 233.04 70.9598 232.52 70.3698C232 69.7698 231.73 69.0198 231.73 68.1098C231.73 67.1998 231.99 66.4898 232.52 65.8998C233.04 65.3098 233.7 65.0098 234.48 65.0098C235.16 65.0098 235.78 65.2898 236.32 65.8598V60.8398ZM233.11 68.1098C233.11 68.6798 233.26 69.1398 233.56 69.4898C233.87 69.8498 234.26 70.0298 234.73 70.0298C235.23 70.0298 235.64 69.8598 235.94 69.5098C236.25 69.1498 236.4 68.6898 236.4 68.1398C236.4 67.5898 236.25 67.1298 235.94 66.7698C235.63 66.4198 235.23 66.2398 234.74 66.2398C234.28 66.2398 233.89 66.4198 233.57 66.7698C233.26 67.1298 233.11 67.5798 233.11 68.0998V68.1098Z" fill="#0066CB"></path>
  <path d="M246.43 68.45H242.24C242.28 68.94 242.43 69.32 242.71 69.61C242.99 69.89 243.34 70.03 243.77 70.03C244.11 70.03 244.38 69.95 244.6 69.79C244.82 69.63 245.06 69.33 245.34 68.89L246.48 69.53C246.3 69.83 246.12 70.09 245.92 70.31C245.72 70.53 245.51 70.7 245.29 70.84C245.07 70.98 244.82 71.08 244.56 71.15C244.3 71.21 244.02 71.25 243.71 71.25C242.84 71.25 242.14 70.97 241.61 70.4C241.08 69.83 240.82 69.07 240.82 68.13C240.82 67.19 241.08 66.44 241.59 65.86C242.11 65.29 242.79 65 243.64 65C244.49 65 245.18 65.28 245.68 65.83C246.18 66.38 246.42 67.14 246.42 68.12V68.44L246.43 68.45ZM245.04 67.33C244.85 66.6 244.4 66.24 243.68 66.24C243.52 66.24 243.36 66.27 243.22 66.32C243.08 66.37 242.94 66.44 242.83 66.54C242.71 66.63 242.61 66.75 242.53 66.88C242.45 67.01 242.38 67.17 242.34 67.34H245.06L245.04 67.33Z" fill="#0066CB"></path>
</svg>
