<svg width="155" height="66" viewBox="0 0 155 66" fill="none" xmlns="http://www.w3.org/2000/svg">
<g clip-path="url(#clip0_1389_195006)">
<path d="M105.165 39.7787C104.915 39.7787 104.705 39.5987 104.665 39.3387C104.645 39.2187 104.305 36.3487 105.315 33.7787C106.305 31.2487 110.045 26.8487 110.205 26.6587C110.385 26.4487 110.695 26.4187 110.905 26.5987C111.115 26.7787 111.145 27.0887 110.965 27.2987C110.925 27.3387 107.175 31.7587 106.245 34.1387C105.335 36.4687 105.655 39.1787 105.655 39.2087C105.685 39.4787 105.495 39.7287 105.225 39.7687C105.205 39.7687 105.185 39.7687 105.165 39.7687V39.7787Z" fill="#4F9009"/>
<path d="M105.813 37.0789C105.363 37.0789 105.103 36.9789 104.943 36.8489L103.933 36.2589C103.863 36.2189 103.803 36.1589 103.763 36.0989C103.693 35.9889 101.983 33.2589 102.813 30.2889C103.483 27.8989 104.423 27.2389 106.663 25.8389C107.423 25.3689 109.723 23.9289 110.583 22.5889C111.303 21.4689 111.943 20.0089 111.943 19.9989C112.003 19.8489 112.143 19.7389 112.303 19.7089C112.463 19.6789 112.623 19.7189 112.743 19.8289C112.793 19.8689 113.903 20.9289 114.313 22.9389C114.903 25.7789 114.783 28.1689 113.933 30.9289C113.123 33.5689 111.013 35.6289 108.143 36.5889C107.053 36.9489 106.313 37.0789 105.803 37.0789H105.813ZM105.563 36.0589C105.653 36.0889 106.203 36.1889 107.843 35.6489C110.393 34.7989 112.273 32.9789 112.993 30.6489C113.793 28.0589 113.893 25.8189 113.343 23.1489C113.153 22.2489 112.813 21.5789 112.523 21.1489C112.253 21.6989 111.863 22.4689 111.433 23.1389C110.553 24.4989 108.603 25.8189 107.203 26.6889C105.013 28.0589 104.353 28.5489 103.783 30.5589C103.153 32.8089 104.273 34.9789 104.553 35.4589L105.503 36.0089C105.503 36.0089 105.543 36.0289 105.563 36.0489V36.0589Z" fill="#4F9009"/>
<path d="M108.661 45.4897C107.741 45.4897 106.831 45.4097 105.931 45.2597C98.3611 43.9397 92.8711 37.3997 92.8711 29.7097C92.8711 21.0097 99.9511 13.9297 108.651 13.9297C117.351 13.9297 124.431 21.0097 124.431 29.7097C124.431 38.4097 117.351 45.4897 108.651 45.4897H108.661ZM108.661 14.9297C100.511 14.9297 93.8811 21.5597 93.8811 29.7097C93.8811 36.9097 99.0211 43.0397 106.111 44.2697C106.951 44.4197 107.811 44.4897 108.661 44.4897C116.811 44.4897 123.441 37.8597 123.441 29.7097C123.441 21.5597 116.811 14.9297 108.661 14.9297Z" fill="#7FB24D"/>
<path d="M87.4405 19.6831L89.2305 20.6431C89.3705 20.7131 89.5605 20.8031 89.6805 20.8531L89.3505 21.4731C89.2605 21.4231 89.0805 21.3031 88.9305 21.2231L87.1405 20.2631C87.0405 20.2131 86.8505 20.1131 86.7305 20.0731L87.0605 19.4531C87.1705 19.5231 87.2905 19.6031 87.4405 19.6831ZM88.8205 17.2231L89.7705 17.7331C91.0005 18.3831 91.3505 18.8231 91.5905 19.4631C91.8105 20.0231 91.7705 20.7031 91.6905 21.1631L90.9905 21.3631C91.1305 20.7831 91.1705 20.2331 90.9805 19.7031C90.7505 19.1031 90.3705 18.8031 89.4305 18.3131L88.5105 17.8231C88.3205 17.7231 88.1505 17.6531 88.0005 17.5931L88.3405 16.9531C88.4705 17.0331 88.6305 17.1331 88.8205 17.2331V17.2231Z" fill="#4F9009"/>
<path d="M93.0016 12.7614C93.3716 13.2714 93.9016 14.1314 94.0516 14.9214C94.2216 15.8114 94.1416 16.7614 93.6616 17.8214H92.8916C93.4716 16.7514 93.5416 15.8914 93.4016 15.0914C93.2916 14.4314 92.8816 13.7114 92.5216 13.2814L90.5316 15.5014C90.3616 15.6914 90.2016 15.8814 90.1116 16.0014L89.6016 15.5514C89.7316 15.4414 89.9416 15.2414 90.0716 15.0914L92.0416 12.9014C92.1116 12.8214 92.2116 12.7114 92.2716 12.5814L92.8116 12.4414C92.8516 12.5414 92.9316 12.6514 93.0016 12.7614Z" fill="#4F9009"/>
<path d="M98.032 10.1598C98.052 10.5198 98.032 11.4498 97.822 12.0198H97.232C97.422 11.5898 97.492 10.9498 97.462 10.6298L95.162 12.1898C95.002 12.2998 94.842 12.4198 94.682 12.5498L94.332 12.0298C94.492 11.9498 94.692 11.8398 94.852 11.7298L97.272 10.0898C97.362 10.0298 97.522 9.89984 97.582 9.83984L98.052 9.90984C98.042 9.97984 98.042 10.0998 98.032 10.1598ZM97.162 14.8298L96.492 14.7798C96.582 14.6498 96.662 14.5198 96.742 14.3298C97.082 13.4798 96.842 12.9098 96.402 12.2598C96.322 12.1498 96.232 12.0498 96.142 11.9598L96.692 11.5898C97.362 12.6198 97.852 13.4698 97.152 14.8398L97.162 14.8298Z" fill="#4F9009"/>
<path d="M100.159 9.40156L103.289 8.35156C103.569 8.26156 103.779 8.16156 103.919 8.10156L104.159 8.81156C104.029 8.85156 103.759 8.91156 103.509 9.00156L100.379 10.0516C100.059 10.1616 99.7191 10.2816 99.5291 10.3716L99.2891 9.66156C99.4791 9.61156 99.8491 9.51156 100.159 9.41156V9.40156Z" fill="#4F9009"/>
<path d="M106.46 6.45125L106.51 7.72125C107.22 7.52125 108.12 7.20125 108.69 6.93125C108.89 6.84125 109.07 6.75125 109.27 6.61125L109.56 7.21125C109.36 7.30125 109.12 7.41125 108.93 7.49125C108.29 7.78125 107.29 8.12125 106.53 8.34125L106.58 9.58125C106.59 9.87125 106.72 9.94125 107.01 9.99125C107.19 10.0112 107.48 10.0113 107.77 10.0012C108.41 9.98125 109.35 9.87125 109.85 9.72125L109.88 10.4212C109.33 10.5212 108.42 10.6012 107.76 10.6212C107.38 10.6312 107.02 10.6213 106.76 10.6013C106.27 10.5312 105.98 10.3012 105.96 9.79125L105.83 6.48125C105.83 6.33125 105.8 6.09125 105.77 5.92125L106.48 5.89125C106.47 6.05125 106.46 6.27125 106.46 6.45125ZM109.66 6.38125L109.27 6.56125C109.14 6.32125 108.93 5.97125 108.75 5.74125L109.14 5.56125C109.3 5.77125 109.53 6.14125 109.66 6.37125V6.38125ZM110.35 6.09125L109.96 6.27125C109.82 6.01125 109.62 5.68125 109.44 5.46125L109.82 5.28125C109.99 5.50125 110.23 5.86125 110.35 6.08125V6.09125Z" fill="#4F9009"/>
<path d="M112.2 8.85109L111.59 8.94109C111.56 8.60109 111.42 7.73109 111.34 7.47109L111.94 7.39109C112.02 7.69109 112.16 8.50109 112.2 8.85109ZM115.29 8.54109C114.99 9.14109 114.6 9.72109 114.08 10.1611C113.38 10.7411 112.55 11.0711 111.82 11.1811L111.43 10.5711C112.14 10.5211 113.02 10.2411 113.64 9.73109C114.16 9.31109 114.62 8.60109 114.86 7.87109L115.47 8.22109C115.39 8.36109 115.33 8.46109 115.28 8.55109L115.29 8.54109ZM113.59 8.76109L112.99 8.84109C112.98 8.55109 112.87 7.75109 112.79 7.43109L113.39 7.37109C113.44 7.64109 113.57 8.48109 113.59 8.76109Z" fill="#4F9009"/>
<path d="M118.421 11.8094C119.591 11.7994 120.701 11.4794 121.551 10.9694V11.7094C120.681 12.1694 119.571 12.4394 118.431 12.4594C117.721 12.4794 116.841 12.3194 116.301 12.1394V11.4194C116.941 11.6494 117.691 11.8094 118.421 11.8094ZM118.581 10.2594L118.011 10.5594C117.841 10.1994 117.481 9.52938 117.241 9.15938L117.801 8.86938C118.041 9.22938 118.431 9.93938 118.591 10.2594H118.581ZM120.031 9.52938L119.461 9.80938C119.301 9.45938 118.941 8.76937 118.711 8.39937L119.271 8.10938C119.501 8.47938 119.881 9.19938 120.031 9.51938V9.52938Z" fill="#4F9009"/>
<path d="M125.291 15.3098C124.981 15.5498 124.051 16.2198 123.591 16.5598L123.951 16.9198C124.051 17.0198 124.231 17.1898 124.341 17.2798L123.901 17.7098C123.821 17.6198 123.651 17.4398 123.551 17.3298L121.261 14.9998C121.121 14.8598 121.021 14.7598 120.871 14.6198L121.311 14.1798C121.411 14.2998 121.541 14.4498 121.671 14.5898L123.141 16.0798C123.571 15.7798 124.421 15.1598 124.671 14.9298L123.411 13.6498C123.281 13.5198 123.141 13.3898 123.021 13.2798L123.471 12.8398C123.561 12.9598 123.721 13.1298 123.821 13.2398L125.031 14.4698C125.111 14.5498 125.261 14.6698 125.321 14.6998L125.481 15.1898C125.421 15.2198 125.341 15.2698 125.291 15.3098Z" fill="#4F9009"/>
<path d="M124.762 19.49L124.902 18.78C125.042 18.91 125.222 19.05 125.442 19.15C126.342 19.65 127.082 19.42 127.972 18.94C128.122 18.86 128.242 18.79 128.382 18.68L128.712 19.29C127.312 20.03 126.242 20.5 124.772 19.48L124.762 19.49ZM130.252 21.03C129.742 21.01 128.792 20.86 128.072 20.51L128.192 19.87C128.712 20.2 129.492 20.38 129.882 20.37L128.322 17.43C128.212 17.22 128.092 17.04 127.952 16.82L128.542 16.5C128.622 16.71 128.712 16.94 128.832 17.16L130.432 20.15C130.492 20.27 130.642 20.5 130.702 20.57L130.562 21.08C130.482 21.06 130.332 21.03 130.242 21.02L130.252 21.03Z" fill="#4F9009"/>
<path d="M130.91 25.3605C131.41 25.9005 132.09 26.4305 132.65 26.7305L132.27 27.3205C131.72 26.9605 131.15 26.4905 130.65 25.9805L128.18 26.4705C127.94 26.5205 127.61 26.5905 127.49 26.6505L127.34 25.9105C127.47 25.9105 127.81 25.8605 128.05 25.8105L130.12 25.4005C129.66 24.8405 129.16 24.1205 128.76 23.3905L129.29 22.9805C129.78 23.9705 130.36 24.7805 130.9 25.3605H130.91Z" fill="#4F9009"/>
<path d="M131.021 29.7797L130.671 33.7297C130.661 33.8597 130.651 34.0897 130.661 34.2397L130.041 34.1897C130.061 34.0497 130.091 33.8397 130.101 33.6797L130.241 32.1297C129.601 32.0497 129.081 31.8797 128.661 31.6097C128.271 31.3597 127.861 30.8597 127.641 30.3097L128.091 29.7897C128.241 30.2497 128.541 30.7097 128.891 30.9897C129.271 31.2897 129.751 31.4097 130.291 31.4797L130.441 29.7297C130.461 29.5497 130.471 29.3397 130.471 29.1797L131.091 29.2397C131.061 29.4097 131.031 29.5997 131.011 29.7897L131.021 29.7797ZM132.481 30.6597L132.261 33.0997C132.241 33.2897 132.241 33.5097 132.251 33.7097L131.631 33.6497C131.661 33.4597 131.691 33.2297 131.701 33.0497L131.921 30.6097C131.941 30.4097 131.951 30.1897 131.951 30.0197L132.571 30.0797C132.531 30.2597 132.491 30.4697 132.481 30.6597Z" fill="#4F9009"/>
<path d="M130.189 38.4102C129.719 38.0302 128.339 36.8702 127.709 36.2902C127.469 37.0802 127.189 38.0702 127.029 38.7102C127.539 38.6702 128.049 38.6102 128.379 38.5102L128.399 39.1502C127.649 39.3002 126.289 39.4502 125.589 39.4502L125.559 38.7502C125.789 38.7502 126.069 38.7502 126.379 38.7502C126.629 37.8102 127.169 35.9402 127.389 35.1802C127.429 35.0302 127.479 34.8402 127.519 34.6602L128.209 34.8202C128.139 34.9902 128.049 35.2102 127.989 35.3902C127.969 35.4602 127.939 35.5402 127.909 35.6202C128.589 36.2602 130.049 37.4702 130.549 37.8602C130.789 38.0502 130.929 38.1302 131.079 38.2202L130.649 38.8602C130.519 38.7402 130.379 38.6002 130.169 38.4202L130.189 38.4102Z" fill="#4F9009"/>
<path d="M5.52 58.6311L5.75 58.8611L3.11 61.5011L5.75 64.1411L5.52 64.3711L2.88 61.7311L0.23 64.3811L0 64.1511L2.65 61.5011L0 58.8711L0.23 58.6411L2.87 61.2811L5.51 58.6411L5.52 58.6311ZM0.6 62.1011C0.27 62.1011 0 61.8311 0 61.5011C0 61.1711 0.27 60.9011 0.6 60.9011C0.93 60.9011 1.2 61.1711 1.2 61.5011C1.2 61.8311 0.93 62.1011 0.6 62.1011ZM2.28 59.2211C2.28 58.8911 2.55 58.6211 2.88 58.6211C3.21 58.6211 3.48 58.8911 3.48 59.2211C3.48 59.5511 3.21 59.8211 2.88 59.8211C2.55 59.8211 2.28 59.5511 2.28 59.2211ZM3.48 63.7811C3.48 64.1111 3.21 64.3811 2.88 64.3811C2.55 64.3811 2.28 64.1111 2.28 63.7811C2.28 63.4511 2.55 63.1811 2.88 63.1811C3.21 63.1811 3.48 63.4511 3.48 63.7811ZM5.16 60.9011C5.49 60.9011 5.76 61.1711 5.76 61.5011C5.76 61.8311 5.49 62.1011 5.16 62.1011C4.83 62.1011 4.56 61.8311 4.56 61.5011C4.56 61.1711 4.83 60.9011 5.16 60.9011Z" fill="#878787"/>
<path d="M11.2281 60.1211C11.8881 61.4911 13.0381 62.7611 14.2981 63.3711C14.1581 63.4911 13.9481 63.7211 13.8581 63.8911C12.6481 63.2311 11.5781 62.0111 10.8581 60.6311V63.0811H12.3781V63.6711H10.8581V65.1611H10.2381V63.6711H8.67813V63.0811H10.2381V60.6311C9.49812 62.0111 8.42813 63.2211 7.24813 63.9011C7.15813 63.7611 6.95812 63.5311 6.82812 63.4211C8.04813 62.7911 9.19813 61.4911 9.87813 60.1311H7.10813V59.5411H10.2481V57.8711H10.8681V59.5411H14.0381V60.1311H11.2381L11.2281 60.1211Z" fill="#878787"/>
<path d="M16.8195 58.0494C16.6295 58.6194 16.3795 59.1894 16.1095 59.7394V65.1494H15.5395V60.7294C15.3195 61.0694 15.0895 61.3794 14.8595 61.6494C14.7995 61.5094 14.6195 61.1994 14.5195 61.0694C15.2195 60.2894 15.8695 59.0994 16.2695 57.8994L16.8195 58.0694V58.0494ZM19.8295 60.0294C20.2995 61.3694 21.1195 62.6894 21.9895 63.3894C21.8495 63.4894 21.6495 63.6994 21.5395 63.8594C20.6995 63.0894 19.9295 61.7494 19.4495 60.3594V63.1294H20.7395V63.6694H19.4495V65.0994H18.8695V63.6694H17.5695V63.1294H18.8695V60.4094C18.3595 61.7894 17.5895 63.0994 16.7495 63.8694C16.6495 63.7294 16.4495 63.5294 16.3195 63.4194C17.1895 62.7194 18.0195 61.3694 18.5095 60.0194H16.6295V59.4394H18.8695V57.8594H19.4495V59.4394H21.8295V60.0194H19.8295V60.0294Z" fill="#878787"/>
<path d="M25.2212 60.6998C25.9712 60.2398 26.8312 59.8198 27.2712 59.5798C27.5012 59.4398 27.6712 59.3398 27.8412 59.1998L28.1912 59.7698C28.0113 59.8798 27.8112 59.9898 27.5712 60.1098C27.0312 60.3898 25.9212 60.9198 25.1412 61.4398C24.4012 61.9198 23.9513 62.4498 23.9513 63.0598C23.9513 63.7198 24.5812 64.1398 25.8412 64.1398C26.7112 64.1398 27.7812 64.0298 28.4012 63.8698V64.5798C27.7912 64.6798 26.8713 64.7798 25.8713 64.7798C24.3713 64.7798 23.2812 64.3298 23.2812 63.1298C23.2812 62.3098 23.8112 61.6598 24.6612 61.0598C24.2912 60.3998 23.8712 59.4698 23.5012 58.5998L24.1312 58.3398C24.4512 59.2198 24.8513 60.0798 25.2013 60.7098L25.2212 60.6998Z" fill="#878787"/>
<path d="M32.4703 58.91C32.4703 59.2 32.4503 59.47 32.4303 59.73H34.3303C34.5503 59.73 34.7103 59.71 34.8403 59.69L35.2903 59.91C35.2703 60.05 35.2503 60.2 35.2503 60.3C35.2203 61.07 35.1203 63.39 34.7603 64.16C34.6003 64.5 34.3403 64.65 33.9003 64.65C33.4903 64.65 33.0303 64.62 32.6103 64.59L32.5303 63.93C32.9603 63.99 33.3903 64.02 33.7203 64.02C33.9503 64.02 34.1003 63.96 34.1803 63.76C34.4803 63.15 34.5903 61.19 34.5903 60.33H32.3503C32.0603 62.62 31.2303 63.84 29.9003 64.76L29.3203 64.29C29.5803 64.15 29.9003 63.93 30.1403 63.7C30.9303 62.98 31.5103 61.98 31.7203 60.33H30.3803C30.0703 60.33 29.7403 60.33 29.4603 60.36V59.68C29.7403 59.71 30.0703 59.73 30.3703 59.73H31.7803C31.8003 59.47 31.8103 59.2 31.8103 58.91C31.8103 58.73 31.7903 58.44 31.7503 58.25H32.5003C32.4803 58.43 32.4603 58.71 32.4503 58.91H32.4703Z" fill="#878787"/>
<path d="M38.02 59.1683L38.73 59.3183C38.68 59.4983 38.62 59.7283 38.59 59.8983C38.48 60.3983 38.2 61.5883 37.86 62.3983C37.56 63.1383 37.13 63.9583 36.68 64.5983L36 64.3083C36.5 63.6483 36.95 62.8083 37.23 62.1383C37.57 61.3183 37.91 60.0983 38.01 59.1683H38.02ZM40.01 59.3083L40.66 59.0883C40.98 59.6683 41.49 60.7683 41.83 61.6183C42.16 62.4083 42.58 63.6283 42.79 64.3483L42.08 64.5783C41.88 63.7583 41.51 62.6783 41.18 61.8283C40.86 61.0083 40.37 59.8883 40.02 59.2983L40.01 59.3083ZM42.26 59.4083L41.83 59.5983C41.67 59.2683 41.4 58.7883 41.18 58.4883L41.6 58.3083C41.8 58.5883 42.1 59.0783 42.26 59.4083ZM43.16 59.0783L42.73 59.2683C42.55 58.9183 42.3 58.4683 42.07 58.1683L42.49 57.9883C42.71 58.2783 43.01 58.7783 43.16 59.0783Z" fill="#878787"/>
<path d="M44.8505 61.1181H49.2305C49.6305 61.1181 49.9205 61.0981 50.0905 61.0781V61.8581C49.9305 61.8581 49.5905 61.8181 49.2305 61.8181H44.8405C44.4005 61.8181 43.9805 61.8381 43.7305 61.8581V61.0781C43.9705 61.0981 44.3905 61.1181 44.8405 61.1181H44.8505Z" fill="#878787"/>
<path d="M52.4387 58.9811C52.2787 59.7211 52.0387 61.3111 52.0387 62.2011C52.0387 62.5811 52.0587 62.9211 52.1187 63.3111C52.2487 62.9511 52.4388 62.4611 52.5788 62.1311L52.9087 62.3911C52.7187 62.9511 52.4187 63.7711 52.3387 64.1611C52.3187 64.2711 52.2988 64.4211 52.3088 64.5211C52.3088 64.6011 52.3088 64.7111 52.3288 64.8011L51.7687 64.8411C51.6087 64.2711 51.4688 63.3911 51.4688 62.3111C51.4688 61.1311 51.7287 59.6111 51.8387 58.9411C51.8587 58.7611 51.8887 58.5411 51.8887 58.3711L52.5887 58.4311C52.5387 58.5711 52.4787 58.8311 52.4487 58.9711L52.4387 58.9811ZM56.4787 58.8711C56.4787 59.0911 56.4587 59.4611 56.4587 59.8411C56.9487 59.8011 57.4187 59.7411 57.8387 59.6611V60.2811C57.3987 60.3511 56.9387 60.4011 56.4587 60.4311C56.4587 61.2411 56.5188 62.0411 56.5588 62.7111C57.2088 62.9711 57.7287 63.3711 58.1387 63.7411L57.7887 64.2811C57.3887 63.9011 56.9888 63.5811 56.5788 63.3511V63.5211C56.5788 64.1811 56.2787 64.8111 55.1987 64.8111C54.1187 64.8111 53.5387 64.3911 53.5387 63.6711C53.5387 63.0011 54.1387 62.4611 55.1887 62.4611C55.4487 62.4611 55.6987 62.4811 55.9287 62.5311C55.9087 61.9111 55.8587 61.1311 55.8487 60.4811C55.5887 60.4811 55.3388 60.5011 55.0788 60.5011C54.6188 60.5011 54.2088 60.4811 53.7388 60.4411V59.8411C54.1988 59.8811 54.6187 59.9011 55.0987 59.9011C55.3487 59.9011 55.5987 59.9011 55.8487 59.8811V58.8911C55.8487 58.7511 55.8287 58.5411 55.8187 58.4011H56.5387C56.5187 58.5611 56.4988 58.7211 56.4888 58.8811L56.4787 58.8711ZM55.0788 64.2211C55.7488 64.2211 55.9487 63.8811 55.9487 63.3511C55.9487 63.2711 55.9487 63.1711 55.9487 63.0711C55.6887 62.9911 55.4187 62.9411 55.1287 62.9411C54.5287 62.9411 54.1087 63.2011 54.1087 63.5911C54.1087 63.9811 54.5087 64.2211 55.0887 64.2211H55.0788Z" fill="#878787"/>
<path d="M60.6991 58.5984C61.0491 58.5984 62.6991 58.5284 63.1591 58.4684C63.3391 58.4484 63.4991 58.4184 63.5891 58.3984L63.9991 58.8584C63.8891 58.9184 63.6791 59.0684 63.5691 59.1584C62.9791 59.6584 61.8191 60.6184 61.1791 61.1284C62.3991 60.9984 63.8291 60.8984 64.9891 60.8984V61.4884C64.2091 61.4484 63.4391 61.4584 62.9591 61.5184C62.1791 61.6284 61.4191 62.2984 61.4191 63.0484C61.4191 63.8584 62.0691 64.1284 62.7991 64.2284C63.2691 64.2884 63.6591 64.2784 63.9491 64.2484L63.8091 64.8984C61.8591 64.9884 60.7991 64.3684 60.7991 63.1484C60.7991 62.4584 61.3191 61.8884 61.7291 61.6384C60.8691 61.7084 59.8091 61.8284 58.8491 61.9884L58.7891 61.3884C59.2191 61.3384 59.7691 61.2784 60.1691 61.2284C61.0291 60.6284 62.2991 59.5184 62.8091 59.0684C62.4591 59.0884 61.0491 59.1584 60.7091 59.1784C60.5091 59.1984 60.2691 59.2184 60.0991 59.2384L60.0691 58.5784C60.2591 58.5984 60.4591 58.6084 60.6991 58.6084V58.5984Z" fill="#878787"/>
<path d="M68.4686 58.1875L69.2186 58.2075C69.1786 58.4075 69.1186 58.8575 69.0586 59.4175C69.0786 59.4175 69.0886 59.4175 69.1086 59.3975L69.3386 59.6775C69.2386 59.8175 69.0986 60.0375 68.9786 60.2375C68.9586 60.3875 68.9586 60.5375 68.9386 60.6975C69.5586 60.1175 70.5986 59.3475 71.3986 59.3475C72.1386 59.3475 72.5086 59.7675 72.5086 60.4175C72.5086 61.2175 72.2086 62.5875 72.2086 63.4075C72.2086 63.6675 72.3386 63.8975 72.6286 63.8975C73.0086 63.8975 73.4286 63.6675 73.8386 63.2375L73.9386 63.9275C73.5186 64.3475 73.0086 64.5875 72.4686 64.5875C71.9286 64.5875 71.5786 64.2475 71.5786 63.5775C71.5786 62.6875 71.8786 61.3775 71.8786 60.5975C71.8786 60.1375 71.6386 59.9375 71.2286 59.9375C70.5786 59.9375 69.6186 60.6875 68.8786 61.4775C68.8586 61.8175 68.8586 62.1375 68.8586 62.4175C68.8586 63.1475 68.8586 63.6375 68.8886 64.3475C68.8886 64.4875 68.9086 64.6875 68.9286 64.8375H68.2286C68.2486 64.6975 68.2486 64.4975 68.2486 64.3675C68.2486 63.5975 68.2486 63.1875 68.2686 62.3175C68.2686 62.2375 68.2686 62.1275 68.2686 61.9975C67.8786 62.5875 67.3486 63.3475 66.9686 63.8975L66.5586 63.3475C67.0086 62.7875 67.9386 61.5375 68.3386 60.9175C68.3586 60.6575 68.3786 60.3775 68.3986 60.1275C68.0386 60.1775 67.3386 60.2675 66.8286 60.3475L66.7686 59.6875C66.9486 59.6875 67.0986 59.6875 67.2886 59.6875C67.5486 59.6675 68.0286 59.6275 68.4386 59.5475C68.4586 59.1675 68.4786 58.8775 68.4786 58.7875C68.4786 58.6075 68.4786 58.3975 68.4486 58.1975L68.4686 58.1875Z" fill="#878787"/>
<path d="M77.2108 58.5906C77.5608 58.5906 79.2108 58.5206 79.6708 58.4706C79.8508 58.4506 80.0108 58.4206 80.1008 58.3906L80.5108 58.8506C80.4008 58.9206 80.1908 59.0606 80.0808 59.1506C79.4908 59.6406 78.3308 60.6106 77.6908 61.1206C78.9108 60.9806 80.3408 60.8806 81.5008 60.8806V61.4706C80.7208 61.4306 79.9508 61.4406 79.4708 61.5106C78.6908 61.6206 77.9308 62.2806 77.9308 63.0306C77.9308 63.8406 78.5908 64.1106 79.3108 64.2106C79.7808 64.2706 80.1708 64.2506 80.4508 64.2306L80.3208 64.8906C78.3708 64.9706 77.3108 64.3606 77.3108 63.1306C77.3108 62.4506 77.8308 61.8706 78.2408 61.6206C77.3808 61.6906 76.3208 61.8206 75.3608 61.9706L75.3008 61.3706C75.7308 61.3306 76.2808 61.2606 76.6808 61.2106C77.5508 60.6106 78.8208 59.5006 79.3308 59.0506C78.9708 59.0706 77.5708 59.1406 77.2308 59.1706C77.0308 59.1906 76.7908 59.2106 76.6208 59.2306L76.5908 58.5706C76.7808 58.5906 76.9808 58.5906 77.2208 58.5906H77.2108ZM81.1408 60.4106L80.7308 60.6006C80.5608 60.2506 80.3608 59.8906 80.1308 59.5706L80.5408 59.3906C80.7208 59.6606 80.9708 60.0506 81.1408 60.4106ZM82.0108 60.0706L81.6008 60.2706C81.4208 59.9306 81.2108 59.5506 80.9808 59.2506L81.3808 59.0706C81.5708 59.3206 81.8408 59.7306 82.0108 60.0706Z" fill="#878787"/>
<path d="M85.1405 58.1875L85.8905 58.2075C85.8505 58.4075 85.7905 58.8575 85.7305 59.4175C85.7505 59.4175 85.7605 59.4175 85.7805 59.3975L86.0105 59.6775C85.9105 59.8175 85.7705 60.0375 85.6505 60.2375C85.6305 60.3875 85.6305 60.5375 85.6105 60.6975C86.2305 60.1175 87.2705 59.3475 88.0705 59.3475C88.8105 59.3475 89.1805 59.7675 89.1805 60.4175C89.1805 61.2175 88.8805 62.5875 88.8805 63.4075C88.8805 63.6675 89.0105 63.8975 89.3005 63.8975C89.6805 63.8975 90.1005 63.6675 90.5105 63.2375L90.6105 63.9275C90.1905 64.3475 89.6805 64.5875 89.1405 64.5875C88.6005 64.5875 88.2505 64.2475 88.2505 63.5775C88.2505 62.6875 88.5505 61.3775 88.5505 60.5975C88.5505 60.1375 88.3105 59.9375 87.9005 59.9375C87.2505 59.9375 86.2905 60.6875 85.5505 61.4775C85.5305 61.8175 85.5305 62.1375 85.5305 62.4175C85.5305 63.1475 85.5305 63.6375 85.5605 64.3475C85.5605 64.4875 85.5805 64.6875 85.6005 64.8375H84.9005C84.9205 64.6975 84.9205 64.4975 84.9205 64.3675C84.9205 63.5975 84.9205 63.1875 84.9405 62.3175C84.9405 62.2375 84.9405 62.1275 84.9405 61.9975C84.5505 62.5875 84.0205 63.3475 83.6405 63.8975L83.2305 63.3475C83.6805 62.7875 84.6105 61.5375 85.0105 60.9175C85.0305 60.6575 85.0505 60.3775 85.0705 60.1275C84.7105 60.1775 84.0105 60.2675 83.5005 60.3475L83.4405 59.6875C83.6205 59.6875 83.7705 59.6875 83.9605 59.6875C84.2205 59.6675 84.7005 59.6275 85.1105 59.5475C85.1305 59.1675 85.1505 58.8775 85.1505 58.7875C85.1505 58.6075 85.1505 58.3975 85.1205 58.1975L85.1405 58.1875Z" fill="#878787"/>
<path d="M95.3792 61.67C95.3792 61.67 95.3792 61.85 95.3792 61.93C95.2792 63.92 95.1992 64.65 94.9892 64.9C94.8492 65.06 94.7192 65.11 94.4792 65.12C94.2792 65.14 93.8892 65.14 93.4992 65.12C93.4792 64.96 93.4292 64.74 93.3292 64.6C93.7192 64.64 94.0992 64.64 94.2392 64.64C94.3792 64.64 94.4392 64.62 94.5092 64.55C94.6492 64.39 94.7292 63.78 94.8092 62.21H93.4992C93.3192 63.37 92.9492 64.47 92.1092 65.17C92.0292 65.04 91.8492 64.85 91.6992 64.76C92.7892 63.9 92.9792 62.27 93.0592 60.82H92.1892V58.22H95.3292V60.82H93.6392C93.6192 61.1 93.5992 61.39 93.5692 61.68H95.3892L95.3792 61.67ZM92.7292 60.29H94.7592V58.75H92.7292V60.29ZM96.7092 63.21H96.1292V58.81H96.7092V63.21ZM98.6692 58.01V64.37C98.6692 64.77 98.5592 64.95 98.3092 65.06C98.0492 65.16 97.5992 65.16 96.8692 65.16C96.8392 65 96.7492 64.73 96.6492 64.56C97.2092 64.58 97.7092 64.58 97.8692 64.56C98.0092 64.56 98.0792 64.51 98.0792 64.36V58H98.6692V58.01Z" fill="#878787"/>
<path d="M103.292 62.0994C103.152 63.7194 102.742 64.6694 100.762 65.1494C100.712 64.9994 100.552 64.7694 100.422 64.6494C102.252 64.2594 102.572 63.4794 102.682 62.0994H103.292ZM103.712 59.1894H100.582V58.6394H103.712V57.8594H104.322V58.6394H107.512V59.1894H104.322V59.9794H106.802V60.5094H101.332V59.9794H103.712V59.1894ZM106.692 62.6794V61.6994H101.362V62.6794H100.782V61.1494H107.282V62.6794H106.682H106.692ZM106.652 64.4594C106.952 64.4594 106.992 64.3194 107.022 63.4294C107.162 63.5294 107.402 63.6094 107.562 63.6594C107.492 64.7294 107.332 64.9994 106.702 64.9994H105.532C104.812 64.9994 104.632 64.8194 104.632 64.2094V62.0894H105.222V64.1994C105.222 64.4194 105.282 64.4594 105.592 64.4594H106.652Z" fill="#878787"/>
<path d="M110.529 60.4609C110.859 59.6409 111.689 58.6409 112.699 58.6409C113.709 58.6409 114.519 59.7009 114.519 61.3809C114.519 63.6009 113.129 64.5809 111.149 64.9409L110.769 64.3609C112.499 64.1009 113.859 63.3909 113.859 61.3909C113.859 60.1309 113.429 59.2209 112.589 59.2209C111.589 59.2209 110.659 60.6809 110.569 61.7209C110.529 62.0309 110.539 62.3009 110.589 62.7009L109.969 62.7509C109.929 62.4509 109.879 62.0009 109.879 61.4809C109.879 60.7209 110.029 59.5409 110.129 58.9009C110.159 58.6609 110.179 58.4309 110.189 58.2109L110.889 58.2309C110.719 58.8109 110.559 59.8909 110.509 60.4509L110.529 60.4609Z" fill="#878787"/>
<path d="M119.282 60.6998C120.032 60.2398 120.902 59.8198 121.332 59.5798C121.562 59.4398 121.732 59.3398 121.902 59.1998L122.252 59.7698C122.072 59.8798 121.872 59.9898 121.632 60.1098C121.092 60.3898 119.982 60.9198 119.202 61.4398C118.462 61.9198 118.012 62.4498 118.012 63.0598C118.012 63.7198 118.642 64.1398 119.912 64.1398C120.782 64.1398 121.852 64.0298 122.472 63.8698V64.5798C121.862 64.6798 120.942 64.7798 119.942 64.7798C118.442 64.7798 117.352 64.3298 117.352 63.1298C117.352 62.3098 117.882 61.6598 118.732 61.0598C118.362 60.3998 117.942 59.4698 117.572 58.5998L118.202 58.3398C118.522 59.2198 118.922 60.0798 119.272 60.7098L119.282 60.6998Z" fill="#878787"/>
<path d="M126.739 59.4289C127.159 59.3689 127.589 59.2689 127.999 59.1289L128.019 59.7289C127.599 59.8489 127.089 59.9489 126.559 60.0289C126.169 61.1589 125.459 62.5389 124.819 63.3989L124.199 63.0789C124.859 62.2989 125.539 61.0289 125.909 60.0889C125.669 60.1089 125.429 60.1089 125.199 60.1089C124.899 60.1089 124.569 60.1089 124.259 60.0889L124.219 59.4889C124.519 59.5289 124.859 59.5489 125.199 59.5489C125.489 59.5489 125.789 59.5289 126.099 59.5089C126.219 59.0589 126.329 58.5589 126.349 58.1289L127.049 58.1889C126.979 58.4789 126.869 58.9689 126.739 59.4289ZM128.929 61.5189C128.929 61.8189 128.969 62.3389 128.989 62.8289C129.679 63.0789 130.239 63.4689 130.649 63.8189L130.309 64.3589C129.969 64.0589 129.529 63.6989 129.009 63.4389C129.009 63.5689 129.009 63.6789 129.009 63.7789C129.009 64.4189 128.599 64.9389 127.609 64.9389C126.729 64.9389 126.009 64.5789 126.009 63.7889C126.009 63.0489 126.709 62.5889 127.609 62.5889C127.879 62.5889 128.149 62.6089 128.389 62.6689C128.359 62.0089 128.319 61.2189 128.299 60.6589H128.919C128.899 60.9889 128.899 61.2389 128.919 61.5189H128.929ZM127.539 64.3689C128.199 64.3689 128.429 64.0189 128.429 63.5789C128.429 63.4789 128.429 63.3589 128.429 63.2189C128.169 63.1389 127.889 63.0989 127.609 63.0989C127.029 63.0989 126.629 63.3689 126.629 63.7389C126.629 64.1089 126.929 64.3689 127.559 64.3689H127.539ZM128.709 59.7689L129.039 59.2789C129.619 59.5389 130.529 60.0589 130.899 60.3389L130.539 60.8689C130.109 60.4989 129.239 60.0089 128.709 59.7689Z" fill="#878787"/>
<path d="M133.771 60.4609C134.101 59.6409 134.931 58.6409 135.941 58.6409C136.951 58.6409 137.761 59.7009 137.761 61.3809C137.761 63.6009 136.371 64.5809 134.391 64.9409L134.011 64.3609C135.741 64.1009 137.101 63.3909 137.101 61.3909C137.101 60.1309 136.671 59.2209 135.831 59.2209C134.831 59.2209 133.901 60.6809 133.811 61.7209C133.771 62.0309 133.781 62.3009 133.831 62.7009L133.211 62.7509C133.171 62.4509 133.121 62.0009 133.121 61.4809C133.121 60.7209 133.271 59.5409 133.371 58.9009C133.401 58.6609 133.421 58.4309 133.431 58.2109L134.131 58.2309C133.961 58.8109 133.801 59.8909 133.751 60.4509L133.771 60.4609Z" fill="#878787"/>
<path d="M143.529 58.7297C143.529 58.8297 143.529 59.0097 143.529 59.2197C144.249 59.1897 144.979 59.1197 145.699 58.9997V59.5797C145.059 59.6497 144.299 59.7197 143.529 59.7597V60.8797C144.309 60.8497 145.029 60.7797 145.759 60.6597V61.2597C144.999 61.3597 144.299 61.4197 143.539 61.4397C143.559 61.8597 143.579 62.2897 143.599 62.6697C144.659 62.9597 145.479 63.5397 145.929 63.9197L145.559 64.4897C145.089 64.0597 144.419 63.5697 143.619 63.2797C143.619 63.4797 143.639 63.6497 143.639 63.7797C143.639 64.3297 143.269 64.8997 142.229 64.8997C141.079 64.8997 140.449 64.4897 140.449 63.7197C140.449 62.9897 141.149 62.4997 142.299 62.4997C142.529 62.4997 142.759 62.5197 142.969 62.5497C142.969 62.1897 142.949 61.8097 142.939 61.4597H142.479C141.939 61.4597 141.059 61.4097 140.479 61.3497V60.7497C141.049 60.8497 141.959 60.8997 142.489 60.8997H142.919V59.7797H142.569C142.009 59.7797 141.029 59.6997 140.519 59.6397V59.0497C141.029 59.1497 142.019 59.2297 142.559 59.2297H142.929V58.6597C142.929 58.5197 142.909 58.2897 142.899 58.1797H143.579C143.559 58.3197 143.539 58.4797 143.529 58.7197V58.7297ZM142.149 64.3497C142.609 64.3497 142.999 64.2097 142.999 63.6497C142.999 63.5097 142.999 63.3197 142.999 63.1097C142.749 63.0497 142.489 63.0297 142.219 63.0297C141.459 63.0297 141.039 63.3297 141.039 63.6897C141.039 64.0497 141.359 64.3397 142.149 64.3397V64.3497Z" fill="#878787"/>
<path d="M151.77 58.7075C151.77 58.8275 151.77 59.0075 151.77 59.2275H151.89C152.87 59.2275 153.85 59.2275 154.23 59.2275V59.8175C153.77 59.7975 153.05 59.7775 151.88 59.7775H151.77C151.77 60.2375 151.77 60.7275 151.79 61.0975C151.96 61.3675 152.05 61.7175 152.05 62.1175C152.05 63.1975 151.52 64.3975 149.66 64.9575L149.12 64.4275C150.18 64.1875 150.92 63.7375 151.24 63.0075C151.05 63.1475 150.82 63.2275 150.54 63.2275C149.87 63.2275 149.23 62.7675 149.23 61.8875C149.23 61.0975 149.88 60.4975 150.64 60.4975C150.84 60.4975 151.02 60.5275 151.18 60.5875C151.18 60.3475 151.18 60.0575 151.18 59.7775C149.96 59.7775 148.61 59.8375 147.61 59.9175L147.59 59.2975C148.48 59.2775 149.98 59.2375 151.17 59.2175C151.17 58.9975 151.17 58.7975 151.15 58.6875C151.15 58.4775 151.11 58.2475 151.1 58.1875H151.83C151.81 58.2775 151.8 58.5875 151.79 58.6875L151.77 58.7075ZM150.63 62.6875C151.1 62.6875 151.41 62.3075 151.33 61.5475C151.2 61.1975 150.93 61.0475 150.62 61.0475C150.2 61.0475 149.81 61.3775 149.81 61.8975C149.81 62.4175 150.18 62.6875 150.63 62.6875Z" fill="#878787"/>
<path d="M69.2994 24.3498C69.2994 24.3498 69.2794 34.9098 69.2994 38.7398C69.3094 41.0498 68.5494 41.6298 67.7894 42.5298C66.5094 44.0298 61.5694 47.1298 52.9994 47.6698C40.5994 48.4598 25.8794 45.7098 21.2694 44.2098C14.3094 41.9398 13.2294 40.6198 11.5494 39.3998C10.3194 38.5098 9.25937 36.6498 9.22937 35.1598L9.10938 19.5898" fill="white"/>
<path d="M48.4011 48.3116C37.1711 48.3116 25.3111 46.0516 21.1211 44.6816C15.0311 42.6916 13.3811 41.4216 11.9211 40.3016C11.7011 40.1316 11.4811 39.9616 11.2611 39.8016C9.87109 38.7916 8.76109 36.7616 8.74109 35.1716L8.62109 19.6016C8.62109 19.3216 8.84109 19.1016 9.12109 19.1016C9.41109 19.1016 9.62109 19.3216 9.62109 19.6016L9.74109 35.1716C9.76109 36.4516 10.7111 38.1716 11.8511 39.0016C12.0811 39.1716 12.3111 39.3416 12.5311 39.5216C13.9211 40.5916 15.5011 41.8116 21.4311 43.7516C26.1411 45.2916 40.6911 47.9716 52.9711 47.1916C61.8311 46.6316 66.4011 43.4116 67.4111 42.2216L67.6611 41.9316C68.3011 41.2016 68.8111 40.6216 68.8011 38.7516C68.7811 34.9116 68.8011 24.3516 68.8011 24.3516H69.8011C69.8011 24.3516 69.7811 34.9116 69.8011 38.7416C69.8111 40.9916 69.1011 41.8016 68.4111 42.5816L68.1711 42.8516C66.6011 44.7016 61.2611 47.6516 53.0311 48.1716C51.5111 48.2716 49.9611 48.3116 48.3911 48.3116H48.4011Z" fill="#808080"/>
<path d="M53.8525 35.6314C53.7525 35.6314 53.6625 35.5714 53.6225 35.4714L52.4525 32.5814C52.4025 32.4514 52.4525 32.3114 52.5925 32.2514C52.7225 32.2014 52.8625 32.2514 52.9225 32.3914L54.0225 35.1014L60.6025 34.3614L59.7025 31.8714C59.6525 31.7414 59.7225 31.6014 59.8525 31.5514C59.9825 31.5014 60.1225 31.5714 60.1725 31.7014L61.1825 34.4914C61.2125 34.5614 61.2025 34.6414 61.1625 34.7114C61.1225 34.7714 61.0525 34.8214 60.9825 34.8314L53.9025 35.6314C53.9025 35.6314 53.8825 35.6314 53.8725 35.6314H53.8525Z" fill="#808080"/>
<path d="M23.06 39.194C23.06 39.194 23.02 39.194 23 39.194C20.4 38.604 18.33 37.974 16.84 37.314C13.99 36.064 12.02 34.714 10.63 33.074C10.59 33.034 10.57 32.974 10.57 32.914L10.5 26.834C10.5 26.724 10.56 26.634 10.66 26.594C10.76 26.554 10.87 26.594 10.94 26.664C12.28 28.244 14.2 29.554 16.97 30.774C18.43 31.414 20.47 32.034 23.04 32.624C23.15 32.654 23.23 32.754 23.23 32.864L23.3 38.944C23.3 39.024 23.27 39.094 23.21 39.144C23.17 39.184 23.11 39.204 23.05 39.204L23.06 39.194ZM11.07 32.814C12.41 34.364 14.31 35.644 17.04 36.854C18.44 37.474 20.37 38.064 22.8 38.634L22.74 33.064C20.23 32.484 18.22 31.864 16.77 31.234C14.21 30.114 12.36 28.904 11.01 27.494L11.07 32.824V32.814Z" fill="#808080"/>
<path d="M69.0886 23.6128C68.4986 20.1928 64.1486 18.2028 57.9686 16.5728C53.7286 15.4528 36.9886 13.9128 30.2686 13.7228C24.2286 13.5528 18.6486 13.8928 14.3986 15.5928C11.8686 16.6028 8.96856 18.1628 9.30856 20.0928C9.80856 22.9228 12.3386 24.5528 16.4686 26.1828C21.3886 28.1228 29.4486 29.1728 37.2786 30.0028C42.4586 30.5528 47.5086 30.8928 51.2086 30.9928C62.8386 31.2928 69.7486 27.4828 69.0886 23.6328V23.6128Z" fill="#D2D2D7"/>
<path d="M52.4898 31.2421C52.0698 31.2421 51.6398 31.2421 51.2098 31.2221C47.3298 31.1221 42.2498 30.7621 37.2598 30.2321C29.3598 29.4021 21.3698 28.3521 16.3898 26.4021C12.3898 24.8321 9.60984 23.1621 9.06984 20.1321C8.77984 18.4721 10.5398 16.8721 14.3098 15.3621C18.0298 13.8721 23.1098 13.2721 30.2798 13.4821C36.8998 13.6721 53.7498 15.2121 58.0398 16.3421C63.2498 17.7121 68.6698 19.6521 69.3398 23.5821C69.5198 24.6421 69.1698 25.7321 68.3098 26.7121C65.8598 29.5521 59.8598 31.2521 52.4798 31.2521L52.4898 31.2421ZM27.6598 13.9321C21.9098 13.9321 17.6898 14.5421 14.4998 15.8221C11.0298 17.2121 9.31985 18.6721 9.55985 20.0421C10.0498 22.8421 12.7198 24.4221 16.5698 25.9421C21.5098 27.8821 29.8298 28.9521 37.3098 29.7421C42.2898 30.2721 47.3598 30.6321 51.2198 30.7321C60.5598 30.9721 65.9798 28.6421 67.9398 26.3821C68.6998 25.5021 69.0098 24.5821 68.8498 23.6621C68.3498 20.7521 65.0798 18.7121 57.9098 16.8221C53.6498 15.7021 36.8698 14.1621 30.2598 13.9721C29.3598 13.9421 28.4898 13.9321 27.6598 13.9321Z" fill="#808080"/>
<path d="M52.3423 32.6917C51.9723 32.6917 51.6023 32.6917 51.2323 32.6817C47.3523 32.5817 42.2723 32.2217 37.2823 31.6917C29.5223 30.8717 21.6523 29.8417 16.6723 27.8817C12.1823 26.1117 10.3023 25.2617 8.90226 22.0717C8.84226 21.9417 8.90226 21.8017 9.03226 21.7417C9.16226 21.6917 9.30226 21.7417 9.36226 21.8717C10.6723 24.8517 12.3123 25.6217 16.8623 27.4117C21.7923 29.3517 29.6123 30.3717 37.3423 31.1917C42.3123 31.7217 47.3823 32.0817 51.2523 32.1817C61.0423 32.4417 67.5623 29.7417 68.9523 26.9417C69.0123 26.8217 69.1623 26.7717 69.2923 26.8317C69.4123 26.8917 69.4623 27.0417 69.4023 27.1617C67.5723 30.8517 59.6323 32.6917 52.3523 32.6917H52.3423Z" fill="#808080"/>
<path d="M25.17 45.8332C24.89 45.8332 24.67 45.6032 24.68 45.3232L24.93 30.0732C24.93 29.7932 25.15 29.5632 25.44 29.5832C25.72 29.5832 25.94 29.8132 25.93 30.0932L25.68 45.3432C25.68 45.6132 25.45 45.8332 25.18 45.8332H25.17Z" fill="#808080"/>
<path d="M50.1595 48.083C49.8895 48.083 49.6595 47.863 49.6595 47.583L49.5195 32.543C49.5195 32.263 49.7395 32.043 50.0195 32.043C50.2895 32.063 50.5195 32.263 50.5195 32.543L50.6595 47.583C50.6595 47.863 50.4395 48.083 50.1595 48.083Z" fill="#808080"/>
<path d="M66.6114 44.1636C66.3314 44.1636 66.1114 43.9336 66.1214 43.6536L66.3714 29.6736C66.3714 29.3936 66.6114 29.1836 66.8814 29.1836C67.1614 29.1836 67.3814 29.4136 67.3714 29.6936L67.1214 43.6736C67.1214 43.9436 66.8914 44.1636 66.6214 44.1636H66.6114Z" fill="#808080"/>
<path d="M22.6005 38.8002C22.5005 38.8002 22.4105 38.7402 22.3705 38.6402L21.3305 35.9802L20.2105 38.4602C20.1605 38.5702 20.0405 38.6302 19.9305 38.6002C19.8105 38.5702 19.7305 38.4702 19.7305 38.3502L19.8105 32.0602C19.8105 31.9402 19.9005 31.8402 20.0205 31.8202C20.1405 31.8002 20.2505 31.8602 20.3005 31.9702L21.3705 34.6802L22.3205 32.5702C22.3805 32.4402 22.5305 32.3902 22.6505 32.4502C22.7805 32.5102 22.8305 32.6502 22.7805 32.7802L21.6305 35.3302L22.8505 38.4402C22.9005 38.5702 22.8405 38.7102 22.7105 38.7602C22.6805 38.7702 22.6505 38.7802 22.6205 38.7802L22.6005 38.8002ZM20.2905 33.3502L20.2405 37.1702L21.0705 35.3402L20.2905 33.3602V33.3502Z" fill="#808080"/>
<path d="M13.1412 35.3302C13.0312 35.3302 12.9312 35.2602 12.9012 35.1502L11.9812 31.8102L11.1012 33.3002C11.0312 33.4202 10.8812 33.4602 10.7612 33.3902C10.6412 33.3202 10.6012 33.1702 10.6712 33.0502L11.8012 31.1402L10.7812 27.4102C10.7412 27.2802 10.8212 27.1402 10.9512 27.1002C11.0812 27.0602 11.2212 27.1402 11.2612 27.2702L12.1612 30.5302L13.0612 29.0002C13.1212 28.9002 13.2312 28.8602 13.3412 28.8902C13.4512 28.9202 13.5212 29.0202 13.5212 29.1402L13.3912 35.0902C13.3912 35.2102 13.2912 35.3202 13.1712 35.3302C13.1612 35.3302 13.1512 35.3302 13.1412 35.3302ZM12.3312 31.2002L12.9212 33.3602L12.9912 30.0802L12.3312 31.2002Z" fill="#808080"/>
<path d="M48.4111 48.5616C37.1411 48.5616 25.2511 46.2916 21.0511 44.9216C14.9211 42.9216 13.2511 41.6316 11.7811 40.5016C11.5611 40.3316 11.3511 40.1716 11.1211 40.0116C9.65109 38.9416 8.52109 36.8716 8.49109 35.1816L8.37109 19.6016C8.37109 19.3916 8.46109 19.1916 8.61109 19.0516C8.63109 19.0316 8.65109 19.0216 8.67109 19.0016C9.14109 17.5216 10.9311 16.1816 14.1311 14.9016C17.9211 13.3816 23.0611 12.7716 30.3011 12.9816C36.9411 13.1716 53.8611 14.7216 58.1711 15.8616C63.5311 17.2716 69.1111 19.2916 69.8411 23.5016C69.8611 23.6316 69.8811 23.7516 69.8911 23.8816C70.0011 24.0116 70.0611 24.1816 70.0611 24.3616C70.0611 24.3616 70.0411 34.9116 70.0611 38.7516C70.0711 41.1016 69.3311 41.9416 68.6011 42.7616L68.3611 43.0316C66.7611 44.9116 61.3611 47.9116 53.0511 48.4416C51.5311 48.5416 49.9711 48.5816 48.4011 48.5816L48.4111 48.5616ZM9.87109 20.0916L9.98109 35.1516C10.0011 36.3616 10.9011 37.9916 11.9911 38.7816C12.2311 38.9516 12.4511 39.1216 12.6811 39.3016C14.0611 40.3616 15.6211 41.5716 21.5011 43.4916C26.2011 45.0216 40.7011 47.7016 52.9511 46.9216C61.6811 46.3716 66.2911 43.1316 67.2211 42.0416L67.4711 41.7516C68.1011 41.0316 68.5611 40.5116 68.5511 38.7416C68.5311 35.3816 68.5411 26.8916 68.5511 24.8116C68.4311 24.6716 68.3711 24.4816 68.3811 24.2816C68.3911 24.1016 68.3811 23.9216 68.3511 23.7416C67.9011 21.0916 64.6411 19.1116 57.7811 17.3016C53.5511 16.1816 36.8311 14.6616 30.2511 14.4716C23.2211 14.2716 18.2711 14.8516 14.6811 16.2816C10.7811 17.8416 10.1011 19.0816 10.0511 19.6816C10.0311 19.8416 9.97109 19.9816 9.87109 20.0916Z" fill="#808080"/>
<path d="M26.4881 22.01C27.1081 23.21 28.1381 24.31 29.2781 24.91C29.0381 25.1 28.7081 25.5 28.5381 25.77C28.0781 25.48 27.6381 25.12 27.2381 24.7V25.61H25.9081V26.96H24.9081V25.61H23.5281V24.77C23.1481 25.17 22.7181 25.51 22.2781 25.79C22.1081 25.55 21.8081 25.18 21.5781 25C22.7081 24.38 23.7081 23.23 24.3281 22H21.8881V21.04H24.8981V19.5H25.8981V21.04H28.9281V22H26.4781L26.4881 22.01ZM24.9081 24.65V22.91C24.5481 23.55 24.1281 24.14 23.6481 24.65H24.9081ZM27.1781 24.65C26.6981 24.14 26.2681 23.54 25.9081 22.89V24.65H27.1781Z" fill="#878787"/>
<path d="M32.1069 19.7995C31.9269 20.3095 31.7169 20.8295 31.4669 21.3395V26.9395H30.5669V22.8795C30.4069 23.0995 30.2369 23.3095 30.0769 23.4995C29.9869 23.2695 29.7269 22.7495 29.5469 22.5095C30.2169 21.7795 30.8469 20.6495 31.2069 19.5195L32.1069 19.7895V19.7995ZM35.3469 21.8195C35.7869 23.0495 36.5269 24.2995 37.2969 25.0295C37.0769 25.1995 36.7569 25.5195 36.5869 25.7695C36.3669 25.5195 36.1569 25.2395 35.9469 24.9195V25.6195H34.8769V26.9095H33.9469V25.6195H32.8969V24.8795C32.6769 25.2195 32.4369 25.5295 32.1869 25.7795C32.0269 25.5595 31.7269 25.2195 31.5069 25.0595C32.3169 24.3395 33.0569 23.0795 33.4969 21.8095H31.9169V20.9095H33.9369V19.5295H34.8669V20.9095H37.0769V21.8095H35.3469V21.8195ZM33.9469 24.7695V22.7395C33.6869 23.4795 33.3469 24.1795 32.9669 24.7695H33.9469ZM35.8569 24.7695C35.4769 24.1495 35.1469 23.4295 34.8769 22.6795V24.7695H35.8569Z" fill="#878787"/>
<path d="M19.8789 9.66266L20.4089 12.1027C21.0289 15.2327 27.2389 17.5227 46.6489 19.5927C70.7689 22.1627 81.9389 13.8927 81.3589 10.7427L81.1389 8.72266" fill="white"/>
<path d="M55.5486 20.3313C52.8086 20.3313 49.8386 20.1813 46.6286 19.8413C28.2986 17.8913 20.8786 15.7313 20.1686 12.1513L19.6386 9.7113C19.6086 9.5713 19.6986 9.4413 19.8286 9.4113C19.9586 9.3813 20.0986 9.4713 20.1286 9.6013L20.6586 12.0413C21.1186 14.3313 24.5586 16.9813 46.6786 19.3413C66.4486 21.4513 76.9686 16.3313 80.0786 12.9813C80.8386 12.1513 81.2186 11.3513 81.1186 10.7913L80.8986 8.7513C80.8886 8.6113 80.9786 8.4913 81.1186 8.4713C81.2586 8.4513 81.3786 8.5513 81.3986 8.6913L81.6186 10.7113C81.7486 11.4213 81.3386 12.3613 80.4586 13.3113C77.7986 16.1813 69.8486 20.3213 55.5586 20.3213L55.5486 20.3313Z" fill="#808080"/>
<path d="M22.8072 4.83926C18.7272 8.31926 15.2272 15.5893 46.3172 18.0593C69.6472 19.9093 82.0472 12.7193 80.8472 8.55926C79.7572 4.74926 74.9572 2.79926 58.7072 1.38926C45.2172 0.219257 29.3572 -0.750743 22.8072 4.83926Z" fill="white"/>
<path d="M53.6577 18.85C51.3177 18.85 48.8577 18.76 46.2777 18.55C30.0977 17.27 21.2077 14.51 19.8577 10.35C19.0877 7.97998 20.8577 5.83998 22.4777 4.45998C29.0677 -1.16002 44.6577 -0.330021 58.7477 0.889979C74.5977 2.25998 80.0877 4.08998 81.3277 8.40998C81.6077 9.37998 81.2877 10.47 80.4077 11.54C77.3277 15.31 67.8777 18.84 53.6577 18.84V18.85ZM22.8077 4.83998L23.1277 5.21998C21.7377 6.39998 20.2077 8.19998 20.8077 10.04C21.6377 12.61 26.7477 16 46.3577 17.56C65.5477 19.08 76.7777 14.42 79.6377 10.92C80.0977 10.35 80.6077 9.50998 80.3677 8.68998C79.4277 5.40998 75.6877 3.34998 58.6577 1.87998C44.7777 0.679979 29.4277 -0.150021 23.1277 5.20998L22.8077 4.82998V4.83998Z" fill="#808080"/>
<path d="M42.04 5.59891C42.04 5.84891 42.02 6.08891 42.01 6.31891H43.51C43.71 6.31891 43.92 6.29891 44.11 6.25891L44.81 6.59891C44.79 6.72891 44.75 6.93891 44.75 7.01891C44.72 7.87891 44.62 10.1089 44.28 10.9289C44.1 11.3389 43.8 11.5489 43.25 11.5489C42.79 11.5489 42.31 11.5189 41.93 11.4889L41.8 10.4189C42.19 10.4889 42.61 10.5289 42.92 10.5289C43.18 10.5289 43.29 10.4389 43.38 10.2489C43.61 9.74891 43.72 8.14891 43.72 7.27891H41.92C41.62 9.38891 40.86 10.6489 39.43 11.6589L38.5 10.9089C38.83 10.7289 39.23 10.4489 39.55 10.1289C40.29 9.38891 40.69 8.49891 40.87 7.27891H39.81C39.54 7.27891 39.1 7.27891 38.75 7.30891V6.25891C39.09 6.28891 39.5 6.31891 39.81 6.31891H40.95C40.95 6.09891 40.97 5.85891 40.97 5.61891C40.97 5.43891 40.95 5.07891 40.91 4.87891H42.09C42.07 5.05891 42.05 5.39891 42.04 5.58891V5.59891Z" fill="#878787"/>
<path d="M47.75 5.77859L48.92 6.01859C48.85 6.24859 48.76 6.63859 48.73 6.81859C48.62 7.37859 48.33 8.47859 48.05 9.22859C47.76 10.0086 47.29 10.9186 46.87 11.5186L45.75 11.0486C46.25 10.3886 46.73 9.52859 47 8.82859C47.36 7.92859 47.66 6.80859 47.76 5.78859L47.75 5.77859ZM49.78 6.01859L50.84 5.67859C51.17 6.29859 51.72 7.52859 52.02 8.29859C52.3 9.01859 52.72 10.2986 52.95 11.0886L51.77 11.4686C51.55 10.5186 51.26 9.50859 50.94 8.64859C50.64 7.80859 50.12 6.62859 49.78 6.01859ZM52.32 6.01859L51.68 6.29859C51.51 5.96859 51.27 5.48859 51.06 5.18859L51.69 4.92859C51.89 5.22859 52.17 5.72859 52.32 6.02859V6.01859ZM53.28 5.64859L52.64 5.91859C52.48 5.58859 52.22 5.11859 52 4.81859L52.63 4.55859C52.84 4.85859 53.13 5.36859 53.28 5.64859Z" fill="#878787"/>
<path d="M55.3408 7.64766H59.6308C60.0108 7.64766 60.3608 7.61766 60.5708 7.59766V8.85766C60.3808 8.85766 59.9708 8.81766 59.6308 8.81766H55.3408C54.8808 8.81766 54.3508 8.83766 54.0508 8.85766V7.59766C54.3408 7.61766 54.9208 7.64766 55.3408 7.64766Z" fill="#878787"/>
</g>
<defs>
<clipPath id="clip0_1389_195006">
<rect width="154.23" height="65.17" fill="white"/>
</clipPath>
</defs>
</svg>
