<svg width="49" height="30" viewBox="0 0 49 30" fill="none" xmlns="http://www.w3.org/2000/svg">
<path d="M14.2783 29.6232C13.5183 29.6232 11.8383 29.0432 7.65834 27.1332L7.30834 26.9732C6.90834 26.7932 6.47834 26.6332 6.05834 26.4632C4.07834 25.7032 1.84834 24.8332 1.52834 22.1232C1.40834 21.0532 1.55834 20.0132 1.70834 18.9932C1.77834 18.4932 1.85834 17.9832 1.89834 17.4732C1.92834 17.1132 1.93834 16.7532 1.92834 16.3932C1.90834 14.7932 1.57834 13.1632 1.26834 11.5832C0.99834 10.2032 0.71834 8.7732 0.61834 7.3432C0.61834 7.3132 0.42834 4.3232 1.50834 3.9032C1.78834 3.7932 2.21834 3.7932 2.70834 4.4132C3.10834 4.9232 3.29834 5.4932 3.40834 5.8832C3.43834 6.0032 3.48834 6.1132 3.52834 6.2232C3.57834 6.3432 3.61834 6.4532 3.65834 6.5732C4.50834 9.2932 5.10834 12.0032 5.45834 14.6232L5.47834 14.7732C5.60834 15.7632 5.74834 16.7832 6.27834 17.5432C7.23834 18.9032 9.22834 19.1432 11.0183 19.2632C11.5683 19.3032 12.1383 19.4032 12.6883 19.5132C13.3583 19.6432 13.9983 19.7532 14.5783 19.7532C15.3183 19.8832 15.7483 20.2832 15.9283 20.9632C16.5883 23.3732 16.1283 27.0132 14.8983 29.2532C14.7883 29.4432 14.6483 29.5932 14.2683 29.5932L14.2783 29.6232ZM1.84834 4.9532C1.65834 5.4132 1.57834 6.6932 1.61834 7.2932C1.70834 8.6632 1.97834 10.0632 2.24834 11.4132C2.56834 13.0332 2.89834 14.7132 2.91834 16.4032C2.91834 16.7932 2.91834 17.1832 2.87834 17.5732C2.83834 18.1032 2.75834 18.6332 2.67834 19.1532C2.52834 20.1532 2.39834 21.0832 2.50834 22.0232C2.75834 24.1332 4.44834 24.7832 6.40834 25.5432C6.84834 25.7132 7.28834 25.8832 7.70834 26.0732L8.06834 26.2332C12.3683 28.2032 13.7083 28.5832 14.1283 28.6232C15.1683 26.5932 15.5483 23.3432 14.9783 21.2532C14.8883 20.9032 14.7283 20.8132 14.4983 20.7732C13.9183 20.7732 13.2083 20.6532 12.5183 20.5232C11.9683 20.4232 11.4583 20.3232 10.9683 20.2932C8.94834 20.1532 6.69834 19.8632 5.47834 18.1532C4.79834 17.1932 4.64834 16.0432 4.49834 14.9332L4.47834 14.7832C4.13834 12.2232 3.53834 9.5732 2.70834 6.8932C2.67834 6.7932 2.63834 6.7032 2.59834 6.6032C2.53834 6.4532 2.48834 6.3132 2.44834 6.1632C2.31834 5.6732 2.15834 5.3332 1.92834 5.0532C1.89834 5.0132 1.86834 4.9832 1.83834 4.9532H1.84834Z" fill="#888888"/>
<path d="M2.58742 4.82128C2.36742 4.82128 2.16743 4.68128 2.10743 4.46128C2.02743 4.19128 2.17743 3.92128 2.44743 3.84128C2.43743 3.83128 2.56742 3.74128 2.75742 3.73128C3.01742 3.72128 3.27743 3.68128 3.52743 3.65128L3.84742 3.61128C6.34742 3.34128 8.88742 2.81128 11.3474 2.29128C14.9874 1.53128 18.7474 0.75128 22.4974 0.75128H22.9074C23.3074 0.75128 23.7074 0.76128 24.1074 0.73128L24.3074 0.711279C24.8674 0.661279 25.5574 0.59128 26.1274 0.98128C26.3574 1.14128 26.4174 1.45128 26.2574 1.68128C26.0974 1.91128 25.7874 1.97128 25.5574 1.81128C25.2874 1.62128 24.8574 1.67128 24.4074 1.71128L24.1974 1.73128C23.7674 1.77128 23.3374 1.76128 22.8974 1.76128H22.5274C18.8574 1.73128 15.1474 2.53128 11.5574 3.28128C9.06742 3.80128 6.49742 4.33128 3.95742 4.61128L3.64742 4.65128C3.39742 4.68128 3.14742 4.71128 2.89742 4.73128C2.85742 4.76128 2.79742 4.79128 2.72742 4.81128C2.67742 4.82128 2.63742 4.83128 2.58742 4.83128V4.82128Z" fill="#888888"/>
<path d="M34.4691 29.7524C34.2791 29.7524 34.0891 29.7124 33.9191 29.6324C33.2991 29.3324 33.0991 28.5824 32.9891 27.9524C32.6791 26.2024 32.4591 24.4224 32.3291 22.6524C32.2591 21.6324 32.4791 20.8124 32.9991 20.2224C33.9591 19.1224 35.6991 19.0124 37.2491 18.9224C37.6391 18.9024 38.0191 18.8724 38.3791 18.8324C39.6591 18.6924 40.5891 18.3424 41.2291 17.7624C42.3091 16.7924 42.6391 15.1924 42.9591 13.6424C43.0391 13.2524 43.1191 12.8724 43.2091 12.5124C43.3491 11.9524 43.4691 11.3724 43.5991 10.8024C43.9191 9.36243 44.2491 7.87243 44.7491 6.47243C45.3691 4.75243 46.0491 3.89243 46.7791 3.90243C47.6191 3.92243 47.9591 5.04243 48.0691 5.40243C48.6491 7.32243 48.2391 9.13243 47.8391 10.8924C47.6991 11.5324 47.5491 12.1924 47.4491 12.8424C47.2291 14.2824 47.2691 15.7824 47.3091 17.2324C47.3191 17.7624 47.3391 18.2824 47.3391 18.8124C47.3391 18.9924 47.3391 19.2024 47.3491 19.4424C47.3891 21.1624 47.4491 23.7524 46.2591 24.8424C45.9891 25.0924 45.6591 25.2024 45.3891 25.2924L44.8291 25.4824C43.6991 25.8624 42.5291 26.2524 41.4291 26.7224L40.9991 26.9124C39.4891 27.5624 37.9191 28.2224 36.4591 29.0124L36.0291 29.2424C35.4391 29.5624 34.9291 29.7724 34.4791 29.7724L34.4691 29.7524ZM46.7191 4.88243C46.5891 4.94243 46.1191 5.58243 45.6891 6.79243C45.2091 8.14243 44.8791 9.60243 44.5691 11.0024C44.4391 11.5824 44.3091 12.1624 44.1691 12.7324C44.0791 13.0824 44.0091 13.4524 43.9291 13.8224C43.5991 15.4524 43.2191 17.2924 41.8891 18.4924C41.0891 19.2124 39.9691 19.6524 38.4791 19.8124C38.1091 19.8524 37.7091 19.8824 37.2991 19.9024C35.8891 19.9924 34.4291 20.0824 33.7391 20.8624C33.3991 21.2524 33.2591 21.8124 33.3091 22.5624C33.4291 24.3024 33.6491 26.0524 33.9591 27.7624C34.0991 28.5224 34.2791 28.6824 34.3491 28.7224C34.5191 28.8024 34.9191 28.6724 35.5491 28.3324L35.9791 28.1024C37.4791 27.2924 39.0591 26.6124 40.5991 25.9624L41.0291 25.7824C42.1691 25.2924 43.3591 24.8924 44.5091 24.5124L45.0691 24.3224C45.2691 24.2524 45.4691 24.1924 45.5791 24.0824C46.4391 23.3024 46.3791 20.7924 46.3391 19.4424C46.3391 19.2024 46.3291 18.9824 46.3291 18.8024C46.3291 18.2824 46.3091 17.7624 46.2991 17.2424C46.2591 15.7524 46.2191 14.2024 46.4491 12.6724C46.5491 11.9824 46.7091 11.3124 46.8591 10.6524C47.2491 8.95243 47.6091 7.34243 47.1091 5.67243C46.8991 4.98243 46.7191 4.87243 46.7191 4.87243V4.88243Z" fill="#888888"/>
<path d="M24.3467 12.8714C24.1267 12.8714 23.9367 12.7314 23.8667 12.5114C23.5567 11.4814 23.6667 10.5014 23.7767 9.56136C23.8567 8.81136 23.9367 8.10136 23.8067 7.40136C23.4867 5.68136 23.8267 4.10136 24.1667 2.75136C24.4267 1.74136 24.7967 1.14136 26.0167 0.891361C26.7667 0.741361 27.4767 0.771361 28.1767 0.971361C28.7667 1.14136 29.4067 1.30136 30.1867 1.46136L30.7567 1.58136C31.2967 1.70136 31.8267 1.81136 32.3767 1.90136C32.5967 1.92136 32.7767 1.94136 32.9667 2.04136C33.2067 2.17136 33.2967 2.47136 33.1667 2.72136C33.0367 2.96136 32.7367 3.05136 32.4967 2.93136C32.4767 2.93136 32.4267 2.92136 32.3867 2.92136C32.3267 2.92136 32.2767 2.91136 32.2167 2.90136C31.6567 2.81136 31.1067 2.69136 30.5467 2.57136L29.9867 2.45136C29.1867 2.28136 28.5267 2.12136 27.9067 1.94136C27.3667 1.78136 26.8067 1.76136 26.2167 1.88136C25.5067 2.02136 25.3367 2.20136 25.1367 3.00136C24.7367 4.59136 24.5367 5.86136 24.7967 7.23136C24.9567 8.07136 24.8667 8.89136 24.7767 9.68136C24.6767 10.5714 24.5867 11.4014 24.8367 12.2414C24.9167 12.5014 24.7667 12.7814 24.4967 12.8614C24.4467 12.8714 24.3967 12.8814 24.3567 12.8814L24.3467 12.8714Z" fill="#888888"/>
<path d="M33.7684 29.9122C33.7184 29.9122 33.6484 29.9122 33.5684 29.8822L33.2284 29.7722C32.8684 29.6622 32.5084 29.5422 32.1484 29.4222C31.2784 29.1122 30.4184 28.7722 29.5884 28.4222C28.5884 28.0022 27.5584 27.5122 26.4284 26.9322C26.0284 26.7322 25.6384 26.5122 25.2484 26.3022C24.7884 26.0522 24.3284 25.7922 23.8584 25.5622C23.6284 25.4522 23.4784 25.2422 23.4584 25.0022C23.4484 24.8922 23.3984 24.7622 23.3384 24.6222C23.2984 24.5222 23.2684 24.4322 23.2384 24.3322C23.0884 23.8522 22.9884 23.3322 22.9184 22.7222C22.8284 21.9122 22.8584 21.1822 22.9984 20.4722C23.1084 19.9322 23.2084 19.3922 23.2984 18.8422C23.3284 18.6922 23.3184 18.5322 23.3184 18.3822C23.3184 18.2122 23.3184 18.0522 23.3384 17.8822C23.3784 17.5422 23.4484 17.1622 23.7584 16.8322C23.9484 16.6322 24.2684 16.6222 24.4684 16.8122C24.6684 17.0022 24.6784 17.3222 24.4884 17.5222C24.4084 17.6122 24.3684 17.7322 24.3384 17.9922C24.3284 18.1222 24.3284 18.2522 24.3284 18.3822C24.3284 18.5922 24.3284 18.8122 24.2884 19.0222C24.1984 19.5722 24.0984 20.1322 23.9884 20.6822C23.8684 21.2822 23.8484 21.9222 23.9184 22.6222C23.9784 23.1722 24.0684 23.6322 24.1984 24.0522C24.2184 24.1222 24.2484 24.2022 24.2784 24.2722C24.3284 24.4122 24.3884 24.5622 24.4284 24.7422C24.8684 24.9622 25.2984 25.2022 25.7384 25.4422C26.1184 25.6522 26.4984 25.8622 26.8884 26.0622C27.9984 26.6322 29.0084 27.1022 29.9884 27.5222C30.7984 27.8622 31.6384 28.1922 32.4884 28.5022C32.8284 28.6222 33.1784 28.7322 33.5284 28.8422L33.8384 28.9422C34.0884 28.9822 34.3084 29.1822 34.3084 29.4322C34.3084 29.7122 34.1284 29.9322 33.8584 29.9322C33.8384 29.9322 33.8084 29.9322 33.7684 29.9322V29.9122Z" fill="#888888"/>
<path d="M15.1592 29.9313C15.0292 29.9313 14.8992 29.8913 14.7892 29.8213C14.5592 29.6713 14.4892 29.3613 14.6492 29.1313C14.7692 28.9513 14.9792 28.8713 15.1792 28.9213L15.3992 28.8613C15.5892 28.8113 15.7692 28.7613 15.9592 28.7213L16.0992 28.6913C16.2692 28.6613 16.4492 28.6313 16.6092 28.5713C16.8992 28.4613 17.1992 28.3613 17.4892 28.2713C17.7992 28.1713 18.1092 28.0713 18.4192 27.9513C19.0992 27.6813 19.7592 27.3913 20.3692 27.0713C21.0592 26.7113 21.7092 26.3113 22.2992 25.8913C22.7792 25.5413 23.2592 25.1613 23.7292 24.7513C23.9392 24.5713 24.2492 24.5913 24.4392 24.8013C24.6292 25.0113 24.5992 25.3213 24.3892 25.5113C23.8992 25.9413 23.3892 26.3413 22.8892 26.7113C22.2592 27.1613 21.5692 27.5913 20.8292 27.9713C20.1892 28.3013 19.4992 28.6113 18.7792 28.8913C18.4592 29.0213 18.1192 29.1213 17.7892 29.2313C17.5092 29.3213 17.2292 29.4113 16.9492 29.5213C16.7392 29.6013 16.5092 29.6413 16.2692 29.6913L16.1392 29.7113C15.9692 29.7413 15.8092 29.7913 15.6492 29.8313L15.3192 29.9113C15.2592 29.9213 15.1992 29.9313 15.1492 29.9313H15.1592Z" fill="#888888"/>
<path d="M32.5199 14.932C32.3499 14.932 32.2199 14.872 32.1499 14.832C31.6299 14.802 31.0999 14.652 30.5699 14.502L30.2999 14.432C29.8299 14.302 29.3599 14.162 28.8899 14.012L27.9599 13.732C27.7399 13.672 27.5199 13.612 27.3099 13.542C25.9699 13.132 24.5099 12.792 22.8499 13.132C22.3799 13.232 21.8899 13.372 21.3999 13.562C20.6499 13.852 19.8399 14.152 19.0199 14.392C18.5099 14.542 18.0299 14.622 17.5499 14.652C17.2799 14.672 17.0399 14.452 17.0199 14.182C17.0099 13.902 17.2199 13.672 17.4899 13.652C17.8899 13.632 18.2999 13.562 18.7399 13.432C19.5199 13.212 20.2699 12.922 21.0299 12.632C21.5799 12.422 22.1199 12.262 22.6399 12.152C24.5199 11.772 26.1999 12.152 27.5899 12.592C27.7999 12.652 28.0099 12.722 28.2199 12.782L29.1699 13.062C29.6299 13.202 30.0899 13.342 30.5599 13.472L30.8399 13.552C31.3299 13.692 31.7999 13.822 32.2799 13.852C32.4099 13.852 32.5099 13.902 32.5799 13.942C32.7999 13.952 32.9999 14.112 33.0399 14.342C33.0899 14.612 32.9199 14.872 32.6499 14.932C32.5999 14.932 32.5599 14.942 32.5199 14.942V14.932Z" fill="#888888"/>
<path d="M28.0864 19.8924C27.9464 19.8924 27.8064 19.8324 27.7064 19.7124C27.5564 19.5324 27.5564 19.2924 27.6764 19.1124C27.7464 18.7224 27.8864 18.3624 28.1064 18.0424C28.3364 17.6924 28.6364 17.4524 28.9064 17.2424L28.9964 17.1724C29.8564 16.4724 30.7964 15.9924 31.7764 15.7424C32.1464 15.6524 32.5164 15.6124 32.8664 15.5724C33.0164 15.5524 33.1664 15.5424 33.3164 15.5224C33.9664 15.4324 34.6464 15.3724 35.4064 15.3324C35.6864 15.3224 35.9164 15.5324 35.9364 15.8024C35.9464 16.0824 35.7364 16.3124 35.4664 16.3324C34.7264 16.3724 34.0764 16.4324 33.4564 16.5124C33.2964 16.5324 33.1364 16.5524 32.9764 16.5624C32.6364 16.6024 32.3264 16.6324 32.0264 16.7024C31.1764 16.9124 30.3764 17.3324 29.6264 17.9324L29.5364 18.0024C29.3064 18.1824 29.0864 18.3624 28.9564 18.5724C28.8064 18.8124 28.7064 19.0624 28.6664 19.3424C28.6464 19.5024 28.5564 19.6524 28.4264 19.7624C28.3364 19.8424 28.2164 19.8824 28.1064 19.8824L28.0864 19.8924Z" fill="#888888"/>
<path d="M37.3299 16.272C37.3299 16.272 37.2699 16.272 37.2399 16.272C37.0299 16.232 36.8499 16.162 36.6699 16.092C36.5899 16.062 36.5199 16.032 36.4399 16.012C36.0399 15.882 35.6399 15.762 35.2399 15.702C34.7099 15.622 34.2699 15.512 33.8799 15.382C33.4499 15.232 33.0999 15.112 32.7499 15.092C32.4699 15.082 32.2599 14.842 32.2699 14.572C32.2799 14.292 32.5199 14.082 32.7899 14.092C33.2899 14.112 33.7199 14.272 34.1399 14.412C34.5399 14.552 34.9199 14.642 35.3899 14.712C35.8499 14.782 36.2799 14.912 36.7099 15.052C36.7099 15.012 36.6999 14.982 36.6899 14.942C36.6599 14.762 36.6199 14.562 36.6299 14.332C36.6499 13.722 36.8599 13.202 37.0599 12.702L37.1799 12.392C37.3599 11.912 37.4999 11.512 37.5099 11.102C37.5099 10.932 37.5099 10.762 37.5099 10.592C37.4999 10.022 37.4899 9.42197 37.6199 8.82197C37.7299 8.32197 37.8199 7.87197 38.1199 7.48197C38.2299 7.33197 38.4199 7.26198 38.6099 7.29198C38.9099 7.35198 39.1999 7.44197 39.5599 7.58197C39.8899 7.71197 40.2399 7.81197 40.6099 7.91197C40.7699 7.95197 40.9299 8.00198 41.0999 8.04198C41.2699 8.09198 41.4499 8.12197 41.6199 8.15197C41.7899 8.18197 41.9699 8.21197 42.1399 8.25197C42.4199 8.32197 42.7199 8.35197 43.0399 8.39197C43.2799 8.41197 43.5099 8.44197 43.7499 8.48197C44.0199 8.53197 44.1999 8.79197 44.1599 9.06197C44.1199 9.33197 43.8499 9.51197 43.5799 9.47197C43.3699 9.43197 43.1599 9.41197 42.9399 9.39197C42.5999 9.36197 42.2499 9.32197 41.8999 9.23197C41.7599 9.19197 41.6099 9.17197 41.4599 9.14197C41.2499 9.10197 41.0299 9.07197 40.8299 9.00197C40.6799 8.96197 40.5199 8.91198 40.3699 8.87198C39.9899 8.77198 39.5999 8.66197 39.2099 8.51197C39.0599 8.45197 38.9199 8.40198 38.7899 8.36198C38.7199 8.53198 38.6799 8.73197 38.6399 8.94197L38.6199 9.04198C38.5099 9.53198 38.5199 10.042 38.5299 10.582C38.5299 10.762 38.5299 10.942 38.5299 11.122C38.5299 11.702 38.3499 12.212 38.1399 12.772L38.0099 13.092C37.8299 13.532 37.6599 13.942 37.6499 14.372C37.6499 14.482 37.6699 14.622 37.6999 14.762C37.7199 14.892 37.7499 15.022 37.7599 15.152C37.7699 15.272 37.7899 15.392 37.8099 15.522L37.8399 15.722C37.8599 15.882 37.8099 16.042 37.6899 16.152C37.5999 16.242 37.4699 16.292 37.3399 16.292L37.3299 16.272Z" fill="#888888"/>
<path d="M46.3691 4.78284C46.3691 4.78284 46.3491 4.78284 46.3291 4.78284C43.1091 4.55284 39.7891 4.31284 36.5691 3.57284L36.4191 3.54284C35.1891 3.26284 34.0191 2.99284 32.8091 3.03284C32.5391 3.03284 32.2991 2.82284 32.2891 2.55284C32.2891 2.27284 32.4991 2.04284 32.7691 2.03284C34.1191 1.98284 35.3991 2.28284 36.6391 2.56284L36.7891 2.59284C39.9291 3.31284 43.2191 3.55284 46.3991 3.78284C46.6791 3.80284 46.8791 4.04284 46.8591 4.31284C46.8391 4.57284 46.6191 4.77284 46.3591 4.77284L46.3691 4.78284Z" fill="#888888"/>
<path d="M20.6401 19.3921C20.4401 19.3921 20.2401 19.2621 20.1701 19.0621C20.0401 18.7021 19.9301 18.4421 19.7101 18.2721L19.5601 18.1521C19.1801 17.8621 18.8201 17.5821 18.4301 17.3521C17.9701 17.0821 17.4501 16.8621 16.8101 16.6821C16.6801 16.6421 16.5401 16.6321 16.4101 16.6221C16.2701 16.6121 16.1301 16.6021 16.0001 16.5721C15.7701 16.5321 15.5401 16.5021 15.3101 16.4821L14.9401 16.4421C14.5901 16.4021 14.2401 16.3721 13.8901 16.3421L13.4301 16.3021C13.1501 16.2821 12.9501 16.0321 12.9701 15.7621C12.9901 15.4921 13.2401 15.2821 13.5101 15.3021L13.9601 15.3321C14.3301 15.3621 14.7001 15.3921 15.0601 15.4321L15.4101 15.4721C15.6601 15.5021 15.9201 15.5321 16.1701 15.5721C16.2701 15.5921 16.3801 15.6021 16.4801 15.6121C16.6801 15.6321 16.8801 15.6521 17.0701 15.7021C17.7801 15.9021 18.3901 16.1621 18.9201 16.4721C19.3701 16.7421 19.7701 17.0421 20.1501 17.3421L20.3001 17.4621C20.7701 17.8221 20.9501 18.3321 21.0901 18.7021C21.1801 18.9621 21.0501 19.2521 20.7901 19.3421C20.7301 19.3621 20.6801 19.3721 20.6201 19.3721L20.6401 19.3921Z" fill="#888888"/>
<path d="M31.2575 6.79096C31.2575 6.79096 31.1875 6.79096 31.1575 6.79096C30.6375 6.69096 30.0375 6.51096 29.3875 6.32096C27.9175 5.89096 26.0875 5.37096 24.9975 5.65096C24.7275 5.72096 24.4575 5.56096 24.3875 5.29096C24.3175 5.02096 24.4775 4.75096 24.7475 4.68096C26.1075 4.33096 27.9975 4.88096 29.6675 5.36096C30.2875 5.54096 30.8775 5.71096 31.3575 5.81096C31.6275 5.86096 31.8075 6.13096 31.7475 6.40096C31.6975 6.64096 31.4875 6.80096 31.2575 6.80096V6.79096Z" fill="#888888"/>
<path d="M37.4369 12.4228H37.4169C35.1869 12.3128 33.1169 11.7228 31.4369 10.7128C31.1969 10.5728 31.1269 10.2628 31.2669 10.0228C31.4069 9.78281 31.7169 9.71281 31.9569 9.85281C33.4969 10.7828 35.3969 11.3228 37.4669 11.4228C37.7469 11.4328 37.9569 11.6728 37.9469 11.9428C37.9369 12.2128 37.7169 12.4228 37.4469 12.4228H37.4369Z" fill="#888888"/>
<path d="M43.198 13.9908C43.198 13.9908 43.168 13.9908 43.148 13.9908C42.008 13.8908 40.868 13.6608 39.738 13.3108C39.198 13.1408 38.688 12.9408 38.088 12.6808L37.928 12.6108C37.648 12.5908 37.458 12.3508 37.478 12.0708C37.498 11.7908 37.748 11.5908 38.028 11.6108C38.198 11.6208 38.338 11.6908 38.438 11.7308C39.058 12.0008 39.538 12.1908 40.038 12.3408C41.098 12.6708 42.178 12.8808 43.238 12.9808C43.518 13.0108 43.718 13.2508 43.688 13.5208C43.668 13.7808 43.448 13.9708 43.188 13.9708L43.198 13.9908Z" fill="#888888"/>
<path d="M32.8967 21.3827C32.7867 21.3827 32.6767 21.3427 32.5867 21.2727C32.2967 21.0427 31.9367 20.9027 31.3867 20.8127C30.6767 20.6927 29.9167 20.5527 29.1867 20.3327C28.5967 20.1527 28.0167 19.9227 27.4667 19.7027C26.7467 19.4127 26.0767 19.0327 25.4267 18.6727L25.2567 18.5827C25.0567 18.4727 24.8667 18.3427 24.6867 18.2027C24.4167 18.1327 24.2367 17.8527 24.2967 17.5827C24.3667 17.3127 24.6167 17.1327 24.8767 17.2027C25.0167 17.2327 25.1467 17.3027 25.2667 17.3927C25.4167 17.5027 25.5667 17.6127 25.7367 17.7027L25.9067 17.7927C26.5567 18.1527 27.1667 18.5027 27.8367 18.7727C28.3567 18.9827 28.9167 19.2127 29.4667 19.3727C30.0967 19.5627 30.7567 19.6927 31.5367 19.8227C32.0167 19.9027 32.6467 20.0527 33.1867 20.4827C33.4067 20.6527 33.4367 20.9727 33.2667 21.1827C33.1667 21.3027 33.0267 21.3727 32.8767 21.3727L32.8967 21.3827Z" fill="#888888"/>
<path d="M7.84018 13.2494C7.62018 13.2494 7.41018 13.0994 7.36018 12.8694C7.29018 12.5994 7.45018 12.3294 7.72018 12.2594C8.49018 12.0594 9.28018 11.8194 10.1202 11.5494C11.9802 10.9694 13.9102 10.3594 15.7502 10.2894C16.0302 10.2794 16.2602 10.4894 16.2702 10.7694C16.2802 11.0494 16.0702 11.2794 15.7902 11.2894C14.0802 11.3594 12.2202 11.9494 10.4202 12.5094C9.57018 12.7794 8.77018 13.0294 7.97018 13.2294C7.93018 13.2394 7.89018 13.2494 7.85018 13.2494H7.84018Z" fill="#888888"/>
<path d="M11.5565 16.2126C11.4765 16.2126 11.3965 16.1926 11.3265 16.1526C11.0865 16.0226 10.9865 15.7226 11.1165 15.4726C11.3765 14.9826 11.2865 14.3526 11.1665 13.9026C11.0965 13.6326 10.9965 13.3626 10.9065 13.0926C10.7865 12.7426 10.6565 12.3726 10.5665 11.9826C10.4565 11.4826 10.4265 10.9826 10.3965 10.5026C10.3765 10.2126 10.3665 9.92261 10.3265 9.63261C10.1165 7.91261 9.08652 4.54261 8.03652 4.17261C7.77652 4.08261 7.63652 3.79261 7.72652 3.53261C7.81652 3.27261 8.10652 3.13261 8.36652 3.22261C10.4765 3.96261 11.3165 9.45261 11.3165 9.50261C11.3565 9.81261 11.3765 10.1226 11.3965 10.4326C11.4265 10.9026 11.4465 11.3426 11.5465 11.7626C11.6165 12.0926 11.7365 12.4126 11.8565 12.7526C11.9565 13.0426 12.0565 13.3326 12.1365 13.6326C12.3765 14.5426 12.3265 15.3126 11.9965 15.9326C11.9065 16.1026 11.7365 16.1926 11.5565 16.1926V16.2126Z" fill="#888888"/>
<path d="M38.4886 8.27002C38.4186 8.27002 38.3486 8.26002 38.2886 8.23002C38.1786 8.18002 38.0186 8.19002 37.8286 8.21002C37.0586 8.27002 36.4086 8.21002 35.7986 8.02002C35.5486 7.94002 35.3086 7.86002 35.0586 7.78002C34.7786 7.69002 34.4986 7.59002 34.2186 7.51002L33.9086 7.41002C33.5586 7.30002 33.2186 7.19002 32.8886 7.19002C32.7386 7.19002 32.5286 7.19002 32.3186 7.10002C32.0586 7.00002 31.9386 6.70002 32.0486 6.45002C32.1586 6.20002 32.4486 6.07002 32.6986 6.18002C32.7286 6.19002 32.8386 6.20002 32.8986 6.20002C33.3886 6.20002 33.8086 6.34002 34.2186 6.47002L34.5086 6.56002C34.7986 6.65002 35.0886 6.74002 35.3786 6.84002C35.6186 6.92002 35.8486 7.00002 36.0886 7.07002C36.5786 7.22002 37.0986 7.27002 37.6986 7.22002C38.0186 7.19002 38.3486 7.17002 38.6986 7.32002C38.9486 7.43002 39.0586 7.73002 38.9486 7.98002C38.8686 8.17002 38.6786 8.28002 38.4886 8.28002V8.27002Z" fill="#888888"/>
<path d="M7.24856 18.0807C7.16856 18.0807 7.07857 18.0607 7.00857 18.0207C6.83857 17.9207 6.74857 17.7407 6.75857 17.5607C6.75857 17.4307 6.78857 17.3007 6.85857 17.2007C6.94857 17.0807 7.10857 17.0007 7.25857 17.0007C7.87857 16.9707 8.79857 16.5307 9.60857 16.1307C10.1386 15.8707 10.6286 15.6307 11.0786 15.4807C12.6886 14.9407 14.3386 14.4707 15.9886 14.0907C16.2586 14.0307 16.5286 14.1907 16.5886 14.4607C16.6486 14.7307 16.4886 15.0007 16.2186 15.0607C14.5986 15.4407 12.9786 15.9007 11.3986 16.4307C11.0186 16.5607 10.5486 16.7907 10.0486 17.0307C9.20856 17.4407 8.33856 17.8707 7.56856 17.9807C7.47856 18.0507 7.36857 18.0907 7.25857 18.0907L7.24856 18.0807Z" fill="#888888"/>
<path d="M30.3668 10.4423C29.9468 10.4423 29.4668 10.2823 29.0368 10.1323C28.8668 10.0723 28.6268 9.99234 28.5568 9.98234C28.0968 9.94234 27.6568 9.83234 27.2368 9.73234C27.0368 9.68234 26.8368 9.63234 26.6268 9.59234C26.4468 9.59234 26.1168 9.59234 25.8868 9.28234C25.7168 9.06235 25.7668 8.75234 25.9868 8.58234C26.1768 8.44234 26.4268 8.45234 26.5968 8.59234C26.6968 8.59234 26.7568 8.59234 26.8168 8.61234C27.0268 8.65234 27.2468 8.70234 27.4568 8.75234C27.8668 8.85234 28.2468 8.94234 28.6368 8.98234C28.8268 9.00234 29.0568 9.08234 29.3468 9.17234C29.5868 9.25234 30.1368 9.43234 30.3668 9.43234C30.3668 9.34234 30.3268 9.22234 30.2868 9.09234C30.2568 9.00234 30.2268 8.90234 30.2068 8.81234C30.0068 7.91234 30.3768 7.05234 30.7068 6.30234C30.8768 5.91234 30.9168 5.45234 30.9668 4.95234C31.0668 3.90234 31.1768 2.60234 32.5168 2.15234L32.6268 2.48234L32.7368 2.56234L33.0868 2.91234C33.0268 2.98234 32.9168 3.06234 32.8268 3.09234C32.1368 3.32234 32.0468 3.98234 31.9468 5.03234C31.8968 5.58234 31.8468 6.15234 31.6368 6.63234C31.3368 7.33234 31.0468 7.99234 31.1768 8.57234C31.1968 8.64234 31.2168 8.71235 31.2368 8.79235C31.3068 9.04235 31.4068 9.34234 31.3368 9.68234C31.2868 9.94234 31.1368 10.1523 30.9168 10.2823C30.7468 10.3823 30.5568 10.4123 30.3568 10.4123L30.3668 10.4423Z" fill="#888888"/>
<path d="M18.6896 13.9501C18.5796 13.9501 18.4596 13.9101 18.3696 13.8301C18.1596 13.6501 18.1296 13.3401 18.3096 13.1301C18.6096 12.7701 18.4496 12.1301 18.3596 11.8701C18.2996 11.6901 18.2296 11.5201 18.1596 11.3401C17.9996 10.9301 17.8296 10.5101 17.7796 10.0401C17.7496 9.72006 17.7796 9.41006 17.7996 9.11006C17.8096 8.96006 17.8296 8.81006 17.8296 8.67006C17.8396 8.14006 17.7296 7.62006 17.4996 7.14006C17.4396 7.02006 17.3796 6.91006 17.3196 6.79006C17.1596 6.50006 16.9996 6.21006 16.9096 5.85006C16.8096 5.46006 16.8196 5.08006 16.8296 4.72006C16.8296 4.57006 16.8296 4.42006 16.8296 4.27006C16.7996 3.59006 16.3896 3.12006 15.6896 3.00006C15.4196 2.95006 15.2396 2.69006 15.2896 2.42006C15.3396 2.15006 15.5996 1.97006 15.8696 2.02006C17.0196 2.23006 17.7896 3.10006 17.8296 4.24006C17.8296 4.41006 17.8296 4.58006 17.8296 4.76006C17.8296 5.07006 17.8196 5.36006 17.8796 5.62006C17.9396 5.85006 18.0696 6.08006 18.1996 6.33006C18.2696 6.46006 18.3396 6.59006 18.4096 6.73006C18.7096 7.35006 18.8496 8.03006 18.8396 8.71006C18.8396 8.88006 18.8196 9.05006 18.8096 9.21006C18.7896 9.47006 18.7696 9.72006 18.7896 9.95006C18.8296 10.2901 18.9596 10.6201 19.1096 10.9801C19.1896 11.1701 19.2696 11.3701 19.3296 11.5701C19.6196 12.4601 19.5396 13.2501 19.0896 13.7801C18.9896 13.9001 18.8496 13.9601 18.7096 13.9601L18.6896 13.9501Z" fill="#888888"/>
<path d="M41.6588 17.9722C41.5988 17.9722 41.5388 17.9622 41.4788 17.9422L37.1588 16.2622C36.8988 16.1622 36.7788 15.8722 36.8788 15.6122C36.9788 15.3522 37.2688 15.2222 37.5288 15.3322L41.8488 17.0122C42.1088 17.1122 42.2288 17.4022 42.1288 17.6622C42.0488 17.8622 41.8588 17.9822 41.6588 17.9822V17.9722Z" fill="#888888"/>
<path d="M17.3769 6.33016C17.2369 6.33016 17.1068 6.28016 17.0068 6.17016C16.8168 5.97016 16.8369 5.65016 17.0369 5.46016C17.2169 5.29016 17.4268 5.29016 17.5268 5.29016C17.8868 5.17016 18.2468 5.12016 18.5968 5.07016C18.7468 5.05016 18.8869 5.03016 19.0369 5.00016L19.1469 4.98016C19.5369 4.91016 19.9469 4.83016 20.3769 4.83016C20.5469 4.83016 20.7169 4.80016 20.8769 4.78016C21.1169 4.74016 21.3669 4.70016 21.6469 4.72016C21.9269 4.73016 22.1368 4.97016 22.1168 5.25016C22.0968 5.53016 21.8669 5.74016 21.5869 5.72016C21.4069 5.72016 21.2169 5.74016 21.0169 5.77016C20.7969 5.80016 20.5669 5.86016 20.3569 5.83016C20.0169 5.79016 19.6769 5.89016 19.3069 5.96016L19.1969 5.98016C19.0369 6.01016 18.8769 6.03016 18.7169 6.05016C18.3869 6.10016 18.0669 6.14016 17.7869 6.24016C17.6969 6.27016 17.6068 6.28016 17.5468 6.28016C17.4868 6.30016 17.4269 6.32016 17.3569 6.32016L17.3769 6.33016Z" fill="#888888"/>
<path d="M38.5594 8.25299C38.4994 8.25299 38.4294 8.24299 38.3694 8.21299C38.1094 8.11299 37.9894 7.81299 38.0994 7.56299C38.2294 7.24299 38.3494 6.89299 38.4794 6.54299C38.8594 5.45299 39.2894 4.22299 40.1394 3.40299C40.3394 3.21299 40.6494 3.21299 40.8494 3.41299C41.0394 3.61299 41.0394 3.92299 40.8394 4.12299C40.1694 4.77299 39.7894 5.84299 39.4294 6.87299C39.2994 7.24299 39.1694 7.61299 39.0294 7.94299C38.9494 8.13299 38.7594 8.25299 38.5694 8.25299H38.5594Z" fill="#888888"/>
<path d="M16.6471 20.6494C16.4171 20.6494 16.2071 20.4794 16.1571 20.2394C16.1071 19.9694 16.2771 19.7094 16.5571 19.6494C16.6171 19.6394 16.6671 19.6194 16.7271 19.6094C16.8071 19.5894 16.8871 19.5694 16.9671 19.5494L17.2171 19.4994C17.5071 19.4494 17.7871 19.3994 18.0671 19.2994L18.6071 19.1194C18.9771 18.9994 19.3471 18.8894 19.7071 18.7394C20.4071 18.4594 21.0671 18.1194 21.5771 17.8494L21.8871 17.6794C22.2771 17.4594 22.6771 17.2394 23.1271 17.0894C23.5471 16.9494 23.9571 16.9494 24.3271 17.0894C24.5871 17.1894 24.7171 17.4794 24.6171 17.7394C24.5171 17.9994 24.2271 18.1294 23.9671 18.0194C23.8171 17.9594 23.6471 17.9694 23.4471 18.0294C23.0871 18.1494 22.7371 18.3394 22.3771 18.5394L22.0571 18.7194C21.5271 18.9994 20.8371 19.3594 20.0871 19.6594C19.7071 19.8094 19.3171 19.9394 18.9271 20.0594L18.3971 20.2294C18.0671 20.3394 17.7371 20.3994 17.4171 20.4594L17.1771 20.5094C17.1171 20.5194 17.0671 20.5394 17.0071 20.5494C16.9271 20.5694 16.8471 20.5894 16.7571 20.6094C16.7271 20.6094 16.6971 20.6094 16.6571 20.6094L16.6471 20.6494Z" fill="#888888"/>
<path d="M30.2381 14.2229C30.0381 14.2229 29.8581 14.1029 29.7781 13.9129C29.4681 13.1429 29.4081 12.5029 29.6081 11.7829L29.6781 11.5129C29.7381 11.3029 29.7881 11.0929 29.8581 10.8829C29.9181 10.6729 30.0081 10.4729 30.0981 10.2829C30.1581 10.1429 30.2281 10.0029 30.2781 9.85293C30.3681 9.59293 30.6481 9.45293 30.9081 9.54293C31.1681 9.63293 31.3081 9.91292 31.2181 10.1729C31.1581 10.3529 31.0781 10.5229 31.0081 10.6929C30.9381 10.8529 30.8681 11.0029 30.8181 11.1729C30.7581 11.3729 30.7081 11.5729 30.6481 11.7729L30.5781 12.0429C30.4381 12.5529 30.4781 12.9529 30.7081 13.5329C30.8081 13.7929 30.6881 14.0829 30.4381 14.1829C30.3781 14.2129 30.3081 14.2229 30.2481 14.2229H30.2381Z" fill="#888888"/>
<path d="M18.2887 10.7116C18.0687 10.7116 17.8587 10.5616 17.8087 10.3316C17.7387 10.0616 17.9087 9.79158 18.1787 9.72158C18.3387 9.68158 18.4987 9.64159 18.6687 9.61159L19.1287 9.50159C19.3987 9.43159 19.6587 9.36159 19.9287 9.29159L20.2687 9.20159C20.5987 9.11159 20.9287 9.03159 21.2587 8.94159L21.8287 8.80158C22.0987 8.73158 22.3687 8.89159 22.4387 9.16159C22.5087 9.43159 22.3487 9.70159 22.0787 9.77159L21.5087 9.92159C21.1787 10.0016 20.8587 10.0816 20.5387 10.1716L20.1987 10.2616C19.9287 10.3416 19.6487 10.4116 19.3787 10.4816C19.2187 10.5216 19.0587 10.5616 18.8987 10.5916L18.4287 10.7016C18.4287 10.7016 18.3487 10.7116 18.3087 10.7116H18.2887Z" fill="#888888"/>
<path d="M14.507 6.98256C14.257 6.98256 14.047 6.80256 14.007 6.54256C13.977 6.27256 14.167 6.02256 14.437 5.98256C14.627 5.96256 14.807 5.90256 14.987 5.85256L15.237 5.78256C15.897 5.61256 16.567 5.45256 17.237 5.33256C17.507 5.28256 17.767 5.46256 17.817 5.73256C17.867 6.00256 17.687 6.26256 17.417 6.31256C16.767 6.43256 16.127 6.59256 15.477 6.75256L15.247 6.81256C15.017 6.87256 14.787 6.93256 14.557 6.96256C14.537 6.96256 14.517 6.96256 14.497 6.96256L14.507 6.98256Z" fill="#888888"/>
<path d="M7.44787 8.40298C7.31787 8.40298 7.17787 8.35298 7.07787 8.24298C6.88787 8.04298 6.89787 7.72298 7.09787 7.53298C7.29787 7.34298 7.52787 7.35298 7.61787 7.35298C7.90787 7.35298 8.14787 7.30298 8.37787 7.21298C8.76787 7.06298 9.22787 6.91298 9.75787 6.87298C9.96787 6.69298 10.2879 6.72298 10.4779 6.92298C10.6679 7.12298 10.6579 7.45298 10.4479 7.64298C10.2179 7.85298 9.93787 7.86298 9.82787 7.87298C9.43787 7.90298 9.05787 8.02298 8.74787 8.14298C8.41787 8.27298 8.05787 8.34298 7.67787 8.35298C7.66787 8.35298 7.65787 8.35298 7.65787 8.35298C7.58787 8.38298 7.51787 8.40298 7.44787 8.40298Z" fill="#888888"/>
<path d="M23.7466 16.2216C23.5566 16.2216 23.3766 16.1116 23.2966 15.9316C23.1266 15.5716 22.8866 15.2716 22.5766 15.0516C22.2366 14.8116 21.9066 14.6816 21.5566 14.6716C21.4966 14.6716 21.4466 14.6616 21.3866 14.6516C21.1166 14.6016 20.9066 14.3516 20.9566 14.0816C20.9966 13.8116 21.2266 13.6216 21.4966 13.6616L21.4666 14.1616L21.5966 13.6716C22.1366 13.6916 22.6666 13.8816 23.1566 14.2416C23.6166 14.5716 23.9666 15.0016 24.2066 15.5116C24.3266 15.7616 24.2066 16.0616 23.9666 16.1716C23.8966 16.2016 23.8266 16.2216 23.7566 16.2216H23.7466Z" fill="#888888"/>
<path d="M20.8091 21.6199C20.5391 21.6199 20.3091 21.3999 20.3091 21.1299C20.3091 20.8899 20.2991 20.6599 20.2891 20.4199C20.2791 20.1499 20.2691 19.8799 20.2591 19.6199C20.2591 19.4199 20.2291 19.2699 20.1791 19.1399C20.0691 18.8899 20.1791 18.5899 20.4391 18.4799C20.6891 18.3699 20.9891 18.4799 21.0991 18.7399C21.2091 18.9899 21.2591 19.2699 21.2591 19.5999C21.2591 19.8599 21.2691 20.1199 21.2791 20.3699C21.2891 20.6099 21.2991 20.8599 21.2991 21.0999C21.2991 21.3799 21.0791 21.5999 20.8091 21.6099V21.6199Z" fill="#888888"/>
<path d="M38.2582 21.2107C38.0382 21.2107 37.8382 21.0607 37.7782 20.8407C37.7082 20.5707 37.8682 20.3007 38.1282 20.2307C38.2982 20.1807 38.4482 20.1907 38.5582 20.1907C38.5982 20.1907 38.6282 20.1907 38.6682 20.1907C39.0582 20.1607 39.3882 20.0907 39.6882 19.9907L39.8182 19.9507C39.8782 19.9307 39.9782 19.9007 39.9982 19.8807C40.1282 19.6407 40.4282 19.5507 40.6682 19.6807C40.9082 19.8107 40.9982 20.1207 40.8682 20.3607C40.6682 20.7307 40.3082 20.8407 40.0982 20.9007C39.6282 21.0607 39.2182 21.1407 38.7482 21.1807C38.6782 21.1807 38.6082 21.1807 38.5382 21.1807C38.4782 21.1807 38.4182 21.1807 38.3982 21.1807C38.3582 21.1907 38.3082 21.2007 38.2682 21.2007L38.2582 21.2107Z" fill="#888888"/>
<path d="M10.2684 7.80182C10.0784 7.80182 9.89836 7.71182 9.80836 7.54182C9.68836 7.29182 9.73836 7.02182 9.98836 6.89182C10.0484 6.86182 10.1384 6.80182 10.2784 6.78182C10.5884 6.74182 10.8884 6.67182 11.1884 6.60182C11.5384 6.52182 11.8884 6.44182 12.2484 6.39182C12.5184 6.35182 12.7684 6.55182 12.8084 6.82182C12.8384 7.09182 12.6484 7.34182 12.3784 7.38182C12.0584 7.42182 11.7384 7.50182 11.4184 7.57182C11.0984 7.64182 10.7784 7.72182 10.4584 7.76182C10.3984 7.78182 10.3384 7.79182 10.2784 7.79182L10.2684 7.80182Z" fill="#888888"/>
<path d="M25.607 15.3613C25.477 15.3613 25.347 15.3113 25.247 15.2113C25.057 15.0113 25.067 14.6913 25.257 14.5013C25.637 14.1413 26.087 13.9113 26.397 13.7713C26.637 13.6613 26.997 13.5213 27.397 13.5013C27.677 13.4813 27.907 13.7013 27.917 13.9713C27.927 14.2413 27.717 14.4813 27.447 14.4913C27.267 14.4913 27.077 14.5613 26.817 14.6713C26.427 14.8513 26.167 15.0113 25.957 15.2113C25.857 15.3013 25.737 15.3513 25.607 15.3513V15.3613Z" fill="#888888"/>
<path d="M17.0567 10.9925C16.8267 10.9925 16.6167 10.8325 16.5667 10.6025C16.5067 10.3325 16.6767 10.0625 16.9467 10.0025L18.1367 9.74251C18.4067 9.68251 18.6767 9.85251 18.7367 10.1225C18.7967 10.3925 18.6267 10.6625 18.3567 10.7225L17.1667 10.9825C17.1667 10.9825 17.0967 10.9925 17.0567 10.9925Z" fill="#888888"/>
<path d="M38.0178 20.9705C37.7578 20.9705 37.5478 20.7705 37.5178 20.5105C37.3878 20.3505 37.2478 20.1805 37.2178 19.9205C37.1878 19.6505 37.3878 19.4005 37.6578 19.3705C37.9178 19.3405 38.1578 19.5205 38.1978 19.7705C38.2978 19.9005 38.3778 19.9905 38.4278 20.1105C38.4878 20.2405 38.4978 20.3405 38.5078 20.4205C38.5278 20.7005 38.3278 20.9405 38.0578 20.9605C38.0478 20.9605 38.0278 20.9605 38.0178 20.9605V20.9705Z" fill="#888888"/>
<path d="M40.4968 20.6223C40.3568 20.6223 40.2168 20.5623 40.1168 20.4523C40.0668 20.3923 40.0068 20.3523 39.9568 20.3023C39.8268 20.1923 39.6568 20.0423 39.5468 19.8323C39.4068 19.5923 39.4968 19.2823 39.7368 19.1523C39.9768 19.0123 40.2868 19.1023 40.4168 19.3423C40.4568 19.4023 40.5268 19.4723 40.6168 19.5523C40.7068 19.6323 40.7968 19.7123 40.8768 19.8023C41.0568 20.0123 41.0368 20.3223 40.8268 20.5123C40.7368 20.5923 40.6168 20.6323 40.4968 20.6323V20.6223Z" fill="#888888"/>
<path d="M31.5885 6.78222C31.4385 6.78222 31.2785 6.74222 31.1385 6.66222C30.8985 6.53222 30.8085 6.23222 30.9385 5.98222C31.0685 5.74222 31.3685 5.65222 31.6185 5.78222L31.3785 6.22221L31.6185 5.78222C31.8885 5.71222 32.1385 5.87221 32.2085 6.14221C32.2785 6.41221 32.0985 6.68222 31.8285 6.75222C31.7485 6.77222 31.6685 6.78222 31.5885 6.78222Z" fill="#888888"/>
</svg>
