<svg xmlns:xlink="http://www.w3.org/1999/xlink" width="98" height="65" viewBox="0 0 98 65" fill="none" xmlns="http://www.w3.org/2000/svg">
<rect y="0.5" width="98" height="64" rx="12" fill="white"/>
<path d="M33.814 43.9522C35.079 43.9522 36.1046 42.9267 36.1046 41.6617C36.1046 40.3966 35.079 39.3711 33.814 39.3711C32.549 39.3711 31.5234 40.3966 31.5234 41.6617C31.5234 42.9267 32.549 43.9522 33.814 43.9522Z" stroke="#888888" stroke-width="1.5" stroke-linecap="round" stroke-linejoin="round"/>
<path d="M27.8243 39.5039H25.338C24.8622 39.5039 24.4766 39.8896 24.4766 40.3653V42.8516C24.4766 43.3274 24.8622 43.7131 25.338 43.7131H27.8243C28.3 43.7131 28.6857 43.3274 28.6857 42.8516V40.3653C28.6857 39.8896 28.3 39.5039 27.8243 39.5039Z" stroke="#888888" stroke-width="1.5" stroke-linecap="round" stroke-linejoin="round"/>
<path d="M42.9975 40.7729L41.8596 39.635C41.3978 39.1732 40.6491 39.1732 40.1873 39.635L39.0494 40.7729C38.5876 41.2347 38.5876 41.9834 39.0494 42.4452L40.1873 43.5831C40.6491 44.0449 41.3978 44.0449 41.8596 43.5831L42.9975 42.4452C43.4593 41.9834 43.4593 41.2347 42.9975 40.7729Z" stroke="#888888" stroke-width="1.5" stroke-linecap="round" stroke-linejoin="round"/>
<path d="M50.571 49.7656L17.309 49.9301C16.4319 49.934 14.02 45.302 14.0004 41.1398C13.9808 36.9777 14.6543 27.4709 23.2527 30.8656C26.1775 32.0207 29.5018 33.4302 33.4212 33.4107C37.6577 33.3911 41.3031 31.6565 44.5333 30.4036C52.2155 27.4239 53.6094 35.6934 53.6368 40.9441C53.6642 46.1947 51.452 49.7617 50.5749 49.7656H50.571Z" stroke="#888888" stroke-width="1.5" stroke-linecap="round" stroke-linejoin="round"/>
<path d="M54.0469 12.5L52.4611 13.9409C49.3131 16.8031 45.2879 18.3536 41.114 18.3145C39.7201 18.3027 38.334 18.4672 36.9793 18.8039L32.5548 19.912C30.5853 20.4054 28.7176 21.2629 27.034 22.4414L23.1459 25.3819C22.1631 26.2042 19.8412 27.9897 20.8436 29.5089C21.8459 31.0281 23.4121 30.4407 24.669 29.8456C24.669 29.8456 30.0802 26.6427 31.2744 26.122C32.4647 25.6012 34.258 25.4563 34.258 25.4563" stroke="#888888" stroke-width="1.5" stroke-linecap="round" stroke-linejoin="round"/>
<path d="M40.0015 25.453H33.6232C32.2253 25.453 31.0938 26.5845 31.0938 27.9824C31.0938 29.3802 32.2253 30.5118 33.6232 30.5118H40.624C42.339 30.5118 44.0266 30.0497 45.4988 29.1727L48.8309 27.1914L60.9846 22.2109" stroke="#888888" stroke-width="1.5" stroke-linecap="round" stroke-linejoin="round"/>
<g clip-path="url(#clip0_2745_75825)">
<g clip-path="url(#clip1_2745_75825)">
<path d="M66.7073 30.3133C66.5557 30.2698 66.3337 30.248 66.0359 30.248H65.4023V33.8154H66.0088V32.4015H66.2092C66.5774 32.4015 66.8752 32.3036 67.0972 32.1133C67.3192 31.9175 67.4329 31.6565 67.4329 31.3248C67.4329 31.0148 67.33 30.7592 67.1243 30.558C67.0051 30.4384 66.8644 30.3622 66.7127 30.3187L66.7073 30.3133ZM66.1658 31.8305H66.0088V30.8136H66.1388C66.6099 30.8136 66.8427 30.9767 66.8427 31.3139C66.8427 31.6511 66.6207 31.8305 66.1604 31.8305H66.1658Z" fill="#BA943A"/>
<path d="M73.2658 36.9591H71.8526V35.5996H71.2461V39.167H71.8526V37.5356H73.2658V39.167H73.8723V35.5996H73.2658V36.9591Z" fill="#BA943A"/>
<path d="M70.0649 31.9774C70.2111 31.7925 70.2869 31.5695 70.2869 31.3139C70.2869 30.9876 70.1678 30.7212 69.9349 30.52C69.7237 30.3405 69.3826 30.248 68.9169 30.248H68.2617V33.8154H68.8682V32.3906H68.9007L69.8808 33.7991L69.8916 33.8154H70.6334L69.5505 32.3145C69.7616 32.2547 69.9349 32.1405 70.0703 31.9719L70.0649 31.9774ZM68.9927 31.8523H68.8682V30.8299H69.0144C69.4747 30.8299 69.6967 30.9931 69.6967 31.3248C69.6967 31.6837 69.4692 31.8577 68.9927 31.8577V31.8523Z" fill="#BA943A"/>
<path d="M69.44 35.5293C68.8606 35.5293 68.3786 35.7468 68.0158 36.1819C67.718 36.5353 67.5664 36.9432 67.5664 37.3946C67.5664 37.9003 67.7451 38.3353 68.1025 38.6943C68.4599 39.0477 68.8985 39.2272 69.402 39.2272C69.7378 39.2272 70.0627 39.1402 70.3659 38.9662L70.3876 38.9553V38.2103L70.3226 38.2646C70.2359 38.3353 70.1601 38.3952 70.0843 38.4495C70.0085 38.4985 69.9381 38.5365 69.8677 38.5692C69.7432 38.629 69.5916 38.6562 69.4129 38.6562C69.0717 38.6562 68.7739 38.5311 68.5411 38.2918C68.3028 38.0471 68.1837 37.748 68.1837 37.3946C68.1837 37.0411 68.3028 36.7311 68.5411 36.4864C68.7739 36.2362 69.0717 36.1112 69.4129 36.1112C69.7269 36.1112 70.0302 36.2362 70.328 36.481L70.393 36.5353V35.8012L70.3713 35.7903C70.0735 35.6163 69.7648 35.5293 69.4454 35.5293H69.44Z" fill="#BA943A"/>
<path d="M73.395 30.8249V30.2539H71.4023V33.8158H73.395V33.2394H72.0034V32.1572H73.3571V31.5808H72.0034V30.8249H73.395Z" fill="#BA943A"/>
<path d="M75.2184 31.8095L76.1281 33.8759H76.2743L77.211 31.8149L77.5305 33.8161H78.1478L77.5197 30.2324H77.3085L76.2093 32.6415L75.1534 30.2324H74.9368L74.2383 33.8161H74.8664L75.2184 31.8095Z" fill="#BA943A"/>
<path d="M82.9351 32.3906C82.9351 32.6843 82.8863 32.8964 82.7943 33.0215C82.6535 33.2118 82.464 33.3042 82.2095 33.3042C81.955 33.3042 81.7654 33.2118 81.6301 33.0215C81.538 32.8909 81.4893 32.6789 81.4893 32.3906V30.248H80.8828V32.532C80.8828 32.9073 81.0019 33.2227 81.2348 33.4674C81.4893 33.7284 81.8033 33.8644 82.1661 33.8752H82.2419C82.6102 33.8644 82.9242 33.7338 83.1787 33.4674C83.4116 33.2227 83.5307 32.9073 83.5307 32.532V30.248H82.9242V32.3906H82.9351Z" fill="#BA943A"/>
<path d="M84.0508 39.167H86.0489V38.5905H84.6572V37.5084H86.011V36.9319H84.6572V36.176H86.0489V35.5996H84.0508V39.167Z" fill="#BA943A"/>
<path d="M87.5077 30.2324L86.4085 32.6415L85.3472 30.2324H85.136L84.4375 33.8161H85.0602L85.4176 31.8095L86.3273 33.8759H86.4735L87.4103 31.8149L87.7243 33.8161H88.347L87.7189 30.2324H87.5077Z" fill="#BA943A"/>
<path d="M76.497 35.5352C75.988 35.5352 75.544 35.7146 75.1812 36.0735C74.8184 36.4324 74.6289 36.8675 74.6289 37.3678C74.6289 37.9333 74.8293 38.401 75.23 38.7545C75.5928 39.0699 76.0097 39.233 76.4645 39.233C76.979 39.233 77.423 39.0536 77.7912 38.6947C78.154 38.3412 78.3381 37.9007 78.3381 37.3895C78.3381 36.8784 78.154 36.4433 77.7912 36.079C77.4338 35.7201 76.9952 35.5352 76.4916 35.5352H76.497ZM77.3688 38.2868C77.1252 38.5315 76.8273 38.6566 76.4754 38.6566C76.1505 38.6566 75.8635 38.537 75.6144 38.2977C75.3653 38.0584 75.2408 37.7484 75.2408 37.3787C75.2408 37.0089 75.3599 36.7207 75.6036 36.4814C75.8418 36.2367 76.1397 36.117 76.4916 36.117C76.8436 36.117 77.136 36.2421 77.3742 36.4814C77.6125 36.7261 77.7316 37.0306 77.7316 37.3895C77.7316 37.7484 77.6071 38.0475 77.3688 38.2977V38.2868Z" fill="#BA943A"/>
<path d="M79.708 35.5996H79.1016V39.167H79.708V35.5996Z" fill="#BA943A"/>
<path d="M79.7666 30.2539H79.1602V33.8213H79.7666V30.2539Z" fill="#BA943A"/>
<path d="M82.3462 35.5293C81.7668 35.5293 81.2849 35.7468 80.9221 36.1819C80.6243 36.5353 80.4727 36.9432 80.4727 37.3946C80.4727 37.9003 80.6513 38.3353 81.0087 38.6943C81.3661 39.0477 81.8047 39.2272 82.3083 39.2272C82.644 39.2272 82.9689 39.1402 83.2721 38.9662L83.2938 38.9553V38.2103L83.2288 38.2646C83.1422 38.3353 83.0664 38.3952 82.9906 38.4495C82.9148 38.4985 82.8444 38.5365 82.774 38.5692C82.6494 38.629 82.4978 38.6562 82.3191 38.6562C81.978 38.6562 81.6802 38.5311 81.4473 38.2918C81.2091 38.0471 81.09 37.748 81.09 37.3946C81.09 37.0411 81.2091 36.7311 81.4473 36.4864C81.6802 36.2362 81.978 36.1112 82.3191 36.1112C82.6332 36.1112 82.9364 36.2362 83.2342 36.481L83.2992 36.5353V35.8012L83.2776 35.7903C82.9797 35.6163 82.6711 35.5293 82.3516 35.5293H82.3462Z" fill="#BA943A"/>
<path d="M79.4403 28.5143L80.1442 26.0291C80.2146 25.7844 79.9438 25.5832 79.7327 25.7246L78.5143 26.5294C78.3789 26.6219 78.1894 26.5675 78.119 26.4207L77.2472 24.6587C77.1444 24.4575 76.8574 24.4575 76.7599 24.6587L75.8881 26.4207C75.8123 26.5675 75.6282 26.6164 75.4928 26.5294L74.2745 25.7191C74.0633 25.5778 73.7925 25.779 73.8629 26.0237L74.5615 28.5089C74.5777 28.5687 74.6319 28.6068 74.6914 28.6068H79.3103C79.3699 28.6068 79.424 28.5687 79.4403 28.5143Z" fill="#BA943A"/>
<path d="M77.0015 49.5215C76.2272 49.5215 75.5016 49.217 74.9547 48.6731L60.8489 34.5015C59.8093 33.4574 59.7118 31.7988 60.6269 30.6405L65.6898 24.2345C66.5454 23.1523 67.8233 22.5324 69.1987 22.5324L84.7719 22.5215C86.1472 22.5215 87.4251 23.1414 88.2807 24.2182L93.3707 30.6405C94.2858 31.7988 94.1937 33.4574 93.1541 34.5015L79.0483 48.6677C78.5014 49.217 77.7758 49.516 77.0015 49.516V49.5215ZM84.7719 23.4731L69.1987 23.484C68.1157 23.484 67.1085 23.9734 66.4317 24.8272L61.3688 31.2333C60.7515 32.0109 60.8164 33.1257 61.515 33.8272L75.6207 47.9934C76.3571 48.733 77.635 48.733 78.3715 47.9934L92.4772 33.8272C93.1757 33.1257 93.2407 32.0055 92.6234 31.2278L87.5334 24.8055C86.8566 23.9517 85.8494 23.4677 84.7664 23.4677L84.7719 23.4731Z" fill="#BA943A"/>
</g>
</g>
<defs>
<clipPath id="clip0_2745_75825">
<rect width="34" height="27" fill="white" transform="translate(60 22.5)"/>
</clipPath>
<clipPath id="clip1_2745_75825">
<rect width="34" height="27" fill="white" transform="translate(60 22.5215)"/>
</clipPath>
</defs>
</svg>