<svg width="42" height="26" viewBox="0 0 42 26" fill="none" xmlns="http://www.w3.org/2000/svg">
<path d="M15.4508 19.1313C15.4508 19.1313 15.3808 19.1313 15.3508 19.1213L15.2308 19.1013C15.1008 19.0813 14.9808 19.0513 14.8608 19.0113C13.7008 18.6213 12.5908 17.9913 11.4708 17.0913C11.2308 16.9013 11.0008 16.6913 10.7808 16.4813C10.5308 16.2413 10.2708 16.0013 9.99078 15.8013C7.81078 14.2113 5.65079 12.9713 3.37079 12.0213C2.67079 11.7313 2.13078 11.3613 1.72078 10.9013C1.38078 10.5213 1.04079 10.0313 1.08079 9.34125C1.09079 9.14125 1.06079 8.94125 1.04079 8.75125C0.920786 7.76125 1.04079 6.88125 1.42079 6.04125C1.73079 5.35125 2.19078 4.70125 2.82078 4.03125C3.14078 3.69125 3.49079 3.33125 3.94079 3.07125C4.85079 2.54125 5.85078 2.24125 6.72078 2.01125C7.63078 1.76125 8.55078 1.59125 9.64078 1.40125C10.9308 1.18125 12.2408 1.01125 13.5008 0.851253L14.5708 0.711252C14.8508 0.671252 15.1308 0.651254 15.4208 0.621254C15.6208 0.601254 15.8108 0.591252 16.0108 0.561252C17.2608 0.421252 18.3608 0.371253 19.3708 0.421253C20.3108 0.461253 21.1508 0.601254 21.9408 0.861254C22.6408 1.09125 23.3508 1.30125 24.0508 1.51125L25.1708 1.85125C26.5208 2.26125 27.9508 2.79125 29.5508 3.45125L30.0508 3.66125C31.5208 4.27125 32.9808 4.87125 34.4308 5.52125C36.1808 6.30125 37.9208 7.08125 39.5508 8.03125C39.9908 8.29125 40.5008 8.58125 40.9108 9.04125C41.5308 9.72125 41.8308 10.5613 41.8608 11.7113C41.8808 12.3313 41.8208 12.9913 41.6708 13.7313C41.6208 14.0013 41.3508 14.1813 41.0808 14.1213C40.8108 14.0713 40.6308 13.8013 40.6908 13.5313C40.8208 12.8713 40.8808 12.2813 40.8608 11.7313C40.8308 10.8313 40.6208 10.2013 40.1708 9.71125C39.8608 9.37125 39.4408 9.13125 39.0408 8.89125C37.4608 7.97125 35.7508 7.20125 34.0908 6.46125C32.5808 5.78125 31.1208 5.18125 29.6608 4.58125L29.1608 4.37125C27.5908 3.72125 26.1808 3.21125 24.8608 2.80125L23.7508 2.46125C23.0408 2.25125 22.3308 2.03125 21.6208 1.80125C20.9208 1.57125 20.1608 1.45125 19.3208 1.41125C18.3508 1.37125 17.3308 1.41125 16.1108 1.55125C15.9108 1.57125 15.7008 1.59125 15.5008 1.61125C15.2308 1.63125 14.9608 1.66125 14.7008 1.69125L13.6308 1.83125C12.3708 1.99125 11.0708 2.16125 9.80078 2.38125C8.74078 2.56125 7.85078 2.73125 6.98078 2.96125C6.13078 3.19125 5.24079 3.46125 4.44079 3.92125C4.10079 4.12125 3.81079 4.41125 3.54079 4.70125C2.98079 5.30125 2.59078 5.85125 2.32078 6.45125C2.02078 7.11125 1.92079 7.82125 2.02079 8.61125C2.05079 8.85125 2.08078 9.12125 2.07078 9.39125C2.05078 9.65125 2.16078 9.88125 2.46078 10.2213C2.77078 10.5713 3.18079 10.8413 3.75079 11.0813C6.11079 12.0613 8.34079 13.3413 10.5808 14.9813C10.9008 15.2213 11.1808 15.4813 11.4608 15.7413C11.6708 15.9313 11.8708 16.1313 12.0908 16.3013C13.1208 17.1213 14.1308 17.7013 15.1808 18.0513C15.2508 18.0713 15.3308 18.0913 15.4008 18.1013L15.5508 18.1313C15.8208 18.1913 15.9908 18.4513 15.9408 18.7213C15.8908 18.9613 15.6808 19.1213 15.4508 19.1213V19.1313Z" fill="#888888"/>
<path d="M23.0712 25.6811C22.5412 25.6811 22.0312 25.6511 21.5312 25.6011C20.2612 25.4711 19.2612 25.2011 18.4112 24.7411C17.6312 24.3311 17.1212 23.8411 16.8212 23.2111C16.4012 22.3411 16.3312 21.4011 16.3112 20.6911C16.2912 20.0111 16.3212 19.3311 16.3512 18.6511L16.3812 17.9111C16.4112 16.9511 16.6412 16.0111 17.0712 15.0511C17.5412 14.0111 18.2112 13.1411 18.7912 12.4211C19.4012 11.6711 20.0212 11.1611 20.7312 10.8111C21.6612 10.3611 22.6712 9.97114 23.8112 9.63114C25.2412 9.20114 26.5212 8.86114 27.7112 8.61114C28.8712 8.36114 30.1312 8.16113 31.6912 7.98113C32.5912 7.87113 33.4012 7.82114 34.1812 7.81114C35.2612 7.80114 36.4212 7.81114 37.5612 8.02114C38.0812 8.11114 38.6912 8.24114 39.2812 8.50113C40.0412 8.83114 40.9612 9.35114 41.3612 10.4911L41.4112 10.6011C41.4912 10.7811 41.6312 11.0911 41.5112 11.4611C41.4212 11.7211 41.1412 11.8611 40.8812 11.7711C40.6212 11.6811 40.4812 11.4111 40.5612 11.1511C40.5612 11.1211 40.5212 11.0611 40.5012 11.0111C40.4712 10.9511 40.4412 10.8911 40.4212 10.8211C40.2012 10.2111 39.7412 9.79113 38.8812 9.41113C38.3812 9.19113 37.8512 9.08114 37.3912 9.00113C36.3912 8.82114 35.3912 8.80114 34.2012 8.81114C33.4612 8.81114 32.6812 8.87114 31.8212 8.97114C30.3012 9.15114 29.0612 9.35114 27.9412 9.59114C26.7712 9.84114 25.5212 10.1711 24.1212 10.5911C23.0312 10.9211 22.0712 11.2911 21.1912 11.7211C20.6212 12.0011 20.1112 12.4211 19.5912 13.0611C19.0512 13.7311 18.4312 14.5411 18.0012 15.4811C17.6212 16.3211 17.4212 17.1211 17.4012 17.9511L17.3712 18.7011C17.3412 19.3611 17.3212 20.0211 17.3312 20.6811C17.3412 21.3411 17.4012 22.1011 17.7412 22.7911C17.9512 23.2211 18.3212 23.5711 18.9012 23.8811C19.6512 24.2811 20.5012 24.5111 21.6612 24.6311C22.6412 24.7311 23.6912 24.7311 24.8412 24.6111C25.3912 24.5611 25.9512 24.4811 26.5012 24.4111L27.0112 24.3411C28.0212 24.2111 29.0412 24.0411 30.1212 23.8211C31.6812 23.5011 33.0112 23.1111 34.2012 22.6211C35.5712 22.0511 36.5812 21.4411 37.3612 20.7111C38.3312 19.8011 39.1812 18.9611 39.8312 17.9411C40.1112 17.5011 40.2312 17.1111 40.2112 16.6911C40.2012 16.3911 40.2412 16.1111 40.2912 15.8411L40.3112 15.7311C40.1812 15.4911 40.2412 15.2511 40.2712 15.1411C40.3412 14.8511 40.3812 14.5811 40.4112 14.3111L40.4512 14.0611C40.4612 13.9711 40.5312 13.8411 40.5912 13.7711C40.7612 13.5611 41.0712 13.5211 41.2812 13.6811C41.4812 13.8311 41.5512 14.1011 41.4312 14.3211L41.4112 14.4611C41.3712 14.7611 41.3312 15.0611 41.2612 15.3611C41.3612 15.5811 41.3312 15.8011 41.3112 15.9111L40.8012 15.9311L41.2912 16.0111C41.2512 16.2411 41.2212 16.4611 41.2212 16.6611C41.2512 17.2811 41.0712 17.8811 40.6812 18.4911C39.9612 19.6111 39.0312 20.5311 38.0512 21.4511C37.1812 22.2711 36.0812 22.9411 34.5912 23.5611C33.3412 24.0811 31.9412 24.4911 30.3212 24.8211C29.2112 25.0411 28.1712 25.2211 27.1412 25.3611L26.6312 25.4311C26.0712 25.5111 25.5012 25.5811 24.9412 25.6411C24.3012 25.7011 23.6812 25.7411 23.0912 25.7411L23.0712 25.6811Z" fill="#888888"/>
<path d="M19.3289 25.7228C19.3289 25.7228 19.2789 25.7228 19.2489 25.7228C18.3389 25.5828 17.5889 25.3328 16.9489 24.9728C15.6889 24.2628 14.3989 23.4528 12.7789 22.3328L12.5089 22.1428C10.7689 20.9528 9.03886 19.7628 7.30886 18.5528C6.90886 18.2728 6.50886 18.0028 6.10886 17.7328C5.30886 17.1928 4.46886 16.6228 3.67886 16.0128C2.97886 15.4728 2.34886 14.9628 1.83886 14.2928C1.53886 13.9028 1.22886 13.4228 1.22886 12.7728C1.22886 12.6028 1.19886 12.4228 1.16886 12.2528C1.04886 11.5428 1.02886 10.7728 1.09886 9.90279C1.11886 9.62279 1.36886 9.42278 1.63886 9.44278C1.91886 9.46278 2.11886 9.70278 2.09886 9.98278C2.03886 10.7728 2.05886 11.4528 2.15886 12.0828C2.19886 12.3028 2.22886 12.5328 2.22886 12.7628C2.22886 13.0928 2.38886 13.3728 2.62886 13.6828C3.06886 14.2528 3.63886 14.7128 4.28886 15.2228C5.04886 15.8128 5.86886 16.3728 6.65886 16.9028C7.06886 17.1728 7.46886 17.4528 7.86886 17.7328C9.58886 18.9428 11.3189 20.1228 13.0589 21.3128L13.3289 21.5028C14.9289 22.6028 16.1989 23.4028 17.4289 24.0928C17.9689 24.3928 18.6089 24.6028 19.3989 24.7328C19.6689 24.7728 19.8589 25.0328 19.8089 25.3028C19.7689 25.5528 19.5589 25.7228 19.3189 25.7228H19.3289Z" fill="#888888"/>
<path d="M28.3222 11.1915C28.1822 11.1915 28.0522 11.1315 27.9522 11.0315L27.2022 10.2115C27.0122 10.0115 27.0322 9.6915 27.2322 9.5015C27.4322 9.3115 27.7522 9.3315 27.9422 9.5315L28.4722 10.1115L28.8522 9.9915C29.3522 9.8415 29.8522 9.6915 30.3422 9.5215C30.6122 9.4315 30.8922 9.3415 31.1722 9.2615C31.5822 9.1315 31.9922 9.0115 32.3922 8.8515C32.6522 8.7515 32.9422 8.8715 33.0422 9.1315C33.1422 9.3915 33.0222 9.6815 32.7622 9.7815C32.3422 9.9515 31.9022 10.0915 31.4622 10.2215C31.1922 10.3015 30.9322 10.3815 30.6722 10.4715C30.1722 10.6415 29.6622 10.8015 29.1522 10.9515L28.4722 11.1615C28.4722 11.1615 28.3722 11.1815 28.3222 11.1815V11.1915Z" fill="#888888"/>
<path d="M32.6713 9.82959C32.4713 9.82959 32.2913 9.70959 32.2113 9.51959L32.1313 9.29959C32.0513 9.09959 31.9913 8.91959 31.8713 8.81959C31.6713 8.62959 31.6613 8.31959 31.8513 8.10959C32.0413 7.90959 32.3613 7.89959 32.5613 8.08959C32.8513 8.35959 32.9713 8.68959 33.0713 8.94959L33.1413 9.12959C33.2513 9.37959 33.1213 9.67959 32.8713 9.77959C32.8113 9.80959 32.7413 9.81959 32.6813 9.81959L32.6713 9.82959Z" fill="#888888"/>
</svg>
