<svg width="72" height="56" viewBox="0 0 72 56" fill="none" xmlns="http://www.w3.org/2000/svg">
<path d="M67.0903 53.8087H4.91031C3.20031 53.8087 1.82031 52.4288 1.82031 50.7188V16.1087C1.82031 13.5587 3.89031 11.4888 6.44031 11.4888H14.0103C14.5403 11.4888 15.0503 11.2788 15.4303 10.8988L22.9703 3.35875C24.0203 2.30875 25.4403 1.71875 26.9203 1.71875H45.0703C46.5503 1.71875 47.9803 2.30875 49.0203 3.35875L56.5603 10.8988C56.9403 11.2788 57.4403 11.4888 57.9803 11.4888H65.5503C68.1003 11.4888 70.1703 13.5587 70.1703 16.1087V50.7087C70.1703 52.4187 68.7903 53.7988 67.0803 53.7988L67.0903 53.8087Z" stroke="#888888" stroke-width="3" stroke-linecap="round" stroke-linejoin="round"/>
<path d="M35.6101 41.558C42.116 41.558 47.3901 36.284 47.3901 29.778C47.3901 23.2721 42.116 17.998 35.6101 17.998C29.1042 17.998 23.8301 23.2721 23.8301 29.778C23.8301 36.284 29.1042 41.558 35.6101 41.558Z" stroke="#888888" stroke-width="3" stroke-linecap="round" stroke-linejoin="round"/>
</svg>
