<svg width="5" height="9" viewBox="0 0 5 9" fill="none" xmlns="http://www.w3.org/2000/svg">
<path fill-rule="evenodd" clip-rule="evenodd" d="M0.342314 0.889189C0.507067 0.724437 0.774183 0.724437 0.938936 0.889189L4.59519 4.54544C4.75994 4.71019 4.75994 4.97731 4.59519 5.14206L0.938936 8.79831C0.774183 8.96306 0.507067 8.96306 0.342314 8.79831C0.177562 8.63356 0.177562 8.36644 0.342314 8.20169L3.70025 4.84375L0.342314 1.48581C0.177562 1.32106 0.177562 1.05394 0.342314 0.889189Z" fill="#888888"/>
</svg>
