<svg width="11" height="21" viewBox="0 0 11 21" fill="none" xmlns="http://www.w3.org/2000/svg">
<path fill-rule="evenodd" clip-rule="evenodd" d="M2.25595 13.7642C2.43579 13.5604 2.74682 13.5409 2.95065 13.7208L5.25001 15.7496L7.54936 13.7208C7.75319 13.5409 8.06422 13.5604 8.24407 13.7642C8.42391 13.968 8.40447 14.2791 8.20065 14.4589L5.57565 16.7751C5.38959 16.9393 5.11042 16.9393 4.92436 16.7751L2.29936 14.4589C2.09554 14.2791 2.0761 13.968 2.25595 13.7642Z" fill="black"/>
<path fill-rule="evenodd" clip-rule="evenodd" d="M5.25 6.07031C5.52183 6.07031 5.74219 6.29067 5.74219 6.5625V15.8272C5.74219 16.099 5.52183 16.3194 5.25 16.3194C4.97817 16.3194 4.75781 16.099 4.75781 15.8272V6.5625C4.75781 6.29067 4.97817 6.07031 5.25 6.07031Z" fill="black"/>
</svg>
