<svg width="8" height="9" viewBox="0 0 8 9" fill="none" xmlns="http://www.w3.org/2000/svg">
<path fill-rule="evenodd" clip-rule="evenodd" d="M4.57031 1.50781C4.37615 1.50781 4.21875 1.35041 4.21875 1.15625C4.21875 0.962087 4.37615 0.804688 4.57031 0.804688H7.03125C7.22541 0.804688 7.38281 0.962087 7.38281 1.15625V3.61719C7.38281 3.81135 7.22541 3.96875 7.03125 3.96875C6.83709 3.96875 6.67969 3.81135 6.67969 3.61719V2.005L3.17828 5.5064C3.04099 5.6437 2.81839 5.6437 2.6811 5.5064C2.5438 5.36911 2.5438 5.14651 2.6811 5.00922L6.1825 1.50781H4.57031Z" fill="#888888"/>
<path fill-rule="evenodd" clip-rule="evenodd" d="M0.117188 1.15625C0.117188 0.962087 0.274587 0.804688 0.46875 0.804688H2.51953C2.71369 0.804688 2.87109 0.962087 2.87109 1.15625C2.87109 1.35041 2.71369 1.50781 2.51953 1.50781H0.820312V7.36719H6.67969V5.66797C6.67969 5.47381 6.83709 5.31641 7.03125 5.31641C7.22541 5.31641 7.38281 5.47381 7.38281 5.66797V7.71875C7.38281 7.91291 7.22541 8.07031 7.03125 8.07031H0.46875C0.274587 8.07031 0.117188 7.91291 0.117188 7.71875V1.15625Z" fill="#888888"/>
</svg>
