<svg width="56" height="56" viewBox="0 0 56 56" fill="none" xmlns="http://www.w3.org/2000/svg">
<g clip-path="url(#clip0_467_40117)">
<path d="M28 55C42.9117 55 55 42.9117 55 28C55 13.0883 42.9117 1 28 1C13.0883 1 1 13.0883 1 28C1 42.9117 13.0883 55 28 55Z" stroke="#2F67B2" stroke-width="2" stroke-linecap="round" stroke-linejoin="round"/>
<path d="M28.0007 38.27C20.3207 38.27 13.3907 41.48 8.4707 46.63C13.3907 51.78 20.3107 54.99 28.0007 54.99C35.6907 54.99 42.6107 51.78 47.5307 46.63C42.6107 41.48 35.6907 38.27 28.0007 38.27Z" stroke="#2F67B2" stroke-width="2" stroke-linecap="round" stroke-linejoin="round"/>
<path d="M27.9998 32.1399C33.1968 32.1399 37.4098 27.9269 37.4098 22.7299C37.4098 17.5329 33.1968 13.3199 27.9998 13.3199C22.8028 13.3199 18.5898 17.5329 18.5898 22.7299C18.5898 27.9269 22.8028 32.1399 27.9998 32.1399Z" stroke="#2F67B2" stroke-width="2" stroke-linecap="round" stroke-linejoin="round"/>
</g>
<defs>
<clipPath id="clip0_467_40117">
<rect width="56" height="56" fill="white"/>
</clipPath>
</defs>
</svg>
