<svg width="14" height="12" viewBox="0 0 14 12" fill="none" xmlns="http://www.w3.org/2000/svg">
<path fill-rule="evenodd" clip-rule="evenodd" d="M0.6875 1.05463C0.6875 0.782799 0.90786 0.562439 1.17969 0.562439H3.50281C3.74296 0.562439 3.94805 0.735747 3.9881 0.97253L5.02779 7.11838H11.2841L12.2931 3.16119H6.32469C6.05286 3.16119 5.8325 2.94083 5.8325 2.669C5.8325 2.39717 6.05286 2.17681 6.32469 2.17681H12.9266C13.0785 2.17681 13.222 2.24701 13.3152 2.36701C13.4085 2.48701 13.441 2.64335 13.4035 2.79061L12.1435 7.73217C12.0879 7.95019 11.8916 8.10275 11.6666 8.10275H4.61188C4.37173 8.10275 4.16664 7.92944 4.12658 7.69266L3.08689 1.54681H1.17969C0.90786 1.54681 0.6875 1.32645 0.6875 1.05463Z" fill="#0066CC"/>
<path fill-rule="evenodd" clip-rule="evenodd" d="M10.8068 9.63843C10.5494 9.63843 10.3408 9.84704 10.3408 10.1044C10.3408 10.3617 10.5494 10.5703 10.8068 10.5703C11.0641 10.5703 11.2727 10.3617 11.2727 10.1044C11.2727 9.84703 11.0641 9.63843 10.8068 9.63843ZM9.35645 10.1044C9.35645 9.30338 10.0058 8.65405 10.8068 8.65405C11.6077 8.65405 12.2571 9.30338 12.2571 10.1044C12.2571 10.9054 11.6077 11.5547 10.8068 11.5547C10.0058 11.5547 9.35645 10.9054 9.35645 10.1044Z" fill="#0066CC"/>
<path fill-rule="evenodd" clip-rule="evenodd" d="M5.56335 9.63843C5.30602 9.63843 5.09741 9.84704 5.09741 10.1044C5.09741 10.3617 5.30602 10.5703 5.56335 10.5703C5.82068 10.5703 6.02929 10.3617 6.02929 10.1044C6.02929 9.84704 5.82068 9.63843 5.56335 9.63843ZM4.11304 10.1044C4.11304 9.30338 4.76236 8.65405 5.56335 8.65405C6.36433 8.65405 7.01366 9.30338 7.01366 10.1044C7.01366 10.9054 6.36433 11.5547 5.56335 11.5547C4.76236 11.5547 4.11304 10.9054 4.11304 10.1044Z" fill="#0066CC"/>
</svg>
