<svg width="49" height="49" viewBox="0 0 49 49" fill="none" xmlns="http://www.w3.org/2000/svg">
<g clip-path="url(#clip0_3147_140402)">
<path d="M24.35 47.71C37.25 47.71 47.7 37.25 47.7 24.36C47.7 11.47 37.25 1 24.35 1C11.45 1 1 11.46 1 24.35C1 37.24 11.46 47.7 24.35 47.7V47.71Z" stroke="white" stroke-width="2" stroke-linecap="round" stroke-linejoin="round"/>
<path d="M29.5204 11.9004H19.1904C18.3399 11.9004 17.6504 12.5899 17.6504 13.4404V34.7104C17.6504 35.5609 18.3399 36.2504 19.1904 36.2504H29.5204C30.3709 36.2504 31.0604 35.5609 31.0604 34.7104V13.4404C31.0604 12.5899 30.3709 11.9004 29.5204 11.9004Z" stroke="white" stroke-width="1.5" stroke-linecap="round" stroke-linejoin="round"/>
<path d="M31.0604 16.2109H17.6504V32.8309H31.0604V16.2109Z" stroke="white" stroke-linecap="round" stroke-linejoin="round"/>
<path d="M22.6309 14.2012H26.0809" stroke="white" stroke-width="0.8" stroke-linecap="round" stroke-linejoin="round"/>
</g>
<g clip-path="url(#clip1_3147_140402)">
<path d="M24.35 47.71C37.25 47.71 47.7 37.25 47.7 24.36C47.7 11.47 37.25 1 24.35 1C11.45 1 1 11.46 1 24.35C1 37.24 11.46 47.7 24.35 47.7V47.71Z" stroke="white" stroke-width="2" stroke-linecap="round" stroke-linejoin="round"/>
<path d="M29.5204 11.9004H19.1904C18.3399 11.9004 17.6504 12.5899 17.6504 13.4404V34.7104C17.6504 35.5609 18.3399 36.2504 19.1904 36.2504H29.5204C30.3709 36.2504 31.0604 35.5609 31.0604 34.7104V13.4404C31.0604 12.5899 30.3709 11.9004 29.5204 11.9004Z" stroke="white" stroke-width="1.5" stroke-linecap="round" stroke-linejoin="round"/>
<path d="M31.0604 16.2109H17.6504V32.8309H31.0604V16.2109Z" stroke="white" stroke-linecap="round" stroke-linejoin="round"/>
<path d="M22.6309 14.2012H26.0809" stroke="white" stroke-width="0.8" stroke-linecap="round" stroke-linejoin="round"/>
</g>
<defs>
<clipPath id="clip0_3147_140402">
<rect width="48.71" height="48.71" fill="white"/>
</clipPath>
<clipPath id="clip1_3147_140402">
<rect width="48.71" height="48.71" fill="white"/>
</clipPath>
</defs>
</svg>
